%!PS-Adobe-3.0 EPSF-3.0
%%Creator: (MATLAB, The Mathworks, Inc. Version 9.3.0.713579 \(R2017b\). Operating System: Linux)
%%Title: /home/micke/ExamensarbeteCybercom/Measurements/Take2/4342/Range43.eps
%%CreationDate: 2018-04-26T09:33:45
%%Pages: (atend)
%%BoundingBox: 0 0 1864 608
%%LanguageLevel: 3
%%EndComments
%%BeginProlog
%%BeginResource: procset (Apache XML Graphics Std ProcSet) 1.2 0
%%Version: 1.2 0
%%Copyright: (Copyright 2001-2003,2010 The Apache Software Foundation. License terms: http://www.apache.org/licenses/LICENSE-2.0)
/bd{bind def}bind def
/ld{load def}bd
/GR/grestore ld
/GS/gsave ld
/RM/rmoveto ld
/C/curveto ld
/t/show ld
/L/lineto ld
/ML/setmiterlimit ld
/CT/concat ld
/f/fill ld
/N/newpath ld
/S/stroke ld
/CC/setcmykcolor ld
/A/ashow ld
/cp/closepath ld
/RC/setrgbcolor ld
/LJ/setlinejoin ld
/GC/setgray ld
/LW/setlinewidth ld
/M/moveto ld
/re {4 2 roll M
1 index 0 rlineto
0 exch rlineto
neg 0 rlineto
cp } bd
/_ctm matrix def
/_tm matrix def
/BT { _ctm currentmatrix pop matrix _tm copy pop 0 0 moveto } bd
/ET { _ctm setmatrix } bd
/iTm { _ctm setmatrix _tm concat } bd
/Tm { _tm astore pop iTm 0 0 moveto } bd
/ux 0.0 def
/uy 0.0 def
/F {
  /Tp exch def
  /Tf exch def
  Tf findfont Tp scalefont setfont
  /cf Tf def  /cs Tp def
} bd
/ULS {currentpoint /uy exch def /ux exch def} bd
/ULE {
  /Tcx currentpoint pop def
  gsave
  newpath
  cf findfont cs scalefont dup
  /FontMatrix get 0 get /Ts exch def /FontInfo get dup
  /UnderlinePosition get Ts mul /To exch def
  /UnderlineThickness get Ts mul /Tt exch def
  ux uy To add moveto  Tcx uy To add lineto
  Tt setlinewidth stroke
  grestore
} bd
/OLE {
  /Tcx currentpoint pop def
  gsave
  newpath
  cf findfont cs scalefont dup
  /FontMatrix get 0 get /Ts exch def /FontInfo get dup
  /UnderlinePosition get Ts mul /To exch def
  /UnderlineThickness get Ts mul /Tt exch def
  ux uy To add cs add moveto Tcx uy To add cs add lineto
  Tt setlinewidth stroke
  grestore
} bd
/SOE {
  /Tcx currentpoint pop def
  gsave
  newpath
  cf findfont cs scalefont dup
  /FontMatrix get 0 get /Ts exch def /FontInfo get dup
  /UnderlinePosition get Ts mul /To exch def
  /UnderlineThickness get Ts mul /Tt exch def
  ux uy To add cs 10 mul 26 idiv add moveto Tcx uy To add cs 10 mul 26 idiv add lineto
  Tt setlinewidth stroke
  grestore
} bd
/QT {
/Y22 exch store
/X22 exch store
/Y21 exch store
/X21 exch store
currentpoint
/Y21 load 2 mul add 3 div exch
/X21 load 2 mul add 3 div exch
/X21 load 2 mul /X22 load add 3 div
/Y21 load 2 mul /Y22 load add 3 div
/X22 load /Y22 load curveto
} bd
/SSPD {
dup length /d exch dict def
{
/v exch def
/k exch def
currentpagedevice k known {
/cpdv currentpagedevice k get def
v cpdv ne {
/upd false def
/nullv v type /nulltype eq def
/nullcpdv cpdv type /nulltype eq def
nullv nullcpdv or
{
/upd true def
} {
/sametype v type cpdv type eq def
sametype {
v type /arraytype eq {
/vlen v length def
/cpdvlen cpdv length def
vlen cpdvlen eq {
0 1 vlen 1 sub {
/i exch def
/obj v i get def
/cpdobj cpdv i get def
obj cpdobj ne {
/upd true def
exit
} if
} for
} {
/upd true def
} ifelse
} {
v type /dicttype eq {
v {
/dv exch def
/dk exch def
/cpddv cpdv dk get def
dv cpddv ne {
/upd true def
exit
} if
} forall
} {
/upd true def
} ifelse
} ifelse
} if
} ifelse
upd true eq {
d k v put
} if
} if
} if
} forall
d length 0 gt {
d setpagedevice
} if
} bd
/RE { % /NewFontName [NewEncodingArray] /FontName RE -
  findfont dup length dict begin
  {
    1 index /FID ne
    {def} {pop pop} ifelse
  } forall
  /Encoding exch def
  /FontName 1 index def
  currentdict definefont pop
  end
} bind def
%%EndResource
%%BeginResource: procset (Apache XML Graphics EPS ProcSet) 1.0 0
%%Version: 1.0 0
%%Copyright: (Copyright 2002-2003 The Apache Software Foundation. License terms: http://www.apache.org/licenses/LICENSE-2.0)
/BeginEPSF { %def
/b4_Inc_state save def         % Save state for cleanup
/dict_count countdictstack def % Count objects on dict stack
/op_count count 1 sub def      % Count objects on operand stack
userdict begin                 % Push userdict on dict stack
/showpage { } def              % Redefine showpage, { } = null proc
0 setgray 0 setlinecap         % Prepare graphics state
1 setlinewidth 0 setlinejoin
10 setmiterlimit [ ] 0 setdash newpath
/languagelevel where           % If level not equal to 1 then
{pop languagelevel             % set strokeadjust and
1 ne                           % overprint to their defaults.
{false setstrokeadjust false setoverprint
} if
} if
} bd
/EndEPSF { %def
count op_count sub {pop} repeat            % Clean up stacks
countdictstack dict_count sub {end} repeat
b4_Inc_state restore
} bd
%%EndResource
%FOPBeginFontDict
%%IncludeResource: font Courier-Oblique
%%IncludeResource: font Courier-BoldOblique
%%IncludeResource: font Courier-Bold
%%IncludeResource: font ZapfDingbats
%%IncludeResource: font Symbol
%%IncludeResource: font Helvetica
%%IncludeResource: font Helvetica-Oblique
%%IncludeResource: font Helvetica-Bold
%%IncludeResource: font Helvetica-BoldOblique
%%IncludeResource: font Times-Roman
%%IncludeResource: font Times-Italic
%%IncludeResource: font Times-Bold
%%IncludeResource: font Times-BoldItalic
%%IncludeResource: font Courier
%FOPEndFontDict
%%BeginResource: encoding WinAnsiEncoding
/WinAnsiEncoding [
/.notdef /.notdef /.notdef /.notdef /.notdef
/.notdef /.notdef /.notdef /.notdef /.notdef
/.notdef /.notdef /.notdef /.notdef /.notdef
/.notdef /.notdef /.notdef /.notdef /.notdef
/.notdef /.notdef /.notdef /.notdef /.notdef
/.notdef /.notdef /.notdef /.notdef /.notdef
/.notdef /.notdef /space /exclam /quotedbl
/numbersign /dollar /percent /ampersand /quotesingle
/parenleft /parenright /asterisk /plus /comma
/hyphen /period /slash /zero /one
/two /three /four /five /six
/seven /eight /nine /colon /semicolon
/less /equal /greater /question /at
/A /B /C /D /E
/F /G /H /I /J
/K /L /M /N /O
/P /Q /R /S /T
/U /V /W /X /Y
/Z /bracketleft /backslash /bracketright /asciicircum
/underscore /quoteleft /a /b /c
/d /e /f /g /h
/i /j /k /l /m
/n /o /p /q /r
/s /t /u /v /w
/x /y /z /braceleft /bar
/braceright /asciitilde /bullet /Euro /bullet
/quotesinglbase /florin /quotedblbase /ellipsis /dagger
/daggerdbl /circumflex /perthousand /Scaron /guilsinglleft
/OE /bullet /Zcaron /bullet /bullet
/quoteleft /quoteright /quotedblleft /quotedblright /bullet
/endash /emdash /asciitilde /trademark /scaron
/guilsinglright /oe /bullet /zcaron /Ydieresis
/space /exclamdown /cent /sterling /currency
/yen /brokenbar /section /dieresis /copyright
/ordfeminine /guillemotleft /logicalnot /sfthyphen /registered
/macron /degree /plusminus /twosuperior /threesuperior
/acute /mu /paragraph /middot /cedilla
/onesuperior /ordmasculine /guillemotright /onequarter /onehalf
/threequarters /questiondown /Agrave /Aacute /Acircumflex
/Atilde /Adieresis /Aring /AE /Ccedilla
/Egrave /Eacute /Ecircumflex /Edieresis /Igrave
/Iacute /Icircumflex /Idieresis /Eth /Ntilde
/Ograve /Oacute /Ocircumflex /Otilde /Odieresis
/multiply /Oslash /Ugrave /Uacute /Ucircumflex
/Udieresis /Yacute /Thorn /germandbls /agrave
/aacute /acircumflex /atilde /adieresis /aring
/ae /ccedilla /egrave /eacute /ecircumflex
/edieresis /igrave /iacute /icircumflex /idieresis
/eth /ntilde /ograve /oacute /ocircumflex
/otilde /odieresis /divide /oslash /ugrave
/uacute /ucircumflex /udieresis /yacute /thorn
/ydieresis
] def
%%EndResource
%FOPBeginFontReencode
/Courier-Oblique findfont
dup length dict begin
  {1 index /FID ne {def} {pop pop} ifelse} forall
  /Encoding WinAnsiEncoding def
  currentdict
end
/Courier-Oblique exch definefont pop
/Courier-BoldOblique findfont
dup length dict begin
  {1 index /FID ne {def} {pop pop} ifelse} forall
  /Encoding WinAnsiEncoding def
  currentdict
end
/Courier-BoldOblique exch definefont pop
/Courier-Bold findfont
dup length dict begin
  {1 index /FID ne {def} {pop pop} ifelse} forall
  /Encoding WinAnsiEncoding def
  currentdict
end
/Courier-Bold exch definefont pop
/Helvetica findfont
dup length dict begin
  {1 index /FID ne {def} {pop pop} ifelse} forall
  /Encoding WinAnsiEncoding def
  currentdict
end
/Helvetica exch definefont pop
/Helvetica-Oblique findfont
dup length dict begin
  {1 index /FID ne {def} {pop pop} ifelse} forall
  /Encoding WinAnsiEncoding def
  currentdict
end
/Helvetica-Oblique exch definefont pop
/Helvetica-Bold findfont
dup length dict begin
  {1 index /FID ne {def} {pop pop} ifelse} forall
  /Encoding WinAnsiEncoding def
  currentdict
end
/Helvetica-Bold exch definefont pop
/Helvetica-BoldOblique findfont
dup length dict begin
  {1 index /FID ne {def} {pop pop} ifelse} forall
  /Encoding WinAnsiEncoding def
  currentdict
end
/Helvetica-BoldOblique exch definefont pop
/Times-Roman findfont
dup length dict begin
  {1 index /FID ne {def} {pop pop} ifelse} forall
  /Encoding WinAnsiEncoding def
  currentdict
end
/Times-Roman exch definefont pop
/Times-Italic findfont
dup length dict begin
  {1 index /FID ne {def} {pop pop} ifelse} forall
  /Encoding WinAnsiEncoding def
  currentdict
end
/Times-Italic exch definefont pop
/Times-Bold findfont
dup length dict begin
  {1 index /FID ne {def} {pop pop} ifelse} forall
  /Encoding WinAnsiEncoding def
  currentdict
end
/Times-Bold exch definefont pop
/Times-BoldItalic findfont
dup length dict begin
  {1 index /FID ne {def} {pop pop} ifelse} forall
  /Encoding WinAnsiEncoding def
  currentdict
end
/Times-BoldItalic exch definefont pop
/Courier findfont
dup length dict begin
  {1 index /FID ne {def} {pop pop} ifelse} forall
  /Encoding WinAnsiEncoding def
  currentdict
end
/Courier exch definefont pop
%FOPEndFontReencode
%%EndProlog
%%Page: 1 1
%%PageBoundingBox: 0 0 1864 608
%%BeginPageSetup
[1 0 0 -1 0 608] CT
%%EndPageSetup
GS
[0.75 0 0 0.75 0 -0.25] CT
1 GC
N
0 0 2485 811 re
f
GR
GS
[0.75 0 0 0.75 0 -0.25] CT
1 GC
N
0 0 2485 811 re
f
GR
GS
[0.75 0 0 0.75 0 -0.25] CT
1 GC
N
323 699 M
2249 699 L
2249 63 L
323 63 L
cp
f
GR
GS
[0.75 0 0 0.75 0 -0.25] CT
0.149 GC
2 setlinecap
1 LJ
0.667 LW
N
323 699 M
2249 699 L
S
GR
GS
[0.75 0 0 0.75 0 -0.25] CT
0.149 GC
2 setlinecap
1 LJ
0.667 LW
N
323 63.002 M
2249 63.002 L
S
GR
GS
[0.75 0 0 0.75 0 -0.25] CT
0.149 GC
2 setlinecap
1 LJ
0.667 LW
N
323 699 M
323 679.736 L
S
GR
GS
[0.75 0 0 0.75 0 -0.25] CT
0.149 GC
2 setlinecap
1 LJ
0.667 LW
N
644 699 M
644 679.736 L
S
GR
GS
[0.75 0 0 0.75 0 -0.25] CT
0.149 GC
2 setlinecap
1 LJ
0.667 LW
N
965 699 M
965 679.736 L
S
GR
GS
[0.75 0 0 0.75 0 -0.25] CT
0.149 GC
2 setlinecap
1 LJ
0.667 LW
N
1286 699 M
1286 679.736 L
S
GR
GS
[0.75 0 0 0.75 0 -0.25] CT
0.149 GC
2 setlinecap
1 LJ
0.667 LW
N
1607 699 M
1607 679.736 L
S
GR
GS
[0.75 0 0 0.75 0 -0.25] CT
0.149 GC
2 setlinecap
1 LJ
0.667 LW
N
1928 699 M
1928 679.736 L
S
GR
GS
[0.75 0 0 0.75 0 -0.25] CT
0.149 GC
2 setlinecap
1 LJ
0.667 LW
N
2249 699 M
2249 679.736 L
S
GR
GS
[0.75 0 0 0.75 0 -0.25] CT
0.149 GC
2 setlinecap
1 LJ
0.667 LW
N
323 63.002 M
323 82.265 L
S
GR
GS
[0.75 0 0 0.75 0 -0.25] CT
0.149 GC
2 setlinecap
1 LJ
0.667 LW
N
644 63.002 M
644 82.265 L
S
GR
GS
[0.75 0 0 0.75 0 -0.25] CT
0.149 GC
2 setlinecap
1 LJ
0.667 LW
N
965 63.002 M
965 82.265 L
S
GR
GS
[0.75 0 0 0.75 0 -0.25] CT
0.149 GC
2 setlinecap
1 LJ
0.667 LW
N
1286 63.002 M
1286 82.265 L
S
GR
GS
[0.75 0 0 0.75 0 -0.25] CT
0.149 GC
2 setlinecap
1 LJ
0.667 LW
N
1607 63.002 M
1607 82.265 L
S
GR
GS
[0.75 0 0 0.75 0 -0.25] CT
0.149 GC
2 setlinecap
1 LJ
0.667 LW
N
1928 63.002 M
1928 82.265 L
S
GR
GS
[0.75 0 0 0.75 0 -0.25] CT
0.149 GC
2 setlinecap
1 LJ
0.667 LW
N
2249 63.002 M
2249 82.265 L
S
GR
GS
[0.75 0 0 0.75 242.25 532.0002] CT
0.149 GC
/Helvetica 40 F
GS
[1 0 0 1 0 0] CT
-13 38 moveto 
1 -1 scale
(0) t 
GR
GR
GS
[0.75 0 0 0.75 483 532.0002] CT
0.149 GC
/Helvetica 40 F
GS
[1 0 0 1 0 0] CT
-25.5 38 moveto 
1 -1 scale
(20) t 
GR
GR
GS
[0.75 0 0 0.75 723.75 532.0002] CT
0.149 GC
/Helvetica 40 F
GS
[1 0 0 1 0 0] CT
-25.5 38 moveto 
1 -1 scale
(40) t 
GR
GR
GS
[0.75 0 0 0.75 964.5 532.0002] CT
0.149 GC
/Helvetica 40 F
GS
[1 0 0 1 0 0] CT
-25.5 38 moveto 
1 -1 scale
(60) t 
GR
GR
GS
[0.75 0 0 0.75 1205.25 532.0002] CT
0.149 GC
/Helvetica 40 F
GS
[1 0 0 1 0 0] CT
-25.5 38 moveto 
1 -1 scale
(80) t 
GR
GR
GS
[0.75 0 0 0.75 1446 532.0002] CT
0.149 GC
/Helvetica 40 F
GS
[1 0 0 1 0 0] CT
-38.5 38 moveto 
1 -1 scale
(100) t 
GR
GR
GS
[0.75 0 0 0.75 1686.75 532.0002] CT
0.149 GC
/Helvetica 40 F
GS
[1 0 0 1 0 0] CT
-38.5 38 moveto 
1 -1 scale
(120) t 
GR
GR
GS
[0.75 0 0 0.75 964.50073 568.99895] CT
0.149 GC
/Helvetica 44 F
GS
[1 0 0 1 0 0] CT
-90.5 41 moveto 
1 -1 scale
(Time [s]) t 
GR
GR
GS
[0.75 0 0 0.75 0 -0.25] CT
0.149 GC
2 setlinecap
1 LJ
0.667 LW
N
323 699 M
323 63.002 L
S
GR
GS
[0.75 0 0 0.75 0 -0.25] CT
0.149 GC
2 setlinecap
1 LJ
0.667 LW
N
2249 699 M
2249 63.002 L
S
GR
GS
[0.75 0 0 0.75 0 -0.25] CT
0.149 GC
2 setlinecap
1 LJ
0.667 LW
N
323 699 M
342.26 699 L
S
GR
GS
[0.75 0 0 0.75 0 -0.25] CT
0.149 GC
2 setlinecap
1 LJ
0.667 LW
N
323 593.002 M
342.26 593.002 L
S
GR
GS
[0.75 0 0 0.75 0 -0.25] CT
0.149 GC
2 setlinecap
1 LJ
0.667 LW
N
323 487.003 M
342.26 487.003 L
S
GR
GS
[0.75 0 0 0.75 0 -0.25] CT
0.149 GC
2 setlinecap
1 LJ
0.667 LW
N
323 380.997 M
342.26 380.997 L
S
GR
GS
[0.75 0 0 0.75 0 -0.25] CT
0.149 GC
2 setlinecap
1 LJ
0.667 LW
N
323 274.998 M
342.26 274.998 L
S
GR
GS
[0.75 0 0 0.75 0 -0.25] CT
0.149 GC
2 setlinecap
1 LJ
0.667 LW
N
323 169 M
342.26 169 L
S
GR
GS
[0.75 0 0 0.75 0 -0.25] CT
0.149 GC
2 setlinecap
1 LJ
0.667 LW
N
323 63.002 M
342.26 63.002 L
S
GR
GS
[0.75 0 0 0.75 0 -0.25] CT
0.149 GC
2 setlinecap
1 LJ
0.667 LW
N
2249 699 M
2229.74 699 L
S
GR
GS
[0.75 0 0 0.75 0 -0.25] CT
0.149 GC
2 setlinecap
1 LJ
0.667 LW
N
2249 593.002 M
2229.74 593.002 L
S
GR
GS
[0.75 0 0 0.75 0 -0.25] CT
0.149 GC
2 setlinecap
1 LJ
0.667 LW
N
2249 487.003 M
2229.74 487.003 L
S
GR
GS
[0.75 0 0 0.75 0 -0.25] CT
0.149 GC
2 setlinecap
1 LJ
0.667 LW
N
2249 380.997 M
2229.74 380.997 L
S
GR
GS
[0.75 0 0 0.75 0 -0.25] CT
0.149 GC
2 setlinecap
1 LJ
0.667 LW
N
2249 274.998 M
2229.74 274.998 L
S
GR
GS
[0.75 0 0 0.75 0 -0.25] CT
0.149 GC
2 setlinecap
1 LJ
0.667 LW
N
2249 169 M
2229.74 169 L
S
GR
GS
[0.75 0 0 0.75 0 -0.25] CT
0.149 GC
2 setlinecap
1 LJ
0.667 LW
N
2249 63.002 M
2229.74 63.002 L
S
GR
GS
[0.75 0 0 0.75 234.25001 524] CT
0.149 GC
/Helvetica 40 F
GS
[1 0 0 1 0 0] CT
-115 14 moveto 
1 -1 scale
(43.25) t 
GR
GR
GS
[0.75 0 0 0.75 234.25001 444.50119] CT
0.149 GC
/Helvetica 40 F
GS
[1 0 0 1 0 0] CT
-90 14 moveto 
1 -1 scale
(43.3) t 
GR
GR
GS
[0.75 0 0 0.75 234.25001 365.00243] CT
0.149 GC
/Helvetica 40 F
GS
[1 0 0 1 0 0] CT
-115 14 moveto 
1 -1 scale
(43.35) t 
GR
GR
GS
[0.75 0 0 0.75 234.25001 285.49757] CT
0.149 GC
/Helvetica 40 F
GS
[1 0 0 1 0 0] CT
-90 14 moveto 
1 -1 scale
(43.4) t 
GR
GR
GS
[0.75 0 0 0.75 234.25001 205.99879] CT
0.149 GC
/Helvetica 40 F
GS
[1 0 0 1 0 0] CT
-115 14 moveto 
1 -1 scale
(43.45) t 
GR
GR
GS
[0.75 0 0 0.75 234.25001 126.5] CT
0.149 GC
/Helvetica 40 F
GS
[1 0 0 1 0 0] CT
-90 14 moveto 
1 -1 scale
(43.5) t 
GR
GR
GS
[0.75 0 0 0.75 234.25001 47.00121] CT
0.149 GC
/Helvetica 40 F
GS
[1 0 0 1 0 0] CT
-115 14 moveto 
1 -1 scale
(43.55) t 
GR
GR
GS
[0 -0.75 0.75 0 145.00001 285.49757] CT
0.149 GC
/Helvetica 44 F
GS
[1 0 0 1 0 0] CT
-116 -11 moveto 
1 -1 scale
(Range [m]) t 
GR
GR
GS
[0.75 0 0 0.75 964.50092 40.81454] CT
/Helvetica-Bold 44 F
GS
[1 0 0 1 0 0] CT
-473.5 -11 moveto 
1 -1 scale
(Unfiltered readings from UWB module) t 
GR
GR
GS
[0.75 0 0 0.75 0 -0.25] CT
0 0 1 RC
1 LJ
0.667 LW
N
323 347.637 M
329.42 258.12 L
335.84 287.962 L
342.26 228.279 L
348.68 357.584 L
355.1 297.909 L
361.52 476.943 L
367.94 367.532 L
374.36 278.015 L
380.78 476.943 L
387.2 297.909 L
393.62 397.373 L
400.04 417.268 L
406.46 457.048 L
412.88 397.373 L
419.3 357.584 L
425.72 417.268 L
432.14 427.215 L
438.56 407.32 L
444.98 238.226 L
451.4 317.804 L
457.82 377.479 L
464.24 457.048 L
470.66 357.584 L
477.08 357.584 L
483.5 218.332 L
489.92 327.751 L
496.34 317.804 L
502.76 437.162 L
509.18 437.162 L
515.6 417.268 L
522.02 258.12 L
528.44 248.173 L
534.86 347.637 L
541.28 317.804 L
547.7 516.732 L
554.12 427.215 L
560.54 506.784 L
566.96 506.784 L
573.38 417.268 L
579.8 218.332 L
586.22 486.89 L
592.64 278.015 L
599.06 397.373 L
605.48 526.679 L
611.9 526.679 L
618.32 278.015 L
624.74 327.751 L
631.16 427.215 L
637.58 367.532 L
644 198.445 L
650.42 447.109 L
656.84 506.784 L
663.26 457.048 L
669.68 347.637 L
676.1 228.279 L
682.52 367.532 L
688.94 496.837 L
695.36 357.584 L
701.78 297.909 L
708.2 536.626 L
714.62 357.584 L
721.04 218.332 L
727.46 287.962 L
733.88 367.532 L
740.3 486.89 L
746.72 228.279 L
753.14 367.532 L
759.56 387.426 L
765.98 327.751 L
772.4 327.751 L
778.82 218.332 L
785.24 427.215 L
791.66 427.215 L
798.08 457.048 L
804.5 387.426 L
810.92 287.962 L
817.34 417.268 L
823.76 466.996 L
830.18 387.426 L
836.6 317.804 L
843.02 337.69 L
849.44 397.373 L
855.86 407.32 L
862.28 317.804 L
868.7 466.996 L
875.12 586.354 L
881.54 297.909 L
887.96 317.804 L
894.38 347.637 L
900.8 347.637 L
907.22 327.751 L
913.64 327.751 L
920.06 357.584 L
926.48 297.909 L
932.9 377.479 L
939.32 377.479 L
945.74 228.279 L
952.16 437.162 L
958.58 526.679 L
965 407.32 L
971.42 417.268 L
977.84 307.857 L
984.26 337.69 L
990.68 457.048 L
997.1 327.751 L
1003.52 168.604 L
1009.94 327.751 L
1016.36 327.751 L
1022.78 278.015 L
1029.2 397.373 L
1035.62 457.048 L
1042.04 347.637 L
1048.46 417.268 L
1054.88 287.962 L
1061.3 258.12 L
1067.72 546.573 L
1074.14 357.584 L
1080.56 317.804 L
1086.98 297.909 L
1093.4 317.804 L
1099.82 397.373 L
1106.24 397.373 L
1112.66 437.162 L
1119.08 287.962 L
1125.5 258.12 L
1131.92 327.751 L
1138.34 476.943 L
1144.76 377.479 L
1151.18 476.943 L
1157.6 437.162 L
1164.02 417.268 L
1170.44 397.373 L
1176.86 268.068 L
1183.28 466.996 L
1189.7 516.732 L
1196.12 307.857 L
1202.54 268.068 L
1208.96 287.962 L
1215.38 516.732 L
1221.8 347.637 L
1228.22 287.962 L
1234.64 387.426 L
1241.06 437.162 L
1247.48 327.751 L
1253.9 297.909 L
1260.32 536.626 L
1266.74 327.751 L
1273.16 347.637 L
1279.58 466.996 L
1286 427.215 L
1292.42 466.996 L
1298.84 297.909 L
1305.26 437.162 L
1311.68 367.532 L
1318.1 208.393 L
1324.52 218.332 L
1330.94 208.393 L
1337.36 417.268 L
1343.78 287.962 L
1350.2 427.215 L
1356.62 287.962 L
1363.04 317.804 L
1369.46 208.393 L
1375.88 427.215 L
1382.3 258.12 L
1388.72 427.215 L
1395.14 347.637 L
1401.56 347.637 L
1407.98 506.784 L
1414.4 367.532 L
1420.82 317.804 L
1427.24 367.532 L
1433.66 258.12 L
1440.08 397.373 L
1446.5 168.604 L
1452.92 168.604 L
1459.34 287.962 L
1465.76 258.12 L
1472.18 457.048 L
1478.6 297.909 L
1485.02 278.015 L
1491.44 377.479 L
1497.86 228.279 L
1504.28 417.268 L
1510.7 357.584 L
1517.12 397.373 L
1523.54 427.215 L
1529.96 367.532 L
1536.38 278.015 L
1542.8 357.584 L
1549.22 476.943 L
1555.64 367.532 L
1562.06 377.479 L
1568.48 447.109 L
1574.9 417.268 L
1581.32 307.857 L
1587.74 307.857 L
1594.16 188.498 L
1600.58 278.015 L
1607 397.373 L
1613.42 248.173 L
1619.84 268.068 L
1626.26 268.068 L
1632.68 268.068 L
1639.1 307.857 L
1645.52 228.279 L
1651.94 307.857 L
1658.36 596.301 L
1664.78 317.804 L
1671.2 278.015 L
1677.62 337.69 L
1684.04 417.268 L
1690.46 437.162 L
1696.88 427.215 L
1703.3 407.32 L
1709.72 367.532 L
1716.14 327.751 L
1722.56 248.173 L
1728.98 377.479 L
1735.4 427.215 L
1741.82 447.109 L
1748.24 427.215 L
1754.66 596.301 L
1761.08 516.732 L
1767.5 347.637 L
1773.92 327.751 L
1780.34 258.12 L
1786.76 327.751 L
1793.18 307.857 L
1799.6 387.426 L
1806.02 466.996 L
1812.44 447.109 L
1818.86 616.196 L
1825.28 476.943 L
1831.7 506.784 L
1838.12 297.909 L
1844.54 297.909 L
1850.96 466.996 L
1857.38 407.32 L
1863.8 287.962 L
1870.22 417.268 L
1876.64 506.784 L
1883.06 218.332 L
1889.48 98.973 L
1895.9 198.445 L
1902.32 486.89 L
1908.74 278.015 L
1915.16 476.943 L
1921.58 387.426 L
1928 377.479 L
1934.42 457.048 L
1940.84 188.498 L
1947.26 228.279 L
1953.68 198.445 L
1960.1 417.268 L
1966.52 198.445 L
1972.94 307.857 L
1979.36 536.626 L
1985.78 437.162 L
1992.2 486.89 L
1998.62 516.732 L
2005.04 158.657 L
2011.46 447.109 L
2017.88 397.373 L
2024.3 596.301 L
2030.72 466.996 L
2037.14 337.69 L
2043.56 327.751 L
2049.98 287.962 L
2056.4 357.584 L
2062.82 655.984 L
2069.24 397.373 L
2075.66 516.732 L
2082.08 387.426 L
2088.5 347.637 L
2094.92 307.857 L
2101.34 407.32 L
2107.76 457.048 L
2114.18 397.373 L
2120.6 228.279 L
2127.02 476.943 L
2133.44 407.32 L
2139.86 646.037 L
2146.28 457.048 L
2152.7 327.751 L
2159.12 377.479 L
2165.54 447.109 L
2171.96 198.445 L
2178.38 476.943 L
2184.8 307.857 L
2191.22 327.751 L
2197.64 357.584 L
2204.06 387.426 L
2210.48 258.12 L
2216.9 407.32 L
2223.32 616.196 L
2229.74 397.373 L
2236.16 218.332 L
2242.58 397.373 L
S
GR
%%Trailer
%%Pages: 1
%%EOF
