%!PS-Adobe-3.0 EPSF-3.0
%%Creator: (MATLAB, The Mathworks, Inc. Version 9.3.0.713579 \(R2017b\). Operating System: Linux)
%%Title: /home/micke/ExamensarbeteCybercom/Measurements/Take2/347/2/Range34.eps
%%CreationDate: 2018-04-26T09:36:25
%%Pages: (atend)
%%BoundingBox: 0 0 1864 608
%%LanguageLevel: 3
%%EndComments
%%BeginProlog
%%BeginResource: procset (Apache XML Graphics Std ProcSet) 1.2 0
%%Version: 1.2 0
%%Copyright: (Copyright 2001-2003,2010 The Apache Software Foundation. License terms: http://www.apache.org/licenses/LICENSE-2.0)
/bd{bind def}bind def
/ld{load def}bd
/GR/grestore ld
/GS/gsave ld
/RM/rmoveto ld
/C/curveto ld
/t/show ld
/L/lineto ld
/ML/setmiterlimit ld
/CT/concat ld
/f/fill ld
/N/newpath ld
/S/stroke ld
/CC/setcmykcolor ld
/A/ashow ld
/cp/closepath ld
/RC/setrgbcolor ld
/LJ/setlinejoin ld
/GC/setgray ld
/LW/setlinewidth ld
/M/moveto ld
/re {4 2 roll M
1 index 0 rlineto
0 exch rlineto
neg 0 rlineto
cp } bd
/_ctm matrix def
/_tm matrix def
/BT { _ctm currentmatrix pop matrix _tm copy pop 0 0 moveto } bd
/ET { _ctm setmatrix } bd
/iTm { _ctm setmatrix _tm concat } bd
/Tm { _tm astore pop iTm 0 0 moveto } bd
/ux 0.0 def
/uy 0.0 def
/F {
  /Tp exch def
  /Tf exch def
  Tf findfont Tp scalefont setfont
  /cf Tf def  /cs Tp def
} bd
/ULS {currentpoint /uy exch def /ux exch def} bd
/ULE {
  /Tcx currentpoint pop def
  gsave
  newpath
  cf findfont cs scalefont dup
  /FontMatrix get 0 get /Ts exch def /FontInfo get dup
  /UnderlinePosition get Ts mul /To exch def
  /UnderlineThickness get Ts mul /Tt exch def
  ux uy To add moveto  Tcx uy To add lineto
  Tt setlinewidth stroke
  grestore
} bd
/OLE {
  /Tcx currentpoint pop def
  gsave
  newpath
  cf findfont cs scalefont dup
  /FontMatrix get 0 get /Ts exch def /FontInfo get dup
  /UnderlinePosition get Ts mul /To exch def
  /UnderlineThickness get Ts mul /Tt exch def
  ux uy To add cs add moveto Tcx uy To add cs add lineto
  Tt setlinewidth stroke
  grestore
} bd
/SOE {
  /Tcx currentpoint pop def
  gsave
  newpath
  cf findfont cs scalefont dup
  /FontMatrix get 0 get /Ts exch def /FontInfo get dup
  /UnderlinePosition get Ts mul /To exch def
  /UnderlineThickness get Ts mul /Tt exch def
  ux uy To add cs 10 mul 26 idiv add moveto Tcx uy To add cs 10 mul 26 idiv add lineto
  Tt setlinewidth stroke
  grestore
} bd
/QT {
/Y22 exch store
/X22 exch store
/Y21 exch store
/X21 exch store
currentpoint
/Y21 load 2 mul add 3 div exch
/X21 load 2 mul add 3 div exch
/X21 load 2 mul /X22 load add 3 div
/Y21 load 2 mul /Y22 load add 3 div
/X22 load /Y22 load curveto
} bd
/SSPD {
dup length /d exch dict def
{
/v exch def
/k exch def
currentpagedevice k known {
/cpdv currentpagedevice k get def
v cpdv ne {
/upd false def
/nullv v type /nulltype eq def
/nullcpdv cpdv type /nulltype eq def
nullv nullcpdv or
{
/upd true def
} {
/sametype v type cpdv type eq def
sametype {
v type /arraytype eq {
/vlen v length def
/cpdvlen cpdv length def
vlen cpdvlen eq {
0 1 vlen 1 sub {
/i exch def
/obj v i get def
/cpdobj cpdv i get def
obj cpdobj ne {
/upd true def
exit
} if
} for
} {
/upd true def
} ifelse
} {
v type /dicttype eq {
v {
/dv exch def
/dk exch def
/cpddv cpdv dk get def
dv cpddv ne {
/upd true def
exit
} if
} forall
} {
/upd true def
} ifelse
} ifelse
} if
} ifelse
upd true eq {
d k v put
} if
} if
} if
} forall
d length 0 gt {
d setpagedevice
} if
} bd
/RE { % /NewFontName [NewEncodingArray] /FontName RE -
  findfont dup length dict begin
  {
    1 index /FID ne
    {def} {pop pop} ifelse
  } forall
  /Encoding exch def
  /FontName 1 index def
  currentdict definefont pop
  end
} bind def
%%EndResource
%%BeginResource: procset (Apache XML Graphics EPS ProcSet) 1.0 0
%%Version: 1.0 0
%%Copyright: (Copyright 2002-2003 The Apache Software Foundation. License terms: http://www.apache.org/licenses/LICENSE-2.0)
/BeginEPSF { %def
/b4_Inc_state save def         % Save state for cleanup
/dict_count countdictstack def % Count objects on dict stack
/op_count count 1 sub def      % Count objects on operand stack
userdict begin                 % Push userdict on dict stack
/showpage { } def              % Redefine showpage, { } = null proc
0 setgray 0 setlinecap         % Prepare graphics state
1 setlinewidth 0 setlinejoin
10 setmiterlimit [ ] 0 setdash newpath
/languagelevel where           % If level not equal to 1 then
{pop languagelevel             % set strokeadjust and
1 ne                           % overprint to their defaults.
{false setstrokeadjust false setoverprint
} if
} if
} bd
/EndEPSF { %def
count op_count sub {pop} repeat            % Clean up stacks
countdictstack dict_count sub {end} repeat
b4_Inc_state restore
} bd
%%EndResource
%FOPBeginFontDict
%%IncludeResource: font Courier-Oblique
%%IncludeResource: font Courier-BoldOblique
%%IncludeResource: font Courier-Bold
%%IncludeResource: font ZapfDingbats
%%IncludeResource: font Symbol
%%IncludeResource: font Helvetica
%%IncludeResource: font Helvetica-Oblique
%%IncludeResource: font Helvetica-Bold
%%IncludeResource: font Helvetica-BoldOblique
%%IncludeResource: font Times-Roman
%%IncludeResource: font Times-Italic
%%IncludeResource: font Times-Bold
%%IncludeResource: font Times-BoldItalic
%%IncludeResource: font Courier
%FOPEndFontDict
%%BeginResource: encoding WinAnsiEncoding
/WinAnsiEncoding [
/.notdef /.notdef /.notdef /.notdef /.notdef
/.notdef /.notdef /.notdef /.notdef /.notdef
/.notdef /.notdef /.notdef /.notdef /.notdef
/.notdef /.notdef /.notdef /.notdef /.notdef
/.notdef /.notdef /.notdef /.notdef /.notdef
/.notdef /.notdef /.notdef /.notdef /.notdef
/.notdef /.notdef /space /exclam /quotedbl
/numbersign /dollar /percent /ampersand /quotesingle
/parenleft /parenright /asterisk /plus /comma
/hyphen /period /slash /zero /one
/two /three /four /five /six
/seven /eight /nine /colon /semicolon
/less /equal /greater /question /at
/A /B /C /D /E
/F /G /H /I /J
/K /L /M /N /O
/P /Q /R /S /T
/U /V /W /X /Y
/Z /bracketleft /backslash /bracketright /asciicircum
/underscore /quoteleft /a /b /c
/d /e /f /g /h
/i /j /k /l /m
/n /o /p /q /r
/s /t /u /v /w
/x /y /z /braceleft /bar
/braceright /asciitilde /bullet /Euro /bullet
/quotesinglbase /florin /quotedblbase /ellipsis /dagger
/daggerdbl /circumflex /perthousand /Scaron /guilsinglleft
/OE /bullet /Zcaron /bullet /bullet
/quoteleft /quoteright /quotedblleft /quotedblright /bullet
/endash /emdash /asciitilde /trademark /scaron
/guilsinglright /oe /bullet /zcaron /Ydieresis
/space /exclamdown /cent /sterling /currency
/yen /brokenbar /section /dieresis /copyright
/ordfeminine /guillemotleft /logicalnot /sfthyphen /registered
/macron /degree /plusminus /twosuperior /threesuperior
/acute /mu /paragraph /middot /cedilla
/onesuperior /ordmasculine /guillemotright /onequarter /onehalf
/threequarters /questiondown /Agrave /Aacute /Acircumflex
/Atilde /Adieresis /Aring /AE /Ccedilla
/Egrave /Eacute /Ecircumflex /Edieresis /Igrave
/Iacute /Icircumflex /Idieresis /Eth /Ntilde
/Ograve /Oacute /Ocircumflex /Otilde /Odieresis
/multiply /Oslash /Ugrave /Uacute /Ucircumflex
/Udieresis /Yacute /Thorn /germandbls /agrave
/aacute /acircumflex /atilde /adieresis /aring
/ae /ccedilla /egrave /eacute /ecircumflex
/edieresis /igrave /iacute /icircumflex /idieresis
/eth /ntilde /ograve /oacute /ocircumflex
/otilde /odieresis /divide /oslash /ugrave
/uacute /ucircumflex /udieresis /yacute /thorn
/ydieresis
] def
%%EndResource
%FOPBeginFontReencode
/Courier-Oblique findfont
dup length dict begin
  {1 index /FID ne {def} {pop pop} ifelse} forall
  /Encoding WinAnsiEncoding def
  currentdict
end
/Courier-Oblique exch definefont pop
/Courier-BoldOblique findfont
dup length dict begin
  {1 index /FID ne {def} {pop pop} ifelse} forall
  /Encoding WinAnsiEncoding def
  currentdict
end
/Courier-BoldOblique exch definefont pop
/Courier-Bold findfont
dup length dict begin
  {1 index /FID ne {def} {pop pop} ifelse} forall
  /Encoding WinAnsiEncoding def
  currentdict
end
/Courier-Bold exch definefont pop
/Helvetica findfont
dup length dict begin
  {1 index /FID ne {def} {pop pop} ifelse} forall
  /Encoding WinAnsiEncoding def
  currentdict
end
/Helvetica exch definefont pop
/Helvetica-Oblique findfont
dup length dict begin
  {1 index /FID ne {def} {pop pop} ifelse} forall
  /Encoding WinAnsiEncoding def
  currentdict
end
/Helvetica-Oblique exch definefont pop
/Helvetica-Bold findfont
dup length dict begin
  {1 index /FID ne {def} {pop pop} ifelse} forall
  /Encoding WinAnsiEncoding def
  currentdict
end
/Helvetica-Bold exch definefont pop
/Helvetica-BoldOblique findfont
dup length dict begin
  {1 index /FID ne {def} {pop pop} ifelse} forall
  /Encoding WinAnsiEncoding def
  currentdict
end
/Helvetica-BoldOblique exch definefont pop
/Times-Roman findfont
dup length dict begin
  {1 index /FID ne {def} {pop pop} ifelse} forall
  /Encoding WinAnsiEncoding def
  currentdict
end
/Times-Roman exch definefont pop
/Times-Italic findfont
dup length dict begin
  {1 index /FID ne {def} {pop pop} ifelse} forall
  /Encoding WinAnsiEncoding def
  currentdict
end
/Times-Italic exch definefont pop
/Times-Bold findfont
dup length dict begin
  {1 index /FID ne {def} {pop pop} ifelse} forall
  /Encoding WinAnsiEncoding def
  currentdict
end
/Times-Bold exch definefont pop
/Times-BoldItalic findfont
dup length dict begin
  {1 index /FID ne {def} {pop pop} ifelse} forall
  /Encoding WinAnsiEncoding def
  currentdict
end
/Times-BoldItalic exch definefont pop
/Courier findfont
dup length dict begin
  {1 index /FID ne {def} {pop pop} ifelse} forall
  /Encoding WinAnsiEncoding def
  currentdict
end
/Courier exch definefont pop
%FOPEndFontReencode
%%EndProlog
%%Page: 1 1
%%PageBoundingBox: 0 0 1864 608
%%BeginPageSetup
[1 0 0 -1 0 608] CT
%%EndPageSetup
GS
[0.75 0 0 0.75 0 -0.25] CT
1 GC
N
0 0 2485 811 re
f
GR
GS
[0.75 0 0 0.75 0 -0.25] CT
1 GC
N
0 0 2485 811 re
f
GR
GS
[0.75 0 0 0.75 0 -0.25] CT
1 GC
N
323 699 M
2249 699 L
2249 63 L
323 63 L
cp
f
GR
GS
[0.75 0 0 0.75 0 -0.25] CT
0.149 GC
2 setlinecap
1 LJ
0.667 LW
N
323 699.001 M
2249 699.001 L
S
GR
GS
[0.75 0 0 0.75 0 -0.25] CT
0.149 GC
2 setlinecap
1 LJ
0.667 LW
N
323 63.001 M
2249 63.001 L
S
GR
GS
[0.75 0 0 0.75 0 -0.25] CT
0.149 GC
2 setlinecap
1 LJ
0.667 LW
N
323 699.001 M
323 679.742 L
S
GR
GS
[0.75 0 0 0.75 0 -0.25] CT
0.149 GC
2 setlinecap
1 LJ
0.667 LW
N
644 699.001 M
644 679.742 L
S
GR
GS
[0.75 0 0 0.75 0 -0.25] CT
0.149 GC
2 setlinecap
1 LJ
0.667 LW
N
965 699.001 M
965 679.742 L
S
GR
GS
[0.75 0 0 0.75 0 -0.25] CT
0.149 GC
2 setlinecap
1 LJ
0.667 LW
N
1286 699.001 M
1286 679.742 L
S
GR
GS
[0.75 0 0 0.75 0 -0.25] CT
0.149 GC
2 setlinecap
1 LJ
0.667 LW
N
1607 699.001 M
1607 679.742 L
S
GR
GS
[0.75 0 0 0.75 0 -0.25] CT
0.149 GC
2 setlinecap
1 LJ
0.667 LW
N
1928 699.001 M
1928 679.742 L
S
GR
GS
[0.75 0 0 0.75 0 -0.25] CT
0.149 GC
2 setlinecap
1 LJ
0.667 LW
N
2249 699.001 M
2249 679.742 L
S
GR
GS
[0.75 0 0 0.75 0 -0.25] CT
0.149 GC
2 setlinecap
1 LJ
0.667 LW
N
323 63.001 M
323 82.26 L
S
GR
GS
[0.75 0 0 0.75 0 -0.25] CT
0.149 GC
2 setlinecap
1 LJ
0.667 LW
N
644 63.001 M
644 82.26 L
S
GR
GS
[0.75 0 0 0.75 0 -0.25] CT
0.149 GC
2 setlinecap
1 LJ
0.667 LW
N
965 63.001 M
965 82.26 L
S
GR
GS
[0.75 0 0 0.75 0 -0.25] CT
0.149 GC
2 setlinecap
1 LJ
0.667 LW
N
1286 63.001 M
1286 82.26 L
S
GR
GS
[0.75 0 0 0.75 0 -0.25] CT
0.149 GC
2 setlinecap
1 LJ
0.667 LW
N
1607 63.001 M
1607 82.26 L
S
GR
GS
[0.75 0 0 0.75 0 -0.25] CT
0.149 GC
2 setlinecap
1 LJ
0.667 LW
N
1928 63.001 M
1928 82.26 L
S
GR
GS
[0.75 0 0 0.75 0 -0.25] CT
0.149 GC
2 setlinecap
1 LJ
0.667 LW
N
2249 63.001 M
2249 82.26 L
S
GR
GS
[0.75 0 0 0.75 242.25 531.99974] CT
0.149 GC
/Helvetica 40 F
GS
[1 0 0 1 0 0] CT
-13 38 moveto 
1 -1 scale
(0) t 
GR
GR
GS
[0.75 0 0 0.75 483 531.99974] CT
0.149 GC
/Helvetica 40 F
GS
[1 0 0 1 0 0] CT
-25.5 38 moveto 
1 -1 scale
(20) t 
GR
GR
GS
[0.75 0 0 0.75 723.75 531.99974] CT
0.149 GC
/Helvetica 40 F
GS
[1 0 0 1 0 0] CT
-25.5 38 moveto 
1 -1 scale
(40) t 
GR
GR
GS
[0.75 0 0 0.75 964.5 531.99974] CT
0.149 GC
/Helvetica 40 F
GS
[1 0 0 1 0 0] CT
-25.5 38 moveto 
1 -1 scale
(60) t 
GR
GR
GS
[0.75 0 0 0.75 1205.25 531.99974] CT
0.149 GC
/Helvetica 40 F
GS
[1 0 0 1 0 0] CT
-25.5 38 moveto 
1 -1 scale
(80) t 
GR
GR
GS
[0.75 0 0 0.75 1446 531.99974] CT
0.149 GC
/Helvetica 40 F
GS
[1 0 0 1 0 0] CT
-38.5 38 moveto 
1 -1 scale
(100) t 
GR
GR
GS
[0.75 0 0 0.75 1686.75 531.99974] CT
0.149 GC
/Helvetica 40 F
GS
[1 0 0 1 0 0] CT
-38.5 38 moveto 
1 -1 scale
(120) t 
GR
GR
GS
[0.75 0 0 0.75 964.50073 568.99968] CT
0.149 GC
/Helvetica 44 F
GS
[1 0 0 1 0 0] CT
-90.5 41 moveto 
1 -1 scale
(Time [s]) t 
GR
GR
GS
[0.75 0 0 0.75 0 -0.25] CT
0.149 GC
2 setlinecap
1 LJ
0.667 LW
N
323 699.001 M
323 63.001 L
S
GR
GS
[0.75 0 0 0.75 0 -0.25] CT
0.149 GC
2 setlinecap
1 LJ
0.667 LW
N
2249 699.001 M
2249 63.001 L
S
GR
GS
[0.75 0 0 0.75 0 -0.25] CT
0.149 GC
2 setlinecap
1 LJ
0.667 LW
N
323 699.001 M
342.26 699.001 L
S
GR
GS
[0.75 0 0 0.75 0 -0.25] CT
0.149 GC
2 setlinecap
1 LJ
0.667 LW
N
323 571.798 M
342.26 571.798 L
S
GR
GS
[0.75 0 0 0.75 0 -0.25] CT
0.149 GC
2 setlinecap
1 LJ
0.667 LW
N
323 444.6 M
342.26 444.6 L
S
GR
GS
[0.75 0 0 0.75 0 -0.25] CT
0.149 GC
2 setlinecap
1 LJ
0.667 LW
N
323 317.402 M
342.26 317.402 L
S
GR
GS
[0.75 0 0 0.75 0 -0.25] CT
0.149 GC
2 setlinecap
1 LJ
0.667 LW
N
323 190.199 M
342.26 190.199 L
S
GR
GS
[0.75 0 0 0.75 0 -0.25] CT
0.149 GC
2 setlinecap
1 LJ
0.667 LW
N
323 63.001 M
342.26 63.001 L
S
GR
GS
[0.75 0 0 0.75 0 -0.25] CT
0.149 GC
2 setlinecap
1 LJ
0.667 LW
N
2249 699.001 M
2229.74 699.001 L
S
GR
GS
[0.75 0 0 0.75 0 -0.25] CT
0.149 GC
2 setlinecap
1 LJ
0.667 LW
N
2249 571.798 M
2229.74 571.798 L
S
GR
GS
[0.75 0 0 0.75 0 -0.25] CT
0.149 GC
2 setlinecap
1 LJ
0.667 LW
N
2249 444.6 M
2229.74 444.6 L
S
GR
GS
[0.75 0 0 0.75 0 -0.25] CT
0.149 GC
2 setlinecap
1 LJ
0.667 LW
N
2249 317.402 M
2229.74 317.402 L
S
GR
GS
[0.75 0 0 0.75 0 -0.25] CT
0.149 GC
2 setlinecap
1 LJ
0.667 LW
N
2249 190.199 M
2229.74 190.199 L
S
GR
GS
[0.75 0 0 0.75 0 -0.25] CT
0.149 GC
2 setlinecap
1 LJ
0.667 LW
N
2249 63.001 M
2229.74 63.001 L
S
GR
GS
[0.75 0 0 0.75 234.25001 524.00073] CT
0.149 GC
/Helvetica 40 F
GS
[1 0 0 1 0 0] CT
-90 14 moveto 
1 -1 scale
(25.9) t 
GR
GR
GS
[0.75 0 0 0.75 234.25001 428.59853] CT
0.149 GC
/Helvetica 40 F
GS
[1 0 0 1 0 0] CT
-115 14 moveto 
1 -1 scale
(25.95) t 
GR
GR
GS
[0.75 0 0 0.75 234.25001 333.2] CT
0.149 GC
/Helvetica 40 F
GS
[1 0 0 1 0 0] CT
-51 14 moveto 
1 -1 scale
(26) t 
GR
GR
GS
[0.75 0 0 0.75 234.25001 237.80146] CT
0.149 GC
/Helvetica 40 F
GS
[1 0 0 1 0 0] CT
-115 14 moveto 
1 -1 scale
(26.05) t 
GR
GR
GS
[0.75 0 0 0.75 234.25001 142.39928] CT
0.149 GC
/Helvetica 40 F
GS
[1 0 0 1 0 0] CT
-90 14 moveto 
1 -1 scale
(26.1) t 
GR
GR
GS
[0.75 0 0 0.75 234.25001 47.00073] CT
0.149 GC
/Helvetica 40 F
GS
[1 0 0 1 0 0] CT
-115 14 moveto 
1 -1 scale
(26.15) t 
GR
GR
GS
[0 -0.75 0.75 0 145.00001 285.50073] CT
0.149 GC
/Helvetica 44 F
GS
[1 0 0 1 0 0] CT
-116 -11 moveto 
1 -1 scale
(Range [m]) t 
GR
GR
GS
[0.75 0 0 0.75 964.50092 40.81405] CT
/Helvetica-Bold 44 F
GS
[1 0 0 1 0 0] CT
-473.5 -11 moveto 
1 -1 scale
(Unfiltered readings from UWB module) t 
GR
GR
GS
[0.75 0 0 0.75 0 -0.25] CT
0 0 1 RC
1 LJ
0.667 LW
N
323 153.671 M
329.42 428.199 L
335.84 237.223 L
342.26 165.608 L
348.68 380.453 L
355.1 261.096 L
361.52 380.453 L
367.94 440.131 L
374.36 344.648 L
380.78 452.068 L
387.2 344.648 L
393.62 416.263 L
400.04 332.711 L
406.46 380.453 L
412.88 464.004 L
419.3 440.131 L
425.72 392.389 L
432.14 428.199 L
438.56 368.516 L
444.98 213.349 L
451.4 320.774 L
457.82 332.711 L
464.24 237.223 L
470.66 177.544 L
477.08 237.223 L
483.5 404.326 L
489.92 320.774 L
496.34 356.584 L
502.76 356.584 L
509.18 356.584 L
515.6 213.349 L
522.02 547.556 L
528.44 261.096 L
534.86 368.516 L
541.28 284.969 L
547.7 428.199 L
554.12 487.878 L
560.54 475.941 L
566.96 392.389 L
573.38 356.584 L
579.8 416.263 L
586.22 416.263 L
592.64 308.838 L
599.06 344.648 L
605.48 141.734 L
611.9 296.901 L
618.32 141.734 L
624.74 201.418 L
631.16 177.544 L
637.58 416.263 L
644 320.774 L
650.42 404.326 L
656.84 296.901 L
663.26 368.516 L
669.68 320.774 L
676.1 583.361 L
682.52 201.418 L
688.94 308.838 L
695.36 284.969 L
701.78 392.389 L
708.2 392.389 L
714.62 249.159 L
721.04 452.068 L
727.46 70.119 L
733.88 249.159 L
740.3 428.199 L
746.72 320.774 L
753.14 356.584 L
759.56 416.263 L
765.98 320.774 L
772.4 356.584 L
778.82 261.096 L
785.24 308.838 L
791.66 380.453 L
798.08 225.286 L
804.5 237.223 L
810.92 273.033 L
817.34 416.263 L
823.76 201.418 L
830.18 356.584 L
836.6 368.516 L
843.02 308.838 L
849.44 320.774 L
855.86 249.159 L
862.28 499.814 L
868.7 105.929 L
875.12 380.453 L
881.54 416.263 L
887.96 332.711 L
894.38 273.033 L
900.8 368.516 L
907.22 213.349 L
913.64 153.671 L
920.06 332.711 L
926.48 368.516 L
932.9 368.516 L
939.32 284.969 L
945.74 284.969 L
952.16 344.648 L
958.58 380.453 L
965 296.901 L
971.42 368.516 L
977.84 452.068 L
984.26 308.838 L
990.68 332.711 L
997.1 416.263 L
1003.52 332.711 L
1009.94 296.901 L
1016.36 332.711 L
1022.78 237.223 L
1029.2 368.516 L
1035.62 237.223 L
1042.04 237.223 L
1048.46 141.734 L
1054.88 332.711 L
1061.3 261.096 L
1067.72 332.711 L
1074.14 201.418 L
1080.56 511.746 L
1086.98 141.734 L
1093.4 428.199 L
1099.82 416.263 L
1106.24 308.838 L
1112.66 344.648 L
1119.08 237.223 L
1125.5 177.544 L
1131.92 177.544 L
1138.34 380.453 L
1144.76 523.683 L
1151.18 273.033 L
1157.6 261.096 L
1164.02 296.901 L
1170.44 273.033 L
1176.86 368.516 L
1183.28 404.326 L
1189.7 464.004 L
1196.12 559.493 L
1202.54 320.774 L
1208.96 213.349 L
1215.38 296.901 L
1221.8 356.584 L
1228.22 583.361 L
1234.64 416.263 L
1241.06 404.326 L
1247.48 440.131 L
1253.9 487.878 L
1260.32 416.263 L
1266.74 487.878 L
1273.16 153.671 L
1279.58 404.326 L
1286 368.516 L
1292.42 487.878 L
1298.84 416.263 L
1305.26 380.453 L
1311.68 464.004 L
1318.1 523.683 L
1324.52 499.814 L
1330.94 547.556 L
1337.36 475.941 L
1343.78 416.263 L
1350.2 296.901 L
1356.62 356.584 L
1363.04 452.068 L
1369.46 177.544 L
1375.88 487.878 L
1382.3 440.131 L
1388.72 440.131 L
1395.14 356.584 L
1401.56 261.096 L
1407.98 475.941 L
1414.4 237.223 L
1420.82 237.223 L
1427.24 499.814 L
1433.66 678.849 L
1440.08 356.584 L
1446.5 273.033 L
1452.92 308.838 L
1459.34 464.004 L
1465.76 261.096 L
1472.18 261.096 L
1478.6 165.608 L
1485.02 499.814 L
1491.44 153.671 L
1497.86 249.159 L
1504.28 380.453 L
1510.7 475.941 L
1517.12 225.286 L
1523.54 284.969 L
1529.96 284.969 L
1536.38 631.108 L
1542.8 392.389 L
1549.22 356.584 L
1555.64 428.199 L
1562.06 428.199 L
1568.48 452.068 L
1574.9 201.418 L
1581.32 392.389 L
1587.74 428.199 L
1594.16 213.349 L
1600.58 404.326 L
1607 308.838 L
1613.42 368.516 L
1619.84 344.648 L
1626.26 416.263 L
1632.68 344.648 L
1639.1 368.516 L
1645.52 284.969 L
1651.94 201.418 L
1658.36 344.648 L
1664.78 225.286 L
1671.2 261.096 L
1677.62 344.648 L
1684.04 296.901 L
1690.46 296.901 L
1696.88 273.033 L
1703.3 392.389 L
1709.72 392.389 L
1716.14 392.389 L
1722.56 392.389 L
1728.98 404.326 L
1735.4 583.361 L
1741.82 380.453 L
1748.24 213.349 L
1754.66 464.004 L
1761.08 368.516 L
1767.5 392.389 L
1773.92 559.493 L
1780.34 380.453 L
1786.76 475.941 L
1793.18 344.648 L
1799.6 404.326 L
1806.02 475.941 L
1812.44 416.263 L
1818.86 308.838 L
1825.28 464.004 L
1831.7 440.131 L
1838.12 368.516 L
1844.54 428.199 L
1850.96 404.326 L
1857.38 487.878 L
1863.8 499.814 L
1870.22 416.263 L
1876.64 499.814 L
1883.06 428.199 L
1889.48 475.941 L
1895.9 440.131 L
1902.32 320.774 L
1908.74 487.878 L
1915.16 344.648 L
1921.58 380.453 L
1928 404.326 L
1934.42 416.263 L
1940.84 249.159 L
1947.26 464.004 L
1953.68 93.993 L
1960.1 440.131 L
1966.52 344.648 L
1972.94 249.159 L
1979.36 273.033 L
1985.78 273.033 L
1992.2 177.544 L
1998.62 380.453 L
2005.04 356.584 L
2011.46 416.263 L
2017.88 213.349 L
2024.3 392.389 L
2030.72 523.683 L
2037.14 344.648 L
2043.56 464.004 L
2049.98 404.326 L
2056.4 571.429 L
2062.82 201.418 L
2069.24 368.516 L
2075.66 320.774 L
2082.08 249.159 L
2088.5 428.199 L
2094.92 416.263 L
2101.34 356.584 L
2107.76 416.263 L
2114.18 332.711 L
2120.6 535.619 L
2127.02 344.648 L
2133.44 320.774 L
2139.86 452.068 L
2146.28 261.096 L
2152.7 416.263 L
2159.12 416.263 L
2165.54 511.746 L
2171.96 332.711 L
2178.38 261.096 L
2184.8 440.131 L
2191.22 356.584 L
2197.64 511.746 L
2204.06 344.648 L
2210.48 464.004 L
2216.9 440.131 L
2223.32 475.941 L
2229.74 392.389 L
2236.16 404.326 L
2242.58 511.746 L
S
GR
%%Trailer
%%Pages: 1
%%EOF
