%!PS-Adobe-3.0 EPSF-3.0
%%Creator: (MATLAB, The Mathworks, Inc. Version 9.3.0.713579 \(R2017b\). Operating System: Linux)
%%Title: /home/micke/ExamensarbeteCybercom/calibration/14me/pics/range14.eps
%%CreationDate: 2018-04-12T12:38:37
%%Pages: (atend)
%%BoundingBox: 0 0 420 315
%%LanguageLevel: 3
%%EndComments
%%BeginProlog
%%BeginResource: procset (Apache XML Graphics Std ProcSet) 1.2 0
%%Version: 1.2 0
%%Copyright: (Copyright 2001-2003,2010 The Apache Software Foundation. License terms: http://www.apache.org/licenses/LICENSE-2.0)
/bd{bind def}bind def
/ld{load def}bd
/GR/grestore ld
/GS/gsave ld
/RM/rmoveto ld
/C/curveto ld
/t/show ld
/L/lineto ld
/ML/setmiterlimit ld
/CT/concat ld
/f/fill ld
/N/newpath ld
/S/stroke ld
/CC/setcmykcolor ld
/A/ashow ld
/cp/closepath ld
/RC/setrgbcolor ld
/LJ/setlinejoin ld
/GC/setgray ld
/LW/setlinewidth ld
/M/moveto ld
/re {4 2 roll M
1 index 0 rlineto
0 exch rlineto
neg 0 rlineto
cp } bd
/_ctm matrix def
/_tm matrix def
/BT { _ctm currentmatrix pop matrix _tm copy pop 0 0 moveto } bd
/ET { _ctm setmatrix } bd
/iTm { _ctm setmatrix _tm concat } bd
/Tm { _tm astore pop iTm 0 0 moveto } bd
/ux 0.0 def
/uy 0.0 def
/F {
  /Tp exch def
  /Tf exch def
  Tf findfont Tp scalefont setfont
  /cf Tf def  /cs Tp def
} bd
/ULS {currentpoint /uy exch def /ux exch def} bd
/ULE {
  /Tcx currentpoint pop def
  gsave
  newpath
  cf findfont cs scalefont dup
  /FontMatrix get 0 get /Ts exch def /FontInfo get dup
  /UnderlinePosition get Ts mul /To exch def
  /UnderlineThickness get Ts mul /Tt exch def
  ux uy To add moveto  Tcx uy To add lineto
  Tt setlinewidth stroke
  grestore
} bd
/OLE {
  /Tcx currentpoint pop def
  gsave
  newpath
  cf findfont cs scalefont dup
  /FontMatrix get 0 get /Ts exch def /FontInfo get dup
  /UnderlinePosition get Ts mul /To exch def
  /UnderlineThickness get Ts mul /Tt exch def
  ux uy To add cs add moveto Tcx uy To add cs add lineto
  Tt setlinewidth stroke
  grestore
} bd
/SOE {
  /Tcx currentpoint pop def
  gsave
  newpath
  cf findfont cs scalefont dup
  /FontMatrix get 0 get /Ts exch def /FontInfo get dup
  /UnderlinePosition get Ts mul /To exch def
  /UnderlineThickness get Ts mul /Tt exch def
  ux uy To add cs 10 mul 26 idiv add moveto Tcx uy To add cs 10 mul 26 idiv add lineto
  Tt setlinewidth stroke
  grestore
} bd
/QT {
/Y22 exch store
/X22 exch store
/Y21 exch store
/X21 exch store
currentpoint
/Y21 load 2 mul add 3 div exch
/X21 load 2 mul add 3 div exch
/X21 load 2 mul /X22 load add 3 div
/Y21 load 2 mul /Y22 load add 3 div
/X22 load /Y22 load curveto
} bd
/SSPD {
dup length /d exch dict def
{
/v exch def
/k exch def
currentpagedevice k known {
/cpdv currentpagedevice k get def
v cpdv ne {
/upd false def
/nullv v type /nulltype eq def
/nullcpdv cpdv type /nulltype eq def
nullv nullcpdv or
{
/upd true def
} {
/sametype v type cpdv type eq def
sametype {
v type /arraytype eq {
/vlen v length def
/cpdvlen cpdv length def
vlen cpdvlen eq {
0 1 vlen 1 sub {
/i exch def
/obj v i get def
/cpdobj cpdv i get def
obj cpdobj ne {
/upd true def
exit
} if
} for
} {
/upd true def
} ifelse
} {
v type /dicttype eq {
v {
/dv exch def
/dk exch def
/cpddv cpdv dk get def
dv cpddv ne {
/upd true def
exit
} if
} forall
} {
/upd true def
} ifelse
} ifelse
} if
} ifelse
upd true eq {
d k v put
} if
} if
} if
} forall
d length 0 gt {
d setpagedevice
} if
} bd
/RE { % /NewFontName [NewEncodingArray] /FontName RE -
  findfont dup length dict begin
  {
    1 index /FID ne
    {def} {pop pop} ifelse
  } forall
  /Encoding exch def
  /FontName 1 index def
  currentdict definefont pop
  end
} bind def
%%EndResource
%%BeginResource: procset (Apache XML Graphics EPS ProcSet) 1.0 0
%%Version: 1.0 0
%%Copyright: (Copyright 2002-2003 The Apache Software Foundation. License terms: http://www.apache.org/licenses/LICENSE-2.0)
/BeginEPSF { %def
/b4_Inc_state save def         % Save state for cleanup
/dict_count countdictstack def % Count objects on dict stack
/op_count count 1 sub def      % Count objects on operand stack
userdict begin                 % Push userdict on dict stack
/showpage { } def              % Redefine showpage, { } = null proc
0 setgray 0 setlinecap         % Prepare graphics state
1 setlinewidth 0 setlinejoin
10 setmiterlimit [ ] 0 setdash newpath
/languagelevel where           % If level not equal to 1 then
{pop languagelevel             % set strokeadjust and
1 ne                           % overprint to their defaults.
{false setstrokeadjust false setoverprint
} if
} if
} bd
/EndEPSF { %def
count op_count sub {pop} repeat            % Clean up stacks
countdictstack dict_count sub {end} repeat
b4_Inc_state restore
} bd
%%EndResource
%FOPBeginFontDict
%%IncludeResource: font Courier-Oblique
%%IncludeResource: font Courier-BoldOblique
%%IncludeResource: font Courier-Bold
%%IncludeResource: font ZapfDingbats
%%IncludeResource: font Symbol
%%IncludeResource: font Helvetica
%%IncludeResource: font Helvetica-Oblique
%%IncludeResource: font Helvetica-Bold
%%IncludeResource: font Helvetica-BoldOblique
%%IncludeResource: font Times-Roman
%%IncludeResource: font Times-Italic
%%IncludeResource: font Times-Bold
%%IncludeResource: font Times-BoldItalic
%%IncludeResource: font Courier
%FOPEndFontDict
%%BeginResource: encoding WinAnsiEncoding
/WinAnsiEncoding [
/.notdef /.notdef /.notdef /.notdef /.notdef
/.notdef /.notdef /.notdef /.notdef /.notdef
/.notdef /.notdef /.notdef /.notdef /.notdef
/.notdef /.notdef /.notdef /.notdef /.notdef
/.notdef /.notdef /.notdef /.notdef /.notdef
/.notdef /.notdef /.notdef /.notdef /.notdef
/.notdef /.notdef /space /exclam /quotedbl
/numbersign /dollar /percent /ampersand /quotesingle
/parenleft /parenright /asterisk /plus /comma
/hyphen /period /slash /zero /one
/two /three /four /five /six
/seven /eight /nine /colon /semicolon
/less /equal /greater /question /at
/A /B /C /D /E
/F /G /H /I /J
/K /L /M /N /O
/P /Q /R /S /T
/U /V /W /X /Y
/Z /bracketleft /backslash /bracketright /asciicircum
/underscore /quoteleft /a /b /c
/d /e /f /g /h
/i /j /k /l /m
/n /o /p /q /r
/s /t /u /v /w
/x /y /z /braceleft /bar
/braceright /asciitilde /bullet /Euro /bullet
/quotesinglbase /florin /quotedblbase /ellipsis /dagger
/daggerdbl /circumflex /perthousand /Scaron /guilsinglleft
/OE /bullet /Zcaron /bullet /bullet
/quoteleft /quoteright /quotedblleft /quotedblright /bullet
/endash /emdash /asciitilde /trademark /scaron
/guilsinglright /oe /bullet /zcaron /Ydieresis
/space /exclamdown /cent /sterling /currency
/yen /brokenbar /section /dieresis /copyright
/ordfeminine /guillemotleft /logicalnot /sfthyphen /registered
/macron /degree /plusminus /twosuperior /threesuperior
/acute /mu /paragraph /middot /cedilla
/onesuperior /ordmasculine /guillemotright /onequarter /onehalf
/threequarters /questiondown /Agrave /Aacute /Acircumflex
/Atilde /Adieresis /Aring /AE /Ccedilla
/Egrave /Eacute /Ecircumflex /Edieresis /Igrave
/Iacute /Icircumflex /Idieresis /Eth /Ntilde
/Ograve /Oacute /Ocircumflex /Otilde /Odieresis
/multiply /Oslash /Ugrave /Uacute /Ucircumflex
/Udieresis /Yacute /Thorn /germandbls /agrave
/aacute /acircumflex /atilde /adieresis /aring
/ae /ccedilla /egrave /eacute /ecircumflex
/edieresis /igrave /iacute /icircumflex /idieresis
/eth /ntilde /ograve /oacute /ocircumflex
/otilde /odieresis /divide /oslash /ugrave
/uacute /ucircumflex /udieresis /yacute /thorn
/ydieresis
] def
%%EndResource
%FOPBeginFontReencode
/Courier-Oblique findfont
dup length dict begin
  {1 index /FID ne {def} {pop pop} ifelse} forall
  /Encoding WinAnsiEncoding def
  currentdict
end
/Courier-Oblique exch definefont pop
/Courier-BoldOblique findfont
dup length dict begin
  {1 index /FID ne {def} {pop pop} ifelse} forall
  /Encoding WinAnsiEncoding def
  currentdict
end
/Courier-BoldOblique exch definefont pop
/Courier-Bold findfont
dup length dict begin
  {1 index /FID ne {def} {pop pop} ifelse} forall
  /Encoding WinAnsiEncoding def
  currentdict
end
/Courier-Bold exch definefont pop
/Helvetica findfont
dup length dict begin
  {1 index /FID ne {def} {pop pop} ifelse} forall
  /Encoding WinAnsiEncoding def
  currentdict
end
/Helvetica exch definefont pop
/Helvetica-Oblique findfont
dup length dict begin
  {1 index /FID ne {def} {pop pop} ifelse} forall
  /Encoding WinAnsiEncoding def
  currentdict
end
/Helvetica-Oblique exch definefont pop
/Helvetica-Bold findfont
dup length dict begin
  {1 index /FID ne {def} {pop pop} ifelse} forall
  /Encoding WinAnsiEncoding def
  currentdict
end
/Helvetica-Bold exch definefont pop
/Helvetica-BoldOblique findfont
dup length dict begin
  {1 index /FID ne {def} {pop pop} ifelse} forall
  /Encoding WinAnsiEncoding def
  currentdict
end
/Helvetica-BoldOblique exch definefont pop
/Times-Roman findfont
dup length dict begin
  {1 index /FID ne {def} {pop pop} ifelse} forall
  /Encoding WinAnsiEncoding def
  currentdict
end
/Times-Roman exch definefont pop
/Times-Italic findfont
dup length dict begin
  {1 index /FID ne {def} {pop pop} ifelse} forall
  /Encoding WinAnsiEncoding def
  currentdict
end
/Times-Italic exch definefont pop
/Times-Bold findfont
dup length dict begin
  {1 index /FID ne {def} {pop pop} ifelse} forall
  /Encoding WinAnsiEncoding def
  currentdict
end
/Times-Bold exch definefont pop
/Times-BoldItalic findfont
dup length dict begin
  {1 index /FID ne {def} {pop pop} ifelse} forall
  /Encoding WinAnsiEncoding def
  currentdict
end
/Times-BoldItalic exch definefont pop
/Courier findfont
dup length dict begin
  {1 index /FID ne {def} {pop pop} ifelse} forall
  /Encoding WinAnsiEncoding def
  currentdict
end
/Courier exch definefont pop
%FOPEndFontReencode
%%EndProlog
%%Page: 1 1
%%PageBoundingBox: 0 0 420 315
%%BeginPageSetup
[1 0 0 -1 0 315] CT
%%EndPageSetup
GS
[0.75 0 0 0.75 0 0] CT
1 GC
N
0 0 560 420 re
f
GR
GS
[0.75 0 0 0.75 0 0] CT
1 GC
N
0 0 560 420 re
f
GR
GS
[0.75 0 0 0.75 0 0] CT
1 GC
N
80 364 M
507 364 L
507 39 L
80 39 L
cp
f
GR
GS
[0.75 0 0 0.75 0 0] CT
0.149 GC
2 setlinecap
1 LJ
0.667 LW
N
80 364 M
507 364 L
S
GR
GS
[0.75 0 0 0.75 0 0] CT
0.149 GC
2 setlinecap
1 LJ
0.667 LW
N
80 39.001 M
507 39.001 L
S
GR
GS
[0.75 0 0 0.75 0 0] CT
0.149 GC
2 setlinecap
1 LJ
0.667 LW
N
80 364 M
80 359.729 L
S
GR
GS
[0.75 0 0 0.75 0 0] CT
0.149 GC
2 setlinecap
1 LJ
0.667 LW
N
151.167 364 M
151.167 359.729 L
S
GR
GS
[0.75 0 0 0.75 0 0] CT
0.149 GC
2 setlinecap
1 LJ
0.667 LW
N
222.333 364 M
222.333 359.729 L
S
GR
GS
[0.75 0 0 0.75 0 0] CT
0.149 GC
2 setlinecap
1 LJ
0.667 LW
N
293.5 364 M
293.5 359.729 L
S
GR
GS
[0.75 0 0 0.75 0 0] CT
0.149 GC
2 setlinecap
1 LJ
0.667 LW
N
364.667 364 M
364.667 359.729 L
S
GR
GS
[0.75 0 0 0.75 0 0] CT
0.149 GC
2 setlinecap
1 LJ
0.667 LW
N
435.833 364 M
435.833 359.729 L
S
GR
GS
[0.75 0 0 0.75 0 0] CT
0.149 GC
2 setlinecap
1 LJ
0.667 LW
N
507 364 M
507 359.729 L
S
GR
GS
[0.75 0 0 0.75 0 0] CT
0.149 GC
2 setlinecap
1 LJ
0.667 LW
N
80 39.001 M
80 43.272 L
S
GR
GS
[0.75 0 0 0.75 0 0] CT
0.149 GC
2 setlinecap
1 LJ
0.667 LW
N
151.167 39.001 M
151.167 43.272 L
S
GR
GS
[0.75 0 0 0.75 0 0] CT
0.149 GC
2 setlinecap
1 LJ
0.667 LW
N
222.333 39.001 M
222.333 43.272 L
S
GR
GS
[0.75 0 0 0.75 0 0] CT
0.149 GC
2 setlinecap
1 LJ
0.667 LW
N
293.5 39.001 M
293.5 43.272 L
S
GR
GS
[0.75 0 0 0.75 0 0] CT
0.149 GC
2 setlinecap
1 LJ
0.667 LW
N
364.667 39.001 M
364.667 43.272 L
S
GR
GS
[0.75 0 0 0.75 0 0] CT
0.149 GC
2 setlinecap
1 LJ
0.667 LW
N
435.833 39.001 M
435.833 43.272 L
S
GR
GS
[0.75 0 0 0.75 0 0] CT
0.149 GC
2 setlinecap
1 LJ
0.667 LW
N
507 39.001 M
507 43.272 L
S
GR
GS
[0.75 0 0 0.75 60 276.99982] CT
0.149 GC
/Helvetica 13.333 F
GS
[1 0 0 1 0 0] CT
-4.5 13 moveto 
1 -1 scale
(0) t 
GR
GR
GS
[0.75 0 0 0.75 113.375 276.99982] CT
0.149 GC
/Helvetica 13.333 F
GS
[1 0 0 1 0 0] CT
-8.5 13 moveto 
1 -1 scale
(10) t 
GR
GR
GS
[0.75 0 0 0.75 166.75 276.99982] CT
0.149 GC
/Helvetica 13.333 F
GS
[1 0 0 1 0 0] CT
-8.5 13 moveto 
1 -1 scale
(20) t 
GR
GR
GS
[0.75 0 0 0.75 220.125 276.99982] CT
0.149 GC
/Helvetica 13.333 F
GS
[1 0 0 1 0 0] CT
-8.5 13 moveto 
1 -1 scale
(30) t 
GR
GR
GS
[0.75 0 0 0.75 273.49999 276.99982] CT
0.149 GC
/Helvetica 13.333 F
GS
[1 0 0 1 0 0] CT
-8.5 13 moveto 
1 -1 scale
(40) t 
GR
GR
GS
[0.75 0 0 0.75 326.87501 276.99982] CT
0.149 GC
/Helvetica 13.333 F
GS
[1 0 0 1 0 0] CT
-8.5 13 moveto 
1 -1 scale
(50) t 
GR
GR
GS
[0.75 0 0 0.75 380.25 276.99982] CT
0.149 GC
/Helvetica 13.333 F
GS
[1 0 0 1 0 0] CT
-8.5 13 moveto 
1 -1 scale
(60) t 
GR
GR
GS
[0.75 0 0 0.75 220.12516 290.7505] CT
0.149 GC
/Helvetica 26.667 F
GS
[1 0 0 1 0 0] CT
-55 25 moveto 
1 -1 scale
(Time [s]) t 
GR
GR
GS
[0.75 0 0 0.75 0 0] CT
0.149 GC
2 setlinecap
1 LJ
0.667 LW
N
80 364 M
80 39.001 L
S
GR
GS
[0.75 0 0 0.75 0 0] CT
0.149 GC
2 setlinecap
1 LJ
0.667 LW
N
507 364 M
507 39.001 L
S
GR
GS
[0.75 0 0 0.75 0 0] CT
0.149 GC
2 setlinecap
1 LJ
0.667 LW
N
80 364 M
84.27 364 L
S
GR
GS
[0.75 0 0 0.75 0 0] CT
0.149 GC
2 setlinecap
1 LJ
0.667 LW
N
80 309.834 M
84.27 309.834 L
S
GR
GS
[0.75 0 0 0.75 0 0] CT
0.149 GC
2 setlinecap
1 LJ
0.667 LW
N
80 255.666 M
84.27 255.666 L
S
GR
GS
[0.75 0 0 0.75 0 0] CT
0.149 GC
2 setlinecap
1 LJ
0.667 LW
N
80 201.5 M
84.27 201.5 L
S
GR
GS
[0.75 0 0 0.75 0 0] CT
0.149 GC
2 setlinecap
1 LJ
0.667 LW
N
80 147.333 M
84.27 147.333 L
S
GR
GS
[0.75 0 0 0.75 0 0] CT
0.149 GC
2 setlinecap
1 LJ
0.667 LW
N
80 93.167 M
84.27 93.167 L
S
GR
GS
[0.75 0 0 0.75 0 0] CT
0.149 GC
2 setlinecap
1 LJ
0.667 LW
N
80 39.001 M
84.27 39.001 L
S
GR
GS
[0.75 0 0 0.75 0 0] CT
0.149 GC
2 setlinecap
1 LJ
0.667 LW
N
507 364 M
502.73 364 L
S
GR
GS
[0.75 0 0 0.75 0 0] CT
0.149 GC
2 setlinecap
1 LJ
0.667 LW
N
507 309.834 M
502.73 309.834 L
S
GR
GS
[0.75 0 0 0.75 0 0] CT
0.149 GC
2 setlinecap
1 LJ
0.667 LW
N
507 255.666 M
502.73 255.666 L
S
GR
GS
[0.75 0 0 0.75 0 0] CT
0.149 GC
2 setlinecap
1 LJ
0.667 LW
N
507 201.5 M
502.73 201.5 L
S
GR
GS
[0.75 0 0 0.75 0 0] CT
0.149 GC
2 setlinecap
1 LJ
0.667 LW
N
507 147.333 M
502.73 147.333 L
S
GR
GS
[0.75 0 0 0.75 0 0] CT
0.149 GC
2 setlinecap
1 LJ
0.667 LW
N
507 93.167 M
502.73 93.167 L
S
GR
GS
[0.75 0 0 0.75 0 0] CT
0.149 GC
2 setlinecap
1 LJ
0.667 LW
N
507 39.001 M
502.73 39.001 L
S
GR
GS
[0.75 0 0 0.75 56 273] CT
0.149 GC
/Helvetica 13.333 F
GS
[1 0 0 1 0 0] CT
-39 4.5 moveto 
1 -1 scale
(17.25) t 
GR
GR
GS
[0.75 0 0 0.75 56 232.37563] CT
0.149 GC
/Helvetica 13.333 F
GS
[1 0 0 1 0 0] CT
-30 4.5 moveto 
1 -1 scale
(17.3) t 
GR
GR
GS
[0.75 0 0 0.75 56 191.74969] CT
0.149 GC
/Helvetica 13.333 F
GS
[1 0 0 1 0 0] CT
-39 4.5 moveto 
1 -1 scale
(17.35) t 
GR
GR
GS
[0.75 0 0 0.75 56 151.12531] CT
0.149 GC
/Helvetica 13.333 F
GS
[1 0 0 1 0 0] CT
-30 4.5 moveto 
1 -1 scale
(17.4) t 
GR
GR
GS
[0.75 0 0 0.75 56 110.49938] CT
0.149 GC
/Helvetica 13.333 F
GS
[1 0 0 1 0 0] CT
-39 4.5 moveto 
1 -1 scale
(17.45) t 
GR
GR
GS
[0.75 0 0 0.75 56 69.875] CT
0.149 GC
/Helvetica 13.333 F
GS
[1 0 0 1 0 0] CT
-30 4.5 moveto 
1 -1 scale
(17.5) t 
GR
GR
GS
[0.75 0 0 0.75 56 29.25062] CT
0.149 GC
/Helvetica 13.333 F
GS
[1 0 0 1 0 0] CT
-39 4.5 moveto 
1 -1 scale
(17.55) t 
GR
GR
GS
[0 -0.75 0.75 0 23.75 151.12531] CT
0.149 GC
/Helvetica 26.667 F
GS
[1 0 0 1 0 0] CT
-70.5 -7 moveto 
1 -1 scale
(Range [m]) t 
GR
GR
GS
[0.75 0 0 0.75 220.12521 25.50029] CT
/Helvetica-Bold 26.667 F
GS
[1 0 0 1 0 0] CT
-210.5 -7 moveto 
1 -1 scale
(Readings from UWB module) t 
GR
GR
GS
[0.75 0 0 0.75 0 0] CT
0 0 1 RC
1 LJ
0.667 LW
N
80 174.188 M
80.82 174.188 L
81.639 164.022 L
82.459 321.587 L
83.278 158.939 L
84.098 164.022 L
84.917 194.518 L
85.737 118.278 L
86.557 194.518 L
87.376 169.105 L
88.196 184.352 L
89.015 153.856 L
89.835 164.022 L
90.655 138.609 L
91.474 194.518 L
92.294 143.692 L
93.113 174.188 L
93.933 169.105 L
94.752 148.775 L
95.572 164.022 L
96.392 164.022 L
97.211 158.939 L
98.031 169.105 L
98.85 164.022 L
99.67 174.188 L
100.489 184.352 L
101.309 164.022 L
102.129 179.271 L
102.948 169.105 L
103.768 174.188 L
104.587 148.775 L
105.407 164.022 L
106.226 174.188 L
107.046 174.188 L
107.866 153.856 L
108.685 153.856 L
109.505 143.692 L
110.324 133.526 L
111.144 174.188 L
111.964 174.188 L
112.783 199.601 L
113.603 179.271 L
114.422 179.271 L
115.242 179.271 L
116.061 179.271 L
116.881 153.856 L
117.701 184.352 L
118.52 179.271 L
119.34 174.188 L
120.159 174.188 L
120.979 169.105 L
121.798 174.188 L
122.618 158.939 L
123.438 138.609 L
124.257 123.359 L
125.077 158.939 L
125.896 169.105 L
126.716 148.775 L
127.536 189.435 L
128.355 164.022 L
129.175 133.526 L
129.994 143.692 L
130.814 204.685 L
131.633 189.435 L
132.453 153.856 L
133.273 184.352 L
134.092 158.939 L
134.912 179.271 L
135.731 143.692 L
136.551 153.856 L
137.37 148.775 L
138.19 133.526 L
139.01 164.022 L
139.829 143.692 L
140.649 123.359 L
141.468 138.609 L
142.288 153.856 L
143.107 143.692 L
143.927 158.939 L
144.747 169.105 L
145.566 158.939 L
146.386 189.435 L
147.205 148.775 L
148.025 143.692 L
148.845 118.278 L
149.664 133.526 L
150.484 113.195 L
151.303 164.022 L
152.123 158.939 L
152.942 148.775 L
153.762 174.188 L
154.582 194.518 L
155.401 158.939 L
156.221 148.775 L
157.04 143.692 L
157.86 113.195 L
158.679 158.939 L
159.499 164.022 L
160.319 72.533 L
161.138 108.112 L
161.958 138.609 L
162.777 148.775 L
163.597 118.278 L
164.417 169.105 L
165.236 174.188 L
166.056 158.939 L
166.875 143.692 L
167.695 184.352 L
168.514 158.939 L
169.334 148.775 L
170.154 118.278 L
170.973 189.435 L
171.793 153.856 L
172.612 148.775 L
173.432 164.022 L
174.251 128.442 L
175.071 164.022 L
175.891 113.195 L
176.71 148.775 L
177.53 138.609 L
178.349 158.939 L
179.169 133.526 L
179.988 118.278 L
180.808 158.939 L
181.628 128.442 L
182.447 194.518 L
183.267 123.359 L
184.086 153.856 L
184.906 103.029 L
185.726 189.435 L
186.545 133.526 L
187.365 148.775 L
188.184 138.609 L
189.004 118.278 L
189.823 143.692 L
190.643 123.359 L
191.463 128.442 L
192.282 133.526 L
193.102 138.609 L
193.921 169.105 L
194.741 148.775 L
195.56 179.271 L
196.38 138.609 L
197.2 179.271 L
198.019 158.939 L
198.839 128.442 L
199.658 164.022 L
200.478 118.278 L
201.298 179.271 L
202.117 148.775 L
202.937 108.112 L
203.756 158.939 L
204.576 158.939 L
205.395 113.195 L
206.215 169.105 L
207.035 143.692 L
207.854 113.195 L
208.674 174.188 L
209.493 158.939 L
210.313 138.609 L
211.132 128.442 L
211.952 214.849 L
212.772 113.195 L
213.591 169.105 L
214.411 143.692 L
215.23 133.526 L
216.05 169.105 L
216.869 133.526 L
217.689 189.435 L
218.509 118.278 L
219.328 148.775 L
220.148 143.692 L
220.967 164.022 L
221.787 138.609 L
222.607 164.022 L
223.426 148.775 L
224.246 133.526 L
225.065 138.609 L
225.885 148.775 L
226.704 158.939 L
227.524 148.775 L
228.344 169.105 L
229.163 164.022 L
229.983 128.442 L
230.802 158.939 L
231.622 123.359 L
232.441 148.775 L
233.261 148.775 L
234.081 184.352 L
234.9 169.105 L
235.72 128.442 L
236.539 143.692 L
237.359 148.775 L
238.179 158.939 L
238.998 164.022 L
239.818 138.609 L
240.637 138.609 L
241.457 199.601 L
242.276 158.939 L
243.096 113.195 L
243.916 133.526 L
244.735 143.692 L
245.555 143.692 L
246.374 169.105 L
247.194 148.775 L
248.013 189.435 L
248.833 108.112 L
249.653 118.278 L
250.472 143.692 L
251.292 138.609 L
252.111 158.939 L
252.931 148.775 L
253.75 148.775 L
254.57 133.526 L
255.39 87.782 L
256.209 138.609 L
257.029 153.856 L
257.848 194.518 L
258.668 164.022 L
259.488 148.775 L
260.307 164.022 L
261.127 189.435 L
261.946 148.775 L
262.766 138.609 L
263.585 164.022 L
264.405 138.609 L
265.225 138.609 L
266.044 143.692 L
266.864 118.278 L
267.683 113.195 L
268.503 153.856 L
269.322 153.856 L
270.142 123.359 L
270.962 174.188 L
271.781 164.022 L
272.601 153.856 L
273.42 153.856 L
274.24 148.775 L
275.06 169.105 L
275.879 174.188 L
276.699 128.442 L
277.518 138.609 L
278.338 128.442 L
279.157 128.442 L
279.977 169.105 L
280.797 143.692 L
281.616 108.112 L
282.436 153.856 L
283.255 148.775 L
284.075 133.526 L
284.894 143.692 L
285.714 138.609 L
286.534 153.856 L
287.353 128.442 L
288.173 184.352 L
288.992 148.775 L
289.812 153.856 L
290.631 113.195 L
291.451 143.692 L
292.271 148.775 L
293.09 158.939 L
293.91 169.105 L
294.729 158.939 L
295.549 169.105 L
296.369 174.188 L
297.188 123.359 L
298.008 138.609 L
298.827 143.692 L
299.647 148.775 L
300.466 204.685 L
301.286 148.775 L
302.106 133.526 L
302.925 143.692 L
303.745 138.609 L
304.564 138.609 L
305.384 133.526 L
306.203 138.609 L
307.023 164.022 L
307.843 133.526 L
308.662 143.692 L
309.482 128.442 L
310.301 174.188 L
311.121 169.105 L
311.94 143.692 L
312.76 138.609 L
313.58 113.195 L
314.399 148.775 L
315.219 158.939 L
316.038 184.352 L
316.858 118.278 L
317.678 174.188 L
318.497 158.939 L
319.317 138.609 L
320.136 179.271 L
320.956 158.939 L
321.775 164.022 L
322.595 138.609 L
323.415 153.856 L
324.234 148.775 L
325.054 164.022 L
325.873 128.442 L
326.693 143.692 L
327.512 158.939 L
328.332 179.271 L
329.152 153.856 L
329.971 138.609 L
330.791 138.609 L
331.61 133.526 L
332.43 133.526 L
333.25 153.856 L
334.069 174.188 L
334.889 128.442 L
335.708 133.526 L
336.528 108.112 L
337.347 148.775 L
338.167 169.105 L
338.987 169.105 L
339.806 123.359 L
340.626 148.775 L
341.445 158.939 L
342.265 143.692 L
343.084 143.692 L
343.904 148.775 L
344.724 133.526 L
345.543 169.105 L
346.363 133.526 L
347.182 113.195 L
348.002 143.692 L
348.822 133.526 L
349.641 118.278 L
350.461 138.609 L
351.28 143.692 L
352.1 113.195 L
352.919 189.435 L
353.739 153.856 L
354.559 153.856 L
355.378 128.442 L
356.198 184.352 L
357.017 174.188 L
357.837 133.526 L
358.656 82.699 L
359.476 138.609 L
360.296 138.609 L
361.115 153.856 L
361.935 148.775 L
362.754 133.526 L
363.574 133.526 L
364.393 158.939 L
365.213 179.271 L
366.033 133.526 L
366.852 133.526 L
367.672 113.195 L
368.491 128.442 L
369.311 174.188 L
370.131 164.022 L
370.95 164.022 L
371.77 148.775 L
372.589 189.435 L
373.409 138.609 L
374.228 169.105 L
375.048 133.526 L
375.868 138.609 L
376.687 143.692 L
377.507 158.939 L
378.326 148.775 L
379.146 174.188 L
379.965 128.442 L
380.785 138.609 L
381.605 148.775 L
382.424 108.112 L
383.244 148.775 L
384.063 148.775 L
384.883 184.352 L
385.702 138.609 L
386.522 143.692 L
387.342 138.609 L
388.161 158.939 L
388.981 169.105 L
389.8 199.601 L
390.62 184.352 L
391.44 158.939 L
392.259 164.022 L
393.079 138.609 L
393.898 153.856 L
394.718 148.775 L
395.537 169.105 L
396.357 138.609 L
397.177 138.609 L
397.996 138.609 L
398.816 158.939 L
399.635 174.188 L
400.455 174.188 L
401.274 153.856 L
402.094 143.692 L
402.914 174.188 L
403.733 184.352 L
404.553 118.278 L
405.372 123.359 L
406.192 138.609 L
407.012 189.435 L
407.831 174.188 L
408.651 179.271 L
409.47 128.442 L
410.29 158.939 L
411.109 184.352 L
411.929 164.022 L
412.749 153.856 L
413.568 153.856 L
414.388 179.271 L
415.207 179.271 L
416.027 153.856 L
416.846 158.939 L
417.666 214.849 L
418.486 174.188 L
419.305 133.526 L
420.125 138.609 L
420.944 128.442 L
421.764 77.616 L
422.583 148.775 L
423.403 128.442 L
424.223 128.442 L
425.042 133.526 L
425.862 148.775 L
426.681 169.105 L
427.501 158.939 L
428.321 128.442 L
429.14 148.775 L
429.96 158.939 L
430.779 128.442 L
431.599 138.609 L
432.418 158.939 L
433.238 148.775 L
434.058 164.022 L
434.877 179.271 L
435.697 148.775 L
436.516 123.359 L
437.336 143.692 L
438.155 158.939 L
438.975 164.022 L
439.795 153.856 L
440.614 133.526 L
441.434 174.188 L
442.253 189.435 L
443.073 128.442 L
443.893 179.271 L
444.712 158.939 L
445.532 153.856 L
446.351 169.105 L
447.171 133.526 L
447.99 158.939 L
448.81 153.856 L
449.63 148.775 L
450.449 118.278 L
451.269 138.609 L
452.088 113.195 L
452.908 138.609 L
453.727 148.775 L
454.547 133.526 L
455.367 174.188 L
456.186 118.278 L
457.006 128.442 L
457.825 179.271 L
458.645 158.939 L
459.464 164.022 L
460.284 143.692 L
461.104 158.939 L
461.923 138.609 L
462.743 153.856 L
463.562 143.692 L
464.382 199.601 L
465.202 118.278 L
466.021 158.939 L
466.841 138.609 L
467.66 123.359 L
468.48 169.105 L
469.299 174.188 L
470.119 169.105 L
470.939 164.022 L
471.758 204.685 L
472.578 118.278 L
473.397 143.692 L
474.217 143.692 L
475.036 169.105 L
475.856 133.526 L
476.676 133.526 L
477.495 82.699 L
478.315 153.856 L
479.134 199.601 L
479.954 113.195 L
480.773 174.188 L
481.593 103.029 L
482.413 184.352 L
483.232 169.105 L
484.052 138.609 L
484.871 138.609 L
485.691 133.526 L
486.511 128.442 L
487.33 133.526 L
488.15 123.359 L
488.969 164.022 L
489.789 138.609 L
490.608 128.442 L
491.428 153.856 L
492.248 133.526 L
493.067 128.442 L
493.887 118.278 L
494.706 148.775 L
495.526 123.359 L
496.345 179.271 L
497.165 143.692 L
497.985 158.939 L
498.804 153.856 L
499.624 113.195 L
500.443 174.188 L
501.263 128.442 L
502.083 108.112 L
502.902 128.442 L
503.722 158.939 L
504.541 153.856 L
505.361 138.609 L
506.18 113.195 L
S
GR
%%Trailer
%%Pages: 1
%%EOF
