%!PS-Adobe-3.0 EPSF-3.0
%%Creator: (MATLAB, The Mathworks, Inc. Version 9.3.0.713579 \(R2017b\). Operating System: Linux)
%%Title: /home/micke/ExamensarbeteCybercom/Measurements/Take2/calib87/Range87.eps
%%CreationDate: 2018-04-26T09:54:14
%%Pages: (atend)
%%BoundingBox: 0 0 1864 613
%%LanguageLevel: 3
%%EndComments
%%BeginProlog
%%BeginResource: procset (Apache XML Graphics Std ProcSet) 1.2 0
%%Version: 1.2 0
%%Copyright: (Copyright 2001-2003,2010 The Apache Software Foundation. License terms: http://www.apache.org/licenses/LICENSE-2.0)
/bd{bind def}bind def
/ld{load def}bd
/GR/grestore ld
/GS/gsave ld
/RM/rmoveto ld
/C/curveto ld
/t/show ld
/L/lineto ld
/ML/setmiterlimit ld
/CT/concat ld
/f/fill ld
/N/newpath ld
/S/stroke ld
/CC/setcmykcolor ld
/A/ashow ld
/cp/closepath ld
/RC/setrgbcolor ld
/LJ/setlinejoin ld
/GC/setgray ld
/LW/setlinewidth ld
/M/moveto ld
/re {4 2 roll M
1 index 0 rlineto
0 exch rlineto
neg 0 rlineto
cp } bd
/_ctm matrix def
/_tm matrix def
/BT { _ctm currentmatrix pop matrix _tm copy pop 0 0 moveto } bd
/ET { _ctm setmatrix } bd
/iTm { _ctm setmatrix _tm concat } bd
/Tm { _tm astore pop iTm 0 0 moveto } bd
/ux 0.0 def
/uy 0.0 def
/F {
  /Tp exch def
  /Tf exch def
  Tf findfont Tp scalefont setfont
  /cf Tf def  /cs Tp def
} bd
/ULS {currentpoint /uy exch def /ux exch def} bd
/ULE {
  /Tcx currentpoint pop def
  gsave
  newpath
  cf findfont cs scalefont dup
  /FontMatrix get 0 get /Ts exch def /FontInfo get dup
  /UnderlinePosition get Ts mul /To exch def
  /UnderlineThickness get Ts mul /Tt exch def
  ux uy To add moveto  Tcx uy To add lineto
  Tt setlinewidth stroke
  grestore
} bd
/OLE {
  /Tcx currentpoint pop def
  gsave
  newpath
  cf findfont cs scalefont dup
  /FontMatrix get 0 get /Ts exch def /FontInfo get dup
  /UnderlinePosition get Ts mul /To exch def
  /UnderlineThickness get Ts mul /Tt exch def
  ux uy To add cs add moveto Tcx uy To add cs add lineto
  Tt setlinewidth stroke
  grestore
} bd
/SOE {
  /Tcx currentpoint pop def
  gsave
  newpath
  cf findfont cs scalefont dup
  /FontMatrix get 0 get /Ts exch def /FontInfo get dup
  /UnderlinePosition get Ts mul /To exch def
  /UnderlineThickness get Ts mul /Tt exch def
  ux uy To add cs 10 mul 26 idiv add moveto Tcx uy To add cs 10 mul 26 idiv add lineto
  Tt setlinewidth stroke
  grestore
} bd
/QT {
/Y22 exch store
/X22 exch store
/Y21 exch store
/X21 exch store
currentpoint
/Y21 load 2 mul add 3 div exch
/X21 load 2 mul add 3 div exch
/X21 load 2 mul /X22 load add 3 div
/Y21 load 2 mul /Y22 load add 3 div
/X22 load /Y22 load curveto
} bd
/SSPD {
dup length /d exch dict def
{
/v exch def
/k exch def
currentpagedevice k known {
/cpdv currentpagedevice k get def
v cpdv ne {
/upd false def
/nullv v type /nulltype eq def
/nullcpdv cpdv type /nulltype eq def
nullv nullcpdv or
{
/upd true def
} {
/sametype v type cpdv type eq def
sametype {
v type /arraytype eq {
/vlen v length def
/cpdvlen cpdv length def
vlen cpdvlen eq {
0 1 vlen 1 sub {
/i exch def
/obj v i get def
/cpdobj cpdv i get def
obj cpdobj ne {
/upd true def
exit
} if
} for
} {
/upd true def
} ifelse
} {
v type /dicttype eq {
v {
/dv exch def
/dk exch def
/cpddv cpdv dk get def
dv cpddv ne {
/upd true def
exit
} if
} forall
} {
/upd true def
} ifelse
} ifelse
} if
} ifelse
upd true eq {
d k v put
} if
} if
} if
} forall
d length 0 gt {
d setpagedevice
} if
} bd
/RE { % /NewFontName [NewEncodingArray] /FontName RE -
  findfont dup length dict begin
  {
    1 index /FID ne
    {def} {pop pop} ifelse
  } forall
  /Encoding exch def
  /FontName 1 index def
  currentdict definefont pop
  end
} bind def
%%EndResource
%%BeginResource: procset (Apache XML Graphics EPS ProcSet) 1.0 0
%%Version: 1.0 0
%%Copyright: (Copyright 2002-2003 The Apache Software Foundation. License terms: http://www.apache.org/licenses/LICENSE-2.0)
/BeginEPSF { %def
/b4_Inc_state save def         % Save state for cleanup
/dict_count countdictstack def % Count objects on dict stack
/op_count count 1 sub def      % Count objects on operand stack
userdict begin                 % Push userdict on dict stack
/showpage { } def              % Redefine showpage, { } = null proc
0 setgray 0 setlinecap         % Prepare graphics state
1 setlinewidth 0 setlinejoin
10 setmiterlimit [ ] 0 setdash newpath
/languagelevel where           % If level not equal to 1 then
{pop languagelevel             % set strokeadjust and
1 ne                           % overprint to their defaults.
{false setstrokeadjust false setoverprint
} if
} if
} bd
/EndEPSF { %def
count op_count sub {pop} repeat            % Clean up stacks
countdictstack dict_count sub {end} repeat
b4_Inc_state restore
} bd
%%EndResource
%FOPBeginFontDict
%%IncludeResource: font Courier-Oblique
%%IncludeResource: font Courier-BoldOblique
%%IncludeResource: font Courier-Bold
%%IncludeResource: font ZapfDingbats
%%IncludeResource: font Symbol
%%IncludeResource: font Helvetica
%%IncludeResource: font Helvetica-Oblique
%%IncludeResource: font Helvetica-Bold
%%IncludeResource: font Helvetica-BoldOblique
%%IncludeResource: font Times-Roman
%%IncludeResource: font Times-Italic
%%IncludeResource: font Times-Bold
%%IncludeResource: font Times-BoldItalic
%%IncludeResource: font Courier
%FOPEndFontDict
%%BeginResource: encoding WinAnsiEncoding
/WinAnsiEncoding [
/.notdef /.notdef /.notdef /.notdef /.notdef
/.notdef /.notdef /.notdef /.notdef /.notdef
/.notdef /.notdef /.notdef /.notdef /.notdef
/.notdef /.notdef /.notdef /.notdef /.notdef
/.notdef /.notdef /.notdef /.notdef /.notdef
/.notdef /.notdef /.notdef /.notdef /.notdef
/.notdef /.notdef /space /exclam /quotedbl
/numbersign /dollar /percent /ampersand /quotesingle
/parenleft /parenright /asterisk /plus /comma
/hyphen /period /slash /zero /one
/two /three /four /five /six
/seven /eight /nine /colon /semicolon
/less /equal /greater /question /at
/A /B /C /D /E
/F /G /H /I /J
/K /L /M /N /O
/P /Q /R /S /T
/U /V /W /X /Y
/Z /bracketleft /backslash /bracketright /asciicircum
/underscore /quoteleft /a /b /c
/d /e /f /g /h
/i /j /k /l /m
/n /o /p /q /r
/s /t /u /v /w
/x /y /z /braceleft /bar
/braceright /asciitilde /bullet /Euro /bullet
/quotesinglbase /florin /quotedblbase /ellipsis /dagger
/daggerdbl /circumflex /perthousand /Scaron /guilsinglleft
/OE /bullet /Zcaron /bullet /bullet
/quoteleft /quoteright /quotedblleft /quotedblright /bullet
/endash /emdash /asciitilde /trademark /scaron
/guilsinglright /oe /bullet /zcaron /Ydieresis
/space /exclamdown /cent /sterling /currency
/yen /brokenbar /section /dieresis /copyright
/ordfeminine /guillemotleft /logicalnot /sfthyphen /registered
/macron /degree /plusminus /twosuperior /threesuperior
/acute /mu /paragraph /middot /cedilla
/onesuperior /ordmasculine /guillemotright /onequarter /onehalf
/threequarters /questiondown /Agrave /Aacute /Acircumflex
/Atilde /Adieresis /Aring /AE /Ccedilla
/Egrave /Eacute /Ecircumflex /Edieresis /Igrave
/Iacute /Icircumflex /Idieresis /Eth /Ntilde
/Ograve /Oacute /Ocircumflex /Otilde /Odieresis
/multiply /Oslash /Ugrave /Uacute /Ucircumflex
/Udieresis /Yacute /Thorn /germandbls /agrave
/aacute /acircumflex /atilde /adieresis /aring
/ae /ccedilla /egrave /eacute /ecircumflex
/edieresis /igrave /iacute /icircumflex /idieresis
/eth /ntilde /ograve /oacute /ocircumflex
/otilde /odieresis /divide /oslash /ugrave
/uacute /ucircumflex /udieresis /yacute /thorn
/ydieresis
] def
%%EndResource
%FOPBeginFontReencode
/Courier-Oblique findfont
dup length dict begin
  {1 index /FID ne {def} {pop pop} ifelse} forall
  /Encoding WinAnsiEncoding def
  currentdict
end
/Courier-Oblique exch definefont pop
/Courier-BoldOblique findfont
dup length dict begin
  {1 index /FID ne {def} {pop pop} ifelse} forall
  /Encoding WinAnsiEncoding def
  currentdict
end
/Courier-BoldOblique exch definefont pop
/Courier-Bold findfont
dup length dict begin
  {1 index /FID ne {def} {pop pop} ifelse} forall
  /Encoding WinAnsiEncoding def
  currentdict
end
/Courier-Bold exch definefont pop
/Helvetica findfont
dup length dict begin
  {1 index /FID ne {def} {pop pop} ifelse} forall
  /Encoding WinAnsiEncoding def
  currentdict
end
/Helvetica exch definefont pop
/Helvetica-Oblique findfont
dup length dict begin
  {1 index /FID ne {def} {pop pop} ifelse} forall
  /Encoding WinAnsiEncoding def
  currentdict
end
/Helvetica-Oblique exch definefont pop
/Helvetica-Bold findfont
dup length dict begin
  {1 index /FID ne {def} {pop pop} ifelse} forall
  /Encoding WinAnsiEncoding def
  currentdict
end
/Helvetica-Bold exch definefont pop
/Helvetica-BoldOblique findfont
dup length dict begin
  {1 index /FID ne {def} {pop pop} ifelse} forall
  /Encoding WinAnsiEncoding def
  currentdict
end
/Helvetica-BoldOblique exch definefont pop
/Times-Roman findfont
dup length dict begin
  {1 index /FID ne {def} {pop pop} ifelse} forall
  /Encoding WinAnsiEncoding def
  currentdict
end
/Times-Roman exch definefont pop
/Times-Italic findfont
dup length dict begin
  {1 index /FID ne {def} {pop pop} ifelse} forall
  /Encoding WinAnsiEncoding def
  currentdict
end
/Times-Italic exch definefont pop
/Times-Bold findfont
dup length dict begin
  {1 index /FID ne {def} {pop pop} ifelse} forall
  /Encoding WinAnsiEncoding def
  currentdict
end
/Times-Bold exch definefont pop
/Times-BoldItalic findfont
dup length dict begin
  {1 index /FID ne {def} {pop pop} ifelse} forall
  /Encoding WinAnsiEncoding def
  currentdict
end
/Times-BoldItalic exch definefont pop
/Courier findfont
dup length dict begin
  {1 index /FID ne {def} {pop pop} ifelse} forall
  /Encoding WinAnsiEncoding def
  currentdict
end
/Courier exch definefont pop
%FOPEndFontReencode
%%EndProlog
%%Page: 1 1
%%PageBoundingBox: 0 0 1864 613
%%BeginPageSetup
[1 0 0 -1 0 613] CT
%%EndPageSetup
GS
[0.75 0 0 0.75 0 0.25] CT
N
0 0 M
2485 0 L
2485 817 L
0 817 L
0 0 L
cp
clip
1 GC
N
0 0 2485 817 re
f
GR
GS
[0.75 0 0 0.75 0 0.25] CT
1 GC
N
0 0 2485 817 re
f
GR
GS
[0.75 0 0 0.75 0 0.25] CT
1 GC
N
323 705 M
2249 705 L
2249 63 L
323 63 L
cp
f
GR
GS
[0.75 0 0 0.75 0 0.25] CT
0.149 GC
2 setlinecap
1 LJ
0.667 LW
N
323 704.998 M
2249 704.998 L
S
GR
GS
[0.75 0 0 0.75 0 0.25] CT
0.149 GC
2 setlinecap
1 LJ
0.667 LW
N
323 63 M
2249 63 L
S
GR
GS
[0.75 0 0 0.75 0 0.25] CT
0.149 GC
2 setlinecap
1 LJ
0.667 LW
N
323 704.998 M
323 685.737 L
S
GR
GS
[0.75 0 0 0.75 0 0.25] CT
0.149 GC
2 setlinecap
1 LJ
0.667 LW
N
644 704.998 M
644 685.737 L
S
GR
GS
[0.75 0 0 0.75 0 0.25] CT
0.149 GC
2 setlinecap
1 LJ
0.667 LW
N
965 704.998 M
965 685.737 L
S
GR
GS
[0.75 0 0 0.75 0 0.25] CT
0.149 GC
2 setlinecap
1 LJ
0.667 LW
N
1286 704.998 M
1286 685.737 L
S
GR
GS
[0.75 0 0 0.75 0 0.25] CT
0.149 GC
2 setlinecap
1 LJ
0.667 LW
N
1607 704.998 M
1607 685.737 L
S
GR
GS
[0.75 0 0 0.75 0 0.25] CT
0.149 GC
2 setlinecap
1 LJ
0.667 LW
N
1928 704.998 M
1928 685.737 L
S
GR
GS
[0.75 0 0 0.75 0 0.25] CT
0.149 GC
2 setlinecap
1 LJ
0.667 LW
N
2249 704.998 M
2249 685.737 L
S
GR
GS
[0.75 0 0 0.75 0 0.25] CT
0.149 GC
2 setlinecap
1 LJ
0.667 LW
N
323 63 M
323 82.262 L
S
GR
GS
[0.75 0 0 0.75 0 0.25] CT
0.149 GC
2 setlinecap
1 LJ
0.667 LW
N
644 63 M
644 82.262 L
S
GR
GS
[0.75 0 0 0.75 0 0.25] CT
0.149 GC
2 setlinecap
1 LJ
0.667 LW
N
965 63 M
965 82.262 L
S
GR
GS
[0.75 0 0 0.75 0 0.25] CT
0.149 GC
2 setlinecap
1 LJ
0.667 LW
N
1286 63 M
1286 82.262 L
S
GR
GS
[0.75 0 0 0.75 0 0.25] CT
0.149 GC
2 setlinecap
1 LJ
0.667 LW
N
1607 63 M
1607 82.262 L
S
GR
GS
[0.75 0 0 0.75 0 0.25] CT
0.149 GC
2 setlinecap
1 LJ
0.667 LW
N
1928 63 M
1928 82.262 L
S
GR
GS
[0.75 0 0 0.75 0 0.25] CT
0.149 GC
2 setlinecap
1 LJ
0.667 LW
N
2249 63 M
2249 82.262 L
S
GR
GS
[0.75 0 0 0.75 242.25 536.99796] CT
0.149 GC
/Helvetica 40 F
GS
[1 0 0 1 0 0] CT
-13 38 moveto 
1 -1 scale
(0) t 
GR
GR
GS
[0.75 0 0 0.75 483 536.99796] CT
0.149 GC
/Helvetica 40 F
GS
[1 0 0 1 0 0] CT
-25.5 38 moveto 
1 -1 scale
(20) t 
GR
GR
GS
[0.75 0 0 0.75 723.75 536.99796] CT
0.149 GC
/Helvetica 40 F
GS
[1 0 0 1 0 0] CT
-25.5 38 moveto 
1 -1 scale
(40) t 
GR
GR
GS
[0.75 0 0 0.75 964.5 536.99796] CT
0.149 GC
/Helvetica 40 F
GS
[1 0 0 1 0 0] CT
-25.5 38 moveto 
1 -1 scale
(60) t 
GR
GR
GS
[0.75 0 0 0.75 1205.25 536.99796] CT
0.149 GC
/Helvetica 40 F
GS
[1 0 0 1 0 0] CT
-25.5 38 moveto 
1 -1 scale
(80) t 
GR
GR
GS
[0.75 0 0 0.75 1446 536.99796] CT
0.149 GC
/Helvetica 40 F
GS
[1 0 0 1 0 0] CT
-38.5 38 moveto 
1 -1 scale
(100) t 
GR
GR
GS
[0.75 0 0 0.75 1686.75 536.99796] CT
0.149 GC
/Helvetica 40 F
GS
[1 0 0 1 0 0] CT
-38.5 38 moveto 
1 -1 scale
(120) t 
GR
GR
GS
[0.75 0 0 0.75 964.50073 573.99982] CT
0.149 GC
/Helvetica 44 F
GS
[1 0 0 1 0 0] CT
-90.5 41 moveto 
1 -1 scale
(Time [s]) t 
GR
GR
GS
[0.75 0 0 0.75 0 0.25] CT
0.149 GC
2 setlinecap
1 LJ
0.667 LW
N
323 704.998 M
323 63 L
S
GR
GS
[0.75 0 0 0.75 0 0.25] CT
0.149 GC
2 setlinecap
1 LJ
0.667 LW
N
2249 704.998 M
2249 63 L
S
GR
GS
[0.75 0 0 0.75 0 0.25] CT
0.149 GC
2 setlinecap
1 LJ
0.667 LW
N
323 704.998 M
342.26 704.998 L
S
GR
GS
[0.75 0 0 0.75 0 0.25] CT
0.149 GC
2 setlinecap
1 LJ
0.667 LW
N
323 491.002 M
342.26 491.002 L
S
GR
GS
[0.75 0 0 0.75 0 0.25] CT
0.149 GC
2 setlinecap
1 LJ
0.667 LW
N
323 277.001 M
342.26 277.001 L
S
GR
GS
[0.75 0 0 0.75 0 0.25] CT
0.149 GC
2 setlinecap
1 LJ
0.667 LW
N
323 63 M
342.26 63 L
S
GR
GS
[0.75 0 0 0.75 0 0.25] CT
0.149 GC
2 setlinecap
1 LJ
0.667 LW
N
2249 704.998 M
2229.74 704.998 L
S
GR
GS
[0.75 0 0 0.75 0 0.25] CT
0.149 GC
2 setlinecap
1 LJ
0.667 LW
N
2249 491.002 M
2229.74 491.002 L
S
GR
GS
[0.75 0 0 0.75 0 0.25] CT
0.149 GC
2 setlinecap
1 LJ
0.667 LW
N
2249 277.001 M
2229.74 277.001 L
S
GR
GS
[0.75 0 0 0.75 0 0.25] CT
0.149 GC
2 setlinecap
1 LJ
0.667 LW
N
2249 63 M
2229.74 63 L
S
GR
GS
[0.75 0 0 0.75 234.25001 528.99876] CT
0.149 GC
/Helvetica 40 F
GS
[1 0 0 1 0 0] CT
-64 14 moveto 
1 -1 scale
(8.6) t 
GR
GR
GS
[0.75 0 0 0.75 234.25001 368.50124] CT
0.149 GC
/Helvetica 40 F
GS
[1 0 0 1 0 0] CT
-90 14 moveto 
1 -1 scale
(8.65) t 
GR
GR
GS
[0.75 0 0 0.75 234.25001 208.00062] CT
0.149 GC
/Helvetica 40 F
GS
[1 0 0 1 0 0] CT
-64 14 moveto 
1 -1 scale
(8.7) t 
GR
GR
GS
[0.75 0 0 0.75 234.25001 47.5] CT
0.149 GC
/Helvetica 40 F
GS
[1 0 0 1 0 0] CT
-90 14 moveto 
1 -1 scale
(8.75) t 
GR
GR
GS
[0 -0.75 0.75 0 163.75001 288.24938] CT
0.149 GC
/Helvetica 44 F
GS
[1 0 0 1 0 0] CT
-116 -11 moveto 
1 -1 scale
(Range [m]) t 
GR
GR
GS
[0.75 0 0 0.75 964.50092 41.31312] CT
/Helvetica-Bold 44 F
GS
[1 0 0 1 0 0] CT
-473.5 -11 moveto 
1 -1 scale
(Unfiltered readings from UWB module) t 
GR
GR
GS
[0.75 0 0 0.75 0 0.25] CT
0 0 1 RC
1 LJ
0.667 LW
N
323 403.775 M
329.42 223.049 L
335.84 484.095 L
342.26 383.693 L
348.68 363.611 L
355.1 383.693 L
361.52 403.775 L
367.94 363.611 L
374.36 383.693 L
380.78 443.935 L
387.2 202.966 L
393.62 383.693 L
400.04 644.744 L
406.46 383.693 L
412.88 343.533 L
419.3 504.177 L
425.72 504.177 L
432.14 524.26 L
438.56 484.095 L
444.98 423.853 L
451.4 303.369 L
457.82 504.177 L
464.24 243.127 L
470.66 363.611 L
477.08 343.533 L
483.5 363.611 L
489.92 182.884 L
496.34 283.291 L
502.76 263.209 L
509.18 323.451 L
515.6 464.017 L
522.02 464.017 L
528.44 303.369 L
534.86 403.775 L
541.28 403.775 L
547.7 243.127 L
554.12 383.693 L
560.54 544.338 L
566.96 323.451 L
573.38 102.564 L
579.8 383.693 L
586.22 323.451 L
592.64 484.095 L
599.06 223.049 L
605.48 223.049 L
611.9 484.095 L
618.32 303.369 L
624.74 524.26 L
631.16 584.502 L
637.58 303.369 L
644 142.724 L
650.42 303.369 L
656.84 423.853 L
663.26 343.533 L
669.68 202.966 L
676.1 464.017 L
682.52 243.127 L
688.94 443.935 L
695.36 283.291 L
701.78 604.584 L
708.2 443.935 L
714.62 464.017 L
721.04 363.611 L
727.46 443.935 L
733.88 162.806 L
740.3 484.095 L
746.72 383.693 L
753.14 443.935 L
759.56 223.049 L
765.98 383.693 L
772.4 323.451 L
778.82 303.369 L
785.24 443.935 L
791.66 584.502 L
798.08 383.693 L
804.5 403.775 L
810.92 423.853 L
817.34 443.935 L
823.76 443.935 L
830.18 303.369 L
836.6 403.775 L
843.02 403.775 L
849.44 343.533 L
855.86 564.42 L
862.28 383.693 L
868.7 202.966 L
875.12 303.369 L
881.54 303.369 L
887.96 122.642 L
894.38 343.533 L
900.8 504.177 L
907.22 323.451 L
913.64 363.611 L
920.06 283.291 L
926.48 383.693 L
932.9 363.611 L
939.32 423.853 L
945.74 363.611 L
952.16 263.209 L
958.58 323.451 L
965 423.853 L
971.42 464.017 L
977.84 303.369 L
984.26 464.017 L
990.68 403.775 L
997.1 283.291 L
1003.52 243.127 L
1009.94 443.935 L
1016.36 303.369 L
1022.78 343.533 L
1029.2 243.127 L
1035.62 182.884 L
1042.04 283.291 L
1048.46 263.209 L
1054.88 524.26 L
1061.3 323.451 L
1067.72 303.369 L
1074.14 223.049 L
1080.56 303.369 L
1086.98 423.853 L
1093.4 464.017 L
1099.82 383.693 L
1106.24 303.369 L
1112.66 283.291 L
1119.08 283.291 L
1125.5 443.935 L
1131.92 423.853 L
1138.34 403.775 L
1144.76 443.935 L
1151.18 243.127 L
1157.6 283.291 L
1164.02 263.209 L
1170.44 423.853 L
1176.86 464.017 L
1183.28 484.095 L
1189.7 484.095 L
1196.12 343.533 L
1202.54 464.017 L
1208.96 403.775 L
1215.38 323.451 L
1221.8 464.017 L
1228.22 423.853 L
1234.64 323.451 L
1241.06 323.451 L
1247.48 443.935 L
1253.9 303.369 L
1260.32 363.611 L
1266.74 423.853 L
1273.16 343.533 L
1279.58 343.533 L
1286 383.693 L
1292.42 303.369 L
1298.84 464.017 L
1305.26 323.451 L
1311.68 182.884 L
1318.1 323.451 L
1324.52 363.611 L
1330.94 263.209 L
1337.36 423.853 L
1343.78 223.049 L
1350.2 323.451 L
1356.62 343.533 L
1363.04 423.853 L
1369.46 383.693 L
1375.88 343.533 L
1382.3 403.775 L
1388.72 403.775 L
1395.14 524.26 L
1401.56 423.853 L
1407.98 363.611 L
1414.4 263.209 L
1420.82 223.049 L
1427.24 443.935 L
1433.66 464.017 L
1440.08 303.369 L
1446.5 383.693 L
1452.92 383.693 L
1459.34 223.049 L
1465.76 323.451 L
1472.18 363.611 L
1478.6 363.611 L
1485.02 323.451 L
1491.44 283.291 L
1497.86 363.611 L
1504.28 544.338 L
1510.7 524.26 L
1517.12 383.693 L
1523.54 383.693 L
1529.96 383.693 L
1536.38 343.533 L
1542.8 423.853 L
1549.22 283.291 L
1555.64 544.338 L
1562.06 504.177 L
1568.48 263.209 L
1574.9 363.611 L
1581.32 403.775 L
1587.74 484.095 L
1594.16 363.611 L
1600.58 403.775 L
1607 283.291 L
1613.42 182.884 L
1619.84 443.935 L
1626.26 363.611 L
1632.68 303.369 L
1639.1 484.095 L
1645.52 323.451 L
1651.94 323.451 L
1658.36 303.369 L
1664.78 403.775 L
1671.2 323.451 L
1677.62 343.533 L
1684.04 343.533 L
1690.46 263.209 L
1696.88 383.693 L
1703.3 343.533 L
1709.72 283.291 L
1716.14 303.369 L
1722.56 263.209 L
1728.98 283.291 L
1735.4 363.611 L
1741.82 303.369 L
1748.24 343.533 L
1754.66 464.017 L
1761.08 343.533 L
1767.5 202.966 L
1773.92 263.209 L
1780.34 323.451 L
1786.76 403.775 L
1793.18 223.049 L
1799.6 102.564 L
1806.02 303.369 L
1812.44 142.724 L
1818.86 343.533 L
1825.28 524.26 L
1831.7 303.369 L
1838.12 263.209 L
1844.54 182.884 L
1850.96 323.451 L
1857.38 443.935 L
1863.8 182.884 L
1870.22 343.533 L
1876.64 363.611 L
1883.06 423.853 L
1889.48 464.017 L
1895.9 443.935 L
1902.32 283.291 L
1908.74 223.049 L
1915.16 303.369 L
1921.58 323.451 L
1928 263.209 L
1934.42 323.451 L
1940.84 423.853 L
1947.26 443.935 L
1953.68 283.291 L
1960.1 263.209 L
1966.52 343.533 L
1972.94 383.693 L
1979.36 363.611 L
1985.78 283.291 L
1992.2 263.209 L
1998.62 464.017 L
2005.04 283.291 L
2011.46 122.642 L
2017.88 323.451 L
2024.3 363.611 L
2030.72 343.533 L
2037.14 544.338 L
2043.56 343.533 L
2049.98 584.502 L
2056.4 524.26 L
2062.82 303.369 L
2069.24 504.177 L
2075.66 343.533 L
2082.08 263.209 L
2088.5 423.853 L
2094.92 584.502 L
2101.34 383.693 L
2107.76 343.533 L
2114.18 283.291 L
2120.6 283.291 L
2127.02 423.853 L
2133.44 403.775 L
2139.86 323.451 L
2146.28 383.693 L
2152.7 223.049 L
2159.12 343.533 L
2165.54 363.611 L
2171.96 403.775 L
2178.38 343.533 L
2184.8 403.775 L
2191.22 343.533 L
2197.64 283.291 L
2204.06 202.966 L
2210.48 504.177 L
2216.9 544.338 L
2223.32 303.369 L
2229.74 323.451 L
2236.16 303.369 L
2242.58 263.209 L
S
GR
%%Trailer
%%Pages: 1
%%EOF
