%!PS-Adobe-3.0 EPSF-3.0
%%Creator: (MATLAB, The Mathworks, Inc. Version 9.3.0.713579 \(R2017b\). Operating System: Linux)
%%Title: /home/micke/ExamensarbeteCybercom/Measurements/Take2/264/take2/Range26.eps
%%CreationDate: 2018-04-26T09:46:25
%%Pages: (atend)
%%BoundingBox: 0 0 1864 611
%%LanguageLevel: 3
%%EndComments
%%BeginProlog
%%BeginResource: procset (Apache XML Graphics Std ProcSet) 1.2 0
%%Version: 1.2 0
%%Copyright: (Copyright 2001-2003,2010 The Apache Software Foundation. License terms: http://www.apache.org/licenses/LICENSE-2.0)
/bd{bind def}bind def
/ld{load def}bd
/GR/grestore ld
/GS/gsave ld
/RM/rmoveto ld
/C/curveto ld
/t/show ld
/L/lineto ld
/ML/setmiterlimit ld
/CT/concat ld
/f/fill ld
/N/newpath ld
/S/stroke ld
/CC/setcmykcolor ld
/A/ashow ld
/cp/closepath ld
/RC/setrgbcolor ld
/LJ/setlinejoin ld
/GC/setgray ld
/LW/setlinewidth ld
/M/moveto ld
/re {4 2 roll M
1 index 0 rlineto
0 exch rlineto
neg 0 rlineto
cp } bd
/_ctm matrix def
/_tm matrix def
/BT { _ctm currentmatrix pop matrix _tm copy pop 0 0 moveto } bd
/ET { _ctm setmatrix } bd
/iTm { _ctm setmatrix _tm concat } bd
/Tm { _tm astore pop iTm 0 0 moveto } bd
/ux 0.0 def
/uy 0.0 def
/F {
  /Tp exch def
  /Tf exch def
  Tf findfont Tp scalefont setfont
  /cf Tf def  /cs Tp def
} bd
/ULS {currentpoint /uy exch def /ux exch def} bd
/ULE {
  /Tcx currentpoint pop def
  gsave
  newpath
  cf findfont cs scalefont dup
  /FontMatrix get 0 get /Ts exch def /FontInfo get dup
  /UnderlinePosition get Ts mul /To exch def
  /UnderlineThickness get Ts mul /Tt exch def
  ux uy To add moveto  Tcx uy To add lineto
  Tt setlinewidth stroke
  grestore
} bd
/OLE {
  /Tcx currentpoint pop def
  gsave
  newpath
  cf findfont cs scalefont dup
  /FontMatrix get 0 get /Ts exch def /FontInfo get dup
  /UnderlinePosition get Ts mul /To exch def
  /UnderlineThickness get Ts mul /Tt exch def
  ux uy To add cs add moveto Tcx uy To add cs add lineto
  Tt setlinewidth stroke
  grestore
} bd
/SOE {
  /Tcx currentpoint pop def
  gsave
  newpath
  cf findfont cs scalefont dup
  /FontMatrix get 0 get /Ts exch def /FontInfo get dup
  /UnderlinePosition get Ts mul /To exch def
  /UnderlineThickness get Ts mul /Tt exch def
  ux uy To add cs 10 mul 26 idiv add moveto Tcx uy To add cs 10 mul 26 idiv add lineto
  Tt setlinewidth stroke
  grestore
} bd
/QT {
/Y22 exch store
/X22 exch store
/Y21 exch store
/X21 exch store
currentpoint
/Y21 load 2 mul add 3 div exch
/X21 load 2 mul add 3 div exch
/X21 load 2 mul /X22 load add 3 div
/Y21 load 2 mul /Y22 load add 3 div
/X22 load /Y22 load curveto
} bd
/SSPD {
dup length /d exch dict def
{
/v exch def
/k exch def
currentpagedevice k known {
/cpdv currentpagedevice k get def
v cpdv ne {
/upd false def
/nullv v type /nulltype eq def
/nullcpdv cpdv type /nulltype eq def
nullv nullcpdv or
{
/upd true def
} {
/sametype v type cpdv type eq def
sametype {
v type /arraytype eq {
/vlen v length def
/cpdvlen cpdv length def
vlen cpdvlen eq {
0 1 vlen 1 sub {
/i exch def
/obj v i get def
/cpdobj cpdv i get def
obj cpdobj ne {
/upd true def
exit
} if
} for
} {
/upd true def
} ifelse
} {
v type /dicttype eq {
v {
/dv exch def
/dk exch def
/cpddv cpdv dk get def
dv cpddv ne {
/upd true def
exit
} if
} forall
} {
/upd true def
} ifelse
} ifelse
} if
} ifelse
upd true eq {
d k v put
} if
} if
} if
} forall
d length 0 gt {
d setpagedevice
} if
} bd
/RE { % /NewFontName [NewEncodingArray] /FontName RE -
  findfont dup length dict begin
  {
    1 index /FID ne
    {def} {pop pop} ifelse
  } forall
  /Encoding exch def
  /FontName 1 index def
  currentdict definefont pop
  end
} bind def
%%EndResource
%%BeginResource: procset (Apache XML Graphics EPS ProcSet) 1.0 0
%%Version: 1.0 0
%%Copyright: (Copyright 2002-2003 The Apache Software Foundation. License terms: http://www.apache.org/licenses/LICENSE-2.0)
/BeginEPSF { %def
/b4_Inc_state save def         % Save state for cleanup
/dict_count countdictstack def % Count objects on dict stack
/op_count count 1 sub def      % Count objects on operand stack
userdict begin                 % Push userdict on dict stack
/showpage { } def              % Redefine showpage, { } = null proc
0 setgray 0 setlinecap         % Prepare graphics state
1 setlinewidth 0 setlinejoin
10 setmiterlimit [ ] 0 setdash newpath
/languagelevel where           % If level not equal to 1 then
{pop languagelevel             % set strokeadjust and
1 ne                           % overprint to their defaults.
{false setstrokeadjust false setoverprint
} if
} if
} bd
/EndEPSF { %def
count op_count sub {pop} repeat            % Clean up stacks
countdictstack dict_count sub {end} repeat
b4_Inc_state restore
} bd
%%EndResource
%FOPBeginFontDict
%%IncludeResource: font Courier-Oblique
%%IncludeResource: font Courier-BoldOblique
%%IncludeResource: font Courier-Bold
%%IncludeResource: font ZapfDingbats
%%IncludeResource: font Symbol
%%IncludeResource: font Helvetica
%%IncludeResource: font Helvetica-Oblique
%%IncludeResource: font Helvetica-Bold
%%IncludeResource: font Helvetica-BoldOblique
%%IncludeResource: font Times-Roman
%%IncludeResource: font Times-Italic
%%IncludeResource: font Times-Bold
%%IncludeResource: font Times-BoldItalic
%%IncludeResource: font Courier
%FOPEndFontDict
%%BeginResource: encoding WinAnsiEncoding
/WinAnsiEncoding [
/.notdef /.notdef /.notdef /.notdef /.notdef
/.notdef /.notdef /.notdef /.notdef /.notdef
/.notdef /.notdef /.notdef /.notdef /.notdef
/.notdef /.notdef /.notdef /.notdef /.notdef
/.notdef /.notdef /.notdef /.notdef /.notdef
/.notdef /.notdef /.notdef /.notdef /.notdef
/.notdef /.notdef /space /exclam /quotedbl
/numbersign /dollar /percent /ampersand /quotesingle
/parenleft /parenright /asterisk /plus /comma
/hyphen /period /slash /zero /one
/two /three /four /five /six
/seven /eight /nine /colon /semicolon
/less /equal /greater /question /at
/A /B /C /D /E
/F /G /H /I /J
/K /L /M /N /O
/P /Q /R /S /T
/U /V /W /X /Y
/Z /bracketleft /backslash /bracketright /asciicircum
/underscore /quoteleft /a /b /c
/d /e /f /g /h
/i /j /k /l /m
/n /o /p /q /r
/s /t /u /v /w
/x /y /z /braceleft /bar
/braceright /asciitilde /bullet /Euro /bullet
/quotesinglbase /florin /quotedblbase /ellipsis /dagger
/daggerdbl /circumflex /perthousand /Scaron /guilsinglleft
/OE /bullet /Zcaron /bullet /bullet
/quoteleft /quoteright /quotedblleft /quotedblright /bullet
/endash /emdash /asciitilde /trademark /scaron
/guilsinglright /oe /bullet /zcaron /Ydieresis
/space /exclamdown /cent /sterling /currency
/yen /brokenbar /section /dieresis /copyright
/ordfeminine /guillemotleft /logicalnot /sfthyphen /registered
/macron /degree /plusminus /twosuperior /threesuperior
/acute /mu /paragraph /middot /cedilla
/onesuperior /ordmasculine /guillemotright /onequarter /onehalf
/threequarters /questiondown /Agrave /Aacute /Acircumflex
/Atilde /Adieresis /Aring /AE /Ccedilla
/Egrave /Eacute /Ecircumflex /Edieresis /Igrave
/Iacute /Icircumflex /Idieresis /Eth /Ntilde
/Ograve /Oacute /Ocircumflex /Otilde /Odieresis
/multiply /Oslash /Ugrave /Uacute /Ucircumflex
/Udieresis /Yacute /Thorn /germandbls /agrave
/aacute /acircumflex /atilde /adieresis /aring
/ae /ccedilla /egrave /eacute /ecircumflex
/edieresis /igrave /iacute /icircumflex /idieresis
/eth /ntilde /ograve /oacute /ocircumflex
/otilde /odieresis /divide /oslash /ugrave
/uacute /ucircumflex /udieresis /yacute /thorn
/ydieresis
] def
%%EndResource
%FOPBeginFontReencode
/Courier-Oblique findfont
dup length dict begin
  {1 index /FID ne {def} {pop pop} ifelse} forall
  /Encoding WinAnsiEncoding def
  currentdict
end
/Courier-Oblique exch definefont pop
/Courier-BoldOblique findfont
dup length dict begin
  {1 index /FID ne {def} {pop pop} ifelse} forall
  /Encoding WinAnsiEncoding def
  currentdict
end
/Courier-BoldOblique exch definefont pop
/Courier-Bold findfont
dup length dict begin
  {1 index /FID ne {def} {pop pop} ifelse} forall
  /Encoding WinAnsiEncoding def
  currentdict
end
/Courier-Bold exch definefont pop
/Helvetica findfont
dup length dict begin
  {1 index /FID ne {def} {pop pop} ifelse} forall
  /Encoding WinAnsiEncoding def
  currentdict
end
/Helvetica exch definefont pop
/Helvetica-Oblique findfont
dup length dict begin
  {1 index /FID ne {def} {pop pop} ifelse} forall
  /Encoding WinAnsiEncoding def
  currentdict
end
/Helvetica-Oblique exch definefont pop
/Helvetica-Bold findfont
dup length dict begin
  {1 index /FID ne {def} {pop pop} ifelse} forall
  /Encoding WinAnsiEncoding def
  currentdict
end
/Helvetica-Bold exch definefont pop
/Helvetica-BoldOblique findfont
dup length dict begin
  {1 index /FID ne {def} {pop pop} ifelse} forall
  /Encoding WinAnsiEncoding def
  currentdict
end
/Helvetica-BoldOblique exch definefont pop
/Times-Roman findfont
dup length dict begin
  {1 index /FID ne {def} {pop pop} ifelse} forall
  /Encoding WinAnsiEncoding def
  currentdict
end
/Times-Roman exch definefont pop
/Times-Italic findfont
dup length dict begin
  {1 index /FID ne {def} {pop pop} ifelse} forall
  /Encoding WinAnsiEncoding def
  currentdict
end
/Times-Italic exch definefont pop
/Times-Bold findfont
dup length dict begin
  {1 index /FID ne {def} {pop pop} ifelse} forall
  /Encoding WinAnsiEncoding def
  currentdict
end
/Times-Bold exch definefont pop
/Times-BoldItalic findfont
dup length dict begin
  {1 index /FID ne {def} {pop pop} ifelse} forall
  /Encoding WinAnsiEncoding def
  currentdict
end
/Times-BoldItalic exch definefont pop
/Courier findfont
dup length dict begin
  {1 index /FID ne {def} {pop pop} ifelse} forall
  /Encoding WinAnsiEncoding def
  currentdict
end
/Courier exch definefont pop
%FOPEndFontReencode
%%EndProlog
%%Page: 1 1
%%PageBoundingBox: 0 0 1864 611
%%BeginPageSetup
[1 0 0 -1 0 611] CT
%%EndPageSetup
GS
[0.75 0 0 0.75 0 0.5] CT
1 GC
N
0 0 2485 814 re
f
GR
GS
[0.75 0 0 0.75 0 0.5] CT
1 GC
N
0 0 2485 814 re
f
GR
GS
[0.75 0 0 0.75 0 0.5] CT
1 GC
N
323 702 M
2249 702 L
2249 63 L
323 63 L
cp
f
GR
GS
[0.75 0 0 0.75 0 0.5] CT
0.149 GC
2 setlinecap
1 LJ
0.667 LW
N
323 702.001 M
2249 702.001 L
S
GR
GS
[0.75 0 0 0.75 0 0.5] CT
0.149 GC
2 setlinecap
1 LJ
0.667 LW
N
323 63.001 M
2249 63.001 L
S
GR
GS
[0.75 0 0 0.75 0 0.5] CT
0.149 GC
2 setlinecap
1 LJ
0.667 LW
N
323 702.001 M
323 682.739 L
S
GR
GS
[0.75 0 0 0.75 0 0.5] CT
0.149 GC
2 setlinecap
1 LJ
0.667 LW
N
644 702.001 M
644 682.739 L
S
GR
GS
[0.75 0 0 0.75 0 0.5] CT
0.149 GC
2 setlinecap
1 LJ
0.667 LW
N
965 702.001 M
965 682.739 L
S
GR
GS
[0.75 0 0 0.75 0 0.5] CT
0.149 GC
2 setlinecap
1 LJ
0.667 LW
N
1286 702.001 M
1286 682.739 L
S
GR
GS
[0.75 0 0 0.75 0 0.5] CT
0.149 GC
2 setlinecap
1 LJ
0.667 LW
N
1607 702.001 M
1607 682.739 L
S
GR
GS
[0.75 0 0 0.75 0 0.5] CT
0.149 GC
2 setlinecap
1 LJ
0.667 LW
N
1928 702.001 M
1928 682.739 L
S
GR
GS
[0.75 0 0 0.75 0 0.5] CT
0.149 GC
2 setlinecap
1 LJ
0.667 LW
N
2249 702.001 M
2249 682.739 L
S
GR
GS
[0.75 0 0 0.75 0 0.5] CT
0.149 GC
2 setlinecap
1 LJ
0.667 LW
N
323 63.001 M
323 82.263 L
S
GR
GS
[0.75 0 0 0.75 0 0.5] CT
0.149 GC
2 setlinecap
1 LJ
0.667 LW
N
644 63.001 M
644 82.263 L
S
GR
GS
[0.75 0 0 0.75 0 0.5] CT
0.149 GC
2 setlinecap
1 LJ
0.667 LW
N
965 63.001 M
965 82.263 L
S
GR
GS
[0.75 0 0 0.75 0 0.5] CT
0.149 GC
2 setlinecap
1 LJ
0.667 LW
N
1286 63.001 M
1286 82.263 L
S
GR
GS
[0.75 0 0 0.75 0 0.5] CT
0.149 GC
2 setlinecap
1 LJ
0.667 LW
N
1607 63.001 M
1607 82.263 L
S
GR
GS
[0.75 0 0 0.75 0 0.5] CT
0.149 GC
2 setlinecap
1 LJ
0.667 LW
N
1928 63.001 M
1928 82.263 L
S
GR
GS
[0.75 0 0 0.75 0 0.5] CT
0.149 GC
2 setlinecap
1 LJ
0.667 LW
N
2249 63.001 M
2249 82.263 L
S
GR
GS
[0.75 0 0 0.75 242.25 535.00089] CT
0.149 GC
/Helvetica 40 F
GS
[1 0 0 1 0 0] CT
-13 38 moveto 
1 -1 scale
(0) t 
GR
GR
GS
[0.75 0 0 0.75 483 535.00089] CT
0.149 GC
/Helvetica 40 F
GS
[1 0 0 1 0 0] CT
-25.5 38 moveto 
1 -1 scale
(20) t 
GR
GR
GS
[0.75 0 0 0.75 723.75 535.00089] CT
0.149 GC
/Helvetica 40 F
GS
[1 0 0 1 0 0] CT
-25.5 38 moveto 
1 -1 scale
(40) t 
GR
GR
GS
[0.75 0 0 0.75 964.5 535.00089] CT
0.149 GC
/Helvetica 40 F
GS
[1 0 0 1 0 0] CT
-25.5 38 moveto 
1 -1 scale
(60) t 
GR
GR
GS
[0.75 0 0 0.75 1205.25 535.00089] CT
0.149 GC
/Helvetica 40 F
GS
[1 0 0 1 0 0] CT
-25.5 38 moveto 
1 -1 scale
(80) t 
GR
GR
GS
[0.75 0 0 0.75 1446 535.00089] CT
0.149 GC
/Helvetica 40 F
GS
[1 0 0 1 0 0] CT
-38.5 38 moveto 
1 -1 scale
(100) t 
GR
GR
GS
[0.75 0 0 0.75 1686.75 535.00089] CT
0.149 GC
/Helvetica 40 F
GS
[1 0 0 1 0 0] CT
-38.5 38 moveto 
1 -1 scale
(120) t 
GR
GR
GS
[0.75 0 0 0.75 964.50073 571.99991] CT
0.149 GC
/Helvetica 44 F
GS
[1 0 0 1 0 0] CT
-90.5 41 moveto 
1 -1 scale
(Time [s]) t 
GR
GR
GS
[0.75 0 0 0.75 0 0.5] CT
0.149 GC
2 setlinecap
1 LJ
0.667 LW
N
323 702.001 M
323 63.001 L
S
GR
GS
[0.75 0 0 0.75 0 0.5] CT
0.149 GC
2 setlinecap
1 LJ
0.667 LW
N
2249 702.001 M
2249 63.001 L
S
GR
GS
[0.75 0 0 0.75 0 0.5] CT
0.149 GC
2 setlinecap
1 LJ
0.667 LW
N
323 702.001 M
342.26 702.001 L
S
GR
GS
[0.75 0 0 0.75 0 0.5] CT
0.149 GC
2 setlinecap
1 LJ
0.667 LW
N
323 574.198 M
342.26 574.198 L
S
GR
GS
[0.75 0 0 0.75 0 0.5] CT
0.149 GC
2 setlinecap
1 LJ
0.667 LW
N
323 446.4 M
342.26 446.4 L
S
GR
GS
[0.75 0 0 0.75 0 0.5] CT
0.149 GC
2 setlinecap
1 LJ
0.667 LW
N
323 318.602 M
342.26 318.602 L
S
GR
GS
[0.75 0 0 0.75 0 0.5] CT
0.149 GC
2 setlinecap
1 LJ
0.667 LW
N
323 190.799 M
342.26 190.799 L
S
GR
GS
[0.75 0 0 0.75 0 0.5] CT
0.149 GC
2 setlinecap
1 LJ
0.667 LW
N
323 63.001 M
342.26 63.001 L
S
GR
GS
[0.75 0 0 0.75 0 0.5] CT
0.149 GC
2 setlinecap
1 LJ
0.667 LW
N
2249 702.001 M
2229.74 702.001 L
S
GR
GS
[0.75 0 0 0.75 0 0.5] CT
0.149 GC
2 setlinecap
1 LJ
0.667 LW
N
2249 574.198 M
2229.74 574.198 L
S
GR
GS
[0.75 0 0 0.75 0 0.5] CT
0.149 GC
2 setlinecap
1 LJ
0.667 LW
N
2249 446.4 M
2229.74 446.4 L
S
GR
GS
[0.75 0 0 0.75 0 0.5] CT
0.149 GC
2 setlinecap
1 LJ
0.667 LW
N
2249 318.602 M
2229.74 318.602 L
S
GR
GS
[0.75 0 0 0.75 0 0.5] CT
0.149 GC
2 setlinecap
1 LJ
0.667 LW
N
2249 190.799 M
2229.74 190.799 L
S
GR
GS
[0.75 0 0 0.75 0 0.5] CT
0.149 GC
2 setlinecap
1 LJ
0.667 LW
N
2249 63.001 M
2229.74 63.001 L
S
GR
GS
[0.75 0 0 0.75 234.25001 527.00073] CT
0.149 GC
/Helvetica 40 F
GS
[1 0 0 1 0 0] CT
-90 14 moveto 
1 -1 scale
(25.9) t 
GR
GR
GS
[0.75 0 0 0.75 234.25001 431.14854] CT
0.149 GC
/Helvetica 40 F
GS
[1 0 0 1 0 0] CT
-115 14 moveto 
1 -1 scale
(25.95) t 
GR
GR
GS
[0.75 0 0 0.75 234.25001 335.3] CT
0.149 GC
/Helvetica 40 F
GS
[1 0 0 1 0 0] CT
-51 14 moveto 
1 -1 scale
(26) t 
GR
GR
GS
[0.75 0 0 0.75 234.25001 239.45147] CT
0.149 GC
/Helvetica 40 F
GS
[1 0 0 1 0 0] CT
-115 14 moveto 
1 -1 scale
(26.05) t 
GR
GR
GS
[0.75 0 0 0.75 234.25001 143.59927] CT
0.149 GC
/Helvetica 40 F
GS
[1 0 0 1 0 0] CT
-90 14 moveto 
1 -1 scale
(26.1) t 
GR
GR
GS
[0.75 0 0 0.75 234.25001 47.75073] CT
0.149 GC
/Helvetica 40 F
GS
[1 0 0 1 0 0] CT
-115 14 moveto 
1 -1 scale
(26.15) t 
GR
GR
GS
[0 -0.75 0.75 0 145.00001 287.37573] CT
0.149 GC
/Helvetica 44 F
GS
[1 0 0 1 0 0] CT
-116 -11 moveto 
1 -1 scale
(Range [m]) t 
GR
GR
GS
[0.75 0 0 0.75 964.50092 41.56413] CT
/Helvetica-Bold 44 F
GS
[1 0 0 1 0 0] CT
-473.5 -11 moveto 
1 -1 scale
(Unfiltered readings from UWB module) t 
GR
GR
GS
[0.75 0 0 0.75 0 0.5] CT
0 0 1 RC
1 LJ
0.667 LW
N
323 154.099 M
329.399 429.922 L
335.797 238.044 L
342.196 166.092 L
348.595 381.95 L
354.993 262.03 L
361.392 381.95 L
367.791 441.91 L
374.189 345.976 L
380.588 453.903 L
386.987 345.976 L
393.385 417.929 L
399.784 333.983 L
406.183 381.95 L
412.581 465.896 L
418.98 441.91 L
425.379 393.943 L
431.777 429.922 L
438.176 369.957 L
444.575 214.059 L
450.973 321.99 L
457.372 333.983 L
463.771 238.044 L
470.169 178.085 L
476.568 238.044 L
482.967 405.936 L
489.365 321.99 L
495.764 357.969 L
502.163 357.969 L
508.561 357.969 L
514.96 214.059 L
521.359 549.842 L
527.757 262.03 L
534.156 369.957 L
540.555 286.016 L
546.953 429.922 L
553.352 489.882 L
559.751 477.889 L
566.149 393.943 L
572.548 357.969 L
578.947 417.929 L
585.346 417.929 L
591.744 309.997 L
598.143 345.976 L
604.542 142.106 L
610.94 298.004 L
617.339 142.106 L
623.738 202.07 L
630.136 178.085 L
636.535 417.929 L
642.934 321.99 L
649.332 405.936 L
655.731 298.004 L
662.13 369.957 L
668.528 321.99 L
674.927 585.816 L
681.326 202.07 L
687.724 309.997 L
694.123 286.016 L
700.522 393.943 L
706.92 393.943 L
713.319 250.037 L
719.718 453.903 L
726.116 70.153 L
732.515 250.037 L
738.914 429.922 L
745.312 321.99 L
751.711 357.969 L
758.11 417.929 L
764.508 321.99 L
770.907 357.969 L
777.306 262.03 L
783.704 309.997 L
790.103 381.95 L
796.502 226.051 L
802.9 238.044 L
809.299 274.023 L
815.698 417.929 L
822.096 202.07 L
828.495 357.969 L
834.894 369.957 L
841.292 309.997 L
847.691 321.99 L
854.09 250.037 L
860.488 501.875 L
866.887 106.132 L
873.286 381.95 L
879.684 417.929 L
886.083 333.983 L
892.482 274.023 L
898.88 369.957 L
905.279 214.059 L
911.678 154.099 L
918.076 333.983 L
924.475 369.957 L
930.874 369.957 L
937.272 286.016 L
943.671 286.016 L
950.07 345.976 L
956.468 381.95 L
962.867 298.004 L
969.266 369.957 L
975.664 453.903 L
982.063 309.997 L
988.462 333.983 L
994.86 417.929 L
1001.259 333.983 L
1007.658 298.004 L
1014.056 333.983 L
1020.455 238.044 L
1026.854 369.957 L
1033.252 238.044 L
1039.651 238.044 L
1046.05 142.106 L
1052.448 333.983 L
1058.847 262.03 L
1065.246 333.983 L
1071.645 202.07 L
1078.043 513.863 L
1084.442 142.106 L
1090.84 429.922 L
1097.239 417.929 L
1103.638 309.997 L
1110.036 345.976 L
1116.435 238.044 L
1122.834 178.085 L
1129.233 178.085 L
1135.631 381.95 L
1142.03 525.856 L
1148.429 274.023 L
1154.827 262.03 L
1161.226 298.004 L
1167.625 274.023 L
1174.023 369.957 L
1180.422 405.936 L
1186.821 465.896 L
1193.219 561.835 L
1199.618 321.99 L
1206.017 214.059 L
1212.415 298.004 L
1218.814 357.969 L
1225.213 585.816 L
1231.611 417.929 L
1238.01 405.936 L
1244.409 441.91 L
1250.807 489.882 L
1257.206 417.929 L
1263.605 489.882 L
1270.003 154.099 L
1276.402 405.936 L
1282.801 369.957 L
1289.199 489.882 L
1295.598 417.929 L
1301.997 381.95 L
1308.395 465.896 L
1314.794 525.856 L
1321.193 501.875 L
1327.591 549.842 L
1333.99 477.889 L
1340.389 417.929 L
1346.787 298.004 L
1353.186 357.969 L
1359.585 453.903 L
1365.983 178.085 L
1372.382 489.882 L
1378.781 441.91 L
1385.179 441.91 L
1391.578 357.969 L
1397.977 262.03 L
1404.375 477.889 L
1410.774 238.044 L
1417.173 238.044 L
1423.571 501.875 L
1429.97 681.754 L
1436.369 357.969 L
1442.767 274.023 L
1449.166 309.997 L
1455.565 465.896 L
1461.964 262.03 L
1468.362 262.03 L
1474.761 166.092 L
1481.16 501.875 L
1487.558 154.099 L
1493.957 250.037 L
1500.355 381.95 L
1506.754 477.889 L
1513.153 226.051 L
1519.552 286.016 L
1525.95 286.016 L
1532.349 633.787 L
1538.747 393.943 L
1545.146 357.969 L
1551.545 429.922 L
1557.943 429.922 L
1564.342 453.903 L
1570.741 202.07 L
1577.14 393.943 L
1583.538 429.922 L
1589.937 214.059 L
1596.336 405.936 L
1602.734 309.997 L
1609.133 369.957 L
1615.532 345.976 L
1621.93 417.929 L
1628.329 345.976 L
1634.728 369.957 L
1641.126 286.016 L
1647.525 202.07 L
1653.924 345.976 L
1660.322 226.051 L
1666.721 262.03 L
1673.12 345.976 L
1679.518 298.004 L
1685.917 298.004 L
1692.316 274.023 L
1698.714 393.943 L
1705.113 393.943 L
1711.512 393.943 L
1717.91 393.943 L
1724.309 405.936 L
1730.708 585.816 L
1737.106 381.95 L
1743.505 214.059 L
1749.904 465.896 L
1756.302 369.957 L
1762.701 393.943 L
1769.1 561.835 L
1775.498 381.95 L
1781.897 477.889 L
1788.296 345.976 L
1794.694 405.936 L
1801.093 477.889 L
1807.492 417.929 L
1813.89 309.997 L
1820.289 465.896 L
1826.688 441.91 L
1833.086 369.957 L
1839.485 429.922 L
1845.884 405.936 L
1852.282 489.882 L
1858.681 501.875 L
1865.08 417.929 L
1871.479 501.875 L
1877.877 429.922 L
1884.276 477.889 L
1890.674 441.91 L
1897.073 321.99 L
1903.472 489.882 L
1909.87 345.976 L
1916.269 381.95 L
1922.668 405.936 L
1929.066 417.929 L
1935.465 250.037 L
1941.864 465.896 L
1948.262 94.139 L
1954.661 441.91 L
1961.06 345.976 L
1967.458 250.037 L
1973.857 274.023 L
1980.256 274.023 L
1986.655 178.085 L
1993.053 381.95 L
1999.452 357.969 L
2005.851 417.929 L
2012.249 214.059 L
2018.648 393.943 L
2025.047 525.856 L
2031.445 345.976 L
2037.844 465.896 L
2044.243 405.936 L
2050.641 573.828 L
2057.04 202.07 L
2063.438 369.957 L
2069.837 321.99 L
2076.236 250.037 L
2082.635 429.922 L
2089.033 417.929 L
2095.432 357.969 L
2101.831 417.929 L
2108.229 333.983 L
2114.628 537.849 L
2121.027 345.976 L
2127.425 321.99 L
2133.824 453.903 L
2140.222 262.03 L
2146.621 417.929 L
2153.02 417.929 L
2159.418 513.863 L
2165.817 333.983 L
2172.216 262.03 L
2178.615 441.91 L
2185.013 357.969 L
2191.412 513.863 L
2197.811 345.976 L
2204.209 465.896 L
2210.608 441.91 L
2217.007 477.889 L
2223.405 393.943 L
2229.804 405.936 L
2236.203 513.863 L
2242.601 321.99 L
S
GR
%%Trailer
%%Pages: 1
%%EOF
