%!PS-Adobe-3.0 EPSF-3.0
%%Creator: (MATLAB, The Mathworks, Inc. Version 9.3.0.713579 \(R2017b\). Operating System: Linux)
%%Title: /home/micke/ExamensarbeteCybercom/calibration/module4/pics/range8_4.eps
%%CreationDate: 2018-04-26T10:40:44
%%Pages: (atend)
%%BoundingBox: 0 0 1864 615
%%LanguageLevel: 3
%%EndComments
%%BeginProlog
%%BeginResource: procset (Apache XML Graphics Std ProcSet) 1.2 0
%%Version: 1.2 0
%%Copyright: (Copyright 2001-2003,2010 The Apache Software Foundation. License terms: http://www.apache.org/licenses/LICENSE-2.0)
/bd{bind def}bind def
/ld{load def}bd
/GR/grestore ld
/GS/gsave ld
/RM/rmoveto ld
/C/curveto ld
/t/show ld
/L/lineto ld
/ML/setmiterlimit ld
/CT/concat ld
/f/fill ld
/N/newpath ld
/S/stroke ld
/CC/setcmykcolor ld
/A/ashow ld
/cp/closepath ld
/RC/setrgbcolor ld
/LJ/setlinejoin ld
/GC/setgray ld
/LW/setlinewidth ld
/M/moveto ld
/re {4 2 roll M
1 index 0 rlineto
0 exch rlineto
neg 0 rlineto
cp } bd
/_ctm matrix def
/_tm matrix def
/BT { _ctm currentmatrix pop matrix _tm copy pop 0 0 moveto } bd
/ET { _ctm setmatrix } bd
/iTm { _ctm setmatrix _tm concat } bd
/Tm { _tm astore pop iTm 0 0 moveto } bd
/ux 0.0 def
/uy 0.0 def
/F {
  /Tp exch def
  /Tf exch def
  Tf findfont Tp scalefont setfont
  /cf Tf def  /cs Tp def
} bd
/ULS {currentpoint /uy exch def /ux exch def} bd
/ULE {
  /Tcx currentpoint pop def
  gsave
  newpath
  cf findfont cs scalefont dup
  /FontMatrix get 0 get /Ts exch def /FontInfo get dup
  /UnderlinePosition get Ts mul /To exch def
  /UnderlineThickness get Ts mul /Tt exch def
  ux uy To add moveto  Tcx uy To add lineto
  Tt setlinewidth stroke
  grestore
} bd
/OLE {
  /Tcx currentpoint pop def
  gsave
  newpath
  cf findfont cs scalefont dup
  /FontMatrix get 0 get /Ts exch def /FontInfo get dup
  /UnderlinePosition get Ts mul /To exch def
  /UnderlineThickness get Ts mul /Tt exch def
  ux uy To add cs add moveto Tcx uy To add cs add lineto
  Tt setlinewidth stroke
  grestore
} bd
/SOE {
  /Tcx currentpoint pop def
  gsave
  newpath
  cf findfont cs scalefont dup
  /FontMatrix get 0 get /Ts exch def /FontInfo get dup
  /UnderlinePosition get Ts mul /To exch def
  /UnderlineThickness get Ts mul /Tt exch def
  ux uy To add cs 10 mul 26 idiv add moveto Tcx uy To add cs 10 mul 26 idiv add lineto
  Tt setlinewidth stroke
  grestore
} bd
/QT {
/Y22 exch store
/X22 exch store
/Y21 exch store
/X21 exch store
currentpoint
/Y21 load 2 mul add 3 div exch
/X21 load 2 mul add 3 div exch
/X21 load 2 mul /X22 load add 3 div
/Y21 load 2 mul /Y22 load add 3 div
/X22 load /Y22 load curveto
} bd
/SSPD {
dup length /d exch dict def
{
/v exch def
/k exch def
currentpagedevice k known {
/cpdv currentpagedevice k get def
v cpdv ne {
/upd false def
/nullv v type /nulltype eq def
/nullcpdv cpdv type /nulltype eq def
nullv nullcpdv or
{
/upd true def
} {
/sametype v type cpdv type eq def
sametype {
v type /arraytype eq {
/vlen v length def
/cpdvlen cpdv length def
vlen cpdvlen eq {
0 1 vlen 1 sub {
/i exch def
/obj v i get def
/cpdobj cpdv i get def
obj cpdobj ne {
/upd true def
exit
} if
} for
} {
/upd true def
} ifelse
} {
v type /dicttype eq {
v {
/dv exch def
/dk exch def
/cpddv cpdv dk get def
dv cpddv ne {
/upd true def
exit
} if
} forall
} {
/upd true def
} ifelse
} ifelse
} if
} ifelse
upd true eq {
d k v put
} if
} if
} if
} forall
d length 0 gt {
d setpagedevice
} if
} bd
/RE { % /NewFontName [NewEncodingArray] /FontName RE -
  findfont dup length dict begin
  {
    1 index /FID ne
    {def} {pop pop} ifelse
  } forall
  /Encoding exch def
  /FontName 1 index def
  currentdict definefont pop
  end
} bind def
%%EndResource
%%BeginResource: procset (Apache XML Graphics EPS ProcSet) 1.0 0
%%Version: 1.0 0
%%Copyright: (Copyright 2002-2003 The Apache Software Foundation. License terms: http://www.apache.org/licenses/LICENSE-2.0)
/BeginEPSF { %def
/b4_Inc_state save def         % Save state for cleanup
/dict_count countdictstack def % Count objects on dict stack
/op_count count 1 sub def      % Count objects on operand stack
userdict begin                 % Push userdict on dict stack
/showpage { } def              % Redefine showpage, { } = null proc
0 setgray 0 setlinecap         % Prepare graphics state
1 setlinewidth 0 setlinejoin
10 setmiterlimit [ ] 0 setdash newpath
/languagelevel where           % If level not equal to 1 then
{pop languagelevel             % set strokeadjust and
1 ne                           % overprint to their defaults.
{false setstrokeadjust false setoverprint
} if
} if
} bd
/EndEPSF { %def
count op_count sub {pop} repeat            % Clean up stacks
countdictstack dict_count sub {end} repeat
b4_Inc_state restore
} bd
%%EndResource
%FOPBeginFontDict
%%IncludeResource: font Courier-Oblique
%%IncludeResource: font Courier-BoldOblique
%%IncludeResource: font Courier-Bold
%%IncludeResource: font ZapfDingbats
%%IncludeResource: font Symbol
%%IncludeResource: font Helvetica
%%IncludeResource: font Helvetica-Oblique
%%IncludeResource: font Helvetica-Bold
%%IncludeResource: font Helvetica-BoldOblique
%%IncludeResource: font Times-Roman
%%IncludeResource: font Times-Italic
%%IncludeResource: font Times-Bold
%%IncludeResource: font Times-BoldItalic
%%IncludeResource: font Courier
%FOPEndFontDict
%%BeginResource: encoding WinAnsiEncoding
/WinAnsiEncoding [
/.notdef /.notdef /.notdef /.notdef /.notdef
/.notdef /.notdef /.notdef /.notdef /.notdef
/.notdef /.notdef /.notdef /.notdef /.notdef
/.notdef /.notdef /.notdef /.notdef /.notdef
/.notdef /.notdef /.notdef /.notdef /.notdef
/.notdef /.notdef /.notdef /.notdef /.notdef
/.notdef /.notdef /space /exclam /quotedbl
/numbersign /dollar /percent /ampersand /quotesingle
/parenleft /parenright /asterisk /plus /comma
/hyphen /period /slash /zero /one
/two /three /four /five /six
/seven /eight /nine /colon /semicolon
/less /equal /greater /question /at
/A /B /C /D /E
/F /G /H /I /J
/K /L /M /N /O
/P /Q /R /S /T
/U /V /W /X /Y
/Z /bracketleft /backslash /bracketright /asciicircum
/underscore /quoteleft /a /b /c
/d /e /f /g /h
/i /j /k /l /m
/n /o /p /q /r
/s /t /u /v /w
/x /y /z /braceleft /bar
/braceright /asciitilde /bullet /Euro /bullet
/quotesinglbase /florin /quotedblbase /ellipsis /dagger
/daggerdbl /circumflex /perthousand /Scaron /guilsinglleft
/OE /bullet /Zcaron /bullet /bullet
/quoteleft /quoteright /quotedblleft /quotedblright /bullet
/endash /emdash /asciitilde /trademark /scaron
/guilsinglright /oe /bullet /zcaron /Ydieresis
/space /exclamdown /cent /sterling /currency
/yen /brokenbar /section /dieresis /copyright
/ordfeminine /guillemotleft /logicalnot /sfthyphen /registered
/macron /degree /plusminus /twosuperior /threesuperior
/acute /mu /paragraph /middot /cedilla
/onesuperior /ordmasculine /guillemotright /onequarter /onehalf
/threequarters /questiondown /Agrave /Aacute /Acircumflex
/Atilde /Adieresis /Aring /AE /Ccedilla
/Egrave /Eacute /Ecircumflex /Edieresis /Igrave
/Iacute /Icircumflex /Idieresis /Eth /Ntilde
/Ograve /Oacute /Ocircumflex /Otilde /Odieresis
/multiply /Oslash /Ugrave /Uacute /Ucircumflex
/Udieresis /Yacute /Thorn /germandbls /agrave
/aacute /acircumflex /atilde /adieresis /aring
/ae /ccedilla /egrave /eacute /ecircumflex
/edieresis /igrave /iacute /icircumflex /idieresis
/eth /ntilde /ograve /oacute /ocircumflex
/otilde /odieresis /divide /oslash /ugrave
/uacute /ucircumflex /udieresis /yacute /thorn
/ydieresis
] def
%%EndResource
%FOPBeginFontReencode
/Courier-Oblique findfont
dup length dict begin
  {1 index /FID ne {def} {pop pop} ifelse} forall
  /Encoding WinAnsiEncoding def
  currentdict
end
/Courier-Oblique exch definefont pop
/Courier-BoldOblique findfont
dup length dict begin
  {1 index /FID ne {def} {pop pop} ifelse} forall
  /Encoding WinAnsiEncoding def
  currentdict
end
/Courier-BoldOblique exch definefont pop
/Courier-Bold findfont
dup length dict begin
  {1 index /FID ne {def} {pop pop} ifelse} forall
  /Encoding WinAnsiEncoding def
  currentdict
end
/Courier-Bold exch definefont pop
/Helvetica findfont
dup length dict begin
  {1 index /FID ne {def} {pop pop} ifelse} forall
  /Encoding WinAnsiEncoding def
  currentdict
end
/Helvetica exch definefont pop
/Helvetica-Oblique findfont
dup length dict begin
  {1 index /FID ne {def} {pop pop} ifelse} forall
  /Encoding WinAnsiEncoding def
  currentdict
end
/Helvetica-Oblique exch definefont pop
/Helvetica-Bold findfont
dup length dict begin
  {1 index /FID ne {def} {pop pop} ifelse} forall
  /Encoding WinAnsiEncoding def
  currentdict
end
/Helvetica-Bold exch definefont pop
/Helvetica-BoldOblique findfont
dup length dict begin
  {1 index /FID ne {def} {pop pop} ifelse} forall
  /Encoding WinAnsiEncoding def
  currentdict
end
/Helvetica-BoldOblique exch definefont pop
/Times-Roman findfont
dup length dict begin
  {1 index /FID ne {def} {pop pop} ifelse} forall
  /Encoding WinAnsiEncoding def
  currentdict
end
/Times-Roman exch definefont pop
/Times-Italic findfont
dup length dict begin
  {1 index /FID ne {def} {pop pop} ifelse} forall
  /Encoding WinAnsiEncoding def
  currentdict
end
/Times-Italic exch definefont pop
/Times-Bold findfont
dup length dict begin
  {1 index /FID ne {def} {pop pop} ifelse} forall
  /Encoding WinAnsiEncoding def
  currentdict
end
/Times-Bold exch definefont pop
/Times-BoldItalic findfont
dup length dict begin
  {1 index /FID ne {def} {pop pop} ifelse} forall
  /Encoding WinAnsiEncoding def
  currentdict
end
/Times-BoldItalic exch definefont pop
/Courier findfont
dup length dict begin
  {1 index /FID ne {def} {pop pop} ifelse} forall
  /Encoding WinAnsiEncoding def
  currentdict
end
/Courier exch definefont pop
%FOPEndFontReencode
%%EndProlog
%%Page: 1 1
%%PageBoundingBox: 0 0 1864 615
%%BeginPageSetup
[1 0 0 -1 0 615] CT
%%EndPageSetup
GS
[0.75 0 0 0.75 0 0] CT
1 GC
N
0 0 2485 820 re
f
GR
GS
[0.75 0 0 0.75 0 0] CT
1 GC
N
0 0 2485 820 re
f
GR
GS
[0.75 0 0 0.75 0 0] CT
1 GC
N
323 708 M
2249 708 L
2249 64 L
323 64 L
cp
f
GR
GS
[0.75 0 0 0.75 0 0] CT
0.149 GC
2 setlinecap
1 LJ
0.667 LW
N
323 707.999 M
2249 707.999 L
S
GR
GS
[0.75 0 0 0.75 0 0] CT
0.149 GC
2 setlinecap
1 LJ
0.667 LW
N
323 63.999 M
2249 63.999 L
S
GR
GS
[0.75 0 0 0.75 0 0] CT
0.149 GC
2 setlinecap
1 LJ
0.667 LW
N
323 707.999 M
323 688.739 L
S
GR
GS
[0.75 0 0 0.75 0 0] CT
0.149 GC
2 setlinecap
1 LJ
0.667 LW
N
644 707.999 M
644 688.739 L
S
GR
GS
[0.75 0 0 0.75 0 0] CT
0.149 GC
2 setlinecap
1 LJ
0.667 LW
N
965 707.999 M
965 688.739 L
S
GR
GS
[0.75 0 0 0.75 0 0] CT
0.149 GC
2 setlinecap
1 LJ
0.667 LW
N
1286 707.999 M
1286 688.739 L
S
GR
GS
[0.75 0 0 0.75 0 0] CT
0.149 GC
2 setlinecap
1 LJ
0.667 LW
N
1607 707.999 M
1607 688.739 L
S
GR
GS
[0.75 0 0 0.75 0 0] CT
0.149 GC
2 setlinecap
1 LJ
0.667 LW
N
1928 707.999 M
1928 688.739 L
S
GR
GS
[0.75 0 0 0.75 0 0] CT
0.149 GC
2 setlinecap
1 LJ
0.667 LW
N
2249 707.999 M
2249 688.739 L
S
GR
GS
[0.75 0 0 0.75 0 0] CT
0.149 GC
2 setlinecap
1 LJ
0.667 LW
N
323 63.999 M
323 83.26 L
S
GR
GS
[0.75 0 0 0.75 0 0] CT
0.149 GC
2 setlinecap
1 LJ
0.667 LW
N
644 63.999 M
644 83.26 L
S
GR
GS
[0.75 0 0 0.75 0 0] CT
0.149 GC
2 setlinecap
1 LJ
0.667 LW
N
965 63.999 M
965 83.26 L
S
GR
GS
[0.75 0 0 0.75 0 0] CT
0.149 GC
2 setlinecap
1 LJ
0.667 LW
N
1286 63.999 M
1286 83.26 L
S
GR
GS
[0.75 0 0 0.75 0 0] CT
0.149 GC
2 setlinecap
1 LJ
0.667 LW
N
1607 63.999 M
1607 83.26 L
S
GR
GS
[0.75 0 0 0.75 0 0] CT
0.149 GC
2 setlinecap
1 LJ
0.667 LW
N
1928 63.999 M
1928 83.26 L
S
GR
GS
[0.75 0 0 0.75 0 0] CT
0.149 GC
2 setlinecap
1 LJ
0.667 LW
N
2249 63.999 M
2249 83.26 L
S
GR
GS
[0.75 0 0 0.75 242.25 539.00015] CT
0.149 GC
/Helvetica 40 F
GS
[1 0 0 1 0 0] CT
-13 38 moveto 
1 -1 scale
(0) t 
GR
GR
GS
[0.75 0 0 0.75 483 539.00015] CT
0.149 GC
/Helvetica 40 F
GS
[1 0 0 1 0 0] CT
-25.5 38 moveto 
1 -1 scale
(20) t 
GR
GR
GS
[0.75 0 0 0.75 723.75 539.00015] CT
0.149 GC
/Helvetica 40 F
GS
[1 0 0 1 0 0] CT
-25.5 38 moveto 
1 -1 scale
(40) t 
GR
GR
GS
[0.75 0 0 0.75 964.5 539.00015] CT
0.149 GC
/Helvetica 40 F
GS
[1 0 0 1 0 0] CT
-25.5 38 moveto 
1 -1 scale
(60) t 
GR
GR
GS
[0.75 0 0 0.75 1205.25 539.00015] CT
0.149 GC
/Helvetica 40 F
GS
[1 0 0 1 0 0] CT
-25.5 38 moveto 
1 -1 scale
(80) t 
GR
GR
GS
[0.75 0 0 0.75 1446 539.00015] CT
0.149 GC
/Helvetica 40 F
GS
[1 0 0 1 0 0] CT
-38.5 38 moveto 
1 -1 scale
(100) t 
GR
GR
GS
[0.75 0 0 0.75 1686.75 539.00015] CT
0.149 GC
/Helvetica 40 F
GS
[1 0 0 1 0 0] CT
-38.5 38 moveto 
1 -1 scale
(120) t 
GR
GR
GS
[0.75 0 0 0.75 964.50073 575.99982] CT
0.149 GC
/Helvetica 44 F
GS
[1 0 0 1 0 0] CT
-90.5 41 moveto 
1 -1 scale
(Time [s]) t 
GR
GR
GS
[0.75 0 0 0.75 0 0] CT
0.149 GC
2 setlinecap
1 LJ
0.667 LW
N
323 707.999 M
323 63.999 L
S
GR
GS
[0.75 0 0 0.75 0 0] CT
0.149 GC
2 setlinecap
1 LJ
0.667 LW
N
2249 707.999 M
2249 63.999 L
S
GR
GS
[0.75 0 0 0.75 0 0] CT
0.149 GC
2 setlinecap
1 LJ
0.667 LW
N
323 707.999 M
342.26 707.999 L
S
GR
GS
[0.75 0 0 0.75 0 0] CT
0.149 GC
2 setlinecap
1 LJ
0.667 LW
N
323 547.001 M
342.26 547.001 L
S
GR
GS
[0.75 0 0 0.75 0 0] CT
0.149 GC
2 setlinecap
1 LJ
0.667 LW
N
323 386.001 M
342.26 386.001 L
S
GR
GS
[0.75 0 0 0.75 0 0] CT
0.149 GC
2 setlinecap
1 LJ
0.667 LW
N
323 225 M
342.26 225 L
S
GR
GS
[0.75 0 0 0.75 0 0] CT
0.149 GC
2 setlinecap
1 LJ
0.667 LW
N
323 63.999 M
342.26 63.999 L
S
GR
GS
[0.75 0 0 0.75 0 0] CT
0.149 GC
2 setlinecap
1 LJ
0.667 LW
N
2249 707.999 M
2229.74 707.999 L
S
GR
GS
[0.75 0 0 0.75 0 0] CT
0.149 GC
2 setlinecap
1 LJ
0.667 LW
N
2249 547.001 M
2229.74 547.001 L
S
GR
GS
[0.75 0 0 0.75 0 0] CT
0.149 GC
2 setlinecap
1 LJ
0.667 LW
N
2249 386.001 M
2229.74 386.001 L
S
GR
GS
[0.75 0 0 0.75 0 0] CT
0.149 GC
2 setlinecap
1 LJ
0.667 LW
N
2249 225 M
2229.74 225 L
S
GR
GS
[0.75 0 0 0.75 0 0] CT
0.149 GC
2 setlinecap
1 LJ
0.667 LW
N
2249 63.999 M
2229.74 63.999 L
S
GR
GS
[0.75 0 0 0.75 234.25001 530.99908] CT
0.149 GC
/Helvetica 40 F
GS
[1 0 0 1 0 0] CT
-64 14 moveto 
1 -1 scale
(8.6) t 
GR
GR
GS
[0.75 0 0 0.75 234.25001 410.25092] CT
0.149 GC
/Helvetica 40 F
GS
[1 0 0 1 0 0] CT
-90 14 moveto 
1 -1 scale
(8.65) t 
GR
GR
GS
[0.75 0 0 0.75 234.25001 289.50046] CT
0.149 GC
/Helvetica 40 F
GS
[1 0 0 1 0 0] CT
-64 14 moveto 
1 -1 scale
(8.7) t 
GR
GR
GS
[0.75 0 0 0.75 234.25001 168.75] CT
0.149 GC
/Helvetica 40 F
GS
[1 0 0 1 0 0] CT
-90 14 moveto 
1 -1 scale
(8.75) t 
GR
GR
GS
[0.75 0 0 0.75 234.25001 47.99954] CT
0.149 GC
/Helvetica 40 F
GS
[1 0 0 1 0 0] CT
-64 14 moveto 
1 -1 scale
(8.8) t 
GR
GR
GS
[0 -0.75 0.75 0 163.75001 289.49815] CT
0.149 GC
/Helvetica 44 F
GS
[1 0 0 1 0 0] CT
-116 -11 moveto 
1 -1 scale
(Range [m]) t 
GR
GR
GS
[0.75 0 0 0.75 964.50092 41.82256] CT
/Helvetica-Bold 44 F
GS
[1 0 0 1 0 0] CT
-473.5 -11 moveto 
1 -1 scale
(Unfiltered readings from UWB module) t 
GR
GR
GS
[0.75 0 0 0.75 0 0] CT
0 0 1 RC
1 LJ
0.667 LW
N
323 390.733 M
329.42 224.549 L
335.84 466.269 L
342.26 420.947 L
348.68 526.7 L
355.1 466.269 L
361.52 466.269 L
367.94 315.193 L
374.36 617.345 L
380.78 481.378 L
387.2 436.055 L
393.62 436.055 L
400.04 345.41 L
406.46 405.838 L
412.88 360.516 L
419.3 405.838 L
425.72 466.269 L
432.14 481.378 L
438.56 390.733 L
444.98 511.591 L
451.4 436.055 L
457.82 405.838 L
464.24 330.302 L
470.66 436.055 L
477.08 375.624 L
483.5 436.055 L
489.92 556.914 L
496.34 647.559 L
502.76 511.591 L
509.18 436.055 L
515.6 405.838 L
522.02 602.236 L
528.44 420.947 L
534.86 572.022 L
541.28 496.483 L
547.7 405.838 L
554.12 436.055 L
560.54 451.161 L
566.96 496.483 L
573.38 617.345 L
579.8 466.269 L
586.22 632.453 L
592.64 451.161 L
599.06 466.269 L
605.48 390.733 L
611.9 466.269 L
618.32 345.41 L
624.74 572.022 L
631.16 420.947 L
637.58 436.055 L
644 526.7 L
650.42 511.591 L
656.84 451.161 L
663.26 572.022 L
669.68 511.591 L
676.1 511.591 L
682.52 405.838 L
688.94 526.7 L
695.36 481.378 L
701.78 420.947 L
708.2 330.302 L
714.62 556.914 L
721.04 345.41 L
727.46 466.269 L
733.88 420.947 L
740.3 572.022 L
746.72 451.161 L
753.14 617.345 L
759.56 481.378 L
765.98 466.269 L
772.4 572.022 L
778.82 526.7 L
785.24 466.269 L
791.66 496.483 L
798.08 436.055 L
804.5 541.805 L
810.92 526.7 L
817.34 572.022 L
823.76 405.838 L
830.18 556.914 L
836.6 390.733 L
843.02 511.591 L
849.44 572.022 L
855.86 572.022 L
862.28 556.914 L
868.7 496.483 L
875.12 405.838 L
881.54 436.055 L
887.96 451.161 L
894.38 632.453 L
900.8 496.483 L
907.22 451.161 L
913.64 511.591 L
920.06 360.516 L
926.48 481.378 L
932.9 360.516 L
939.32 556.914 L
945.74 511.591 L
952.16 511.591 L
958.58 496.483 L
965 572.022 L
971.42 436.055 L
977.84 390.733 L
984.26 496.483 L
990.68 496.483 L
997.1 405.838 L
1003.52 466.269 L
1009.94 556.914 L
1016.36 617.345 L
1022.78 360.516 L
1029.2 390.733 L
1035.62 496.483 L
1042.04 511.591 L
1048.46 436.055 L
1054.88 481.378 L
1061.3 390.733 L
1067.72 345.41 L
1074.14 420.947 L
1080.56 315.193 L
1086.98 587.128 L
1093.4 360.516 L
1099.82 466.269 L
1106.24 466.269 L
1112.66 330.302 L
1119.08 451.161 L
1125.5 375.624 L
1131.92 451.161 L
1138.34 481.378 L
1144.76 511.591 L
1151.18 541.805 L
1157.6 496.483 L
1164.02 572.022 L
1170.44 496.483 L
1176.86 436.055 L
1183.28 420.947 L
1189.7 496.483 L
1196.12 420.947 L
1202.54 360.516 L
1208.96 345.41 L
1215.38 451.161 L
1221.8 451.161 L
1228.22 526.7 L
1234.64 481.378 L
1241.06 451.161 L
1247.48 481.378 L
1253.9 556.914 L
1260.32 405.838 L
1266.74 556.914 L
1273.16 466.269 L
1279.58 466.269 L
1286 451.161 L
1292.42 556.914 L
1298.84 466.269 L
1305.26 330.302 L
1311.68 436.055 L
1318.1 481.378 L
1324.52 466.269 L
1330.94 541.805 L
1337.36 511.591 L
1343.78 587.128 L
1350.2 587.128 L
1356.62 541.805 L
1363.04 436.055 L
1369.46 375.624 L
1375.88 466.269 L
1382.3 496.483 L
1388.72 451.161 L
1395.14 451.161 L
1401.56 496.483 L
1407.98 526.7 L
1414.4 496.483 L
1420.82 602.236 L
1427.24 390.733 L
1433.66 496.483 L
1440.08 481.378 L
1446.5 481.378 L
1452.92 556.914 L
1459.34 466.269 L
1465.76 496.483 L
1472.18 587.128 L
1478.6 632.453 L
1485.02 526.7 L
1491.44 511.591 L
1497.86 481.378 L
1504.28 375.624 L
1510.7 526.7 L
1517.12 466.269 L
1523.54 405.838 L
1529.96 330.302 L
1536.38 345.41 L
1542.8 345.41 L
1549.22 526.7 L
1555.64 541.805 L
1562.06 375.624 L
1568.48 481.378 L
1574.9 617.345 L
1581.32 451.161 L
1587.74 375.624 L
1594.16 511.591 L
1600.58 451.161 L
1607 300.088 L
1613.42 496.483 L
1619.84 526.7 L
1626.26 284.979 L
1632.68 375.624 L
1639.1 556.914 L
1645.52 420.947 L
1651.94 466.269 L
1658.36 481.378 L
1664.78 451.161 L
1671.2 405.838 L
1677.62 587.128 L
1684.04 390.733 L
1690.46 360.516 L
1696.88 511.591 L
1703.3 572.022 L
1709.72 405.838 L
1716.14 390.733 L
1722.56 420.947 L
1728.98 556.914 L
1735.4 572.022 L
1741.82 572.022 L
1748.24 602.236 L
1754.66 572.022 L
1761.08 481.378 L
1767.5 390.733 L
1773.92 481.378 L
1780.34 300.088 L
1786.76 451.161 L
1793.18 481.378 L
1799.6 360.516 L
1806.02 390.733 L
1812.44 436.055 L
1818.86 451.161 L
1825.28 420.947 L
1831.7 451.161 L
1838.12 526.7 L
1844.54 481.378 L
1850.96 390.733 L
1857.38 496.483 L
1863.8 390.733 L
1870.22 436.055 L
1876.64 511.591 L
1883.06 284.979 L
1889.48 451.161 L
1895.9 405.838 L
1902.32 436.055 L
1908.74 481.378 L
1915.16 602.236 L
1921.58 375.624 L
1928 420.947 L
1934.42 360.516 L
1940.84 330.302 L
1947.26 436.055 L
1953.68 284.979 L
1960.1 360.516 L
1966.52 405.838 L
1972.94 541.805 L
1979.36 315.193 L
1985.78 300.088 L
1992.2 360.516 L
1998.62 481.378 L
2005.04 481.378 L
2011.46 436.055 L
2017.88 420.947 L
2024.3 420.947 L
2030.72 345.41 L
2037.14 269.871 L
2043.56 224.549 L
2049.98 300.088 L
2056.4 330.302 L
2062.82 345.41 L
2069.24 345.41 L
2075.66 300.088 L
2082.08 360.516 L
2088.5 436.055 L
2094.92 209.443 L
2101.34 315.193 L
2107.76 239.657 L
2114.18 284.979 L
2120.6 315.193 L
2127.02 330.302 L
2133.44 194.335 L
2139.86 300.088 L
2146.28 284.979 L
2152.7 360.516 L
2159.12 345.41 L
2165.54 284.979 L
2171.96 300.088 L
2178.38 224.549 L
2184.8 300.088 L
2191.22 239.657 L
2197.64 269.871 L
2204.06 330.302 L
2210.48 284.979 L
2216.9 300.088 L
2223.32 269.871 L
2229.74 315.193 L
2236.16 300.088 L
2242.58 315.193 L
S
GR
%%Trailer
%%Pages: 1
%%EOF
