%!PS-Adobe-3.0 EPSF-3.0
%%Creator: (MATLAB, The Mathworks, Inc. Version 9.3.0.713579 \(R2017b\). Operating System: Linux)
%%Title: /home/micke/ExamensarbeteCybercom/Measurements/Take2/217/Range2.eps
%%CreationDate: 2018-04-26T09:44:21
%%Pages: (atend)
%%BoundingBox: 0 0 1864 611
%%LanguageLevel: 3
%%EndComments
%%BeginProlog
%%BeginResource: procset (Apache XML Graphics Std ProcSet) 1.2 0
%%Version: 1.2 0
%%Copyright: (Copyright 2001-2003,2010 The Apache Software Foundation. License terms: http://www.apache.org/licenses/LICENSE-2.0)
/bd{bind def}bind def
/ld{load def}bd
/GR/grestore ld
/GS/gsave ld
/RM/rmoveto ld
/C/curveto ld
/t/show ld
/L/lineto ld
/ML/setmiterlimit ld
/CT/concat ld
/f/fill ld
/N/newpath ld
/S/stroke ld
/CC/setcmykcolor ld
/A/ashow ld
/cp/closepath ld
/RC/setrgbcolor ld
/LJ/setlinejoin ld
/GC/setgray ld
/LW/setlinewidth ld
/M/moveto ld
/re {4 2 roll M
1 index 0 rlineto
0 exch rlineto
neg 0 rlineto
cp } bd
/_ctm matrix def
/_tm matrix def
/BT { _ctm currentmatrix pop matrix _tm copy pop 0 0 moveto } bd
/ET { _ctm setmatrix } bd
/iTm { _ctm setmatrix _tm concat } bd
/Tm { _tm astore pop iTm 0 0 moveto } bd
/ux 0.0 def
/uy 0.0 def
/F {
  /Tp exch def
  /Tf exch def
  Tf findfont Tp scalefont setfont
  /cf Tf def  /cs Tp def
} bd
/ULS {currentpoint /uy exch def /ux exch def} bd
/ULE {
  /Tcx currentpoint pop def
  gsave
  newpath
  cf findfont cs scalefont dup
  /FontMatrix get 0 get /Ts exch def /FontInfo get dup
  /UnderlinePosition get Ts mul /To exch def
  /UnderlineThickness get Ts mul /Tt exch def
  ux uy To add moveto  Tcx uy To add lineto
  Tt setlinewidth stroke
  grestore
} bd
/OLE {
  /Tcx currentpoint pop def
  gsave
  newpath
  cf findfont cs scalefont dup
  /FontMatrix get 0 get /Ts exch def /FontInfo get dup
  /UnderlinePosition get Ts mul /To exch def
  /UnderlineThickness get Ts mul /Tt exch def
  ux uy To add cs add moveto Tcx uy To add cs add lineto
  Tt setlinewidth stroke
  grestore
} bd
/SOE {
  /Tcx currentpoint pop def
  gsave
  newpath
  cf findfont cs scalefont dup
  /FontMatrix get 0 get /Ts exch def /FontInfo get dup
  /UnderlinePosition get Ts mul /To exch def
  /UnderlineThickness get Ts mul /Tt exch def
  ux uy To add cs 10 mul 26 idiv add moveto Tcx uy To add cs 10 mul 26 idiv add lineto
  Tt setlinewidth stroke
  grestore
} bd
/QT {
/Y22 exch store
/X22 exch store
/Y21 exch store
/X21 exch store
currentpoint
/Y21 load 2 mul add 3 div exch
/X21 load 2 mul add 3 div exch
/X21 load 2 mul /X22 load add 3 div
/Y21 load 2 mul /Y22 load add 3 div
/X22 load /Y22 load curveto
} bd
/SSPD {
dup length /d exch dict def
{
/v exch def
/k exch def
currentpagedevice k known {
/cpdv currentpagedevice k get def
v cpdv ne {
/upd false def
/nullv v type /nulltype eq def
/nullcpdv cpdv type /nulltype eq def
nullv nullcpdv or
{
/upd true def
} {
/sametype v type cpdv type eq def
sametype {
v type /arraytype eq {
/vlen v length def
/cpdvlen cpdv length def
vlen cpdvlen eq {
0 1 vlen 1 sub {
/i exch def
/obj v i get def
/cpdobj cpdv i get def
obj cpdobj ne {
/upd true def
exit
} if
} for
} {
/upd true def
} ifelse
} {
v type /dicttype eq {
v {
/dv exch def
/dk exch def
/cpddv cpdv dk get def
dv cpddv ne {
/upd true def
exit
} if
} forall
} {
/upd true def
} ifelse
} ifelse
} if
} ifelse
upd true eq {
d k v put
} if
} if
} if
} forall
d length 0 gt {
d setpagedevice
} if
} bd
/RE { % /NewFontName [NewEncodingArray] /FontName RE -
  findfont dup length dict begin
  {
    1 index /FID ne
    {def} {pop pop} ifelse
  } forall
  /Encoding exch def
  /FontName 1 index def
  currentdict definefont pop
  end
} bind def
%%EndResource
%%BeginResource: procset (Apache XML Graphics EPS ProcSet) 1.0 0
%%Version: 1.0 0
%%Copyright: (Copyright 2002-2003 The Apache Software Foundation. License terms: http://www.apache.org/licenses/LICENSE-2.0)
/BeginEPSF { %def
/b4_Inc_state save def         % Save state for cleanup
/dict_count countdictstack def % Count objects on dict stack
/op_count count 1 sub def      % Count objects on operand stack
userdict begin                 % Push userdict on dict stack
/showpage { } def              % Redefine showpage, { } = null proc
0 setgray 0 setlinecap         % Prepare graphics state
1 setlinewidth 0 setlinejoin
10 setmiterlimit [ ] 0 setdash newpath
/languagelevel where           % If level not equal to 1 then
{pop languagelevel             % set strokeadjust and
1 ne                           % overprint to their defaults.
{false setstrokeadjust false setoverprint
} if
} if
} bd
/EndEPSF { %def
count op_count sub {pop} repeat            % Clean up stacks
countdictstack dict_count sub {end} repeat
b4_Inc_state restore
} bd
%%EndResource
%FOPBeginFontDict
%%IncludeResource: font Courier-Oblique
%%IncludeResource: font Courier-BoldOblique
%%IncludeResource: font Courier-Bold
%%IncludeResource: font ZapfDingbats
%%IncludeResource: font Symbol
%%IncludeResource: font Helvetica
%%IncludeResource: font Helvetica-Oblique
%%IncludeResource: font Helvetica-Bold
%%IncludeResource: font Helvetica-BoldOblique
%%IncludeResource: font Times-Roman
%%IncludeResource: font Times-Italic
%%IncludeResource: font Times-Bold
%%IncludeResource: font Times-BoldItalic
%%IncludeResource: font Courier
%FOPEndFontDict
%%BeginResource: encoding WinAnsiEncoding
/WinAnsiEncoding [
/.notdef /.notdef /.notdef /.notdef /.notdef
/.notdef /.notdef /.notdef /.notdef /.notdef
/.notdef /.notdef /.notdef /.notdef /.notdef
/.notdef /.notdef /.notdef /.notdef /.notdef
/.notdef /.notdef /.notdef /.notdef /.notdef
/.notdef /.notdef /.notdef /.notdef /.notdef
/.notdef /.notdef /space /exclam /quotedbl
/numbersign /dollar /percent /ampersand /quotesingle
/parenleft /parenright /asterisk /plus /comma
/hyphen /period /slash /zero /one
/two /three /four /five /six
/seven /eight /nine /colon /semicolon
/less /equal /greater /question /at
/A /B /C /D /E
/F /G /H /I /J
/K /L /M /N /O
/P /Q /R /S /T
/U /V /W /X /Y
/Z /bracketleft /backslash /bracketright /asciicircum
/underscore /quoteleft /a /b /c
/d /e /f /g /h
/i /j /k /l /m
/n /o /p /q /r
/s /t /u /v /w
/x /y /z /braceleft /bar
/braceright /asciitilde /bullet /Euro /bullet
/quotesinglbase /florin /quotedblbase /ellipsis /dagger
/daggerdbl /circumflex /perthousand /Scaron /guilsinglleft
/OE /bullet /Zcaron /bullet /bullet
/quoteleft /quoteright /quotedblleft /quotedblright /bullet
/endash /emdash /asciitilde /trademark /scaron
/guilsinglright /oe /bullet /zcaron /Ydieresis
/space /exclamdown /cent /sterling /currency
/yen /brokenbar /section /dieresis /copyright
/ordfeminine /guillemotleft /logicalnot /sfthyphen /registered
/macron /degree /plusminus /twosuperior /threesuperior
/acute /mu /paragraph /middot /cedilla
/onesuperior /ordmasculine /guillemotright /onequarter /onehalf
/threequarters /questiondown /Agrave /Aacute /Acircumflex
/Atilde /Adieresis /Aring /AE /Ccedilla
/Egrave /Eacute /Ecircumflex /Edieresis /Igrave
/Iacute /Icircumflex /Idieresis /Eth /Ntilde
/Ograve /Oacute /Ocircumflex /Otilde /Odieresis
/multiply /Oslash /Ugrave /Uacute /Ucircumflex
/Udieresis /Yacute /Thorn /germandbls /agrave
/aacute /acircumflex /atilde /adieresis /aring
/ae /ccedilla /egrave /eacute /ecircumflex
/edieresis /igrave /iacute /icircumflex /idieresis
/eth /ntilde /ograve /oacute /ocircumflex
/otilde /odieresis /divide /oslash /ugrave
/uacute /ucircumflex /udieresis /yacute /thorn
/ydieresis
] def
%%EndResource
%FOPBeginFontReencode
/Courier-Oblique findfont
dup length dict begin
  {1 index /FID ne {def} {pop pop} ifelse} forall
  /Encoding WinAnsiEncoding def
  currentdict
end
/Courier-Oblique exch definefont pop
/Courier-BoldOblique findfont
dup length dict begin
  {1 index /FID ne {def} {pop pop} ifelse} forall
  /Encoding WinAnsiEncoding def
  currentdict
end
/Courier-BoldOblique exch definefont pop
/Courier-Bold findfont
dup length dict begin
  {1 index /FID ne {def} {pop pop} ifelse} forall
  /Encoding WinAnsiEncoding def
  currentdict
end
/Courier-Bold exch definefont pop
/Helvetica findfont
dup length dict begin
  {1 index /FID ne {def} {pop pop} ifelse} forall
  /Encoding WinAnsiEncoding def
  currentdict
end
/Helvetica exch definefont pop
/Helvetica-Oblique findfont
dup length dict begin
  {1 index /FID ne {def} {pop pop} ifelse} forall
  /Encoding WinAnsiEncoding def
  currentdict
end
/Helvetica-Oblique exch definefont pop
/Helvetica-Bold findfont
dup length dict begin
  {1 index /FID ne {def} {pop pop} ifelse} forall
  /Encoding WinAnsiEncoding def
  currentdict
end
/Helvetica-Bold exch definefont pop
/Helvetica-BoldOblique findfont
dup length dict begin
  {1 index /FID ne {def} {pop pop} ifelse} forall
  /Encoding WinAnsiEncoding def
  currentdict
end
/Helvetica-BoldOblique exch definefont pop
/Times-Roman findfont
dup length dict begin
  {1 index /FID ne {def} {pop pop} ifelse} forall
  /Encoding WinAnsiEncoding def
  currentdict
end
/Times-Roman exch definefont pop
/Times-Italic findfont
dup length dict begin
  {1 index /FID ne {def} {pop pop} ifelse} forall
  /Encoding WinAnsiEncoding def
  currentdict
end
/Times-Italic exch definefont pop
/Times-Bold findfont
dup length dict begin
  {1 index /FID ne {def} {pop pop} ifelse} forall
  /Encoding WinAnsiEncoding def
  currentdict
end
/Times-Bold exch definefont pop
/Times-BoldItalic findfont
dup length dict begin
  {1 index /FID ne {def} {pop pop} ifelse} forall
  /Encoding WinAnsiEncoding def
  currentdict
end
/Times-BoldItalic exch definefont pop
/Courier findfont
dup length dict begin
  {1 index /FID ne {def} {pop pop} ifelse} forall
  /Encoding WinAnsiEncoding def
  currentdict
end
/Courier exch definefont pop
%FOPEndFontReencode
%%EndProlog
%%Page: 1 1
%%PageBoundingBox: 0 0 1864 611
%%BeginPageSetup
[1 0 0 -1 0 611] CT
%%EndPageSetup
GS
[0.75 0 0 0.75 0 0.5] CT
1 GC
N
0 0 2485 814 re
f
GR
GS
[0.75 0 0 0.75 0 0.5] CT
1 GC
N
0 0 2485 814 re
f
GR
GS
[0.75 0 0 0.75 0 0.5] CT
1 GC
N
323 702 M
2249 702 L
2249 63 L
323 63 L
cp
f
GR
GS
[0.75 0 0 0.75 0 0.5] CT
0.149 GC
2 setlinecap
1 LJ
0.667 LW
N
323 702 M
2249 702 L
S
GR
GS
[0.75 0 0 0.75 0 0.5] CT
0.149 GC
2 setlinecap
1 LJ
0.667 LW
N
323 63 M
2249 63 L
S
GR
GS
[0.75 0 0 0.75 0 0.5] CT
0.149 GC
2 setlinecap
1 LJ
0.667 LW
N
323 702 M
323 682.74 L
S
GR
GS
[0.75 0 0 0.75 0 0.5] CT
0.149 GC
2 setlinecap
1 LJ
0.667 LW
N
644 702 M
644 682.74 L
S
GR
GS
[0.75 0 0 0.75 0 0.5] CT
0.149 GC
2 setlinecap
1 LJ
0.667 LW
N
965 702 M
965 682.74 L
S
GR
GS
[0.75 0 0 0.75 0 0.5] CT
0.149 GC
2 setlinecap
1 LJ
0.667 LW
N
1286 702 M
1286 682.74 L
S
GR
GS
[0.75 0 0 0.75 0 0.5] CT
0.149 GC
2 setlinecap
1 LJ
0.667 LW
N
1607 702 M
1607 682.74 L
S
GR
GS
[0.75 0 0 0.75 0 0.5] CT
0.149 GC
2 setlinecap
1 LJ
0.667 LW
N
1928 702 M
1928 682.74 L
S
GR
GS
[0.75 0 0 0.75 0 0.5] CT
0.149 GC
2 setlinecap
1 LJ
0.667 LW
N
2249 702 M
2249 682.74 L
S
GR
GS
[0.75 0 0 0.75 0 0.5] CT
0.149 GC
2 setlinecap
1 LJ
0.667 LW
N
323 63 M
323 82.26 L
S
GR
GS
[0.75 0 0 0.75 0 0.5] CT
0.149 GC
2 setlinecap
1 LJ
0.667 LW
N
644 63 M
644 82.26 L
S
GR
GS
[0.75 0 0 0.75 0 0.5] CT
0.149 GC
2 setlinecap
1 LJ
0.667 LW
N
965 63 M
965 82.26 L
S
GR
GS
[0.75 0 0 0.75 0 0.5] CT
0.149 GC
2 setlinecap
1 LJ
0.667 LW
N
1286 63 M
1286 82.26 L
S
GR
GS
[0.75 0 0 0.75 0 0.5] CT
0.149 GC
2 setlinecap
1 LJ
0.667 LW
N
1607 63 M
1607 82.26 L
S
GR
GS
[0.75 0 0 0.75 0 0.5] CT
0.149 GC
2 setlinecap
1 LJ
0.667 LW
N
1928 63 M
1928 82.26 L
S
GR
GS
[0.75 0 0 0.75 0 0.5] CT
0.149 GC
2 setlinecap
1 LJ
0.667 LW
N
2249 63 M
2249 82.26 L
S
GR
GS
[0.75 0 0 0.75 242.25 534.99997] CT
0.149 GC
/Helvetica 40 F
GS
[1 0 0 1 0 0] CT
-13 38 moveto 
1 -1 scale
(0) t 
GR
GR
GS
[0.75 0 0 0.75 483 534.99997] CT
0.149 GC
/Helvetica 40 F
GS
[1 0 0 1 0 0] CT
-25.5 38 moveto 
1 -1 scale
(20) t 
GR
GR
GS
[0.75 0 0 0.75 723.75 534.99997] CT
0.149 GC
/Helvetica 40 F
GS
[1 0 0 1 0 0] CT
-25.5 38 moveto 
1 -1 scale
(40) t 
GR
GR
GS
[0.75 0 0 0.75 964.5 534.99997] CT
0.149 GC
/Helvetica 40 F
GS
[1 0 0 1 0 0] CT
-25.5 38 moveto 
1 -1 scale
(60) t 
GR
GR
GS
[0.75 0 0 0.75 1205.25 534.99997] CT
0.149 GC
/Helvetica 40 F
GS
[1 0 0 1 0 0] CT
-25.5 38 moveto 
1 -1 scale
(80) t 
GR
GR
GS
[0.75 0 0 0.75 1446 534.99997] CT
0.149 GC
/Helvetica 40 F
GS
[1 0 0 1 0 0] CT
-38.5 38 moveto 
1 -1 scale
(100) t 
GR
GR
GS
[0.75 0 0 0.75 1686.75 534.99997] CT
0.149 GC
/Helvetica 40 F
GS
[1 0 0 1 0 0] CT
-38.5 38 moveto 
1 -1 scale
(120) t 
GR
GR
GS
[0.75 0 0 0.75 964.50073 571.99995] CT
0.149 GC
/Helvetica 44 F
GS
[1 0 0 1 0 0] CT
-90.5 41 moveto 
1 -1 scale
(Time [s]) t 
GR
GR
GS
[0.75 0 0 0.75 0 0.5] CT
0.149 GC
2 setlinecap
1 LJ
0.667 LW
N
323 702 M
323 63 L
S
GR
GS
[0.75 0 0 0.75 0 0.5] CT
0.149 GC
2 setlinecap
1 LJ
0.667 LW
N
2249 702 M
2249 63 L
S
GR
GS
[0.75 0 0 0.75 0 0.5] CT
0.149 GC
2 setlinecap
1 LJ
0.667 LW
N
323 702 M
342.26 702 L
S
GR
GS
[0.75 0 0 0.75 0 0.5] CT
0.149 GC
2 setlinecap
1 LJ
0.667 LW
N
323 595.5 M
342.26 595.5 L
S
GR
GS
[0.75 0 0 0.75 0 0.5] CT
0.149 GC
2 setlinecap
1 LJ
0.667 LW
N
323 489 M
342.26 489 L
S
GR
GS
[0.75 0 0 0.75 0 0.5] CT
0.149 GC
2 setlinecap
1 LJ
0.667 LW
N
323 382.5 M
342.26 382.5 L
S
GR
GS
[0.75 0 0 0.75 0 0.5] CT
0.149 GC
2 setlinecap
1 LJ
0.667 LW
N
323 276 M
342.26 276 L
S
GR
GS
[0.75 0 0 0.75 0 0.5] CT
0.149 GC
2 setlinecap
1 LJ
0.667 LW
N
323 169.5 M
342.26 169.5 L
S
GR
GS
[0.75 0 0 0.75 0 0.5] CT
0.149 GC
2 setlinecap
1 LJ
0.667 LW
N
323 63 M
342.26 63 L
S
GR
GS
[0.75 0 0 0.75 0 0.5] CT
0.149 GC
2 setlinecap
1 LJ
0.667 LW
N
2249 702 M
2229.74 702 L
S
GR
GS
[0.75 0 0 0.75 0 0.5] CT
0.149 GC
2 setlinecap
1 LJ
0.667 LW
N
2249 595.5 M
2229.74 595.5 L
S
GR
GS
[0.75 0 0 0.75 0 0.5] CT
0.149 GC
2 setlinecap
1 LJ
0.667 LW
N
2249 489 M
2229.74 489 L
S
GR
GS
[0.75 0 0 0.75 0 0.5] CT
0.149 GC
2 setlinecap
1 LJ
0.667 LW
N
2249 382.5 M
2229.74 382.5 L
S
GR
GS
[0.75 0 0 0.75 0 0.5] CT
0.149 GC
2 setlinecap
1 LJ
0.667 LW
N
2249 276 M
2229.74 276 L
S
GR
GS
[0.75 0 0 0.75 0 0.5] CT
0.149 GC
2 setlinecap
1 LJ
0.667 LW
N
2249 169.5 M
2229.74 169.5 L
S
GR
GS
[0.75 0 0 0.75 0 0.5] CT
0.149 GC
2 setlinecap
1 LJ
0.667 LW
N
2249 63 M
2229.74 63 L
S
GR
GS
[0.75 0 0 0.75 234.25001 526.99991] CT
0.149 GC
/Helvetica 40 F
GS
[1 0 0 1 0 0] CT
-64 14 moveto 
1 -1 scale
(1.7) t 
GR
GR
GS
[0.75 0 0 0.75 234.25001 447.125] CT
0.149 GC
/Helvetica 40 F
GS
[1 0 0 1 0 0] CT
-90 14 moveto 
1 -1 scale
(1.75) t 
GR
GR
GS
[0.75 0 0 0.75 234.25001 367.25007] CT
0.149 GC
/Helvetica 40 F
GS
[1 0 0 1 0 0] CT
-64 14 moveto 
1 -1 scale
(1.8) t 
GR
GR
GS
[0.75 0 0 0.75 234.25001 287.37495] CT
0.149 GC
/Helvetica 40 F
GS
[1 0 0 1 0 0] CT
-90 14 moveto 
1 -1 scale
(1.85) t 
GR
GR
GS
[0.75 0 0 0.75 234.25001 207.50005] CT
0.149 GC
/Helvetica 40 F
GS
[1 0 0 1 0 0] CT
-64 14 moveto 
1 -1 scale
(1.9) t 
GR
GR
GS
[0.75 0 0 0.75 234.25001 127.62492] CT
0.149 GC
/Helvetica 40 F
GS
[1 0 0 1 0 0] CT
-90 14 moveto 
1 -1 scale
(1.95) t 
GR
GR
GS
[0.75 0 0 0.75 234.25001 47.75] CT
0.149 GC
/Helvetica 40 F
GS
[1 0 0 1 0 0] CT
-26 14 moveto 
1 -1 scale
(2) t 
GR
GR
GS
[0 -0.75 0.75 0 163.75001 287.37477] CT
0.149 GC
/Helvetica 44 F
GS
[1 0 0 1 0 0] CT
-116 -11 moveto 
1 -1 scale
(Range [m]) t 
GR
GR
GS
[0.75 0 0 0.75 964.50092 41.56233] CT
/Helvetica-Bold 44 F
GS
[1 0 0 1 0 0] CT
-473.5 -11 moveto 
1 -1 scale
(Unfiltered readings from UWB module) t 
GR
GR
GS
[0.75 0 0 0.75 0 0.5] CT
0 0 1 RC
1 LJ
0.667 LW
N
323 498.934 M
329.42 458.96 L
335.84 369.019 L
342.26 389.006 L
348.68 428.98 L
355.1 448.967 L
361.52 438.973 L
367.94 488.94 L
374.36 369.019 L
380.78 369.019 L
387.2 369.019 L
393.62 418.986 L
400.04 498.934 L
406.46 339.039 L
412.88 418.986 L
419.3 608.862 L
425.72 528.914 L
432.14 398.999 L
438.56 398.999 L
444.98 428.98 L
451.4 398.999 L
457.82 398.999 L
464.24 578.882 L
470.66 518.921 L
477.08 229.111 L
483.5 498.934 L
489.92 418.986 L
496.34 438.973 L
502.76 418.986 L
509.18 438.973 L
515.6 428.98 L
522.02 389.006 L
528.44 418.986 L
534.86 369.019 L
541.28 568.888 L
547.7 448.967 L
554.12 528.914 L
560.54 359.026 L
566.96 498.934 L
573.38 389.006 L
579.8 628.849 L
586.22 418.986 L
592.64 319.052 L
599.06 389.006 L
605.48 389.006 L
611.9 398.999 L
618.32 458.96 L
624.74 478.947 L
631.16 428.98 L
637.58 458.96 L
644 628.849 L
650.42 448.967 L
656.84 319.052 L
663.26 319.052 L
669.68 398.999 L
676.1 628.849 L
682.52 628.849 L
688.94 448.967 L
695.36 588.875 L
701.78 339.039 L
708.2 468.954 L
714.62 428.98 L
721.04 538.908 L
727.46 359.026 L
733.88 528.914 L
740.3 488.94 L
746.72 169.15 L
753.14 389.006 L
759.56 418.986 L
765.98 418.986 L
772.4 428.98 L
778.82 488.94 L
785.24 319.052 L
791.66 448.967 L
798.08 648.836 L
804.5 259.091 L
810.92 259.091 L
817.34 518.921 L
823.76 518.921 L
830.18 598.868 L
836.6 309.058 L
843.02 408.993 L
849.44 458.96 L
855.86 359.026 L
862.28 418.986 L
868.7 398.999 L
875.12 339.039 L
881.54 568.888 L
887.96 329.045 L
894.38 438.973 L
900.8 329.045 L
907.22 299.065 L
913.64 159.156 L
920.06 428.98 L
926.48 369.019 L
932.9 488.94 L
939.32 319.052 L
945.74 418.986 L
952.16 418.986 L
958.58 379.012 L
965 379.012 L
971.42 608.862 L
977.84 598.868 L
984.26 408.993 L
990.68 339.039 L
997.1 398.999 L
1003.52 379.012 L
1009.94 309.058 L
1016.36 578.882 L
1022.78 458.96 L
1029.2 608.862 L
1035.62 239.104 L
1042.04 259.091 L
1048.46 309.058 L
1054.88 379.012 L
1061.3 408.993 L
1067.72 568.888 L
1074.14 538.908 L
1080.56 648.836 L
1086.98 339.039 L
1093.4 389.006 L
1099.82 478.947 L
1106.24 349.032 L
1112.66 458.96 L
1119.08 498.934 L
1125.5 349.032 L
1131.92 588.875 L
1138.34 458.96 L
1144.76 508.927 L
1151.18 408.993 L
1157.6 339.039 L
1164.02 408.993 L
1170.44 389.006 L
1176.86 379.012 L
1183.28 379.012 L
1189.7 528.914 L
1196.12 379.012 L
1202.54 448.967 L
1208.96 448.967 L
1215.38 379.012 L
1221.8 518.921 L
1228.22 478.947 L
1234.64 488.94 L
1241.06 498.934 L
1247.48 468.954 L
1253.9 458.96 L
1260.32 578.882 L
1266.74 598.868 L
1273.16 528.914 L
1279.58 478.947 L
1286 279.078 L
1292.42 428.98 L
1298.84 349.032 L
1305.26 309.058 L
1311.68 309.058 L
1318.1 269.084 L
1324.52 249.098 L
1330.94 638.842 L
1337.36 618.855 L
1343.78 458.96 L
1350.2 528.914 L
1356.62 319.052 L
1363.04 279.078 L
1369.46 418.986 L
1375.88 588.875 L
1382.3 239.104 L
1388.72 418.986 L
1395.14 518.921 L
1401.56 249.098 L
1407.98 289.071 L
1414.4 259.091 L
1420.82 448.967 L
1427.24 349.032 L
1433.66 359.026 L
1440.08 408.993 L
1446.5 578.882 L
1452.92 319.052 L
1459.34 379.012 L
1465.76 259.091 L
1472.18 418.986 L
1478.6 259.091 L
1485.02 379.012 L
1491.44 608.862 L
1497.86 508.927 L
1504.28 538.908 L
1510.7 538.908 L
1517.12 528.914 L
1523.54 379.012 L
1529.96 389.006 L
1536.38 458.96 L
1542.8 359.026 L
1549.22 418.986 L
1555.64 339.039 L
1562.06 369.019 L
1568.48 648.836 L
1574.9 548.901 L
1581.32 428.98 L
1587.74 359.026 L
1594.16 438.973 L
1600.58 389.006 L
1607 418.986 L
1613.42 259.091 L
1619.84 259.091 L
1626.26 259.091 L
1632.68 249.098 L
1639.1 249.098 L
1645.52 329.045 L
1651.94 349.032 L
1658.36 398.999 L
1664.78 349.032 L
1671.2 329.045 L
1677.62 339.039 L
1684.04 339.039 L
1690.46 398.999 L
1696.88 299.065 L
1703.3 389.006 L
1709.72 389.006 L
1716.14 398.999 L
1722.56 418.986 L
1728.98 289.071 L
1735.4 339.039 L
1741.82 319.052 L
1748.24 389.006 L
1754.66 478.947 L
1761.08 408.993 L
1767.5 448.967 L
1773.92 379.012 L
1780.34 448.967 L
1786.76 379.012 L
1793.18 289.071 L
1799.6 379.012 L
1806.02 418.986 L
1812.44 408.993 L
1818.86 408.993 L
1825.28 418.986 L
1831.7 408.993 L
1838.12 319.052 L
1844.54 379.012 L
1850.96 468.954 L
1857.38 249.098 L
1863.8 299.065 L
1870.22 359.026 L
1876.64 508.927 L
1883.06 279.078 L
1889.48 279.078 L
1895.9 359.026 L
1902.32 389.006 L
1908.74 379.012 L
1915.16 379.012 L
1921.58 289.071 L
1928 329.045 L
1934.42 359.026 L
1940.84 309.058 L
1947.26 379.012 L
1953.68 339.039 L
1960.1 299.065 L
1966.52 319.052 L
1972.94 299.065 L
1979.36 229.111 L
1985.78 468.954 L
1992.2 458.96 L
1998.62 558.895 L
2005.04 608.862 L
2011.46 438.973 L
2017.88 239.104 L
2024.3 359.026 L
2030.72 438.973 L
2037.14 418.986 L
2043.56 359.026 L
2049.98 498.934 L
2056.4 159.156 L
2062.82 369.019 L
2069.24 418.986 L
2075.66 349.032 L
2082.08 339.039 L
2088.5 219.117 L
2094.92 389.006 L
2101.34 468.954 L
2107.76 329.045 L
2114.18 458.96 L
2120.6 369.019 L
2127.02 309.058 L
2133.44 349.032 L
2139.86 448.967 L
2146.28 339.039 L
2152.7 239.104 L
2159.12 329.045 L
2165.54 329.045 L
2171.96 329.045 L
2178.38 209.124 L
2184.8 209.124 L
2191.22 209.124 L
2197.64 319.052 L
2204.06 408.993 L
2210.48 169.15 L
2216.9 169.15 L
2223.32 219.117 L
2229.74 219.117 L
2236.16 219.117 L
2242.58 259.091 L
S
GR
%%Trailer
%%Pages: 1
%%EOF
