%!PS-Adobe-3.0 EPSF-3.0
%%Creator: (MATLAB, The Mathworks, Inc. Version 9.3.0.713579 \(R2017b\). Operating System: Linux)
%%Title: /home/micke/ExamensarbeteCybercom/calibration/module2/pics/range8_2.eps
%%CreationDate: 2018-04-26T10:32:22
%%Pages: (atend)
%%BoundingBox: 0 0 1864 613
%%LanguageLevel: 3
%%EndComments
%%BeginProlog
%%BeginResource: procset (Apache XML Graphics Std ProcSet) 1.2 0
%%Version: 1.2 0
%%Copyright: (Copyright 2001-2003,2010 The Apache Software Foundation. License terms: http://www.apache.org/licenses/LICENSE-2.0)
/bd{bind def}bind def
/ld{load def}bd
/GR/grestore ld
/GS/gsave ld
/RM/rmoveto ld
/C/curveto ld
/t/show ld
/L/lineto ld
/ML/setmiterlimit ld
/CT/concat ld
/f/fill ld
/N/newpath ld
/S/stroke ld
/CC/setcmykcolor ld
/A/ashow ld
/cp/closepath ld
/RC/setrgbcolor ld
/LJ/setlinejoin ld
/GC/setgray ld
/LW/setlinewidth ld
/M/moveto ld
/re {4 2 roll M
1 index 0 rlineto
0 exch rlineto
neg 0 rlineto
cp } bd
/_ctm matrix def
/_tm matrix def
/BT { _ctm currentmatrix pop matrix _tm copy pop 0 0 moveto } bd
/ET { _ctm setmatrix } bd
/iTm { _ctm setmatrix _tm concat } bd
/Tm { _tm astore pop iTm 0 0 moveto } bd
/ux 0.0 def
/uy 0.0 def
/F {
  /Tp exch def
  /Tf exch def
  Tf findfont Tp scalefont setfont
  /cf Tf def  /cs Tp def
} bd
/ULS {currentpoint /uy exch def /ux exch def} bd
/ULE {
  /Tcx currentpoint pop def
  gsave
  newpath
  cf findfont cs scalefont dup
  /FontMatrix get 0 get /Ts exch def /FontInfo get dup
  /UnderlinePosition get Ts mul /To exch def
  /UnderlineThickness get Ts mul /Tt exch def
  ux uy To add moveto  Tcx uy To add lineto
  Tt setlinewidth stroke
  grestore
} bd
/OLE {
  /Tcx currentpoint pop def
  gsave
  newpath
  cf findfont cs scalefont dup
  /FontMatrix get 0 get /Ts exch def /FontInfo get dup
  /UnderlinePosition get Ts mul /To exch def
  /UnderlineThickness get Ts mul /Tt exch def
  ux uy To add cs add moveto Tcx uy To add cs add lineto
  Tt setlinewidth stroke
  grestore
} bd
/SOE {
  /Tcx currentpoint pop def
  gsave
  newpath
  cf findfont cs scalefont dup
  /FontMatrix get 0 get /Ts exch def /FontInfo get dup
  /UnderlinePosition get Ts mul /To exch def
  /UnderlineThickness get Ts mul /Tt exch def
  ux uy To add cs 10 mul 26 idiv add moveto Tcx uy To add cs 10 mul 26 idiv add lineto
  Tt setlinewidth stroke
  grestore
} bd
/QT {
/Y22 exch store
/X22 exch store
/Y21 exch store
/X21 exch store
currentpoint
/Y21 load 2 mul add 3 div exch
/X21 load 2 mul add 3 div exch
/X21 load 2 mul /X22 load add 3 div
/Y21 load 2 mul /Y22 load add 3 div
/X22 load /Y22 load curveto
} bd
/SSPD {
dup length /d exch dict def
{
/v exch def
/k exch def
currentpagedevice k known {
/cpdv currentpagedevice k get def
v cpdv ne {
/upd false def
/nullv v type /nulltype eq def
/nullcpdv cpdv type /nulltype eq def
nullv nullcpdv or
{
/upd true def
} {
/sametype v type cpdv type eq def
sametype {
v type /arraytype eq {
/vlen v length def
/cpdvlen cpdv length def
vlen cpdvlen eq {
0 1 vlen 1 sub {
/i exch def
/obj v i get def
/cpdobj cpdv i get def
obj cpdobj ne {
/upd true def
exit
} if
} for
} {
/upd true def
} ifelse
} {
v type /dicttype eq {
v {
/dv exch def
/dk exch def
/cpddv cpdv dk get def
dv cpddv ne {
/upd true def
exit
} if
} forall
} {
/upd true def
} ifelse
} ifelse
} if
} ifelse
upd true eq {
d k v put
} if
} if
} if
} forall
d length 0 gt {
d setpagedevice
} if
} bd
/RE { % /NewFontName [NewEncodingArray] /FontName RE -
  findfont dup length dict begin
  {
    1 index /FID ne
    {def} {pop pop} ifelse
  } forall
  /Encoding exch def
  /FontName 1 index def
  currentdict definefont pop
  end
} bind def
%%EndResource
%%BeginResource: procset (Apache XML Graphics EPS ProcSet) 1.0 0
%%Version: 1.0 0
%%Copyright: (Copyright 2002-2003 The Apache Software Foundation. License terms: http://www.apache.org/licenses/LICENSE-2.0)
/BeginEPSF { %def
/b4_Inc_state save def         % Save state for cleanup
/dict_count countdictstack def % Count objects on dict stack
/op_count count 1 sub def      % Count objects on operand stack
userdict begin                 % Push userdict on dict stack
/showpage { } def              % Redefine showpage, { } = null proc
0 setgray 0 setlinecap         % Prepare graphics state
1 setlinewidth 0 setlinejoin
10 setmiterlimit [ ] 0 setdash newpath
/languagelevel where           % If level not equal to 1 then
{pop languagelevel             % set strokeadjust and
1 ne                           % overprint to their defaults.
{false setstrokeadjust false setoverprint
} if
} if
} bd
/EndEPSF { %def
count op_count sub {pop} repeat            % Clean up stacks
countdictstack dict_count sub {end} repeat
b4_Inc_state restore
} bd
%%EndResource
%FOPBeginFontDict
%%IncludeResource: font Courier-Oblique
%%IncludeResource: font Courier-BoldOblique
%%IncludeResource: font Courier-Bold
%%IncludeResource: font ZapfDingbats
%%IncludeResource: font Symbol
%%IncludeResource: font Helvetica
%%IncludeResource: font Helvetica-Oblique
%%IncludeResource: font Helvetica-Bold
%%IncludeResource: font Helvetica-BoldOblique
%%IncludeResource: font Times-Roman
%%IncludeResource: font Times-Italic
%%IncludeResource: font Times-Bold
%%IncludeResource: font Times-BoldItalic
%%IncludeResource: font Courier
%FOPEndFontDict
%%BeginResource: encoding WinAnsiEncoding
/WinAnsiEncoding [
/.notdef /.notdef /.notdef /.notdef /.notdef
/.notdef /.notdef /.notdef /.notdef /.notdef
/.notdef /.notdef /.notdef /.notdef /.notdef
/.notdef /.notdef /.notdef /.notdef /.notdef
/.notdef /.notdef /.notdef /.notdef /.notdef
/.notdef /.notdef /.notdef /.notdef /.notdef
/.notdef /.notdef /space /exclam /quotedbl
/numbersign /dollar /percent /ampersand /quotesingle
/parenleft /parenright /asterisk /plus /comma
/hyphen /period /slash /zero /one
/two /three /four /five /six
/seven /eight /nine /colon /semicolon
/less /equal /greater /question /at
/A /B /C /D /E
/F /G /H /I /J
/K /L /M /N /O
/P /Q /R /S /T
/U /V /W /X /Y
/Z /bracketleft /backslash /bracketright /asciicircum
/underscore /quoteleft /a /b /c
/d /e /f /g /h
/i /j /k /l /m
/n /o /p /q /r
/s /t /u /v /w
/x /y /z /braceleft /bar
/braceright /asciitilde /bullet /Euro /bullet
/quotesinglbase /florin /quotedblbase /ellipsis /dagger
/daggerdbl /circumflex /perthousand /Scaron /guilsinglleft
/OE /bullet /Zcaron /bullet /bullet
/quoteleft /quoteright /quotedblleft /quotedblright /bullet
/endash /emdash /asciitilde /trademark /scaron
/guilsinglright /oe /bullet /zcaron /Ydieresis
/space /exclamdown /cent /sterling /currency
/yen /brokenbar /section /dieresis /copyright
/ordfeminine /guillemotleft /logicalnot /sfthyphen /registered
/macron /degree /plusminus /twosuperior /threesuperior
/acute /mu /paragraph /middot /cedilla
/onesuperior /ordmasculine /guillemotright /onequarter /onehalf
/threequarters /questiondown /Agrave /Aacute /Acircumflex
/Atilde /Adieresis /Aring /AE /Ccedilla
/Egrave /Eacute /Ecircumflex /Edieresis /Igrave
/Iacute /Icircumflex /Idieresis /Eth /Ntilde
/Ograve /Oacute /Ocircumflex /Otilde /Odieresis
/multiply /Oslash /Ugrave /Uacute /Ucircumflex
/Udieresis /Yacute /Thorn /germandbls /agrave
/aacute /acircumflex /atilde /adieresis /aring
/ae /ccedilla /egrave /eacute /ecircumflex
/edieresis /igrave /iacute /icircumflex /idieresis
/eth /ntilde /ograve /oacute /ocircumflex
/otilde /odieresis /divide /oslash /ugrave
/uacute /ucircumflex /udieresis /yacute /thorn
/ydieresis
] def
%%EndResource
%FOPBeginFontReencode
/Courier-Oblique findfont
dup length dict begin
  {1 index /FID ne {def} {pop pop} ifelse} forall
  /Encoding WinAnsiEncoding def
  currentdict
end
/Courier-Oblique exch definefont pop
/Courier-BoldOblique findfont
dup length dict begin
  {1 index /FID ne {def} {pop pop} ifelse} forall
  /Encoding WinAnsiEncoding def
  currentdict
end
/Courier-BoldOblique exch definefont pop
/Courier-Bold findfont
dup length dict begin
  {1 index /FID ne {def} {pop pop} ifelse} forall
  /Encoding WinAnsiEncoding def
  currentdict
end
/Courier-Bold exch definefont pop
/Helvetica findfont
dup length dict begin
  {1 index /FID ne {def} {pop pop} ifelse} forall
  /Encoding WinAnsiEncoding def
  currentdict
end
/Helvetica exch definefont pop
/Helvetica-Oblique findfont
dup length dict begin
  {1 index /FID ne {def} {pop pop} ifelse} forall
  /Encoding WinAnsiEncoding def
  currentdict
end
/Helvetica-Oblique exch definefont pop
/Helvetica-Bold findfont
dup length dict begin
  {1 index /FID ne {def} {pop pop} ifelse} forall
  /Encoding WinAnsiEncoding def
  currentdict
end
/Helvetica-Bold exch definefont pop
/Helvetica-BoldOblique findfont
dup length dict begin
  {1 index /FID ne {def} {pop pop} ifelse} forall
  /Encoding WinAnsiEncoding def
  currentdict
end
/Helvetica-BoldOblique exch definefont pop
/Times-Roman findfont
dup length dict begin
  {1 index /FID ne {def} {pop pop} ifelse} forall
  /Encoding WinAnsiEncoding def
  currentdict
end
/Times-Roman exch definefont pop
/Times-Italic findfont
dup length dict begin
  {1 index /FID ne {def} {pop pop} ifelse} forall
  /Encoding WinAnsiEncoding def
  currentdict
end
/Times-Italic exch definefont pop
/Times-Bold findfont
dup length dict begin
  {1 index /FID ne {def} {pop pop} ifelse} forall
  /Encoding WinAnsiEncoding def
  currentdict
end
/Times-Bold exch definefont pop
/Times-BoldItalic findfont
dup length dict begin
  {1 index /FID ne {def} {pop pop} ifelse} forall
  /Encoding WinAnsiEncoding def
  currentdict
end
/Times-BoldItalic exch definefont pop
/Courier findfont
dup length dict begin
  {1 index /FID ne {def} {pop pop} ifelse} forall
  /Encoding WinAnsiEncoding def
  currentdict
end
/Courier exch definefont pop
%FOPEndFontReencode
%%EndProlog
%%Page: 1 1
%%PageBoundingBox: 0 0 1864 613
%%BeginPageSetup
[1 0 0 -1 0 613] CT
%%EndPageSetup
GS
[0.75 0 0 0.75 0 0.25] CT
N
0 0 M
2485 0 L
2485 817 L
0 817 L
0 0 L
cp
clip
1 GC
N
0 0 2485 817 re
f
GR
GS
[0.75 0 0 0.75 0 0.25] CT
1 GC
N
0 0 2485 817 re
f
GR
GS
[0.75 0 0 0.75 0 0.25] CT
1 GC
N
323 705 M
2249 705 L
2249 63 L
323 63 L
cp
f
GR
GS
[0.75 0 0 0.75 0 0.25] CT
0.149 GC
2 setlinecap
1 LJ
0.667 LW
N
323 704.999 M
2249 704.999 L
S
GR
GS
[0.75 0 0 0.75 0 0.25] CT
0.149 GC
2 setlinecap
1 LJ
0.667 LW
N
323 62.999 M
2249 62.999 L
S
GR
GS
[0.75 0 0 0.75 0 0.25] CT
0.149 GC
2 setlinecap
1 LJ
0.667 LW
N
323 704.999 M
323 685.74 L
S
GR
GS
[0.75 0 0 0.75 0 0.25] CT
0.149 GC
2 setlinecap
1 LJ
0.667 LW
N
644 704.999 M
644 685.74 L
S
GR
GS
[0.75 0 0 0.75 0 0.25] CT
0.149 GC
2 setlinecap
1 LJ
0.667 LW
N
965 704.999 M
965 685.74 L
S
GR
GS
[0.75 0 0 0.75 0 0.25] CT
0.149 GC
2 setlinecap
1 LJ
0.667 LW
N
1286 704.999 M
1286 685.74 L
S
GR
GS
[0.75 0 0 0.75 0 0.25] CT
0.149 GC
2 setlinecap
1 LJ
0.667 LW
N
1607 704.999 M
1607 685.74 L
S
GR
GS
[0.75 0 0 0.75 0 0.25] CT
0.149 GC
2 setlinecap
1 LJ
0.667 LW
N
1928 704.999 M
1928 685.74 L
S
GR
GS
[0.75 0 0 0.75 0 0.25] CT
0.149 GC
2 setlinecap
1 LJ
0.667 LW
N
2249 704.999 M
2249 685.74 L
S
GR
GS
[0.75 0 0 0.75 0 0.25] CT
0.149 GC
2 setlinecap
1 LJ
0.667 LW
N
323 62.999 M
323 82.258 L
S
GR
GS
[0.75 0 0 0.75 0 0.25] CT
0.149 GC
2 setlinecap
1 LJ
0.667 LW
N
644 62.999 M
644 82.258 L
S
GR
GS
[0.75 0 0 0.75 0 0.25] CT
0.149 GC
2 setlinecap
1 LJ
0.667 LW
N
965 62.999 M
965 82.258 L
S
GR
GS
[0.75 0 0 0.75 0 0.25] CT
0.149 GC
2 setlinecap
1 LJ
0.667 LW
N
1286 62.999 M
1286 82.258 L
S
GR
GS
[0.75 0 0 0.75 0 0.25] CT
0.149 GC
2 setlinecap
1 LJ
0.667 LW
N
1607 62.999 M
1607 82.258 L
S
GR
GS
[0.75 0 0 0.75 0 0.25] CT
0.149 GC
2 setlinecap
1 LJ
0.667 LW
N
1928 62.999 M
1928 82.258 L
S
GR
GS
[0.75 0 0 0.75 0 0.25] CT
0.149 GC
2 setlinecap
1 LJ
0.667 LW
N
2249 62.999 M
2249 82.258 L
S
GR
GS
[0.75 0 0 0.75 242.25 536.99823] CT
0.149 GC
/Helvetica 40 F
GS
[1 0 0 1 0 0] CT
-13 38 moveto 
1 -1 scale
(0) t 
GR
GR
GS
[0.75 0 0 0.75 483 536.99823] CT
0.149 GC
/Helvetica 40 F
GS
[1 0 0 1 0 0] CT
-25.5 38 moveto 
1 -1 scale
(20) t 
GR
GR
GS
[0.75 0 0 0.75 723.75 536.99823] CT
0.149 GC
/Helvetica 40 F
GS
[1 0 0 1 0 0] CT
-25.5 38 moveto 
1 -1 scale
(40) t 
GR
GR
GS
[0.75 0 0 0.75 964.5 536.99823] CT
0.149 GC
/Helvetica 40 F
GS
[1 0 0 1 0 0] CT
-25.5 38 moveto 
1 -1 scale
(60) t 
GR
GR
GS
[0.75 0 0 0.75 1205.25 536.99823] CT
0.149 GC
/Helvetica 40 F
GS
[1 0 0 1 0 0] CT
-25.5 38 moveto 
1 -1 scale
(80) t 
GR
GR
GS
[0.75 0 0 0.75 1446 536.99823] CT
0.149 GC
/Helvetica 40 F
GS
[1 0 0 1 0 0] CT
-38.5 38 moveto 
1 -1 scale
(100) t 
GR
GR
GS
[0.75 0 0 0.75 1686.75 536.99823] CT
0.149 GC
/Helvetica 40 F
GS
[1 0 0 1 0 0] CT
-38.5 38 moveto 
1 -1 scale
(120) t 
GR
GR
GS
[0.75 0 0 0.75 964.50073 574.00009] CT
0.149 GC
/Helvetica 44 F
GS
[1 0 0 1 0 0] CT
-90.5 41 moveto 
1 -1 scale
(Time [s]) t 
GR
GR
GS
[0.75 0 0 0.75 0 0.25] CT
0.149 GC
2 setlinecap
1 LJ
0.667 LW
N
323 704.999 M
323 62.999 L
S
GR
GS
[0.75 0 0 0.75 0 0.25] CT
0.149 GC
2 setlinecap
1 LJ
0.667 LW
N
2249 704.999 M
2249 62.999 L
S
GR
GS
[0.75 0 0 0.75 0 0.25] CT
0.149 GC
2 setlinecap
1 LJ
0.667 LW
N
323 704.999 M
342.26 704.999 L
S
GR
GS
[0.75 0 0 0.75 0 0.25] CT
0.149 GC
2 setlinecap
1 LJ
0.667 LW
N
323 544.501 M
342.26 544.501 L
S
GR
GS
[0.75 0 0 0.75 0 0.25] CT
0.149 GC
2 setlinecap
1 LJ
0.667 LW
N
323 384.001 M
342.26 384.001 L
S
GR
GS
[0.75 0 0 0.75 0 0.25] CT
0.149 GC
2 setlinecap
1 LJ
0.667 LW
N
323 223.5 M
342.26 223.5 L
S
GR
GS
[0.75 0 0 0.75 0 0.25] CT
0.149 GC
2 setlinecap
1 LJ
0.667 LW
N
323 62.999 M
342.26 62.999 L
S
GR
GS
[0.75 0 0 0.75 0 0.25] CT
0.149 GC
2 setlinecap
1 LJ
0.667 LW
N
2249 704.999 M
2229.74 704.999 L
S
GR
GS
[0.75 0 0 0.75 0 0.25] CT
0.149 GC
2 setlinecap
1 LJ
0.667 LW
N
2249 544.501 M
2229.74 544.501 L
S
GR
GS
[0.75 0 0 0.75 0 0.25] CT
0.149 GC
2 setlinecap
1 LJ
0.667 LW
N
2249 384.001 M
2229.74 384.001 L
S
GR
GS
[0.75 0 0 0.75 0 0.25] CT
0.149 GC
2 setlinecap
1 LJ
0.667 LW
N
2249 223.5 M
2229.74 223.5 L
S
GR
GS
[0.75 0 0 0.75 0 0.25] CT
0.149 GC
2 setlinecap
1 LJ
0.667 LW
N
2249 62.999 M
2229.74 62.999 L
S
GR
GS
[0.75 0 0 0.75 234.25001 528.99908] CT
0.149 GC
/Helvetica 40 F
GS
[1 0 0 1 0 0] CT
-64 14 moveto 
1 -1 scale
(8.6) t 
GR
GR
GS
[0.75 0 0 0.75 234.25001 408.62592] CT
0.149 GC
/Helvetica 40 F
GS
[1 0 0 1 0 0] CT
-90 14 moveto 
1 -1 scale
(8.65) t 
GR
GR
GS
[0.75 0 0 0.75 234.25001 288.25046] CT
0.149 GC
/Helvetica 40 F
GS
[1 0 0 1 0 0] CT
-64 14 moveto 
1 -1 scale
(8.7) t 
GR
GR
GS
[0.75 0 0 0.75 234.25001 167.875] CT
0.149 GC
/Helvetica 40 F
GS
[1 0 0 1 0 0] CT
-90 14 moveto 
1 -1 scale
(8.75) t 
GR
GR
GS
[0.75 0 0 0.75 234.25001 47.49954] CT
0.149 GC
/Helvetica 40 F
GS
[1 0 0 1 0 0] CT
-64 14 moveto 
1 -1 scale
(8.8) t 
GR
GR
GS
[0 -0.75 0.75 0 163.75001 288.24817] CT
0.149 GC
/Helvetica 44 F
GS
[1 0 0 1 0 0] CT
-116 -11 moveto 
1 -1 scale
(Range [m]) t 
GR
GR
GS
[0.75 0 0 0.75 964.50092 41.3119] CT
/Helvetica-Bold 44 F
GS
[1 0 0 1 0 0] CT
-473.5 -11 moveto 
1 -1 scale
(Unfiltered readings from UWB module) t 
GR
GR
GS
[0.75 0 0 0.75 0 0.25] CT
0 0 1 RC
1 LJ
0.667 LW
N
323 494.14 M
329.42 328.475 L
335.84 403.777 L
342.26 448.958 L
348.68 464.02 L
355.1 524.263 L
361.52 343.536 L
367.94 403.777 L
374.36 373.656 L
380.78 358.595 L
387.2 554.383 L
393.62 403.777 L
400.04 448.958 L
406.46 403.777 L
412.88 373.656 L
419.3 479.081 L
425.72 418.838 L
432.14 328.475 L
438.56 433.9 L
444.98 509.201 L
451.4 373.656 L
457.82 494.14 L
464.24 448.958 L
470.66 358.595 L
477.08 343.536 L
483.5 403.777 L
489.92 479.081 L
496.34 358.595 L
502.76 418.838 L
509.18 298.355 L
515.6 313.413 L
522.02 328.475 L
528.44 494.14 L
534.86 313.413 L
541.28 298.355 L
547.7 599.565 L
554.12 283.293 L
560.54 283.293 L
566.96 494.14 L
573.38 343.536 L
579.8 328.475 L
586.22 599.565 L
592.64 433.9 L
599.06 343.536 L
605.48 479.081 L
611.9 403.777 L
618.32 298.355 L
624.74 448.958 L
631.16 373.656 L
637.58 328.475 L
644 343.536 L
650.42 418.838 L
656.84 373.656 L
663.26 433.9 L
669.68 343.536 L
676.1 207.991 L
682.52 358.595 L
688.94 388.718 L
695.36 403.777 L
701.78 328.475 L
708.2 313.413 L
714.62 388.718 L
721.04 479.081 L
727.46 403.777 L
733.88 509.201 L
740.3 358.595 L
746.72 433.9 L
753.14 162.81 L
759.56 388.718 L
765.98 433.9 L
772.4 388.718 L
778.82 253.173 L
785.24 388.718 L
791.66 509.201 L
798.08 479.081 L
804.5 238.112 L
810.92 343.536 L
817.34 403.777 L
823.76 433.9 L
830.18 403.777 L
836.6 403.777 L
843.02 373.656 L
849.44 418.838 L
855.86 268.232 L
862.28 358.595 L
868.7 298.355 L
875.12 494.14 L
881.54 358.595 L
887.96 373.656 L
894.38 358.595 L
900.8 313.413 L
907.22 479.081 L
913.64 343.536 L
920.06 388.718 L
926.48 403.777 L
932.9 539.322 L
939.32 283.293 L
945.74 373.656 L
952.16 328.475 L
958.58 479.081 L
965 328.475 L
971.42 524.263 L
977.84 569.445 L
984.26 494.14 L
990.68 298.355 L
997.1 343.536 L
1003.52 433.9 L
1009.94 388.718 L
1016.36 298.355 L
1022.78 509.201 L
1029.2 343.536 L
1035.62 298.355 L
1042.04 418.838 L
1048.46 373.656 L
1054.88 373.656 L
1061.3 358.595 L
1067.72 464.02 L
1074.14 388.718 L
1080.56 298.355 L
1086.98 328.475 L
1093.4 479.081 L
1099.82 494.14 L
1106.24 448.958 L
1112.66 403.777 L
1119.08 418.838 L
1125.5 358.595 L
1131.92 403.777 L
1138.34 253.173 L
1144.76 418.838 L
1151.18 599.565 L
1157.6 448.958 L
1164.02 223.05 L
1170.44 479.081 L
1176.86 298.355 L
1183.28 177.868 L
1189.7 298.355 L
1196.12 358.595 L
1202.54 223.05 L
1208.96 358.595 L
1215.38 238.112 L
1221.8 358.595 L
1228.22 162.81 L
1234.64 343.536 L
1241.06 539.322 L
1247.48 373.656 L
1253.9 388.718 L
1260.32 358.595 L
1266.74 313.413 L
1273.16 418.838 L
1279.58 253.173 L
1286 328.475 L
1292.42 509.201 L
1298.84 479.081 L
1305.26 448.958 L
1311.68 448.958 L
1318.1 253.173 L
1324.52 343.536 L
1330.94 298.355 L
1337.36 373.656 L
1343.78 403.777 L
1350.2 388.718 L
1356.62 509.201 L
1363.04 388.718 L
1369.46 433.9 L
1375.88 358.595 L
1382.3 418.838 L
1388.72 388.718 L
1395.14 433.9 L
1401.56 433.9 L
1407.98 433.9 L
1414.4 433.9 L
1420.82 403.777 L
1427.24 418.838 L
1433.66 298.355 L
1440.08 373.656 L
1446.5 479.081 L
1452.92 494.14 L
1459.34 238.112 L
1465.76 328.475 L
1472.18 418.838 L
1478.6 268.232 L
1485.02 328.475 L
1491.44 313.413 L
1497.86 283.293 L
1504.28 192.93 L
1510.7 464.02 L
1517.12 268.232 L
1523.54 388.718 L
1529.96 479.081 L
1536.38 283.293 L
1542.8 343.536 L
1549.22 313.413 L
1555.64 433.9 L
1562.06 373.656 L
1568.48 298.355 L
1574.9 313.413 L
1581.32 433.9 L
1587.74 494.14 L
1594.16 373.656 L
1600.58 358.595 L
1607 343.536 L
1613.42 479.081 L
1619.84 554.383 L
1626.26 388.718 L
1632.68 313.413 L
1639.1 524.263 L
1645.52 328.475 L
1651.94 223.05 L
1658.36 343.536 L
1664.78 223.05 L
1671.2 343.536 L
1677.62 479.081 L
1684.04 388.718 L
1690.46 403.777 L
1696.88 403.777 L
1703.3 298.355 L
1709.72 328.475 L
1716.14 343.536 L
1722.56 433.9 L
1728.98 569.445 L
1735.4 464.02 L
1741.82 238.112 L
1748.24 223.05 L
1754.66 358.595 L
1761.08 418.838 L
1767.5 418.838 L
1773.92 298.355 L
1780.34 388.718 L
1786.76 403.777 L
1793.18 433.9 L
1799.6 403.777 L
1806.02 388.718 L
1812.44 283.293 L
1818.86 373.656 L
1825.28 313.413 L
1831.7 373.656 L
1838.12 253.173 L
1844.54 253.173 L
1850.96 298.355 L
1857.38 343.536 L
1863.8 373.656 L
1870.22 433.9 L
1876.64 358.595 L
1883.06 373.656 L
1889.48 313.413 L
1895.9 343.536 L
1902.32 298.355 L
1908.74 509.201 L
1915.16 373.656 L
1921.58 328.475 L
1928 418.838 L
1934.42 464.02 L
1940.84 223.05 L
1947.26 343.536 L
1953.68 343.536 L
1960.1 343.536 L
1966.52 388.718 L
1972.94 343.536 L
1979.36 373.656 L
1985.78 373.656 L
1992.2 373.656 L
1998.62 388.718 L
2005.04 388.718 L
2011.46 268.232 L
2017.88 433.9 L
2024.3 464.02 L
2030.72 418.838 L
2037.14 509.201 L
2043.56 192.93 L
2049.98 373.656 L
2056.4 464.02 L
2062.82 373.656 L
2069.24 433.9 L
2075.66 584.503 L
2082.08 464.02 L
2088.5 343.536 L
2094.92 358.595 L
2101.34 328.475 L
2107.76 448.958 L
2114.18 554.383 L
2120.6 283.293 L
2127.02 207.991 L
2133.44 283.293 L
2139.86 448.958 L
2146.28 433.9 L
2152.7 313.413 L
2159.12 433.9 L
2165.54 313.413 L
2171.96 328.475 L
2178.38 253.173 L
2184.8 479.081 L
2191.22 433.9 L
2197.64 479.081 L
2204.06 283.293 L
2210.48 464.02 L
2216.9 418.838 L
2223.32 388.718 L
2229.74 358.595 L
2236.16 298.355 L
2242.58 509.201 L
S
GR
%%Trailer
%%Pages: 1
%%EOF
