%!PS-Adobe-3.0 EPSF-3.0
%%Creator: (MATLAB, The Mathworks, Inc. Version 9.3.0.713579 \(R2017b\). Operating System: Linux)
%%Title: /home/micke/ExamensarbeteCybercom/Resultplots/1515_wo_enc.eps
%%CreationDate: 2018-05-04T12:57:51
%%Pages: (atend)
%%BoundingBox: 0 0 1871 989
%%LanguageLevel: 3
%%EndComments
%%BeginProlog
%%BeginResource: procset (Apache XML Graphics Std ProcSet) 1.2 0
%%Version: 1.2 0
%%Copyright: (Copyright 2001-2003,2010 The Apache Software Foundation. License terms: http://www.apache.org/licenses/LICENSE-2.0)
/bd{bind def}bind def
/ld{load def}bd
/GR/grestore ld
/GS/gsave ld
/RM/rmoveto ld
/C/curveto ld
/t/show ld
/L/lineto ld
/ML/setmiterlimit ld
/CT/concat ld
/f/fill ld
/N/newpath ld
/S/stroke ld
/CC/setcmykcolor ld
/A/ashow ld
/cp/closepath ld
/RC/setrgbcolor ld
/LJ/setlinejoin ld
/GC/setgray ld
/LW/setlinewidth ld
/M/moveto ld
/re {4 2 roll M
1 index 0 rlineto
0 exch rlineto
neg 0 rlineto
cp } bd
/_ctm matrix def
/_tm matrix def
/BT { _ctm currentmatrix pop matrix _tm copy pop 0 0 moveto } bd
/ET { _ctm setmatrix } bd
/iTm { _ctm setmatrix _tm concat } bd
/Tm { _tm astore pop iTm 0 0 moveto } bd
/ux 0.0 def
/uy 0.0 def
/F {
  /Tp exch def
  /Tf exch def
  Tf findfont Tp scalefont setfont
  /cf Tf def  /cs Tp def
} bd
/ULS {currentpoint /uy exch def /ux exch def} bd
/ULE {
  /Tcx currentpoint pop def
  gsave
  newpath
  cf findfont cs scalefont dup
  /FontMatrix get 0 get /Ts exch def /FontInfo get dup
  /UnderlinePosition get Ts mul /To exch def
  /UnderlineThickness get Ts mul /Tt exch def
  ux uy To add moveto  Tcx uy To add lineto
  Tt setlinewidth stroke
  grestore
} bd
/OLE {
  /Tcx currentpoint pop def
  gsave
  newpath
  cf findfont cs scalefont dup
  /FontMatrix get 0 get /Ts exch def /FontInfo get dup
  /UnderlinePosition get Ts mul /To exch def
  /UnderlineThickness get Ts mul /Tt exch def
  ux uy To add cs add moveto Tcx uy To add cs add lineto
  Tt setlinewidth stroke
  grestore
} bd
/SOE {
  /Tcx currentpoint pop def
  gsave
  newpath
  cf findfont cs scalefont dup
  /FontMatrix get 0 get /Ts exch def /FontInfo get dup
  /UnderlinePosition get Ts mul /To exch def
  /UnderlineThickness get Ts mul /Tt exch def
  ux uy To add cs 10 mul 26 idiv add moveto Tcx uy To add cs 10 mul 26 idiv add lineto
  Tt setlinewidth stroke
  grestore
} bd
/QT {
/Y22 exch store
/X22 exch store
/Y21 exch store
/X21 exch store
currentpoint
/Y21 load 2 mul add 3 div exch
/X21 load 2 mul add 3 div exch
/X21 load 2 mul /X22 load add 3 div
/Y21 load 2 mul /Y22 load add 3 div
/X22 load /Y22 load curveto
} bd
/SSPD {
dup length /d exch dict def
{
/v exch def
/k exch def
currentpagedevice k known {
/cpdv currentpagedevice k get def
v cpdv ne {
/upd false def
/nullv v type /nulltype eq def
/nullcpdv cpdv type /nulltype eq def
nullv nullcpdv or
{
/upd true def
} {
/sametype v type cpdv type eq def
sametype {
v type /arraytype eq {
/vlen v length def
/cpdvlen cpdv length def
vlen cpdvlen eq {
0 1 vlen 1 sub {
/i exch def
/obj v i get def
/cpdobj cpdv i get def
obj cpdobj ne {
/upd true def
exit
} if
} for
} {
/upd true def
} ifelse
} {
v type /dicttype eq {
v {
/dv exch def
/dk exch def
/cpddv cpdv dk get def
dv cpddv ne {
/upd true def
exit
} if
} forall
} {
/upd true def
} ifelse
} ifelse
} if
} ifelse
upd true eq {
d k v put
} if
} if
} if
} forall
d length 0 gt {
d setpagedevice
} if
} bd
/RE { % /NewFontName [NewEncodingArray] /FontName RE -
  findfont dup length dict begin
  {
    1 index /FID ne
    {def} {pop pop} ifelse
  } forall
  /Encoding exch def
  /FontName 1 index def
  currentdict definefont pop
  end
} bind def
%%EndResource
%%BeginResource: procset (Apache XML Graphics EPS ProcSet) 1.0 0
%%Version: 1.0 0
%%Copyright: (Copyright 2002-2003 The Apache Software Foundation. License terms: http://www.apache.org/licenses/LICENSE-2.0)
/BeginEPSF { %def
/b4_Inc_state save def         % Save state for cleanup
/dict_count countdictstack def % Count objects on dict stack
/op_count count 1 sub def      % Count objects on operand stack
userdict begin                 % Push userdict on dict stack
/showpage { } def              % Redefine showpage, { } = null proc
0 setgray 0 setlinecap         % Prepare graphics state
1 setlinewidth 0 setlinejoin
10 setmiterlimit [ ] 0 setdash newpath
/languagelevel where           % If level not equal to 1 then
{pop languagelevel             % set strokeadjust and
1 ne                           % overprint to their defaults.
{false setstrokeadjust false setoverprint
} if
} if
} bd
/EndEPSF { %def
count op_count sub {pop} repeat            % Clean up stacks
countdictstack dict_count sub {end} repeat
b4_Inc_state restore
} bd
%%EndResource
%FOPBeginFontDict
%%IncludeResource: font Courier-Oblique
%%IncludeResource: font Courier-BoldOblique
%%IncludeResource: font Courier-Bold
%%IncludeResource: font ZapfDingbats
%%IncludeResource: font Symbol
%%IncludeResource: font Helvetica
%%IncludeResource: font Helvetica-Oblique
%%IncludeResource: font Helvetica-Bold
%%IncludeResource: font Helvetica-BoldOblique
%%IncludeResource: font Times-Roman
%%IncludeResource: font Times-Italic
%%IncludeResource: font Times-Bold
%%IncludeResource: font Times-BoldItalic
%%IncludeResource: font Courier
%FOPEndFontDict
%%BeginResource: encoding WinAnsiEncoding
/WinAnsiEncoding [
/.notdef /.notdef /.notdef /.notdef /.notdef
/.notdef /.notdef /.notdef /.notdef /.notdef
/.notdef /.notdef /.notdef /.notdef /.notdef
/.notdef /.notdef /.notdef /.notdef /.notdef
/.notdef /.notdef /.notdef /.notdef /.notdef
/.notdef /.notdef /.notdef /.notdef /.notdef
/.notdef /.notdef /space /exclam /quotedbl
/numbersign /dollar /percent /ampersand /quotesingle
/parenleft /parenright /asterisk /plus /comma
/hyphen /period /slash /zero /one
/two /three /four /five /six
/seven /eight /nine /colon /semicolon
/less /equal /greater /question /at
/A /B /C /D /E
/F /G /H /I /J
/K /L /M /N /O
/P /Q /R /S /T
/U /V /W /X /Y
/Z /bracketleft /backslash /bracketright /asciicircum
/underscore /quoteleft /a /b /c
/d /e /f /g /h
/i /j /k /l /m
/n /o /p /q /r
/s /t /u /v /w
/x /y /z /braceleft /bar
/braceright /asciitilde /bullet /Euro /bullet
/quotesinglbase /florin /quotedblbase /ellipsis /dagger
/daggerdbl /circumflex /perthousand /Scaron /guilsinglleft
/OE /bullet /Zcaron /bullet /bullet
/quoteleft /quoteright /quotedblleft /quotedblright /bullet
/endash /emdash /asciitilde /trademark /scaron
/guilsinglright /oe /bullet /zcaron /Ydieresis
/space /exclamdown /cent /sterling /currency
/yen /brokenbar /section /dieresis /copyright
/ordfeminine /guillemotleft /logicalnot /sfthyphen /registered
/macron /degree /plusminus /twosuperior /threesuperior
/acute /mu /paragraph /middot /cedilla
/onesuperior /ordmasculine /guillemotright /onequarter /onehalf
/threequarters /questiondown /Agrave /Aacute /Acircumflex
/Atilde /Adieresis /Aring /AE /Ccedilla
/Egrave /Eacute /Ecircumflex /Edieresis /Igrave
/Iacute /Icircumflex /Idieresis /Eth /Ntilde
/Ograve /Oacute /Ocircumflex /Otilde /Odieresis
/multiply /Oslash /Ugrave /Uacute /Ucircumflex
/Udieresis /Yacute /Thorn /germandbls /agrave
/aacute /acircumflex /atilde /adieresis /aring
/ae /ccedilla /egrave /eacute /ecircumflex
/edieresis /igrave /iacute /icircumflex /idieresis
/eth /ntilde /ograve /oacute /ocircumflex
/otilde /odieresis /divide /oslash /ugrave
/uacute /ucircumflex /udieresis /yacute /thorn
/ydieresis
] def
%%EndResource
%FOPBeginFontReencode
/Courier-Oblique findfont
dup length dict begin
  {1 index /FID ne {def} {pop pop} ifelse} forall
  /Encoding WinAnsiEncoding def
  currentdict
end
/Courier-Oblique exch definefont pop
/Courier-BoldOblique findfont
dup length dict begin
  {1 index /FID ne {def} {pop pop} ifelse} forall
  /Encoding WinAnsiEncoding def
  currentdict
end
/Courier-BoldOblique exch definefont pop
/Courier-Bold findfont
dup length dict begin
  {1 index /FID ne {def} {pop pop} ifelse} forall
  /Encoding WinAnsiEncoding def
  currentdict
end
/Courier-Bold exch definefont pop
/Helvetica findfont
dup length dict begin
  {1 index /FID ne {def} {pop pop} ifelse} forall
  /Encoding WinAnsiEncoding def
  currentdict
end
/Helvetica exch definefont pop
/Helvetica-Oblique findfont
dup length dict begin
  {1 index /FID ne {def} {pop pop} ifelse} forall
  /Encoding WinAnsiEncoding def
  currentdict
end
/Helvetica-Oblique exch definefont pop
/Helvetica-Bold findfont
dup length dict begin
  {1 index /FID ne {def} {pop pop} ifelse} forall
  /Encoding WinAnsiEncoding def
  currentdict
end
/Helvetica-Bold exch definefont pop
/Helvetica-BoldOblique findfont
dup length dict begin
  {1 index /FID ne {def} {pop pop} ifelse} forall
  /Encoding WinAnsiEncoding def
  currentdict
end
/Helvetica-BoldOblique exch definefont pop
/Times-Roman findfont
dup length dict begin
  {1 index /FID ne {def} {pop pop} ifelse} forall
  /Encoding WinAnsiEncoding def
  currentdict
end
/Times-Roman exch definefont pop
/Times-Italic findfont
dup length dict begin
  {1 index /FID ne {def} {pop pop} ifelse} forall
  /Encoding WinAnsiEncoding def
  currentdict
end
/Times-Italic exch definefont pop
/Times-Bold findfont
dup length dict begin
  {1 index /FID ne {def} {pop pop} ifelse} forall
  /Encoding WinAnsiEncoding def
  currentdict
end
/Times-Bold exch definefont pop
/Times-BoldItalic findfont
dup length dict begin
  {1 index /FID ne {def} {pop pop} ifelse} forall
  /Encoding WinAnsiEncoding def
  currentdict
end
/Times-BoldItalic exch definefont pop
/Courier findfont
dup length dict begin
  {1 index /FID ne {def} {pop pop} ifelse} forall
  /Encoding WinAnsiEncoding def
  currentdict
end
/Courier exch definefont pop
%FOPEndFontReencode
%%EndProlog
%%Page: 1 1
%%PageBoundingBox: 0 0 1871 989
%%BeginPageSetup
[1 0 0 -1 0 989] CT
%%EndPageSetup
GS
[0.75 0 0 0.75 0 0.5] CT
N
0 0 M
2495 0 L
2495 1318 L
0 1318 L
0 0 L
cp
clip
1 GC
N
0 0 2495 1318 re
f
GR
GS
[0.75 0 0 0.75 0 0.5] CT
1 GC
N
0 0 2495 1318 re
f
GR
GS
[0.75 0 0 0.75 0 0.5] CT
1 GC
N
754 1173 M
1828 1173 L
1828 99 L
754 99 L
cp
f
GR
GS
[0.75 0 0 0.75 0 0.5] CT
0.149 GC
2 setlinecap
1 LJ
0.667 LW
N
754 1173 M
1828 1173 L
S
GR
GS
[0.75 0 0 0.75 0 0.5] CT
0.149 GC
2 setlinecap
1 LJ
0.667 LW
N
754 99 M
1828 99 L
S
GR
GS
[0.75 0 0 0.75 0 0.5] CT
0.149 GC
2 setlinecap
1 LJ
0.667 LW
N
754 1173 M
754 1162.26 L
S
GR
GS
[0.75 0 0 0.75 0 0.5] CT
0.149 GC
2 setlinecap
1 LJ
0.667 LW
N
1022.5 1173 M
1022.5 1162.26 L
S
GR
GS
[0.75 0 0 0.75 0 0.5] CT
0.149 GC
2 setlinecap
1 LJ
0.667 LW
N
1291 1173 M
1291 1162.26 L
S
GR
GS
[0.75 0 0 0.75 0 0.5] CT
0.149 GC
2 setlinecap
1 LJ
0.667 LW
N
1559.5 1173 M
1559.5 1162.26 L
S
GR
GS
[0.75 0 0 0.75 0 0.5] CT
0.149 GC
2 setlinecap
1 LJ
0.667 LW
N
1828 1173 M
1828 1162.26 L
S
GR
GS
[0.75 0 0 0.75 0 0.5] CT
0.149 GC
2 setlinecap
1 LJ
0.667 LW
N
754 99 M
754 109.74 L
S
GR
GS
[0.75 0 0 0.75 0 0.5] CT
0.149 GC
2 setlinecap
1 LJ
0.667 LW
N
1022.5 99 M
1022.5 109.74 L
S
GR
GS
[0.75 0 0 0.75 0 0.5] CT
0.149 GC
2 setlinecap
1 LJ
0.667 LW
N
1291 99 M
1291 109.74 L
S
GR
GS
[0.75 0 0 0.75 0 0.5] CT
0.149 GC
2 setlinecap
1 LJ
0.667 LW
N
1559.5 99 M
1559.5 109.74 L
S
GR
GS
[0.75 0 0 0.75 0 0.5] CT
0.149 GC
2 setlinecap
1 LJ
0.667 LW
N
1828 99 M
1828 109.74 L
S
GR
GS
[0.75 0 0 0.75 565.5 888.24997] CT
0.149 GC
/Helvetica 40 F
GS
[1 0 0 1 0 0] CT
-33 38 moveto 
1 -1 scale
(-20) t 
GR
GR
GS
[0.75 0 0 0.75 766.875 888.24997] CT
0.149 GC
/Helvetica 40 F
GS
[1 0 0 1 0 0] CT
-33 38 moveto 
1 -1 scale
(-10) t 
GR
GR
GS
[0.75 0 0 0.75 968.25 888.24997] CT
0.149 GC
/Helvetica 40 F
GS
[1 0 0 1 0 0] CT
-13 38 moveto 
1 -1 scale
(0) t 
GR
GR
GS
[0.75 0 0 0.75 1169.625 888.24997] CT
0.149 GC
/Helvetica 40 F
GS
[1 0 0 1 0 0] CT
-25.5 38 moveto 
1 -1 scale
(10) t 
GR
GR
GS
[0.75 0 0 0.75 1371 888.24997] CT
0.149 GC
/Helvetica 40 F
GS
[1 0 0 1 0 0] CT
-25.5 38 moveto 
1 -1 scale
(20) t 
GR
GR
GS
[0.75 0 0 0.75 968.25037 925.25] CT
0.149 GC
/Helvetica 44 F
GS
[1 0 0 1 0 0] CT
-153 41 moveto 
1 -1 scale
(x position [m]) t 
GR
GR
GS
[0.75 0 0 0.75 0 0.5] CT
0.149 GC
2 setlinecap
1 LJ
0.667 LW
N
754 1173 M
754 99 L
S
GR
GS
[0.75 0 0 0.75 0 0.5] CT
0.149 GC
2 setlinecap
1 LJ
0.667 LW
N
1828 1173 M
1828 99 L
S
GR
GS
[0.75 0 0 0.75 0 0.5] CT
0.149 GC
2 setlinecap
1 LJ
0.667 LW
N
754 1173 M
764.74 1173 L
S
GR
GS
[0.75 0 0 0.75 0 0.5] CT
0.149 GC
2 setlinecap
1 LJ
0.667 LW
N
754 1038.75 M
764.74 1038.75 L
S
GR
GS
[0.75 0 0 0.75 0 0.5] CT
0.149 GC
2 setlinecap
1 LJ
0.667 LW
N
754 904.5 M
764.74 904.5 L
S
GR
GS
[0.75 0 0 0.75 0 0.5] CT
0.149 GC
2 setlinecap
1 LJ
0.667 LW
N
754 770.25 M
764.74 770.25 L
S
GR
GS
[0.75 0 0 0.75 0 0.5] CT
0.149 GC
2 setlinecap
1 LJ
0.667 LW
N
754 636 M
764.74 636 L
S
GR
GS
[0.75 0 0 0.75 0 0.5] CT
0.149 GC
2 setlinecap
1 LJ
0.667 LW
N
754 501.75 M
764.74 501.75 L
S
GR
GS
[0.75 0 0 0.75 0 0.5] CT
0.149 GC
2 setlinecap
1 LJ
0.667 LW
N
754 367.5 M
764.74 367.5 L
S
GR
GS
[0.75 0 0 0.75 0 0.5] CT
0.149 GC
2 setlinecap
1 LJ
0.667 LW
N
754 233.25 M
764.74 233.25 L
S
GR
GS
[0.75 0 0 0.75 0 0.5] CT
0.149 GC
2 setlinecap
1 LJ
0.667 LW
N
754 99 M
764.74 99 L
S
GR
GS
[0.75 0 0 0.75 0 0.5] CT
0.149 GC
2 setlinecap
1 LJ
0.667 LW
N
1828 1173 M
1817.26 1173 L
S
GR
GS
[0.75 0 0 0.75 0 0.5] CT
0.149 GC
2 setlinecap
1 LJ
0.667 LW
N
1828 1038.75 M
1817.26 1038.75 L
S
GR
GS
[0.75 0 0 0.75 0 0.5] CT
0.149 GC
2 setlinecap
1 LJ
0.667 LW
N
1828 904.5 M
1817.26 904.5 L
S
GR
GS
[0.75 0 0 0.75 0 0.5] CT
0.149 GC
2 setlinecap
1 LJ
0.667 LW
N
1828 770.25 M
1817.26 770.25 L
S
GR
GS
[0.75 0 0 0.75 0 0.5] CT
0.149 GC
2 setlinecap
1 LJ
0.667 LW
N
1828 636 M
1817.26 636 L
S
GR
GS
[0.75 0 0 0.75 0 0.5] CT
0.149 GC
2 setlinecap
1 LJ
0.667 LW
N
1828 501.75 M
1817.26 501.75 L
S
GR
GS
[0.75 0 0 0.75 0 0.5] CT
0.149 GC
2 setlinecap
1 LJ
0.667 LW
N
1828 367.5 M
1817.26 367.5 L
S
GR
GS
[0.75 0 0 0.75 0 0.5] CT
0.149 GC
2 setlinecap
1 LJ
0.667 LW
N
1828 233.25 M
1817.26 233.25 L
S
GR
GS
[0.75 0 0 0.75 0 0.5] CT
0.149 GC
2 setlinecap
1 LJ
0.667 LW
N
1828 99 M
1817.26 99 L
S
GR
GS
[0.75 0 0 0.75 557.50003 880.25] CT
0.149 GC
/Helvetica 40 F
GS
[1 0 0 1 0 0] CT
-66 14 moveto 
1 -1 scale
(-20) t 
GR
GR
GS
[0.75 0 0 0.75 557.50003 779.5625] CT
0.149 GC
/Helvetica 40 F
GS
[1 0 0 1 0 0] CT
-66 14 moveto 
1 -1 scale
(-15) t 
GR
GR
GS
[0.75 0 0 0.75 557.50003 678.875] CT
0.149 GC
/Helvetica 40 F
GS
[1 0 0 1 0 0] CT
-66 14 moveto 
1 -1 scale
(-10) t 
GR
GR
GS
[0.75 0 0 0.75 557.50003 578.1875] CT
0.149 GC
/Helvetica 40 F
GS
[1 0 0 1 0 0] CT
-40 14 moveto 
1 -1 scale
(-5) t 
GR
GR
GS
[0.75 0 0 0.75 557.50003 477.5] CT
0.149 GC
/Helvetica 40 F
GS
[1 0 0 1 0 0] CT
-26 14 moveto 
1 -1 scale
(0) t 
GR
GR
GS
[0.75 0 0 0.75 557.50003 376.8125] CT
0.149 GC
/Helvetica 40 F
GS
[1 0 0 1 0 0] CT
-26 14 moveto 
1 -1 scale
(5) t 
GR
GR
GS
[0.75 0 0 0.75 557.50003 276.125] CT
0.149 GC
/Helvetica 40 F
GS
[1 0 0 1 0 0] CT
-51 14 moveto 
1 -1 scale
(10) t 
GR
GR
GS
[0.75 0 0 0.75 557.50003 175.4375] CT
0.149 GC
/Helvetica 40 F
GS
[1 0 0 1 0 0] CT
-51 14 moveto 
1 -1 scale
(15) t 
GR
GR
GS
[0.75 0 0 0.75 557.50003 74.75] CT
0.149 GC
/Helvetica 40 F
GS
[1 0 0 1 0 0] CT
-51 14 moveto 
1 -1 scale
(20) t 
GR
GR
GS
[0 -0.75 0.75 0 504.99998 477.49963] CT
0.149 GC
/Helvetica 44 F
GS
[1 0 0 1 0 0] CT
-153 -11 moveto 
1 -1 scale
(y position [m]) t 
GR
GR
GS
[0.75 0 0 0.75 1014.75092 63.3125] CT
/Helvetica-Bold 44 F
GS
[1 0 0 1 0 0] CT
-574.5 -11 moveto 
1 -1 scale
(Position estimate relative to basestation \(0.0\)) t 
GR
GR
GS
[0.75 0 0 0.75 0 0.5] CT
1 LJ
0.667 LW
N
1291 636 M
1291 636 L
1291 636 L
1291 636 L
1291 636 L
1291 636 L
1291.001 636 L
1291.001 636 L
1291.001 636 L
1292.825 636.018 L
1294.43 636.034 L
1296.443 636.054 L
1298.376 636.074 L
1299.907 636.089 L
1301.518 636.105 L
1302.968 636.12 L
1304.498 636.136 L
1305.867 636.149 L
1307.478 636.166 L
1309.814 636.189 L
1311.264 636.204 L
1312.795 636.22 L
1314.325 636.235 L
1315.856 636.251 L
1317.628 636.269 L
1319.641 636.289 L
1321.413 636.307 L
1323.186 636.325 L
1324.958 636.343 L
1326.488 636.359 L
1328.26 636.377 L
1330.032 636.395 L
1331.885 636.414 L
1333.415 636.43 L
1334.865 636.445 L
1336.154 636.458 L
1337.765 636.474 L
1339.376 636.491 L
1340.906 636.507 L
1342.276 636.521 L
1343.887 636.537 L
1345.498 636.554 L
1346.948 636.569 L
1348.236 636.582 L
1349.686 636.597 L
1351.297 636.614 L
1352.264 636.623 L
1353.875 636.64 L
1355.325 636.655 L
1356.775 636.67 L
1358.305 636.686 L
1359.674 636.7 L
1361.205 636.716 L
1362.896 636.733 L
1364.427 636.749 L
1366.038 636.766 L
1367.568 636.782 L
1369.018 636.797 L
1370.629 636.814 L
1372.24 636.831 L
1373.529 636.844 L
1374.737 636.857 L
1376.187 636.872 L
1377.395 636.884 L
1379.006 636.901 L
1380.617 636.918 L
1381.987 636.932 L
1383.114 636.944 L
1384.645 636.96 L
1386.417 636.979 L
1387.867 636.994 L
1389.478 637.011 L
1391.089 637.028 L
1392.7 637.044 L
1394.311 637.061 L
1395.76 637.077 L
1397.21 637.092 L
1398.821 637.109 L
1400.432 637.126 L
1402.124 637.144 L
1403.654 637.16 L
1405.265 637.177 L
1406.715 637.192 L
1408.165 637.207 L
1409.776 637.224 L
1411.387 637.241 L
1412.837 637.257 L
1414.448 637.274 L
1415.817 637.288 L
1417.187 637.303 L
1418.636 637.318 L
1420.167 637.334 L
1421.536 637.349 L
1423.067 637.365 L
1424.516 637.381 L
1426.047 637.397 L
1427.658 637.414 L
1429.269 637.431 L
1430.88 637.448 L
1432.33 637.464 L
1433.941 637.481 L
1435.552 637.498 L
1437.163 637.516 L
1438.774 637.533 L
1440.385 637.55 L
1441.996 637.567 L
1443.445 637.583 L
1444.895 637.598 L
1446.587 637.617 L
1448.117 637.633 L
1449.728 637.65 L
1451.742 637.672 L
1453.272 637.688 L
1454.883 637.706 L
1456.494 637.723 L
1458.025 637.74 L
1459.555 637.756 L
1461.166 637.774 L
1462.777 637.791 L
1464.388 637.808 L
1465.999 637.826 L
1467.61 637.843 L
1469.141 637.86 L
1470.671 637.876 L
1472.121 637.892 L
1473.651 637.909 L
1475.182 637.925 L
1476.793 637.943 L
1478.404 637.96 L
1480.015 637.978 L
1481.626 637.995 L
1483.237 638.013 L
1484.848 638.031 L
1486.539 638.049 L
1488.069 638.066 L
1489.519 638.081 L
1491.13 638.099 L
1492.58 638.115 L
1494.191 638.133 L
1495.802 638.15 L
1497.494 638.169 L
1499.024 638.185 L
1500.635 638.203 L
1502.246 638.221 L
1503.857 638.239 L
1505.468 638.256 L
1507.079 638.274 L
1508.69 638.292 L
1510.14 638.308 L
1511.751 638.325 L
1513.926 638.349 L
1515.295 638.365 L
1517.067 638.384 L
1518.759 638.403 L
1520.289 638.42 L
1521.9 638.438 L
1523.511 638.455 L
1525.122 638.473 L
1526.652 638.49 L
1528.263 638.508 L
1529.794 638.525 L
1531.405 638.543 L
1533.016 638.561 L
1534.304 638.575 L
1535.754 638.591 L
1537.204 638.607 L
1538.896 638.626 L
1540.265 638.641 L
1541.876 638.659 L
1543.487 638.677 L
1545.098 638.695 L
1546.709 638.713 L
1548.159 638.73 L
1549.77 638.748 L
1551.461 638.766 L
1552.992 638.784 L
1554.603 638.802 L
1556.294 638.821 L
1557.825 638.838 L
1559.436 638.856 L
1561.047 638.874 L
1562.657 638.892 L
1564.268 638.91 L
1565.879 638.928 L
1567.49 638.947 L
1569.182 638.966 L
1570.551 638.981 L
1572.243 639 L
1573.773 639.017 L
1575.223 639.034 L
1576.834 639.052 L
1578.687 639.073 L
1580.217 639.09 L
1581.828 639.108 L
1583.439 639.127 L
1585.05 639.145 L
1586.5 639.161 L
1588.111 639.18 L
1589.561 639.196 L
1591.333 639.216 L
1593.185 639.237 L
1594.877 639.257 L
1596.568 639.276 L
1598.099 639.293 L
1599.71 639.312 L
1601.321 639.33 L
1602.932 639.349 L
1604.381 639.365 L
1605.992 639.383 L
1607.603 639.402 L
1609.214 639.42 L
1610.825 639.439 L
1612.436 639.457 L
1614.047 639.476 L
1615.658 639.494 L
1617.269 639.513 L
1618.88 639.531 L
1620.491 639.55 L
1622.183 639.569 L
1623.713 639.587 L
1625.324 639.605 L
1626.774 639.622 L
1628.385 639.641 L
1629.996 639.659 L
1631.607 639.678 L
1633.298 639.697 L
1634.829 639.715 L
1636.44 639.734 L
1637.889 639.75 L
1639.581 639.77 L
1641.111 639.788 L
1642.722 639.806 L
1644.333 639.825 L
1645.944 639.844 L
1647.636 639.863 L
1649.086 639.88 L
1650.777 639.9 L
1652.469 639.92 L
1653.999 639.937 L
1655.61 639.956 L
1657.302 639.976 L
1658.832 639.994 L
1660.443 640.013 L
1662.296 640.034 L
1663.826 640.052 L
1665.437 640.071 L
1667.048 640.09 L
1668.739 640.109 L
1670.35 640.128 L
1671.881 640.146 L
1673.492 640.165 L
1675.103 640.184 L
1676.794 640.204 L
1678.324 640.222 L
1679.935 640.241 L
1681.385 640.258 L
1683.077 640.278 L
1684.768 640.298 L
1686.379 640.317 L
1687.99 640.336 L
1689.601 640.355 L
1691.212 640.374 L
1692.823 640.393 L
1694.515 640.413 L
1696.319 640.434 L
1696.318 640.434 L
1696.318 640.434 L
1696.318 640.434 L
1696.318 640.434 L
1696.318 640.434 L
1696.324 640.435 L
1696.294 640.428 L
1696.255 640.409 L
1696.251 640.41 L
1696.277 640.432 L
1696.277 640.433 L
1696.315 640.467 L
1696.331 640.489 L
1696.332 640.489 L
1696.335 640.497 L
1696.338 640.5 L
1696.327 640.479 L
1696.338 640.509 L
1696.334 640.497 L
1696.34 640.54 L
1696.34 640.54 L
1696.34 640.54 L
1696.339 640.539 L
1696.339 640.539 L
1696.341 640.569 L
1696.345 640.608 L
1696.345 640.608 L
1696.345 640.607 L
1696.345 640.607 L
1696.345 640.607 L
1696.345 640.607 L
1696.345 640.607 L
1696.345 640.607 L
1696.345 640.606 L
1696.345 640.606 L
1696.41 641.474 L
1696.524 642.999 L
1696.633 644.524 L
1696.742 646.13 L
1696.856 647.898 L
1696.949 649.426 L
1697.044 651.034 L
1697.136 652.642 L
1697.227 654.25 L
1697.316 655.858 L
1697.404 657.467 L
1697.492 659.076 L
1697.584 660.765 L
1697.667 662.301 L
1697.641 663.908 L
1697.553 665.591 L
1697.458 667.275 L
1697.357 668.961 L
1697.26 670.488 L
1697.153 672.095 L
1697.039 673.782 L
1696.916 675.55 L
1696.803 677.157 L
1696.69 678.764 L
1696.581 680.29 L
1696.466 681.897 L
1696.351 683.504 L
1696.236 685.111 L
1696.109 686.878 L
1695.994 688.485 L
1695.878 690.092 L
1695.763 691.699 L
1695.659 693.145 L
1695.526 694.993 L
1695.417 696.519 L
1695.301 698.126 L
1695.18 699.814 L
1695.071 701.34 L
1694.956 702.947 L
1694.835 704.634 L
1694.719 706.241 L
1694.604 707.848 L
1694.511 709.357 L
1694.473 710.957 L
1694.435 712.648 L
1694.402 714.178 L
1694.369 715.788 L
1694.336 717.48 L
1694.307 719.01 L
1694.276 720.621 L
1694.248 722.151 L
1694.22 723.681 L
1694.189 725.372 L
1694.16 726.983 L
1694.131 728.594 L
1694.102 730.205 L
1694.075 731.735 L
1694.039 733.748 L
1694.012 735.278 L
1693.983 736.889 L
1693.955 738.5 L
1693.923 740.272 L
1693.895 741.883 L
1693.865 743.574 L
1693.837 745.185 L
1693.81 746.715 L
1693.779 748.487 L
1693.751 750.097 L
1693.723 751.708 L
1693.695 753.319 L
1693.667 754.93 L
1693.639 756.54 L
1693.61 758.232 L
1693.583 759.762 L
1693.554 761.453 L
1693.526 763.064 L
1693.5 764.594 L
1693.471 766.286 L
1693.445 767.816 L
1693.416 769.507 L
1693.39 771.037 L
1693.357 772.97 L
1693.328 774.662 L
1693.302 776.192 L
1693.274 777.883 L
1693.251 779.4 L
1693.337 781.146 L
1693.444 782.996 L
1693.533 784.523 L
1693.624 786.051 L
1693.721 787.659 L
1693.829 789.428 L
1693.927 791.035 L
1694.022 792.563 L
1694.121 794.171 L
1694.221 795.779 L
1694.321 797.387 L
1694.422 798.995 L
1694.527 800.683 L
1694.594 802.171 L
1694.441 803.838 L
1694.241 805.352 L
1694.003 807.106 L
1693.769 808.78 L
1693.615 810.462 L
1693.579 812.073 L
1693.545 813.684 L
1693.513 815.294 L
1693.48 816.986 L
1693.45 818.596 L
1693.422 820.207 L
1693.395 821.738 L
1693.366 823.429 L
1693.339 825.04 L
1693.313 826.57 L
1693.285 828.261 L
1693.258 829.872 L
1693.232 831.483 L
1693.207 833.013 L
1693.179 834.704 L
1693.15 836.476 L
1693.124 838.087 L
1693.099 839.617 L
1693.069 841.47 L
1693.045 843 L
1693.018 844.691 L
1692.992 846.302 L
1692.967 847.833 L
1692.94 849.524 L
1692.915 851.135 L
1692.889 852.745 L
1692.863 854.356 L
1692.838 855.967 L
1692.81 857.739 L
1692.785 859.35 L
1692.759 860.961 L
1692.732 862.733 L
1692.706 864.343 L
1692.679 866.115 L
1692.654 867.726 L
1692.63 869.256 L
1692.599 871.27 L
1692.566 873.364 L
1692.542 874.975 L
1692.514 876.747 L
1692.49 878.357 L
1692.465 879.968 L
1692.44 881.579 L
1692.417 883.109 L
1692.391 884.801 L
1692.367 886.412 L
1692.34 888.183 L
1692.317 889.714 L
1692.291 891.405 L
1692.267 893.016 L
1692.243 894.627 L
1692.217 896.399 L
1692.193 898.01 L
1692.169 899.62 L
1692.134 901.956 L
1692.11 903.567 L
1692.083 905.419 L
1692.059 907.03 L
1692.033 908.802 L
1692.01 910.332 L
1691.986 912.024 L
1691.964 913.554 L
1691.938 915.326 L
1691.914 916.937 L
1691.891 918.548 L
1691.867 920.239 L
1691.844 921.769 L
1691.82 923.461 L
1691.798 924.991 L
1691.774 926.682 L
1691.751 928.293 L
1691.726 930.065 L
1691.702 931.757 L
1691.674 933.69 L
1691.649 935.462 L
1691.626 937.153 L
1691.603 938.764 L
1691.578 940.536 L
1691.556 942.147 L
1691.534 943.677 L
1691.512 945.288 L
1691.486 947.14 L
1691.463 948.832 L
1691.439 950.523 L
1691.417 952.134 L
1691.394 953.825 L
1691.368 955.758 L
1691.346 957.369 L
1691.356 958.961 L
1691.473 960.648 L
1691.611 962.576 L
1691.745 964.424 L
1691.88 966.271 L
1692.022 968.199 L
1692.154 969.966 L
1692.275 971.573 L
1692.395 973.179 L
1692.516 974.786 L
1692.638 976.392 L
1692.759 977.999 L
1692.893 979.766 L
1692.995 981.767 L
1692.947 983.853 L
1692.901 985.462 L
1692.84 987.308 L
1692.775 989.078 L
1692.709 990.768 L
1692.639 992.458 L
1692.563 994.228 L
1692.479 996.16 L
1692.408 997.769 L
1692.33 999.539 L
1692.254 1001.229 L
1692.178 1002.919 L
1692.106 1004.528 L
1692.033 1006.138 L
1691.961 1007.747 L
1691.892 1009.276 L
1691.812 1011.046 L
1691.729 1012.897 L
1691.656 1014.506 L
1691.591 1015.955 L
1691.508 1017.806 L
1691.432 1019.496 L
1691.353 1021.266 L
1691.277 1022.956 L
1691.197 1024.726 L
1691.118 1026.496 L
1691.042 1028.186 L
1690.967 1029.876 L
1690.891 1031.566 L
1690.819 1033.175 L
1690.719 1035.429 L
1690.643 1037.119 L
1690.568 1038.808 L
1690.489 1040.579 L
1690.459 1041.254 L
1690.459 1041.254 L
1690.459 1041.254 L
1690.459 1041.254 L
1690.459 1041.254 L
1690.459 1041.254 L
1690.46 1041.242 L
1690.453 1041.287 L
1690.453 1041.294 L
1690.458 1041.277 L
1690.439 1041.316 L
1690.434 1041.329 L
1690.438 1041.322 L
1690.446 1041.311 L
1690.449 1041.31 L
1690.453 1041.301 L
1690.466 1041.293 L
1690.466 1041.293 L
1690.467 1041.287 L
1690.479 1041.283 L
1690.479 1041.283 L
1690.464 1041.286 L
1690.444 1041.293 L
1690.431 1041.296 L
1690.364 1041.304 L
1690.362 1041.305 L
1690.335 1041.308 L
1690.267 1041.307 L
1690.266 1041.307 L
1690.229 1041.303 L
1690.187 1041.299 L
1690.186 1041.299 L
1690.186 1041.299 L
1689.881 1041.262 L
1687.883 1041.017 L
1686.283 1040.821 L
1684.524 1040.605 L
1682.925 1040.409 L
1681.326 1040.214 L
1679.647 1040.008 L
1677.648 1039.763 L
1676.129 1039.577 L
1674.29 1039.352 L
1672.531 1039.137 L
1671.012 1038.951 L
1669.333 1038.746 L
1667.414 1038.511 L
1665.814 1038.316 L
1664.026 1038.101 L
1662.231 1037.949 L
1660.304 1037.792 L
1658.698 1037.661 L
1656.852 1037.51 L
1655.005 1037.36 L
1653.319 1037.222 L
1651.473 1037.072 L
1649.708 1036.978 L
1647.956 1037.015 L
1646.024 1037.061 L
1644.413 1037.099 L
1642.641 1037.142 L
1641.111 1037.178 L
1639.42 1037.218 L
1637.81 1037.257 L
1636.199 1037.295 L
1634.669 1037.331 L
1632.495 1037.383 L
1630.642 1037.427 L
1628.951 1037.467 L
1627.099 1037.511 L
1625.327 1037.553 L
1623.636 1037.594 L
1621.865 1037.636 L
1619.932 1037.682 L
1618.16 1037.724 L
1616.549 1037.762 L
1614.778 1037.805 L
1613.006 1037.847 L
1611.073 1037.893 L
1609.302 1037.935 L
1607.208 1037.985 L
1605.436 1038.027 L
1603.826 1038.065 L
1602.135 1038.106 L
1600.041 1038.156 L
1598.028 1038.204 L
1596.417 1038.242 L
1594.806 1038.28 L
1593.035 1038.323 L
1590.941 1038.372 L
1589.089 1038.417 L
1587.236 1038.461 L
1585.304 1038.507 L
1583.532 1038.549 L
1581.599 1038.595 L
1579.828 1038.637 L
1578.217 1038.676 L
1576.687 1038.712 L
1574.915 1038.754 L
1573.063 1038.798 L
1571.05 1038.846 L
1569.117 1038.892 L
1567.265 1038.937 L
1565.574 1038.977 L
1563.883 1039.017 L
1561.95 1039.063 L
1560.339 1039.102 L
1558.406 1039.148 L
1556.796 1039.186 L
1555.185 1039.225 L
1553.494 1039.265 L
1551.803 1039.305 L
1550.192 1039.344 L
1548.582 1039.382 L
1546.649 1039.428 L
1544.636 1039.476 L
1542.703 1039.522 L
1540.851 1039.566 L
1539.079 1039.608 L
1537.146 1039.654 L
1535.053 1039.704 L
1533.281 1039.746 L
1531.67 1039.785 L
1529.577 1039.835 L
1527.644 1039.881 L
1525.55 1039.931 L
1523.537 1039.979 L
1521.604 1040.025 L
1519.913 1040.065 L
1517.9 1040.113 L
1516.208 1040.153 L
1514.276 1040.199 L
1512.585 1040.239 L
1510.732 1040.283 L
1508.88 1040.328 L
1506.948 1040.374 L
1504.934 1040.422 L
1503.243 1040.462 L
1501.23 1040.51 L
1499.217 1040.557 L
1497.123 1040.607 L
1495.351 1040.649 L
1493.338 1040.697 L
1491.324 1040.745 L
1489.311 1040.793 L
1487.379 1040.839 L
1485.043 1040.895 L
1483.352 1040.935 L
1481.58 1040.977 L
1479.648 1041.023 L
1477.715 1041.069 L
1475.621 1041.119 L
1473.93 1041.159 L
1472.239 1041.199 L
1470.628 1041.237 L
1468.695 1041.283 L
1467.085 1041.321 L
1465.313 1041.363 L
1463.703 1041.402 L
1461.931 1041.444 L
1460.159 1041.486 L
1458.468 1041.526 L
1456.374 1041.575 L
1454.361 1041.623 L
1452.284 1041.668 L
1450.186 1041.565 L
1448.578 1041.471 L
1446.326 1041.339 L
1443.913 1041.198 L
1442.144 1041.095 L
1440.375 1040.991 L
1438.606 1040.888 L
1436.676 1040.775 L
1434.746 1040.662 L
1432.896 1040.554 L
1431.208 1040.455 L
1429.599 1040.361 L
1427.669 1040.248 L
1425.579 1040.126 L
1423.649 1040.013 L
1421.799 1039.905 L
1420.03 1039.801 L
1418.18 1039.693 L
1415.929 1039.561 L
1414.16 1039.458 L
1412.39 1039.354 L
1410.219 1039.227 L
1408.37 1039.119 L
1406.198 1038.991 L
1403.947 1038.859 L
1402.017 1038.746 L
1399.846 1038.619 L
1397.674 1038.492 L
1395.986 1038.393 L
1394.056 1038.279 L
1392.045 1038.161 L
1389.874 1038.034 L
1387.783 1037.911 L
1385.532 1037.779 L
1383.36 1037.652 L
1381.35 1037.534 L
1379.661 1037.435 L
1377.812 1037.326 L
1375.634 1037.256 L
1373.782 1037.222 L
1372.171 1037.193 L
1370.56 1037.165 L
1368.788 1037.133 L
1367.016 1037.101 L
1363.875 1037.045 L
1361.378 1037 L
1359.204 1036.961 L
1357.029 1036.922 L
1354.371 1036.874 L
1351.15 1036.816 L
1348.975 1036.777 L
1346.478 1036.732 L
1344.465 1036.696 L
1342.532 1036.661 L
1340.76 1036.629 L
1338.746 1036.593 L
1336.733 1036.557 L
1334.8 1036.522 L
1332.545 1036.481 L
1330.451 1036.443 L
1328.759 1036.413 L
1326.746 1036.376 L
1324.732 1036.34 L
1322.477 1036.299 L
1320.464 1036.263 L
1318.531 1036.228 L
1316.598 1036.193 L
1314.561 1036.185 L
1312.708 1036.264 L
1310.375 1036.367 L
1308.121 1036.466 L
1305.868 1036.565 L
1303.937 1036.649 L
1302.086 1036.731 L
1300.154 1036.815 L
1298.062 1036.907 L
1296.211 1036.988 L
1294.521 1037.062 L
1292.75 1037.14 L
1291.141 1037.21 L
1289.129 1037.298 L
1287.439 1037.372 L
1285.507 1037.457 L
1283.415 1037.548 L
1281.806 1037.619 L
1280.196 1037.689 L
1277.943 1037.788 L
1276.172 1037.865 L
1274.563 1037.935 L
1272.309 1038.034 L
1270.378 1038.118 L
1268.285 1038.209 L
1266.354 1038.293 L
1264.745 1038.364 L
1262.733 1038.451 L
1260.801 1038.536 L
1259.031 1038.613 L
1256.938 1038.704 L
1255.087 1038.784 L
1253.317 1038.862 L
1251.144 1038.956 L
1249.293 1039.037 L
1247.2 1039.128 L
1245.269 1039.212 L
1243.579 1039.285 L
1241.728 1039.366 L
1239.716 1039.453 L
1238.026 1039.526 L
1235.692 1039.628 L
1233.761 1039.712 L
1231.829 1039.796 L
1229.737 1039.886 L
1227.483 1039.984 L
1225.15 1040.085 L
1223.299 1040.165 L
1221.126 1040.26 L
1219.275 1040.34 L
1217.102 1040.434 L
1215.492 1040.504 L
1213.319 1040.598 L
1211.388 1040.681 L
1209.617 1040.758 L
1207.525 1040.848 L
1205.513 1040.935 L
1203.574 1041.012 L
1201.642 1041.052 L
1199.468 1041.096 L
1197.052 1041.145 L
1194.877 1041.189 L
1192.864 1041.23 L
1191.092 1041.266 L
1188.756 1041.313 L
1186.743 1041.354 L
1184.407 1041.386 L
1182.394 1041.383 L
1180.541 1041.38 L
1178.285 1041.376 L
1175.949 1041.372 L
1173.774 1041.368 L
1171.76 1041.365 L
1169.344 1041.361 L
1167.411 1041.358 L
1165.316 1041.354 L
1163.061 1041.35 L
1160.644 1041.346 L
1158.55 1041.342 L
1156.294 1041.339 L
1153.878 1041.334 L
1151.783 1041.331 L
1149.528 1041.327 L
1147.192 1041.323 L
1144.936 1041.319 L
1142.761 1041.315 L
1140.506 1041.311 L
1138.25 1041.307 L
1136.156 1041.303 L
1134.142 1041.299 L
1132.048 1041.295 L
1129.953 1041.291 L
1127.778 1041.287 L
1125.362 1041.283 L
1123.187 1041.279 L
1121.173 1041.275 L
1119.32 1041.272 L
1117.387 1041.268 L
1115.615 1041.265 L
1113.279 1041.26 L
1111.023 1041.256 L
1108.848 1041.252 L
1106.834 1041.248 L
1104.982 1041.244 L
1102.968 1041.24 L
1101.035 1041.237 L
1099.101 1041.233 L
1096.685 1041.228 L
1094.751 1041.224 L
1092.657 1041.22 L
1090.563 1041.216 L
1088.388 1041.212 L
1086.374 1041.208 L
1084.118 1041.203 L
1082.024 1041.199 L
1079.768 1041.194 L
1077.271 1041.189 L
1075.096 1041.185 L
1073.002 1041.18 L
1070.585 1041.175 L
1068.33 1041.171 L
1066.316 1041.167 L
1064.463 1041.163 L
1062.208 1041.158 L
1060.033 1041.153 L
1057.938 1041.149 L
1055.602 1041.144 L
1053.186 1041.139 L
1050.93 1041.134 L
1049.078 1041.13 L
1046.903 1041.125 L
1044.728 1041.12 L
1042.553 1041.116 L
1040.297 1041.111 L
1038.042 1041.106 L
1035.786 1041.101 L
1033.37 1041.096 L
1031.195 1041.091 L
1028.698 1041.085 L
1026.764 1041.081 L
1024.67 1041.076 L
1022.575 1041.071 L
1020.239 1041.066 L
1018.064 1041.061 L
1016.051 1041.057 L
1014.037 1041.052 L
1011.862 1041.047 L
1009.526 1041.042 L
1007.431 1041.037 L
1005.418 1041.032 L
1003.484 1041.028 L
1001.47 1041.023 L
998.973 1041.017 L
996.637 1041.012 L
994.543 1041.007 L
992.529 1041.002 L
990.193 1040.996 L
988.018 1040.991 L
985.763 1040.986 L
983.427 1040.98 L
981.493 1040.975 L
979.077 1040.969 L
976.741 1040.964 L
974.405 1040.958 L
972.31 1040.953 L
970.296 1040.948 L
968.041 1040.943 L
965.785 1040.937 L
963.691 1040.932 L
961.435 1040.926 L
959.099 1040.92 L
956.924 1040.915 L
954.75 1040.909 L
952.575 1040.904 L
950.239 1040.898 L
947.983 1040.892 L
945.728 1040.886 L
943.633 1040.881 L
941.539 1040.876 L
939.444 1040.87 L
937.269 1040.865 L
935.095 1040.859 L
933 1040.854 L
930.906 1040.848 L
928.65 1040.842 L
926.395 1040.836 L
924.139 1040.83 L
921.723 1040.824 L
919.628 1040.818 L
917.212 1040.812 L
914.956 1040.806 L
912.701 1040.8 L
910.526 1040.794 L
908.431 1040.788 L
906.337 1040.783 L
904.323 1040.777 L
902.068 1040.771 L
899.812 1040.765 L
897.315 1040.758 L
895.14 1040.752 L
892.643 1040.745 L
890.307 1040.739 L
888.454 1040.733 L
886.521 1040.728 L
884.554 1040.723 L
884.553 1040.723 L
884.553 1040.723 L
884.545 1040.723 L
884.499 1040.707 L
884.489 1040.706 L
884.439 1040.681 L
884.414 1040.668 L
884.378 1040.644 L
884.357 1040.633 L
884.337 1040.61 L
884.309 1040.575 L
884.311 1040.581 L
884.317 1040.59 L
884.318 1040.593 L
884.315 1040.575 L
884.315 1040.575 L
884.322 1040.6 L
884.315 1040.553 L
884.315 1040.553 L
884.315 1040.553 L
884.315 1040.553 L
884.316 1040.559 L
884.313 1040.495 L
884.313 1040.495 L
884.313 1040.495 L
884.313 1040.495 L
884.297 1040.027 L
884.214 1037.614 L
884.14 1035.36 L
884.075 1033.187 L
884.019 1031.174 L
883.959 1028.92 L
883.905 1026.826 L
883.85 1024.652 L
883.793 1022.397 L
883.739 1020.223 L
883.683 1017.968 L
883.624 1015.553 L
883.569 1013.298 L
883.519 1011.204 L
883.468 1009.11 L
883.408 1006.614 L
883.356 1004.44 L
883.299 1002.024 L
883.231 999.291 L
883.011 997.058 L
882.768 994.816 L
882.521 992.575 L
882.27 990.334 L
882.043 988.333 L
881.798 986.172 L
881.524 983.771 L
881.251 981.37 L
880.977 978.971 L
880.872 976.646 L
880.82 974.472 L
880.768 972.056 L
880.721 969.64 L
880.677 967.144 L
880.637 964.808 L
880.595 962.312 L
880.56 960.217 L
880.522 957.882 L
880.483 955.466 L
880.445 953.049 L
880.406 950.633 L
880.364 947.975 L
880.328 945.639 L
880.291 943.223 L
880.257 941.049 L
880.221 938.713 L
880.187 936.458 L
880.152 934.122 L
880.152 932.074 L
880.287 929.925 L
880.449 927.514 L
880.607 925.265 L
880.775 922.935 L
880.935 920.766 L
881.113 918.356 L
881.275 916.188 L
881.437 914.019 L
881.612 911.689 L
881.763 909.681 L
881.945 907.271 L
882.115 905.023 L
882.273 902.934 L
882.437 900.766 L
882.639 898.115 L
882.828 895.625 L
883.006 893.296 L
883.202 890.726 L
883.392 888.236 L
883.571 885.907 L
883.737 883.738 L
883.892 881.73 L
884.077 879.321 L
884.288 876.59 L
884.462 874.342 L
884.642 872.013 L
884.823 869.684 L
885.01 867.274 L
885.198 864.865 L
885.392 862.375 L
885.567 860.127 L
885.749 857.798 L
885.938 855.389 L
886.127 852.98 L
886.317 850.571 L
886.507 848.161 L
886.703 845.672 L
886.881 843.424 L
887.052 841.256 L
887.237 838.927 L
887.416 836.679 L
887.595 834.43 L
887.774 832.182 L
887.96 829.854 L
888.146 827.525 L
888.332 825.196 L
888.519 822.868 L
888.706 820.539 L
888.9 818.131 L
889.018 815.914 L
889.07 813.501 L
889.114 811.166 L
889.151 808.991 L
889.189 806.575 L
889.223 804.32 L
889.262 801.662 L
889.299 799.165 L
889.335 796.748 L
889.371 794.332 L
889.407 791.916 L
889.442 789.58 L
889.476 787.325 L
889.515 784.748 L
889.551 782.412 L
889.589 779.996 L
889.613 777.596 L
889.5 775.186 L
889.374 772.693 L
889.246 770.28 L
889.123 768.028 L
888.995 765.695 L
888.861 763.282 L
888.726 760.87 L
888.592 758.457 L
888.457 756.044 L
888.319 753.551 L
888.18 751.057 L
888.046 748.645 L
887.922 746.393 L
887.806 744.302 L
887.673 741.889 L
887.54 739.476 L
887.406 737.066 L
887.327 734.735 L
887.262 732.561 L
887.201 730.387 L
887.151 728.535 L
887.086 726.039 L
887.029 723.784 L
886.975 721.61 L
886.917 719.275 L
886.863 717.1 L
886.808 714.846 L
886.778 712.682 L
886.813 710.186 L
886.856 707.69 L
886.902 705.355 L
886.949 703.1 L
887.002 700.684 L
887.063 697.946 L
887.117 695.53 L
887.17 693.194 L
887.22 691.02 L
887.277 688.524 L
887.333 686.108 L
887.387 683.772 L
887.446 681.276 L
887.503 678.86 L
887.558 676.525 L
887.623 673.787 L
887.683 671.291 L
887.741 668.875 L
887.797 666.539 L
887.856 664.124 L
887.917 661.627 L
887.974 659.292 L
888.034 656.876 L
888.093 654.46 L
888.152 652.125 L
888.21 649.79 L
888.275 647.213 L
888.34 644.636 L
888.397 642.381 L
888.461 639.885 L
888.519 637.63 L
888.581 635.215 L
888.637 633.041 L
888.695 630.551 L
888.684 628.135 L
888.667 625.88 L
888.645 623.544 L
888.619 621.208 L
888.592 618.872 L
888.564 616.456 L
888.534 613.959 L
888.505 611.543 L
888.476 609.126 L
888.449 606.791 L
888.42 604.374 L
888.393 602.038 L
888.367 599.703 L
888.34 597.367 L
888.314 595.031 L
888.285 592.453 L
888.257 589.956 L
888.232 587.621 L
888.208 585.365 L
888.181 582.868 L
888.154 580.291 L
888.128 577.794 L
888.103 575.377 L
888.08 573.203 L
888.057 570.867 L
888.035 568.692 L
888.011 566.276 L
887.988 563.94 L
887.967 561.684 L
887.943 559.268 L
887.921 556.851 L
887.898 554.435 L
887.876 552.019 L
887.854 549.602 L
887.83 546.944 L
887.811 544.769 L
887.79 542.353 L
887.768 539.775 L
887.748 537.439 L
887.728 535.103 L
887.708 532.687 L
887.688 530.19 L
887.669 527.854 L
887.65 525.357 L
887.631 523.021 L
887.613 520.605 L
887.595 518.188 L
887.577 515.772 L
887.558 513.194 L
887.54 510.697 L
887.523 508.361 L
887.505 505.784 L
887.488 503.287 L
887.473 501.031 L
887.457 498.534 L
887.44 496.037 L
887.425 493.621 L
887.411 491.446 L
887.397 489.11 L
887.383 486.693 L
887.37 484.519 L
887.356 482.102 L
887.342 479.686 L
887.328 477.188 L
887.315 474.772 L
887.302 472.355 L
887.287 469.536 L
887.276 467.2 L
887.263 464.703 L
887.251 462.206 L
887.24 459.79 L
887.229 457.454 L
887.219 455.118 L
887.208 452.782 L
887.198 450.285 L
887.187 447.788 L
887.177 445.21 L
887.166 442.714 L
887.24 440.635 L
887.337 438.463 L
887.455 435.969 L
887.575 433.555 L
887.698 431.142 L
887.822 428.729 L
887.943 426.396 L
888.061 424.143 L
888.191 421.65 L
888.318 419.237 L
888.446 416.824 L
888.569 414.491 L
888.689 412.238 L
888.796 409.837 L
888.829 407.501 L
888.855 405.166 L
888.877 402.749 L
888.897 400.252 L
888.915 397.835 L
888.931 395.58 L
888.948 393.164 L
888.966 390.586 L
888.983 388.17 L
889 385.834 L
889.018 383.337 L
889.037 380.84 L
889.057 378.101 L
889.077 375.604 L
889.095 373.268 L
889.114 370.852 L
889.133 368.435 L
889.154 365.938 L
889.173 363.602 L
889.158 361.064 L
889.036 358.659 L
888.915 356.407 L
888.771 353.834 L
888.638 351.502 L
888.507 349.25 L
888.371 346.918 L
888.23 344.506 L
888.079 341.932 L
887.933 339.44 L
887.792 337.027 L
887.652 334.615 L
887.516 332.283 L
887.371 329.79 L
887.231 327.377 L
887.096 325.045 L
886.995 322.574 L
886.94 320.319 L
886.89 317.984 L
886.839 315.407 L
886.792 312.83 L
886.746 310.253 L
886.703 307.836 L
886.662 305.42 L
886.623 303.165 L
886.579 300.588 L
886.535 297.93 L
886.492 295.353 L
886.452 292.937 L
886.412 290.52 L
886.367 287.782 L
886.33 285.446 L
886.292 283.111 L
886.249 280.372 L
886.21 277.956 L
886.174 275.62 L
886.135 273.123 L
886.096 270.627 L
886.054 267.888 L
886.015 265.311 L
885.977 262.814 L
885.942 260.478 L
885.906 258.062 L
885.869 255.565 L
885.831 252.907 L
885.792 250.249 L
885.757 247.833 L
885.721 245.256 L
885.684 242.678 L
885.648 240.101 L
885.612 237.524 L
885.577 234.946 L
885.544 232.53 L
885.508 229.837 L
885.508 229.835 L
885.508 229.835 L
885.508 229.835 L
885.508 229.835 L
885.507 229.857 L
885.503 229.879 L
885.511 229.843 L
885.522 229.829 L
885.51 229.85 L
885.518 229.841 L
885.487 229.882 L
885.539 229.85 L
885.527 229.858 L
885.598 229.827 L
885.618 229.823 L
885.626 229.82 L
885.647 229.818 L
885.647 229.818 L
885.648 229.818 L
885.648 229.818 L
885.648 229.818 L
885.648 229.818 L
885.648 229.818 L
885.648 229.818 L
885.645 229.816 L
885.686 229.816 L
885.686 229.816 L
885.686 229.816 L
885.686 229.816 L
885.686 229.816 L
885.687 229.816 L
886.957 229.781 L
889.292 229.716 L
891.869 229.645 L
894.285 229.577 L
897.022 229.501 L
899.438 229.434 L
901.934 229.365 L
904.269 229.301 L
906.685 229.234 L
908.94 229.171 L
911.355 229.104 L
913.932 229.033 L
916.348 228.966 L
919.246 228.886 L
921.668 228.82 L
924.177 228.958 L
926.667 229.136 L
929.56 229.342 L
932.212 229.531 L
934.702 229.708 L
937.193 229.886 L
939.523 230.052 L
941.934 230.224 L
944.505 230.408 L
947.156 230.597 L
949.487 230.763 L
951.977 230.941 L
954.629 231.131 L
957.441 231.331 L
959.852 231.504 L
962.316 231.589 L
965.055 231.606 L
967.552 231.621 L
969.968 231.636 L
972.546 231.652 L
974.882 231.666 L
977.46 231.682 L
979.847 231.673 L
982.263 231.628 L
984.679 231.584 L
987.095 231.54 L
989.914 231.489 L
992.411 231.443 L
994.827 231.399 L
997.204 231.37 L
999.851 231.434 L
1002.267 231.494 L
1004.683 231.554 L
1007.421 231.622 L
1010.32 231.695 L
1012.736 231.755 L
1015.071 231.813 L
1017.89 231.884 L
1020.386 231.947 L
1022.802 232.007 L
1025.137 232.066 L
1027.553 232.127 L
1029.969 232.187 L
1032.186 232.18 L
1034.764 232.157 L
1037.18 232.136 L
1039.758 232.113 L
1042.174 232.092 L
1044.591 232.07 L
1047.41 232.045 L
1049.907 232.023 L
1052.485 232 L
1055.063 231.977 L
1057.479 231.956 L
1059.896 231.935 L
1062.393 231.913 L
1065.776 231.883 L
1068.595 231.858 L
1071.011 231.837 L
1073.267 231.817 L
1075.683 231.796 L
1078.664 231.769 L
1081.322 231.746 L
1083.98 231.723 L
1086.638 231.7 L
1088.974 231.679 L
1091.391 231.658 L
1093.807 231.637 L
1096.465 231.614 L
1098.801 231.593 L
1101.54 231.569 L
1104.037 231.548 L
1106.776 231.524 L
1109.353 231.502 L
1111.77 231.481 L
1114.106 231.46 L
1116.603 231.439 L
1119.019 231.418 L
1121.677 231.395 L
1124.497 231.37 L
1127.074 231.348 L
1129.491 231.327 L
1131.907 231.307 L
1134.324 231.286 L
1136.821 231.264 L
1139.318 231.243 L
1141.654 231.223 L
1144.312 231.2 L
1146.648 231.18 L
1149.467 231.156 L
1151.884 231.135 L
1154.3 231.115 L
1156.797 231.093 L
1159.295 231.072 L
1161.792 231.051 L
1164.369 231.029 L
1167.269 231.004 L
1169.605 230.984 L
1172.183 230.963 L
1174.357 230.944 L
1177.016 230.922 L
1179.432 230.901 L
1181.768 230.882 L
1184.426 230.859 L
1186.843 230.839 L
1189.179 230.819 L
1191.998 230.796 L
1194.656 230.773 L
1197.073 230.753 L
1199.57 230.732 L
1201.906 230.712 L
1204.322 230.692 L
1206.739 230.672 L
1209.155 230.652 L
1211.572 230.632 L
1214.069 230.611 L
1216.485 230.591 L
1218.821 230.572 L
1221.318 230.551 L
1224.057 230.528 L
1226.474 230.508 L
1228.89 230.488 L
1231.468 230.467 L
1233.965 230.446 L
1236.462 230.426 L
1238.798 230.406 L
1241.214 230.387 L
1243.631 230.367 L
1246.047 230.347 L
1248.786 230.325 L
1251.203 230.305 L
1253.539 230.286 L
1255.955 230.266 L
1258.372 230.246 L
1260.788 230.227 L
1263.205 230.207 L
1265.621 230.187 L
1268.118 230.167 L
1270.776 230.145 L
1273.032 230.127 L
1275.368 230.108 L
1277.704 230.089 L
1280.281 230.069 L
1283.342 230.044 L
1285.759 230.024 L
1288.256 230.004 L
1290.672 229.985 L
1293.089 229.966 L
1294.411 229.955 L
1294.411 229.955 L
1294.411 229.955 L
1294.411 229.955 L
1294.411 229.955 L
1294.412 229.955 L
S
GR
GS
[0.75 0 0 0.75 0 0.5] CT
0 0 1 RC
1 LJ
0.667 LW
N
1291.319 636.298 M
1291.497 637.204 L
1291.174 636.565 L
1291.51 636.226 L
1290.916 635.338 L
1290.784 635.989 L
1290.148 635.464 L
1291.051 635.56 L
1290.786 636.442 L
1293.26 634.526 L
1294.274 635.665 L
1295.84 635.761 L
1298.001 636.77 L
1300.329 637.412 L
1301.075 636.657 L
1303.719 636.069 L
1303.456 636.465 L
1305.706 635.695 L
1307.031 636.289 L
1310.139 636.338 L
1311.039 634.609 L
1313.129 635.63 L
1314.294 635.398 L
1315.413 636.551 L
1316.901 637.676 L
1319.668 638.197 L
1321.171 636.781 L
1323.056 635.883 L
1324.396 636.672 L
1326.666 635.408 L
1327.724 637.181 L
1330.143 634.943 L
1332.505 635.706 L
1333.02 636.773 L
1334.504 637.101 L
1336.111 638.722 L
1337.761 638.666 L
1339.04 640.827 L
1341.084 640.756 L
1342.336 636.402 L
1343.986 635.152 L
1346.075 633.813 L
1346.79 637.781 L
1348.539 636.773 L
1349.728 633.578 L
1350.803 630.51 L
1352.345 638.922 L
1354.429 632.419 L
1354.803 636.205 L
1357.138 634.334 L
1358.113 634.848 L
1359.771 633.637 L
1361.969 635.21 L
1363.007 635.606 L
1364.459 630.802 L
1365.999 635.822 L
1367.047 634.926 L
1369.243 628.627 L
1370.788 641.961 L
1372.864 633.93 L
1373.829 640.855 L
1375.242 637.306 L
1376.463 636.789 L
1377.301 634.446 L
1378.129 637.415 L
1380.798 641.472 L
1382.655 633.098 L
1382.326 642.035 L
1384.894 634.304 L
1386.519 630.82 L
1387.828 634.318 L
1389.91 641.622 L
1390.252 638.769 L
1392.597 639.368 L
1394.553 633.262 L
1396.049 637.67 L
1396.761 640.081 L
1399.249 635.918 L
1401.253 638.294 L
1402.381 631.947 L
1403.401 635.689 L
1405.194 631.919 L
1406.706 636.691 L
1407.808 640.015 L
1409.866 640.478 L
1411.325 638.19 L
1412.556 632.21 L
1414.466 637.939 L
1416.524 639.435 L
1417.551 632.155 L
1419.29 643.861 L
1420.351 641.704 L
1421.12 640.553 L
1423.021 640.614 L
1424.899 639.227 L
1426.298 646.144 L
1427.179 645.384 L
1429.622 642.596 L
1431.027 637.872 L
1432.462 641.461 L
1433.85 641.708 L
1435.449 640.255 L
1437.074 630.53 L
1438.479 635.245 L
1440.519 638.269 L
1442.222 637.79 L
1443.386 640.404 L
1444.595 638.677 L
1446.523 640.265 L
1448.192 643.729 L
1449.744 644.603 L
1452.131 639.893 L
1453.244 633.773 L
1454.782 637.476 L
1456.66 638.343 L
1457.479 634.757 L
1459.98 641.243 L
1461.055 636.724 L
1463.406 628.465 L
1464.246 639.051 L
1466.61 638.933 L
1467.951 637.987 L
1469.403 628.039 L
1470.84 638.702 L
1472.089 644.526 L
1473.755 631.654 L
1475.255 641.091 L
1476.787 630.401 L
1478.552 632.727 L
1479.425 631.055 L
1481.724 636.589 L
1483.391 629.245 L
1485.13 639.66 L
1486.178 634.902 L
1487.829 640.039 L
1488.956 645.166 L
1491.032 643.818 L
1492.216 642.639 L
1493.86 640.402 L
1495.829 643.411 L
1497.185 640.076 L
1499.105 643.67 L
1501.062 630.313 L
1502.485 635.964 L
1504.127 631.177 L
1505.184 636.97 L
1506.946 633.757 L
1508.698 641.166 L
1510.364 642.823 L
1511.738 640.071 L
1514.179 634.579 L
1515.56 629.751 L
1516.622 636.167 L
1518.821 629.835 L
1521.12 636.175 L
1521.437 640.66 L
1523.351 640.932 L
1524.664 643.396 L
1526.762 641.542 L
1527.415 649.681 L
1530.107 649.411 L
1531.871 634.135 L
1532.148 635.079 L
1534.455 636.894 L
1535.372 631.623 L
1537.26 634.36 L
1538.479 627.646 L
1540.038 623.202 L
1541.784 621.427 L
1542.569 618.519 L
1546.226 637.661 L
1546.511 638.624 L
1548.266 629.962 L
1549.811 644.347 L
1551.137 638.623 L
1552.899 641.424 L
1554.73 629.586 L
1556.742 634.12 L
1558.603 646.058 L
1560.144 642.736 L
1560.571 649.689 L
1562.405 643.903 L
1563.477 650.253 L
1565.561 645.11 L
1567.083 659.267 L
1568.44 654.568 L
1570.611 647.973 L
1572.184 645.013 L
1573.908 645.54 L
1575.11 647.795 L
1576.746 646.139 L
1578.706 647.103 L
1580.271 640.696 L
1582.515 629.676 L
1582.99 631.398 L
1585.53 634.679 L
1586.78 635.89 L
1588.362 637.029 L
1590.242 632.285 L
1591.801 640.418 L
1592.905 649.272 L
1594.875 638.419 L
1596.245 642.369 L
1597.312 644.153 L
1599.376 644.61 L
1601.146 653.367 L
1603.064 653.899 L
1605.273 638.918 L
1605.715 644.588 L
1608.201 631.306 L
1609.323 636.743 L
1610.583 632.405 L
1612.872 634.735 L
1613.951 642.152 L
1615.302 635.564 L
1617.143 639.787 L
1619.083 634.828 L
1620.293 647.322 L
1622.634 648.862 L
1623.591 646.825 L
1625.226 642.167 L
1626.714 634.937 L
1627.974 625.189 L
1630.065 618.982 L
1632.12 642.674 L
1633.588 648.863 L
1634.328 638.062 L
1636.36 638.492 L
1637.797 648.561 L
1639.715 639.75 L
1641.163 638.664 L
1642.583 628.918 L
1644.369 640.914 L
1646.243 637.094 L
1647.64 634.626 L
1648.925 634.627 L
1651.036 636.038 L
1652.268 644.665 L
1653.229 649.07 L
1655.328 646.815 L
1657.644 645.056 L
1658.844 650.884 L
1660.186 648.379 L
1662.486 637.173 L
1664.21 620.106 L
1665.486 638.396 L
1667.095 649.876 L
1667.999 652.919 L
1669.98 644.256 L
1671.243 639.457 L
1673.507 644.51 L
1675.036 637.961 L
1676.561 635.829 L
1678.502 636.457 L
1679.729 643.576 L
1681.329 643.344 L
1683.475 642.798 L
1684.497 650.43 L
1685.953 656.524 L
1687.904 651.42 L
1689.474 655.787 L
1690.516 645.353 L
1692.956 637.349 L
1694.837 642.174 L
1696.077 627.307 L
1696.803 632.002 L
1696.773 641.356 L
1696.283 637.547 L
1696.585 626.997 L
1696.516 641.309 L
1696.435 642.682 L
1696.485 633.565 L
1695.495 637.3 L
1695.781 633.315 L
1696.257 635.194 L
1696.085 635.197 L
1696.428 633.388 L
1697.086 639.734 L
1696.218 638.544 L
1696.29 633.091 L
1696.653 642.108 L
1696.233 645.355 L
1695.979 644.171 L
1696.609 648.552 L
1695.861 644.647 L
1695.87 649.218 L
1695.808 655.284 L
1695.778 651.539 L
1696.143 652.785 L
1696.593 645.571 L
1696.193 641.488 L
1695.686 639.357 L
1696.254 640.225 L
1696.987 635.56 L
1696.515 643.843 L
1696.251 646.084 L
1696.459 641.141 L
1696.054 640.148 L
1695.771 640.127 L
1696.758 641.289 L
1696.635 637.787 L
1696.435 634.923 L
1696.422 644.344 L
1695.825 649.202 L
1697.475 655.253 L
1696.575 651.252 L
1696.997 655.513 L
1696.196 663.825 L
1698.248 643.254 L
1698.036 643.7 L
1698.262 642.34 L
1697.477 648.704 L
1698.119 651.698 L
1698.024 653.075 L
1697.67 657.955 L
1698.82 650.91 L
1698.241 666.003 L
1698.523 668.424 L
1697.152 670.09 L
1697.054 667.993 L
1697.533 666.671 L
1697.019 675.918 L
1696.599 679.344 L
1695.854 692.838 L
1694.479 692.595 L
1696.837 682.069 L
1694.991 689.1 L
1695.315 690.746 L
1695.929 686.916 L
1696.993 681.653 L
1697.715 676.39 L
1696.503 683.855 L
1698.074 674.743 L
1697.18 683.994 L
1695.776 692.064 L
1695.2 697.992 L
1695.782 697.22 L
1694.247 709.258 L
1693.835 709.249 L
1695.589 700.503 L
1696.741 694.585 L
1696.428 694.819 L
1695.08 703.8 L
1697.241 696.759 L
1697.17 698.368 L
1694.989 712.046 L
1693.463 718.957 L
1694.337 718.821 L
1695.211 718.182 L
1695.287 716.427 L
1696.514 710.071 L
1694.708 721.98 L
1695.42 717.842 L
1696.659 716.676 L
1694.893 724.908 L
1696.329 721.525 L
1695.307 732.969 L
1696.706 724.816 L
1695.424 725.94 L
1697.091 723.435 L
1695.09 732.904 L
1695.79 728.913 L
1695.953 728.736 L
1695.681 736.661 L
1694.03 745.232 L
1693.944 745.441 L
1695.544 739.028 L
1695.358 745.262 L
1692.207 759.236 L
1692.139 758.206 L
1692.17 759.768 L
1692.235 761.761 L
1692.785 758.855 L
1692.314 765.374 L
1693.178 763.527 L
1691.518 768.771 L
1691.555 770.47 L
1693.248 766.315 L
1691.996 773.658 L
1691.903 773.232 L
1691.786 774.993 L
1693.491 772.506 L
1691.287 782.162 L
1688.799 789.076 L
1692.408 781.657 L
1693.677 778.847 L
1695.796 774.867 L
1694.892 778.076 L
1692.492 787.119 L
1688.525 799.73 L
1687.214 804.655 L
1690.524 795.714 L
1693.239 793.21 L
1693.5 792.049 L
1695.528 790.864 L
1698.075 785.432 L
1696.197 792.013 L
1697.708 789.889 L
1695.169 798.191 L
1694.93 801.577 L
1699.207 792.82 L
1696.344 799.467 L
1697.792 797.843 L
1694.743 805.957 L
1694.16 809.992 L
1695.687 810.606 L
1695.725 807.81 L
1697.878 806.003 L
1695.9 812.069 L
1695.59 811.992 L
1700.7 805.272 L
1697.258 812.007 L
1691.776 826.408 L
1695.646 819.272 L
1694.831 821.541 L
1693.291 826.865 L
1690.764 834.228 L
1691.731 832.733 L
1684.19 851.749 L
1684.376 852.431 L
1689.594 843.49 L
1691.219 840.577 L
1689.934 846.061 L
1693.288 841.783 L
1695.11 838.951 L
1697.006 838.914 L
1694.461 842.997 L
1693.803 845.344 L
1693.775 847.607 L
1694.35 848.538 L
1697.783 843.747 L
1695.119 850.534 L
1697.568 847.331 L
1696.56 850.872 L
1692.111 861.107 L
1691.582 864.749 L
1690.369 867.051 L
1688.116 870.88 L
1693.269 864.983 L
1687.784 875.529 L
1692.908 870.574 L
1687.813 878.769 L
1685.162 887.359 L
1688.662 881.81 L
1693.868 875.349 L
1695.619 872.871 L
1695.358 874.583 L
1702.017 865.23 L
1700.702 869.552 L
1694.854 880.742 L
1695.815 881.775 L
1694.57 885.821 L
1698.534 881.217 L
1693.319 890.467 L
1692.981 892.966 L
1695.572 889.91 L
1694.017 895.11 L
1689.846 900.527 L
1692.676 899.097 L
1691.645 903.282 L
1690.104 907.303 L
1687.204 912.708 L
1691.331 907.644 L
1689.901 911.745 L
1694.887 906.91 L
1693.447 909.752 L
1687.984 919.387 L
1696.073 910.433 L
1695.405 911.476 L
1689.717 921.998 L
1687.804 925.116 L
1691.052 922.577 L
1692.397 922.444 L
1699.685 913.783 L
1696.214 920.994 L
1702.663 913.027 L
1700.083 917.837 L
1696.385 924.313 L
1695.345 929.315 L
1697.224 927.078 L
1697.003 929.09 L
1700.306 926.391 L
1701.618 926.829 L
1700.286 930.911 L
1698.304 935.698 L
1690.858 947.029 L
1693.738 944.929 L
1694.84 944.798 L
1702.021 936.231 L
1693.735 949.893 L
1696.271 947.201 L
1693.896 953.653 L
1689.467 959.898 L
1691.47 959.895 L
1688.832 963.833 L
1689.594 964.96 L
1693.968 961.79 L
1689.298 969.714 L
1698.583 961.005 L
1694.359 967.066 L
1697.102 965.443 L
1699.318 965.633 L
1695.299 971.484 L
1694.147 974.221 L
1699.891 969.785 L
1700.721 969.776 L
1704.287 967.976 L
1703.473 971.27 L
1698.922 978.028 L
1697.3 982.075 L
1704.5 975.899 L
1696.69 985.655 L
1692.279 992.067 L
1694.336 992.354 L
1695.835 992.753 L
1699.838 990.066 L
1702.863 987.238 L
1696.841 997.063 L
1697.283 996.719 L
1702.558 992.916 L
1690.191 1008.699 L
1684.836 1015.389 L
1688.772 1011.659 L
1696.853 1006.156 L
1691.592 1012.68 L
1690.302 1015.507 L
1693.562 1013.573 L
1695.843 1013.608 L
1690.746 1020.598 L
1691.449 1020.2 L
1693.759 1020.494 L
1689.573 1026.078 L
1688.756 1029.106 L
1686.813 1032.721 L
1692.877 1028.667 L
1689.029 1033.908 L
1692.126 1031.728 L
1691.062 1034.729 L
1700.067 1027.843 L
1708.187 1020.89 L
1708.028 1022.524 L
1700.901 1030.294 L
1700.062 1031.747 L
1694.256 1037.269 L
1686.875 1045.398 L
1687.345 1044.276 L
1696.364 1035.479 L
1693.899 1038.121 L
1689.297 1041.923 L
1683.724 1046.882 L
1680.559 1050.76 L
1677.595 1052.957 L
1677.169 1054.355 L
1674.51 1056.656 L
1675.713 1055.143 L
1674.682 1056.718 L
1677.558 1054.395 L
1686.088 1045.59 L
1689.445 1041.765 L
1687.873 1043.987 L
1688.641 1042.399 L
1685.45 1045.911 L
1682.203 1049.426 L
1691.314 1040.188 L
1695.59 1036.205 L
1692.287 1038.821 L
1700.987 1031.61 L
1698.308 1033.847 L
1695.379 1036.695 L
1705.721 1025.886 L
1699.905 1032.385 L
1697.557 1034.516 L
1695.986 1035.109 L
1693.941 1038.274 L
1693.86 1037.454 L
1691.76 1036.295 L
1695.19 1031.406 L
1694.782 1030.073 L
1689.848 1034.098 L
1681.052 1040.268 L
1688.063 1031.167 L
1685.081 1032.445 L
1684.736 1031.215 L
1677.437 1036.479 L
1690.516 1021.422 L
1682.61 1027.662 L
1682.485 1025.955 L
1683.35 1023.244 L
1681.049 1023.682 L
1673.243 1029.649 L
1667.703 1032.74 L
1666.388 1032.228 L
1666.959 1029.087 L
1664.053 1030.677 L
1660.266 1032.616 L
1660.602 1030.654 L
1666.405 1023.34 L
1660.144 1027.959 L
1652.609 1032.47 L
1661.116 1022.854 L
1647.753 1034.539 L
1646.275 1033.508 L
1638.367 1040.032 L
1642.652 1035.446 L
1646.476 1029.066 L
1647.689 1028.103 L
1643.683 1029.648 L
1639.896 1030.674 L
1633.689 1034.612 L
1633.249 1034.552 L
1626.905 1037.036 L
1627.42 1036.278 L
1626.615 1035.157 L
1628.648 1031.388 L
1624.954 1033.045 L
1622.018 1034.128 L
1631.648 1024.936 L
1632.565 1023.214 L
1624.728 1028.951 L
1608.432 1040.144 L
1604.483 1041.683 L
1608.706 1037.693 L
1601.075 1040.602 L
1605.271 1036.482 L
1611.886 1029.86 L
1606.296 1032.32 L
1608.835 1030.014 L
1604.932 1032.101 L
1594.51 1038.317 L
1585.273 1044.652 L
1584.22 1043.896 L
1579.307 1045.078 L
1581.635 1042.839 L
1577.902 1043.978 L
1583.972 1039.047 L
1581.962 1038.12 L
1583.345 1036.342 L
1582.783 1035.803 L
1583.642 1033.426 L
1568.468 1042.978 L
1561.171 1047.564 L
1575.065 1036.482 L
1570.281 1037.694 L
1559.991 1043.56 L
1561.217 1041.831 L
1563.642 1039.389 L
1569.267 1034.198 L
1578.771 1026.744 L
1581.169 1023.931 L
1570.578 1030.23 L
1565.604 1032.581 L
1561.493 1034.397 L
1562.532 1033.008 L
1557.692 1034.825 L
1555.341 1034.869 L
1552.935 1035.661 L
1559.358 1030.334 L
1548.5 1036.584 L
1551.108 1032.578 L
1546.463 1035.337 L
1535.945 1040.719 L
1531.686 1041.434 L
1529.172 1043.179 L
1532.199 1039.489 L
1536.178 1036.336 L
1528.408 1039.128 L
1521.014 1041.615 L
1520.395 1041.387 L
1518.268 1041.925 L
1520.521 1039.816 L
1513.623 1042.066 L
1524.743 1035.983 L
1519.664 1037.562 L
1519.344 1036.677 L
1519.295 1035.17 L
1519.204 1034.243 L
1517.421 1034.656 L
1522.354 1030.883 L
1508.827 1037.263 L
1504.345 1038.041 L
1490.016 1045.02 L
1493.704 1042.088 L
1497.852 1039.242 L
1495.435 1039.643 L
1495.434 1038.759 L
1491.122 1039.062 L
1489.249 1039.792 L
1474.252 1046.622 L
1477.755 1043.479 L
1487.815 1038.016 L
1482.228 1039.637 L
1477.757 1041.814 L
1470.337 1044.187 L
1453.84 1049.308 L
1455.42 1048.239 L
1472.569 1041.569 L
1478.665 1037.242 L
1485.236 1033.28 L
1488.884 1030.709 L
1487.544 1029.93 L
1480.203 1033.499 L
1480.131 1032.536 L
1461.163 1040.902 L
1459.335 1040.533 L
1451.022 1043.181 L
1454.023 1041.257 L
1441.251 1045.134 L
1425.105 1050.153 L
1430.946 1047.145 L
1434.243 1044.581 L
1427.352 1046.46 L
1426.481 1045.938 L
1428.599 1044.335 L
1429.71 1043.216 L
1424.575 1043.81 L
1427.65 1042.892 L
1439.378 1037.146 L
1426.445 1041.601 L
1426.304 1041.106 L
1434.247 1037.04 L
1426.1 1039.03 L
1438.05 1034.731 L
1435.185 1034.756 L
1433.188 1034.65 L
1425.48 1036.454 L
1414.567 1039.148 L
1406.821 1040.695 L
1399.308 1042.532 L
1407.229 1039.935 L
1415.969 1036.689 L
1406.955 1038.197 L
1404.641 1038.734 L
1405.673 1037.027 L
1408.536 1036.219 L
1396.208 1038.29 L
1400.773 1036.241 L
1398.536 1035.852 L
1396.036 1036.402 L
1399.451 1034.351 L
1393.27 1036.569 L
1387.758 1036.634 L
1393 1034.768 L
1380.995 1037.779 L
1379.385 1037.38 L
1387.437 1035.028 L
1375.294 1036.796 L
1371.924 1036.944 L
1373.734 1036.706 L
1386.844 1033.641 L
1367.076 1037.721 L
1363.874 1037.639 L
1364.352 1035.729 L
1366.961 1035.748 L
1364.367 1035.428 L
1378.927 1031.603 L
1378.426 1031.897 L
1370.901 1033.203 L
1367.191 1033.153 L
1352.734 1035.59 L
1345.722 1036.342 L
1335.947 1037.156 L
1344.212 1036.433 L
1342.385 1035.968 L
1335.437 1036.552 L
1326.502 1036.975 L
1316.285 1037.964 L
1316.664 1037.28 L
1321.426 1036.296 L
1323.422 1036.563 L
1325.352 1036.012 L
1328.594 1035.601 L
1323.937 1035.236 L
1324.294 1035.53 L
1314.105 1036.402 L
1309.444 1036.458 L
1309.376 1036.034 L
1315.907 1036.092 L
1310.515 1035.974 L
1295.792 1037.129 L
1295.503 1037.095 L
1294.542 1037.099 L
1293.434 1036.569 L
1290.028 1038.052 L
1299.719 1037.084 L
1293.885 1037.106 L
1293.34 1037.084 L
1297.186 1037.317 L
1294.673 1037.182 L
1300.048 1037.276 L
1279.599 1038.317 L
1283.49 1037.738 L
1294.569 1038.355 L
1296.024 1037.589 L
1292.282 1038.818 L
1285.976 1038.365 L
1267.644 1038.383 L
1261.932 1037.74 L
1261.466 1037.83 L
1264.432 1038.243 L
1270.635 1038.865 L
1263.374 1038.81 L
1262.405 1038.81 L
1251.883 1038.012 L
1267.479 1039.735 L
1265.941 1039.9 L
1259.094 1039.68 L
1253.988 1039.198 L
1254.36 1039.982 L
1250.276 1039.175 L
1247.898 1040.272 L
1255.598 1040.283 L
1251.146 1040.408 L
1248.185 1039.919 L
1234.582 1039.289 L
1232.636 1039.05 L
1231.408 1038.886 L
1230.621 1039.397 L
1233.909 1041.478 L
1222.291 1039.429 L
1224.425 1040.215 L
1219.896 1039.538 L
1220.175 1039.872 L
1223.249 1040.411 L
1224.838 1041.812 L
1221.447 1041.232 L
1213.645 1040.512 L
1224.233 1042.922 L
1213.89 1041.03 L
1209.695 1041.058 L
1212.536 1042.27 L
1215.683 1043.541 L
1204.672 1042.324 L
1199.546 1041.267 L
1186.014 1038.878 L
1181.316 1038.419 L
1167.012 1034.967 L
1175.119 1037.179 L
1176.625 1038.229 L
1184.736 1041.616 L
1191.144 1043.151 L
1180.502 1041.077 L
1181.103 1042.105 L
1168.552 1039.313 L
1166.731 1038.834 L
1171.985 1041.147 L
1176.231 1042.313 L
1181.378 1044.828 L
1173.083 1043.328 L
1166.909 1041.408 L
1160.331 1040.208 L
1158.481 1040.828 L
1168.63 1044.963 L
1169.868 1045.555 L
1167.213 1045.945 L
1157.034 1043.073 L
1147.307 1040.718 L
1146.762 1041.547 L
1153.39 1043.808 L
1137.675 1039.955 L
1136.682 1040.263 L
1129.246 1038.726 L
1138.334 1041.811 L
1146.093 1046.152 L
1134.659 1042.662 L
1148.558 1048.239 L
1146.065 1049.12 L
1134.485 1044.536 L
1120.102 1040.662 L
1121.343 1041.334 L
1123.875 1043.688 L
1122.651 1044.026 L
1116.986 1042.274 L
1111.412 1041.006 L
1119.888 1044.959 L
1119.663 1046.551 L
1116.478 1046.206 L
1111.647 1044.397 L
1107.117 1042.74 L
1100.667 1041.252 L
1090.391 1036.818 L
1097.549 1042.308 L
1094.699 1041.145 L
1097.972 1043.408 L
1093.515 1042.67 L
1086.083 1041.023 L
1093.565 1044.52 L
1078.776 1038.583 L
1081.208 1040.394 L
1091.848 1047.604 L
1091.259 1047.933 L
1088.745 1047.646 L
1085.145 1047.498 L
1080.137 1046.373 L
1073.18 1043.359 L
1074.007 1045.602 L
1070.792 1044.735 L
1072.146 1046.876 L
1064.014 1043.645 L
1059.968 1042.194 L
1054.559 1040.91 L
1052.005 1040.176 L
1056.861 1043.941 L
1047.523 1040.512 L
1043.701 1038.846 L
1047.849 1041.941 L
1050.365 1045.835 L
1051.942 1047.777 L
1058.514 1051.855 L
1058.055 1054.56 L
1050.083 1051.121 L
1045.194 1049.838 L
1035.876 1045.687 L
1033.578 1044.797 L
1036.247 1048.911 L
1042.953 1054.122 L
1033.035 1050.212 L
1024.627 1046.479 L
1022.219 1045.446 L
1016.567 1042.481 L
1010.009 1039.857 L
1008.463 1040.952 L
996.728 1033.637 L
1009.554 1044.541 L
999.84 1037.343 L
1006.329 1045.119 L
1003.851 1044.562 L
997.839 1041.979 L
1007.438 1049.219 L
996.843 1043.891 L
991.974 1043.074 L
993.561 1045.331 L
1001.152 1052.499 L
993.027 1047.961 L
997.824 1052.915 L
995.453 1053.002 L
994.619 1054.43 L
988.447 1051.727 L
976.776 1044.106 L
969.536 1040.705 L
952.422 1028.984 L
947.473 1025.541 L
950.837 1030.476 L
947.583 1030.07 L
943.545 1027.216 L
942.54 1029.391 L
937.434 1025.845 L
938.979 1028.898 L
944.884 1036.655 L
949.379 1042.49 L
946.443 1041.506 L
943.053 1040.27 L
945.624 1045.209 L
945.69 1045.959 L
943.379 1046.474 L
939.458 1044.436 L
936.842 1044.073 L
928.861 1039.367 L
927.357 1039.443 L
920.953 1036.617 L
921.104 1038.407 L
917.941 1037.093 L
911.912 1033.386 L
917.649 1041.474 L
918.823 1044.694 L
912.543 1041.275 L
912.622 1043.074 L
904.155 1036.725 L
908.614 1043.819 L
907.433 1044.486 L
906.47 1045.841 L
907.341 1048.176 L
887.846 1032.023 L
888.857 1035.818 L
893.343 1041.22 L
897.662 1047.885 L
903.58 1055.226 L
905.842 1059.72 L
901.02 1056.346 L
893.294 1049.293 L
891.756 1048.012 L
884.02 1039.765 L
887.589 1043.395 L
890.338 1046.201 L
895.325 1051.197 L
900.112 1056.912 L
887.467 1043.043 L
880.949 1037.481 L
879.142 1034.554 L
881.133 1036.979 L
883.624 1039.373 L
878.036 1035.124 L
879.589 1035.846 L
885.286 1041.449 L
885.218 1041.521 L
876.34 1032.447 L
873.567 1028.535 L
878.959 1035.646 L
880.602 1036.131 L
875.7 1031.797 L
879.112 1034.905 L
878.994 1034.75 L
870.906 1026.48 L
869.466 1025.069 L
881.903 1037.956 L
883.957 1039.926 L
887.751 1041.105 L
874.655 1025.581 L
870.358 1018.776 L
867.518 1013.333 L
864.571 1007.403 L
868.412 1009.627 L
871.864 1011.359 L
872.693 1009.448 L
881.691 1018.32 L
879.488 1012.974 L
874.309 1005.871 L
877.173 1006.364 L
874.428 1001.834 L
874.72 999.405 L
866.495 985.944 L
873.577 993.622 L
888.805 1008.046 L
882.793 998.826 L
879.825 994.781 L
875.183 986.494 L
881.066 990.331 L
875.863 983.395 L
878.602 984.349 L
882.372 987.098 L
882.771 984.087 L
886.701 987.737 L
885.88 984.838 L
883.905 981.09 L
887.377 981.812 L
887.605 979.869 L
891.97 982.94 L
892.442 981.377 L
897.362 984.879 L
892.674 977.534 L
884.185 966.121 L
884.982 963.575 L
882.189 958.694 L
886.043 960.241 L
885.13 956.545 L
880.168 947.351 L
878.626 943.249 L
873.052 933.452 L
880.396 941.306 L
882.772 942.871 L
884.123 941.47 L
887.107 944.345 L
887.413 943.583 L
886.461 938.225 L
890.529 939.595 L
883.311 928.052 L
878.09 919.279 L
877.557 916.444 L
876.865 911.595 L
873.121 903.956 L
876.598 907.011 L
875.11 900.487 L
877.023 902.481 L
875.166 896.322 L
876.926 897.638 L
875.125 891.488 L
877.675 893.286 L
880.897 895.286 L
881.37 893.918 L
887.369 900.387 L
887.524 897.746 L
884.323 890.403 L
882.14 883.369 L
884.954 886.063 L
883.372 880.706 L
882.756 877.267 L
885.038 878.032 L
886.521 877.594 L
886.011 873.626 L
890.399 880.977 L
891.069 877.824 L
888.729 872.25 L
886.942 865.407 L
891.537 870.477 L
884.709 856.351 L
887.785 859.624 L
885.676 852.29 L
884.78 848.034 L
886.608 849.242 L
881.027 835.888 L
882.514 834.501 L
891.253 849.355 L
884.005 833.934 L
888.606 838.981 L
886.681 832.73 L
887.852 833.81 L
891.094 836.575 L
890.958 834.033 L
886.222 822.176 L
886.914 818.406 L
884.563 810.179 L
886.024 812.184 L
889.534 817.026 L
889.158 812.131 L
889.823 812.371 L
890.939 813.298 L
887.287 802.77 L
888.613 802.714 L
887.71 797.729 L
886.917 793.527 L
889.259 797.436 L
889.12 794.426 L
886.28 784.017 L
888.585 787.486 L
891.938 793.317 L
891.909 790.086 L
889.845 783.879 L
892.641 786.601 L
891.198 782.194 L
890.35 777.534 L
888.587 771.06 L
887.116 763.722 L
887.41 762.391 L
888.184 763.796 L
888.068 761.334 L
890.067 765.313 L
891.333 767.193 L
892.328 767.087 L
891.106 762.28 L
892.633 766.783 L
893.276 764.116 L
891.311 759.701 L
891.894 758.656 L
891.898 756.971 L
891.598 754.943 L
889.299 746.705 L
891.564 752.483 L
887.236 733.796 L
887.914 732.954 L
888.841 735.639 L
888.669 734.437 L
890.099 737.28 L
891.125 737.624 L
888.16 725.637 L
886.332 716.008 L
886.336 710.862 L
886.906 716.062 L
888.938 718.612 L
888.465 714.44 L
887.919 712.904 L
888.023 708.249 L
886.942 703.865 L
887.252 698.31 L
886.493 691.373 L
888.224 700.517 L
889.071 700.197 L
888.454 693.743 L
888.763 695.864 L
888.205 686.181 L
887.07 680.107 L
886.262 670.813 L
886.316 666.661 L
888.635 684.159 L
889.032 685.56 L
888.234 676.434 L
888.882 676.754 L
888.546 674.989 L
888.793 666.554 L
887.156 657.75 L
888.142 665.089 L
887.458 653.077 L
887.522 656.357 L
888.428 652.793 L
888.457 651.095 L
889.212 651.34 L
888.459 646.664 L
888.091 643.098 L
888.485 627.755 L
888.457 637.686 L
888.718 649.024 L
888.523 639.215 L
888.704 635.259 L
887.723 637.626 L
888.432 630.735 L
888.474 623.223 L
887.381 636.738 L
887.146 624.917 L
888.289 629.266 L
887.792 626.077 L
888.104 613.767 L
887.087 620.32 L
888.021 611.97 L
887.436 613.823 L
888.01 600.306 L
888.147 605.018 L
887.57 596.982 L
888.059 595.889 L
888.836 584.212 L
890.3 575.282 L
888.722 581.65 L
889.43 570.247 L
887.257 585.109 L
886.775 589.21 L
886.414 585.045 L
886.697 580.333 L
885.989 587.876 L
885.481 586.194 L
885.62 580.414 L
886.264 572.926 L
886.661 567.268 L
888.119 560.354 L
887.284 561.334 L
887.922 551.313 L
890.002 541.982 L
888.294 548.556 L
885.014 559.91 L
884.998 557.541 L
886.309 548.401 L
885.773 552.568 L
886.031 543.999 L
884.952 548.084 L
886.222 538.713 L
886.223 535.814 L
886.073 534.956 L
887.148 525.165 L
886.252 525.763 L
883.136 534.418 L
885.201 524.74 L
886.405 518.13 L
886.343 515.512 L
883.709 524.525 L
882.812 524.356 L
882.27 523.75 L
880.887 527.227 L
880.296 521.813 L
882.928 509.412 L
884.163 506.381 L
886.725 497.316 L
883.401 503.136 L
885.2 495.235 L
881.906 499.26 L
888.569 479.045 L
888.776 477.545 L
883.068 489.616 L
881.566 494.099 L
882.609 486.039 L
888.324 470.179 L
886.516 472.133 L
886.42 469.272 L
886.994 466.479 L
884.514 469.409 L
881.241 473.501 L
880.271 474.342 L
882.831 464.236 L
882.584 464.683 L
884.017 458.223 L
886.356 448.923 L
889.87 438.047 L
891.783 432.649 L
887.084 441.771 L
886.634 439.99 L
878.479 453.716 L
879.407 448.986 L
880.992 443.614 L
882.977 436.766 L
884.331 433.81 L
883.918 430.924 L
887.327 423.503 L
892.403 411.532 L
894.349 407.898 L
890.219 411.415 L
886.251 416.168 L
885.616 415.741 L
888.262 409.523 L
885.465 411.911 L
893.941 393.301 L
893.736 392.646 L
899.802 380.212 L
894.661 387.126 L
894.566 384.071 L
891.403 386.747 L
892.802 382.384 L
897.107 373.627 L
894.855 374.461 L
900.031 363.148 L
894.981 370.268 L
897.307 363.786 L
892.279 368.806 L
890.041 369.609 L
894.059 361.322 L
882.562 374.698 L
887.964 364.093 L
891.848 357.781 L
885.301 363.465 L
881.24 366.676 L
887.967 354.09 L
887.556 352.713 L
886.8 351.405 L
883.252 353.007 L
884.647 348.083 L
884.989 346.816 L
887.654 339.471 L
885.825 339.209 L
880.627 344.421 L
880.016 342.482 L
878.328 341.755 L
876.161 341.053 L
877.334 338.462 L
871.881 343.016 L
871.942 341.048 L
877.424 329.776 L
878.611 326.121 L
874.736 327.08 L
877.46 322.274 L
875.071 322.495 L
880.09 313.508 L
882.813 307.699 L
881.308 306.829 L
884.129 301.791 L
883.213 299.346 L
886.61 293.217 L
892.028 283.364 L
887.64 286.686 L
893.203 277.759 L
886.771 282.355 L
885.728 280.914 L
883.157 281.752 L
880.202 282.916 L
878.991 281.841 L
880.067 277.715 L
883.558 270.239 L
875.631 276.59 L
873.818 276.954 L
878.754 268.52 L
882.939 260.632 L
879.348 262.537 L
874.761 265.084 L
870.72 266.394 L
878.736 255.104 L
879.482 251.341 L
879.331 248.335 L
882.988 243.039 L
884.868 237.87 L
880.417 239.79 L
880.287 236.868 L
877.433 237.962 L
871.01 245.547 L
865.136 250.894 L
868.277 247.848 L
869.06 246.825 L
871.621 242.983 L
880.626 234.366 L
878.869 236.531 L
881.966 232.842 L
880.881 234.298 L
883.319 231.234 L
893.974 220.661 L
892.238 223.195 L
898.923 215.948 L
902.795 213.288 L
898.731 217.577 L
894.354 222.459 L
897.131 218.081 L
897.646 217.968 L
907.913 208.238 L
906.176 209.96 L
889.207 225.792 L
889.033 226.273 L
888.977 227.023 L
881.128 234.304 L
870.855 245.355 L
879.308 234.421 L
889.531 224.586 L
879.751 235.865 L
884.536 230.937 L
885.786 230.02 L
886.419 229.137 L
884.19 232.632 L
888.872 229.669 L
890.595 230.945 L
897.804 226.205 L
893.411 233.043 L
902.36 226.484 L
899.56 231.487 L
898.22 234.758 L
901.43 234.081 L
903.905 234.814 L
904.049 236.237 L
900.432 242.185 L
909.041 235.861 L
921.757 225.995 L
925.974 225.388 L
926.268 226.895 L
934.918 220.999 L
936.325 223.413 L
935.96 226.485 L
935.054 229.136 L
938.593 228.423 L
950.563 220.805 L
945.974 226.581 L
947.968 228.084 L
953.534 225.45 L
953.142 228.283 L
956.648 227.18 L
949.658 234.961 L
940.005 246.392 L
949.833 239.754 L
953.469 239.519 L
950.308 243.251 L
964.319 233.584 L
968.645 231.806 L
964.569 237.548 L
973.824 233.593 L
976.719 232.476 L
979.887 231.856 L
989.337 225.914 L
987.153 229.682 L
992.211 227.361 L
995.852 227.278 L
995.239 228.747 L
995.142 230.973 L
989.168 237.744 L
1008.338 224.875 L
995.007 236.443 L
994.271 238.561 L
998.221 237.795 L
999.441 239.39 L
997.401 242.314 L
998.607 243.94 L
996.942 247.089 L
1009.146 240.245 L
1013.295 237.964 L
1012.545 240.676 L
1013.974 241.16 L
1020.638 238.162 L
1009.936 246.819 L
1016.278 244.568 L
1020.359 243.577 L
1027.769 240.071 L
1027.487 241.666 L
1040.115 234.675 L
1039.311 237.119 L
1022.648 249.2 L
1033.972 243.562 L
1045.904 237.02 L
1053.06 234.591 L
1060.337 232.182 L
1063.483 231.146 L
1058.376 235.255 L
1051.819 242.268 L
1060.098 238.222 L
1073.782 230.555 L
1078.68 230.012 L
1074.839 233.08 L
1080.256 232.876 L
1081.047 233.179 L
1088.91 230.581 L
1096.836 228.08 L
1096.863 229.344 L
1098.986 228.826 L
1104.108 228.413 L
1091.83 235.286 L
1082.918 241.559 L
1089.991 237.809 L
1098.075 234.861 L
1100.491 235.779 L
1098.235 237.282 L
1099.696 236.957 L
1100.648 238.347 L
1116.323 232.392 L
1109.677 236.656 L
1114.341 235.919 L
1119.156 234.196 L
1115.84 237.137 L
1124.155 235.223 L
1123.088 235.438 L
1133.302 231.466 L
1134.788 233.18 L
1133.485 235.508 L
1146.708 230.517 L
1143.8 232.093 L
1145.737 232.967 L
1159.343 228.407 L
1154.464 231.448 L
1152.127 232.13 L
1158.006 231.145 L
1155.171 233.047 L
1156.386 233.726 L
1160.697 232.965 L
1150.77 237.798 L
1160.122 234.606 L
1169.674 231.564 L
1169.07 233.191 L
1178.144 230.677 L
1186.921 229.081 L
1184.917 230.542 L
1194.303 229.259 L
1191.198 230.22 L
1187.437 231.416 L
1192.309 231.786 L
1186.026 234.126 L
1190.633 233.177 L
1196.559 232.153 L
1188.875 235.361 L
1188.501 234.856 L
1192.828 234.464 L
1190.787 234.751 L
1200.738 233.444 L
1205.146 233.198 L
1206.263 232.664 L
1207.617 233.284 L
1207.727 233.584 L
1216.341 232.315 L
1229.126 229.891 L
1222.389 231.702 L
1216.08 232.765 L
1222.934 232.557 L
1216.853 233.421 L
1222.809 232.923 L
1231.988 231.175 L
1230.068 231.534 L
1233.969 232.366 L
1245.61 230.654 L
1253.279 230.176 L
1255.439 230.301 L
1257.876 230.507 L
1261.629 230.461 L
1259.928 230.706 L
1261.722 231.031 L
1263.484 230.678 L
1253.455 231.423 L
1273.98 229.438 L
1279.722 229.925 L
1271.1 230.03 L
1276.975 230.685 L
1292.419 229.921 L
1302.106 230.153 L
1306.816 230.386 L
1302.927 229.565 L
1287.907 230.132 L
1295.678 230.53 L
1288.458 230.754 L
1302.019 230.226 L
1297.807 229.904 L
1283.638 230.202 L
1280.444 229.493 L
S
GR
GS
[0.75 0 0 0.75 968.25 477.5] CT
0 0.447 0.741 RC
10.0 ML
N
0 -10 M
0 10 L
-10 0 M
10 0 L
-7.071 -7.071 M
7.071 7.071 L
-7.071 7.071 M
7.071 -7.071 L
S
GR
GS
[0.75 0 0 0.75 0 0.5] CT
1 GC
N
1815 246 M
1815 112 L
1528 112 L
1528 246 L
cp
f
GR
GS
[0.75 0 0 0.75 1181.25 102.125] CT
/Helvetica 36 F
GS
[1 0 0 1 0 0] CT
0 12.5 moveto 
1 -1 scale
(True position) t 
GR
GR
GS
[0.75 0 0 0.75 0 0.5] CT
1 LJ
0.667 LW
N
1532 135.5 M
1572 135.5 L
S
GR
GS
[0.75 0 0 0.75 1181.25 134.75] CT
/Helvetica 36 F
GS
[1 0 0 1 0 0] CT
0 12.5 moveto 
1 -1 scale
(EKF) t 
GR
GR
GS
[0.75 0 0 0.75 0 0.5] CT
0 0 1 RC
1 LJ
0.667 LW
N
1532 179 M
1572 179 L
S
GR
GS
[0.75 0 0 0.75 1181.25 167.375] CT
/Helvetica 36 F
GS
[1 0 0 1 0 0] CT
0 12.5 moveto 
1 -1 scale
(Base station) t 
GR
GR
GS
[0.75 0 0 0.75 1164 167.375] CT
0 0.447 0.741 RC
10.0 ML
N
0 -10 M
0 10 L
-10 0 M
10 0 L
-7.071 -7.071 M
7.071 7.071 L
-7.071 7.071 M
7.071 -7.071 L
S
GR
GS
[0.75 0 0 0.75 0 0.5] CT
0.149 GC
10.0 ML
0.667 LW
N
1528 246 M
1528 112 L
1815 112 L
1815 246 L
cp
S
GR
%%Trailer
%%Pages: 1
%%EOF
