%!PS-Adobe-3.0 EPSF-3.0
%%Creator: (MATLAB, The Mathworks, Inc. Version 9.3.0.713579 \(R2017b\). Operating System: Linux)
%%Title: /home/micke/ExamensarbeteCybercom/Resultplots/circle_wo_enc.eps
%%CreationDate: 2018-05-04T13:20:21
%%Pages: (atend)
%%BoundingBox: 0 0 1871 989
%%LanguageLevel: 3
%%EndComments
%%BeginProlog
%%BeginResource: procset (Apache XML Graphics Std ProcSet) 1.2 0
%%Version: 1.2 0
%%Copyright: (Copyright 2001-2003,2010 The Apache Software Foundation. License terms: http://www.apache.org/licenses/LICENSE-2.0)
/bd{bind def}bind def
/ld{load def}bd
/GR/grestore ld
/GS/gsave ld
/RM/rmoveto ld
/C/curveto ld
/t/show ld
/L/lineto ld
/ML/setmiterlimit ld
/CT/concat ld
/f/fill ld
/N/newpath ld
/S/stroke ld
/CC/setcmykcolor ld
/A/ashow ld
/cp/closepath ld
/RC/setrgbcolor ld
/LJ/setlinejoin ld
/GC/setgray ld
/LW/setlinewidth ld
/M/moveto ld
/re {4 2 roll M
1 index 0 rlineto
0 exch rlineto
neg 0 rlineto
cp } bd
/_ctm matrix def
/_tm matrix def
/BT { _ctm currentmatrix pop matrix _tm copy pop 0 0 moveto } bd
/ET { _ctm setmatrix } bd
/iTm { _ctm setmatrix _tm concat } bd
/Tm { _tm astore pop iTm 0 0 moveto } bd
/ux 0.0 def
/uy 0.0 def
/F {
  /Tp exch def
  /Tf exch def
  Tf findfont Tp scalefont setfont
  /cf Tf def  /cs Tp def
} bd
/ULS {currentpoint /uy exch def /ux exch def} bd
/ULE {
  /Tcx currentpoint pop def
  gsave
  newpath
  cf findfont cs scalefont dup
  /FontMatrix get 0 get /Ts exch def /FontInfo get dup
  /UnderlinePosition get Ts mul /To exch def
  /UnderlineThickness get Ts mul /Tt exch def
  ux uy To add moveto  Tcx uy To add lineto
  Tt setlinewidth stroke
  grestore
} bd
/OLE {
  /Tcx currentpoint pop def
  gsave
  newpath
  cf findfont cs scalefont dup
  /FontMatrix get 0 get /Ts exch def /FontInfo get dup
  /UnderlinePosition get Ts mul /To exch def
  /UnderlineThickness get Ts mul /Tt exch def
  ux uy To add cs add moveto Tcx uy To add cs add lineto
  Tt setlinewidth stroke
  grestore
} bd
/SOE {
  /Tcx currentpoint pop def
  gsave
  newpath
  cf findfont cs scalefont dup
  /FontMatrix get 0 get /Ts exch def /FontInfo get dup
  /UnderlinePosition get Ts mul /To exch def
  /UnderlineThickness get Ts mul /Tt exch def
  ux uy To add cs 10 mul 26 idiv add moveto Tcx uy To add cs 10 mul 26 idiv add lineto
  Tt setlinewidth stroke
  grestore
} bd
/QT {
/Y22 exch store
/X22 exch store
/Y21 exch store
/X21 exch store
currentpoint
/Y21 load 2 mul add 3 div exch
/X21 load 2 mul add 3 div exch
/X21 load 2 mul /X22 load add 3 div
/Y21 load 2 mul /Y22 load add 3 div
/X22 load /Y22 load curveto
} bd
/SSPD {
dup length /d exch dict def
{
/v exch def
/k exch def
currentpagedevice k known {
/cpdv currentpagedevice k get def
v cpdv ne {
/upd false def
/nullv v type /nulltype eq def
/nullcpdv cpdv type /nulltype eq def
nullv nullcpdv or
{
/upd true def
} {
/sametype v type cpdv type eq def
sametype {
v type /arraytype eq {
/vlen v length def
/cpdvlen cpdv length def
vlen cpdvlen eq {
0 1 vlen 1 sub {
/i exch def
/obj v i get def
/cpdobj cpdv i get def
obj cpdobj ne {
/upd true def
exit
} if
} for
} {
/upd true def
} ifelse
} {
v type /dicttype eq {
v {
/dv exch def
/dk exch def
/cpddv cpdv dk get def
dv cpddv ne {
/upd true def
exit
} if
} forall
} {
/upd true def
} ifelse
} ifelse
} if
} ifelse
upd true eq {
d k v put
} if
} if
} if
} forall
d length 0 gt {
d setpagedevice
} if
} bd
/RE { % /NewFontName [NewEncodingArray] /FontName RE -
  findfont dup length dict begin
  {
    1 index /FID ne
    {def} {pop pop} ifelse
  } forall
  /Encoding exch def
  /FontName 1 index def
  currentdict definefont pop
  end
} bind def
%%EndResource
%%BeginResource: procset (Apache XML Graphics EPS ProcSet) 1.0 0
%%Version: 1.0 0
%%Copyright: (Copyright 2002-2003 The Apache Software Foundation. License terms: http://www.apache.org/licenses/LICENSE-2.0)
/BeginEPSF { %def
/b4_Inc_state save def         % Save state for cleanup
/dict_count countdictstack def % Count objects on dict stack
/op_count count 1 sub def      % Count objects on operand stack
userdict begin                 % Push userdict on dict stack
/showpage { } def              % Redefine showpage, { } = null proc
0 setgray 0 setlinecap         % Prepare graphics state
1 setlinewidth 0 setlinejoin
10 setmiterlimit [ ] 0 setdash newpath
/languagelevel where           % If level not equal to 1 then
{pop languagelevel             % set strokeadjust and
1 ne                           % overprint to their defaults.
{false setstrokeadjust false setoverprint
} if
} if
} bd
/EndEPSF { %def
count op_count sub {pop} repeat            % Clean up stacks
countdictstack dict_count sub {end} repeat
b4_Inc_state restore
} bd
%%EndResource
%FOPBeginFontDict
%%IncludeResource: font Courier-Oblique
%%IncludeResource: font Courier-BoldOblique
%%IncludeResource: font Courier-Bold
%%IncludeResource: font ZapfDingbats
%%IncludeResource: font Symbol
%%IncludeResource: font Helvetica
%%IncludeResource: font Helvetica-Oblique
%%IncludeResource: font Helvetica-Bold
%%IncludeResource: font Helvetica-BoldOblique
%%IncludeResource: font Times-Roman
%%IncludeResource: font Times-Italic
%%IncludeResource: font Times-Bold
%%IncludeResource: font Times-BoldItalic
%%IncludeResource: font Courier
%FOPEndFontDict
%%BeginResource: encoding WinAnsiEncoding
/WinAnsiEncoding [
/.notdef /.notdef /.notdef /.notdef /.notdef
/.notdef /.notdef /.notdef /.notdef /.notdef
/.notdef /.notdef /.notdef /.notdef /.notdef
/.notdef /.notdef /.notdef /.notdef /.notdef
/.notdef /.notdef /.notdef /.notdef /.notdef
/.notdef /.notdef /.notdef /.notdef /.notdef
/.notdef /.notdef /space /exclam /quotedbl
/numbersign /dollar /percent /ampersand /quotesingle
/parenleft /parenright /asterisk /plus /comma
/hyphen /period /slash /zero /one
/two /three /four /five /six
/seven /eight /nine /colon /semicolon
/less /equal /greater /question /at
/A /B /C /D /E
/F /G /H /I /J
/K /L /M /N /O
/P /Q /R /S /T
/U /V /W /X /Y
/Z /bracketleft /backslash /bracketright /asciicircum
/underscore /quoteleft /a /b /c
/d /e /f /g /h
/i /j /k /l /m
/n /o /p /q /r
/s /t /u /v /w
/x /y /z /braceleft /bar
/braceright /asciitilde /bullet /Euro /bullet
/quotesinglbase /florin /quotedblbase /ellipsis /dagger
/daggerdbl /circumflex /perthousand /Scaron /guilsinglleft
/OE /bullet /Zcaron /bullet /bullet
/quoteleft /quoteright /quotedblleft /quotedblright /bullet
/endash /emdash /asciitilde /trademark /scaron
/guilsinglright /oe /bullet /zcaron /Ydieresis
/space /exclamdown /cent /sterling /currency
/yen /brokenbar /section /dieresis /copyright
/ordfeminine /guillemotleft /logicalnot /sfthyphen /registered
/macron /degree /plusminus /twosuperior /threesuperior
/acute /mu /paragraph /middot /cedilla
/onesuperior /ordmasculine /guillemotright /onequarter /onehalf
/threequarters /questiondown /Agrave /Aacute /Acircumflex
/Atilde /Adieresis /Aring /AE /Ccedilla
/Egrave /Eacute /Ecircumflex /Edieresis /Igrave
/Iacute /Icircumflex /Idieresis /Eth /Ntilde
/Ograve /Oacute /Ocircumflex /Otilde /Odieresis
/multiply /Oslash /Ugrave /Uacute /Ucircumflex
/Udieresis /Yacute /Thorn /germandbls /agrave
/aacute /acircumflex /atilde /adieresis /aring
/ae /ccedilla /egrave /eacute /ecircumflex
/edieresis /igrave /iacute /icircumflex /idieresis
/eth /ntilde /ograve /oacute /ocircumflex
/otilde /odieresis /divide /oslash /ugrave
/uacute /ucircumflex /udieresis /yacute /thorn
/ydieresis
] def
%%EndResource
%FOPBeginFontReencode
/Courier-Oblique findfont
dup length dict begin
  {1 index /FID ne {def} {pop pop} ifelse} forall
  /Encoding WinAnsiEncoding def
  currentdict
end
/Courier-Oblique exch definefont pop
/Courier-BoldOblique findfont
dup length dict begin
  {1 index /FID ne {def} {pop pop} ifelse} forall
  /Encoding WinAnsiEncoding def
  currentdict
end
/Courier-BoldOblique exch definefont pop
/Courier-Bold findfont
dup length dict begin
  {1 index /FID ne {def} {pop pop} ifelse} forall
  /Encoding WinAnsiEncoding def
  currentdict
end
/Courier-Bold exch definefont pop
/Helvetica findfont
dup length dict begin
  {1 index /FID ne {def} {pop pop} ifelse} forall
  /Encoding WinAnsiEncoding def
  currentdict
end
/Helvetica exch definefont pop
/Helvetica-Oblique findfont
dup length dict begin
  {1 index /FID ne {def} {pop pop} ifelse} forall
  /Encoding WinAnsiEncoding def
  currentdict
end
/Helvetica-Oblique exch definefont pop
/Helvetica-Bold findfont
dup length dict begin
  {1 index /FID ne {def} {pop pop} ifelse} forall
  /Encoding WinAnsiEncoding def
  currentdict
end
/Helvetica-Bold exch definefont pop
/Helvetica-BoldOblique findfont
dup length dict begin
  {1 index /FID ne {def} {pop pop} ifelse} forall
  /Encoding WinAnsiEncoding def
  currentdict
end
/Helvetica-BoldOblique exch definefont pop
/Times-Roman findfont
dup length dict begin
  {1 index /FID ne {def} {pop pop} ifelse} forall
  /Encoding WinAnsiEncoding def
  currentdict
end
/Times-Roman exch definefont pop
/Times-Italic findfont
dup length dict begin
  {1 index /FID ne {def} {pop pop} ifelse} forall
  /Encoding WinAnsiEncoding def
  currentdict
end
/Times-Italic exch definefont pop
/Times-Bold findfont
dup length dict begin
  {1 index /FID ne {def} {pop pop} ifelse} forall
  /Encoding WinAnsiEncoding def
  currentdict
end
/Times-Bold exch definefont pop
/Times-BoldItalic findfont
dup length dict begin
  {1 index /FID ne {def} {pop pop} ifelse} forall
  /Encoding WinAnsiEncoding def
  currentdict
end
/Times-BoldItalic exch definefont pop
/Courier findfont
dup length dict begin
  {1 index /FID ne {def} {pop pop} ifelse} forall
  /Encoding WinAnsiEncoding def
  currentdict
end
/Courier exch definefont pop
%FOPEndFontReencode
%%EndProlog
%%Page: 1 1
%%PageBoundingBox: 0 0 1871 989
%%BeginPageSetup
[1 0 0 -1 0 989] CT
%%EndPageSetup
GS
[0.75 0 0 0.75 0 0.5] CT
N
0 0 M
2495 0 L
2495 1318 L
0 1318 L
0 0 L
cp
clip
1 GC
N
0 0 2495 1318 re
f
GR
GS
[0.75 0 0 0.75 0 0.5] CT
1 GC
N
0 0 2495 1318 re
f
GR
GS
[0.75 0 0 0.75 0 0.5] CT
1 GC
N
754 1173 M
1828 1173 L
1828 99 L
754 99 L
cp
f
GR
GS
[0.75 0 0 0.75 0 0.5] CT
0.149 GC
2 setlinecap
1 LJ
0.667 LW
N
754 1173 M
1828 1173 L
S
GR
GS
[0.75 0 0 0.75 0 0.5] CT
0.149 GC
2 setlinecap
1 LJ
0.667 LW
N
754 99 M
1828 99 L
S
GR
GS
[0.75 0 0 0.75 0 0.5] CT
0.149 GC
2 setlinecap
1 LJ
0.667 LW
N
754 1173 M
754 1162.26 L
S
GR
GS
[0.75 0 0 0.75 0 0.5] CT
0.149 GC
2 setlinecap
1 LJ
0.667 LW
N
933 1173 M
933 1162.26 L
S
GR
GS
[0.75 0 0 0.75 0 0.5] CT
0.149 GC
2 setlinecap
1 LJ
0.667 LW
N
1112 1173 M
1112 1162.26 L
S
GR
GS
[0.75 0 0 0.75 0 0.5] CT
0.149 GC
2 setlinecap
1 LJ
0.667 LW
N
1291 1173 M
1291 1162.26 L
S
GR
GS
[0.75 0 0 0.75 0 0.5] CT
0.149 GC
2 setlinecap
1 LJ
0.667 LW
N
1470 1173 M
1470 1162.26 L
S
GR
GS
[0.75 0 0 0.75 0 0.5] CT
0.149 GC
2 setlinecap
1 LJ
0.667 LW
N
1649 1173 M
1649 1162.26 L
S
GR
GS
[0.75 0 0 0.75 0 0.5] CT
0.149 GC
2 setlinecap
1 LJ
0.667 LW
N
1828 1173 M
1828 1162.26 L
S
GR
GS
[0.75 0 0 0.75 0 0.5] CT
0.149 GC
2 setlinecap
1 LJ
0.667 LW
N
754 99 M
754 109.74 L
S
GR
GS
[0.75 0 0 0.75 0 0.5] CT
0.149 GC
2 setlinecap
1 LJ
0.667 LW
N
933 99 M
933 109.74 L
S
GR
GS
[0.75 0 0 0.75 0 0.5] CT
0.149 GC
2 setlinecap
1 LJ
0.667 LW
N
1112 99 M
1112 109.74 L
S
GR
GS
[0.75 0 0 0.75 0 0.5] CT
0.149 GC
2 setlinecap
1 LJ
0.667 LW
N
1291 99 M
1291 109.74 L
S
GR
GS
[0.75 0 0 0.75 0 0.5] CT
0.149 GC
2 setlinecap
1 LJ
0.667 LW
N
1470 99 M
1470 109.74 L
S
GR
GS
[0.75 0 0 0.75 0 0.5] CT
0.149 GC
2 setlinecap
1 LJ
0.667 LW
N
1649 99 M
1649 109.74 L
S
GR
GS
[0.75 0 0 0.75 0 0.5] CT
0.149 GC
2 setlinecap
1 LJ
0.667 LW
N
1828 99 M
1828 109.74 L
S
GR
GS
[0.75 0 0 0.75 565.5 888.24997] CT
0.149 GC
/Helvetica 40 F
GS
[1 0 0 1 0 0] CT
-33 38 moveto 
1 -1 scale
(-10) t 
GR
GR
GS
[0.75 0 0 0.75 699.75 888.24997] CT
0.149 GC
/Helvetica 40 F
GS
[1 0 0 1 0 0] CT
-13 38 moveto 
1 -1 scale
(0) t 
GR
GR
GS
[0.75 0 0 0.75 834 888.24997] CT
0.149 GC
/Helvetica 40 F
GS
[1 0 0 1 0 0] CT
-25.5 38 moveto 
1 -1 scale
(10) t 
GR
GR
GS
[0.75 0 0 0.75 968.25 888.24997] CT
0.149 GC
/Helvetica 40 F
GS
[1 0 0 1 0 0] CT
-25.5 38 moveto 
1 -1 scale
(20) t 
GR
GR
GS
[0.75 0 0 0.75 1102.5 888.24997] CT
0.149 GC
/Helvetica 40 F
GS
[1 0 0 1 0 0] CT
-25.5 38 moveto 
1 -1 scale
(30) t 
GR
GR
GS
[0.75 0 0 0.75 1236.75 888.24997] CT
0.149 GC
/Helvetica 40 F
GS
[1 0 0 1 0 0] CT
-25.5 38 moveto 
1 -1 scale
(40) t 
GR
GR
GS
[0.75 0 0 0.75 1371 888.24997] CT
0.149 GC
/Helvetica 40 F
GS
[1 0 0 1 0 0] CT
-25.5 38 moveto 
1 -1 scale
(50) t 
GR
GR
GS
[0.75 0 0 0.75 968.25037 925.25] CT
0.149 GC
/Helvetica 44 F
GS
[1 0 0 1 0 0] CT
-153 41 moveto 
1 -1 scale
(x position [m]) t 
GR
GR
GS
[0.75 0 0 0.75 0 0.5] CT
0.149 GC
2 setlinecap
1 LJ
0.667 LW
N
754 1173 M
754 99 L
S
GR
GS
[0.75 0 0 0.75 0 0.5] CT
0.149 GC
2 setlinecap
1 LJ
0.667 LW
N
1828 1173 M
1828 99 L
S
GR
GS
[0.75 0 0 0.75 0 0.5] CT
0.149 GC
2 setlinecap
1 LJ
0.667 LW
N
754 1173 M
764.74 1173 L
S
GR
GS
[0.75 0 0 0.75 0 0.5] CT
0.149 GC
2 setlinecap
1 LJ
0.667 LW
N
754 994 M
764.74 994 L
S
GR
GS
[0.75 0 0 0.75 0 0.5] CT
0.149 GC
2 setlinecap
1 LJ
0.667 LW
N
754 815 M
764.74 815 L
S
GR
GS
[0.75 0 0 0.75 0 0.5] CT
0.149 GC
2 setlinecap
1 LJ
0.667 LW
N
754 636 M
764.74 636 L
S
GR
GS
[0.75 0 0 0.75 0 0.5] CT
0.149 GC
2 setlinecap
1 LJ
0.667 LW
N
754 457 M
764.74 457 L
S
GR
GS
[0.75 0 0 0.75 0 0.5] CT
0.149 GC
2 setlinecap
1 LJ
0.667 LW
N
754 278 M
764.74 278 L
S
GR
GS
[0.75 0 0 0.75 0 0.5] CT
0.149 GC
2 setlinecap
1 LJ
0.667 LW
N
754 99 M
764.74 99 L
S
GR
GS
[0.75 0 0 0.75 0 0.5] CT
0.149 GC
2 setlinecap
1 LJ
0.667 LW
N
1828 1173 M
1817.26 1173 L
S
GR
GS
[0.75 0 0 0.75 0 0.5] CT
0.149 GC
2 setlinecap
1 LJ
0.667 LW
N
1828 994 M
1817.26 994 L
S
GR
GS
[0.75 0 0 0.75 0 0.5] CT
0.149 GC
2 setlinecap
1 LJ
0.667 LW
N
1828 815 M
1817.26 815 L
S
GR
GS
[0.75 0 0 0.75 0 0.5] CT
0.149 GC
2 setlinecap
1 LJ
0.667 LW
N
1828 636 M
1817.26 636 L
S
GR
GS
[0.75 0 0 0.75 0 0.5] CT
0.149 GC
2 setlinecap
1 LJ
0.667 LW
N
1828 457 M
1817.26 457 L
S
GR
GS
[0.75 0 0 0.75 0 0.5] CT
0.149 GC
2 setlinecap
1 LJ
0.667 LW
N
1828 278 M
1817.26 278 L
S
GR
GS
[0.75 0 0 0.75 0 0.5] CT
0.149 GC
2 setlinecap
1 LJ
0.667 LW
N
1828 99 M
1817.26 99 L
S
GR
GS
[0.75 0 0 0.75 557.49998 880.25] CT
0.149 GC
/Helvetica 40 F
GS
[1 0 0 1 0 0] CT
-66 14 moveto 
1 -1 scale
(-20) t 
GR
GR
GS
[0.75 0 0 0.75 557.49998 746] CT
0.149 GC
/Helvetica 40 F
GS
[1 0 0 1 0 0] CT
-66 14 moveto 
1 -1 scale
(-10) t 
GR
GR
GS
[0.75 0 0 0.75 557.49998 611.75] CT
0.149 GC
/Helvetica 40 F
GS
[1 0 0 1 0 0] CT
-26 14 moveto 
1 -1 scale
(0) t 
GR
GR
GS
[0.75 0 0 0.75 557.49998 477.5] CT
0.149 GC
/Helvetica 40 F
GS
[1 0 0 1 0 0] CT
-51 14 moveto 
1 -1 scale
(10) t 
GR
GR
GS
[0.75 0 0 0.75 557.49998 343.25] CT
0.149 GC
/Helvetica 40 F
GS
[1 0 0 1 0 0] CT
-51 14 moveto 
1 -1 scale
(20) t 
GR
GR
GS
[0.75 0 0 0.75 557.49998 209] CT
0.149 GC
/Helvetica 40 F
GS
[1 0 0 1 0 0] CT
-51 14 moveto 
1 -1 scale
(30) t 
GR
GR
GS
[0.75 0 0 0.75 557.49998 74.75] CT
0.149 GC
/Helvetica 40 F
GS
[1 0 0 1 0 0] CT
-51 14 moveto 
1 -1 scale
(40) t 
GR
GR
GS
[0 -0.75 0.75 0 504.99998 477.49963] CT
0.149 GC
/Helvetica 44 F
GS
[1 0 0 1 0 0] CT
-153 -11 moveto 
1 -1 scale
(y position [m]) t 
GR
GR
GS
[0.75 0 0 0.75 1016.25092 64.81251] CT
/Helvetica-Bold 44 F
GS
[1 0 0 1 0 0] CT
-574.5 -11 moveto 
1 -1 scale
(Position estimate relative to basestation \(0.0\)) t 
GR
GR
GS
[0.75 0 0 0.75 0 0.5] CT
1 LJ
0.667 LW
N
933.095 812.887 M
933.139 811.908 L
933.18 810.98 L
933.227 809.95 L
933.273 808.919 L
933.318 807.94 L
933.353 807.167 L
933.395 806.24 L
933.442 805.209 L
933.484 804.281 L
933.531 803.251 L
933.573 802.323 L
933.616 801.396 L
933.658 800.468 L
933.705 799.437 L
933.753 798.407 L
933.8 797.376 L
933.843 796.449 L
933.883 795.573 L
933.945 794.233 L
933.998 793.099 L
934.043 792.12 L
934.096 790.987 L
934.151 789.801 L
934.197 788.822 L
934.25 787.689 L
934.298 786.658 L
934.354 785.473 L
934.41 784.288 L
934.451 783.412 L
934.495 782.484 L
934.541 781.505 L
934.59 780.475 L
934.634 779.547 L
934.678 778.62 L
934.722 777.692 L
934.771 776.662 L
934.818 775.683 L
934.865 774.704 L
934.911 773.725 L
934.958 772.746 L
935.003 771.818 L
935.047 770.891 L
935.097 769.86 L
935.137 769.036 L
935.182 768.109 L
935.232 767.078 L
935.276 766.151 L
935.319 765.275 L
935.359 764.45 L
935.402 763.574 L
935.452 762.544 L
935.502 761.514 L
935.547 760.586 L
935.598 759.556 L
935.648 758.525 L
935.704 757.392 L
935.755 756.361 L
935.813 755.176 L
935.867 754.094 L
935.918 753.064 L
935.969 752.033 L
936.02 751.003 L
936.073 749.921 L
936.12 748.994 L
936.168 748.015 L
936.225 746.881 L
936.271 745.954 L
936.315 745.078 L
936.362 744.151 L
936.411 743.172 L
936.463 742.141 L
936.517 741.06 L
936.567 740.081 L
936.616 739.102 L
936.666 738.123 L
936.718 737.093 L
936.765 736.165 L
936.812 735.238 L
936.865 734.208 L
936.912 733.28 L
936.959 732.353 L
937.012 731.323 L
937.07 730.189 L
937.12 729.21 L
937.171 728.232 L
937.224 727.201 L
937.279 726.119 L
937.33 725.141 L
937.383 724.11 L
937.437 723.08 L
937.49 722.05 L
937.544 721.019 L
937.592 720.092 L
937.64 719.165 L
937.694 718.134 L
937.748 717.104 L
937.802 716.074 L
937.856 715.044 L
937.91 714.013 L
937.958 713.086 L
938.01 712.107 L
938.059 711.18 L
938.111 710.201 L
938.165 709.171 L
938.22 708.141 L
938.274 707.111 L
938.329 706.08 L
938.381 705.102 L
938.433 704.123 L
938.485 703.144 L
938.532 702.268 L
938.582 701.341 L
938.637 700.311 L
938.692 699.281 L
938.748 698.251 L
938.803 697.22 L
938.859 696.19 L
938.914 695.16 L
938.964 694.233 L
939.02 693.203 L
939.076 692.172 L
939.132 691.142 L
939.185 690.164 L
939.233 689.288 L
939.289 688.258 L
939.345 687.228 L
939.393 686.352 L
939.452 685.27 L
939.509 684.24 L
939.565 683.21 L
939.622 682.18 L
939.679 681.15 L
939.735 680.12 L
939.792 679.09 L
939.849 678.059 L
939.906 677.029 L
939.961 676.051 L
940.012 675.124 L
940.067 674.145 L
940.124 673.115 L
940.181 672.085 L
940.239 671.055 L
940.297 670.025 L
940.346 669.149 L
940.401 668.171 L
940.46 667.141 L
940.521 666.111 L
940.583 665.081 L
940.647 664.051 L
940.712 663.022 L
940.78 661.992 L
940.849 660.963 L
940.92 659.934 L
940.993 658.905 L
941.067 657.876 L
941.144 656.847 L
941.219 655.87 L
941.295 654.893 L
941.377 653.864 L
941.474 652.682 L
941.564 651.603 L
941.652 650.575 L
941.742 649.547 L
941.83 648.571 L
941.919 647.595 L
942.014 646.568 L
942.112 645.541 L
942.211 644.514 L
942.302 643.59 L
942.41 642.512 L
942.505 641.588 L
942.606 640.614 L
942.72 639.536 L
942.825 638.562 L
942.937 637.536 L
943.051 636.511 L
943.155 635.588 L
943.273 634.564 L
943.392 633.539 L
943.502 632.617 L
943.625 631.593 L
943.75 630.569 L
943.877 629.545 L
944.025 628.368 L
944.149 627.396 L
944.282 626.372 L
944.417 625.35 L
944.553 624.327 L
944.692 623.305 L
944.818 622.385 L
944.96 621.363 L
945.103 620.341 L
945.249 619.32 L
945.389 618.35 L
945.531 617.38 L
945.682 616.36 L
945.835 615.34 L
945.99 614.32 L
946.163 613.198 L
946.354 611.975 L
946.523 610.905 L
946.727 609.632 L
946.901 608.562 L
947.06 607.595 L
947.229 606.578 L
947.4 605.56 L
947.555 604.645 L
947.747 603.526 L
947.942 602.408 L
948.174 601.087 L
948.355 600.072 L
948.538 599.056 L
948.732 597.991 L
948.909 597.027 L
949.098 596.012 L
949.269 595.1 L
949.461 594.086 L
949.655 593.073 L
949.851 592.06 L
950.048 591.047 L
950.248 590.035 L
950.489 588.821 L
950.693 587.809 L
950.898 586.798 L
951.116 585.737 L
951.314 584.778 L
951.536 583.717 L
951.738 582.758 L
951.952 581.749 L
952.169 580.74 L
952.409 579.631 L
952.64 578.573 L
952.896 577.414 L
953.12 576.407 L
953.346 575.401 L
953.597 574.294 L
953.827 573.288 L
954.059 572.283 L
954.293 571.278 L
954.552 570.173 L
954.789 569.169 L
955.029 568.165 L
955.27 567.162 L
955.513 566.16 L
955.757 565.157 L
956.004 564.156 L
956.252 563.154 L
956.503 562.153 L
956.742 561.203 L
956.983 560.253 L
957.238 559.253 L
957.496 558.254 L
957.755 557.256 L
958.016 556.257 L
958.397 554.811 L
958.649 553.864 L
958.917 552.867 L
959.185 551.871 L
959.483 550.776 L
959.811 549.582 L
960.086 548.588 L
960.39 547.494 L
960.669 546.501 L
960.949 545.508 L
961.245 544.466 L
961.544 543.425 L
961.858 542.334 L
962.146 541.344 L
962.436 540.354 L
962.728 539.364 L
963.021 538.375 L
963.316 537.386 L
963.643 536.299 L
963.957 535.262 L
964.257 534.276 L
964.545 533.338 L
964.849 532.353 L
965.139 531.417 L
965.432 530.481 L
965.741 529.497 L
966.052 528.513 L
966.381 527.481 L
966.68 526.547 L
967.012 525.516 L
967.362 524.437 L
967.682 523.456 L
968.004 522.476 L
968.312 521.545 L
968.67 520.468 L
969.03 519.392 L
969.359 518.414 L
969.724 517.339 L
970.107 516.216 L
970.442 515.241 L
970.846 514.07 L
971.151 513.193 L
971.474 512.268 L
971.816 511.295 L
972.143 510.371 L
972.471 509.447 L
972.853 508.378 L
973.255 507.262 L
973.606 506.292 L
973.941 505.371 L
974.295 504.402 L
974.651 503.434 L
975.027 502.417 L
975.387 501.451 L
975.73 500.533 L
976.094 499.567 L
976.458 498.602 L
976.825 497.637 L
977.212 496.625 L
977.563 495.71 L
977.898 494.844 L
978.271 493.882 L
978.665 492.873 L
979.023 491.961 L
979.401 491.001 L
979.781 490.042 L
980.163 489.083 L
980.547 488.126 L
980.951 487.121 L
981.319 486.212 L
981.707 485.256 L
982.176 484.11 L
982.569 483.156 L
982.982 482.155 L
983.378 481.202 L
983.756 480.298 L
984.155 479.346 L
984.576 478.348 L
984.959 477.446 L
985.363 476.497 L
985.769 475.548 L
986.197 474.553 L
986.606 473.606 L
986.976 472.754 L
987.389 471.809 L
987.845 470.769 L
988.261 469.825 L
988.658 468.929 L
989.098 467.939 L
989.499 467.045 L
989.943 466.057 L
990.346 465.163 L
990.858 464.036 L
991.286 463.097 L
991.716 462.16 L
992.148 461.222 L
992.581 460.286 L
993.017 459.351 L
993.475 458.369 L
993.98 457.296 L
994.443 456.316 L
994.863 455.431 L
995.307 454.5 L
995.731 453.616 L
996.156 452.733 L
996.605 451.804 L
997.056 450.876 L
997.509 449.949 L
997.986 448.976 L
998.442 448.051 L
998.877 447.173 L
999.36 446.203 L
999.821 445.28 L
1000.354 444.22 L
1000.819 443.299 L
1001.286 442.379 L
1001.826 441.322 L
1002.296 440.404 L
1002.745 439.533 L
1003.243 438.571 L
1003.72 437.656 L
1004.174 436.788 L
1004.678 435.829 L
1005.135 434.962 L
1005.618 434.05 L
1006.104 433.14 L
1006.591 432.231 L
1007.08 431.322 L
1007.595 430.369 L
1008.088 429.463 L
1008.582 428.557 L
1009.078 427.653 L
1009.651 426.614 L
1010.152 425.712 L
1010.679 424.766 L
1011.183 423.866 L
1011.664 423.012 L
1012.197 422.069 L
1012.707 421.172 L
1013.219 420.276 L
1013.732 419.381 L
1014.248 418.488 L
1014.765 417.595 L
1015.284 416.704 L
1015.779 415.858 L
1016.302 414.969 L
1016.853 414.036 L
1017.354 413.194 L
1017.909 412.263 L
1018.44 411.379 L
1019.052 410.363 L
1019.587 409.481 L
1020.124 408.6 L
1020.663 407.72 L
1021.23 406.797 L
1021.746 405.964 L
1022.29 405.087 L
1022.864 404.169 L
1023.385 403.339 L
1023.962 402.422 L
1024.487 401.595 L
1025.041 400.724 L
1025.597 399.856 L
1026.155 398.988 L
1026.743 398.078 L
1027.277 397.257 L
1027.841 396.393 L
1028.435 395.487 L
1029.06 394.54 L
1029.63 393.68 L
1030.203 392.822 L
1030.748 392.008 L
1031.324 391.152 L
1031.903 390.298 L
1032.513 389.403 L
1033.066 388.594 L
1033.651 387.745 L
1034.268 386.854 L
1034.828 386.05 L
1035.419 385.204 L
1036.012 384.36 L
1036.637 383.476 L
1037.235 382.635 L
1037.835 381.796 L
1038.437 380.958 L
1039.011 380.164 L
1039.647 379.287 L
1040.286 378.413 L
1040.927 377.539 L
1041.508 376.751 L
1042.123 375.922 L
1042.74 375.095 L
1043.358 374.27 L
1043.979 373.446 L
1044.602 372.624 L
1045.258 371.762 L
1045.854 370.984 L
1046.483 370.166 L
1047.114 369.35 L
1047.747 368.536 L
1048.382 367.723 L
1049.051 366.871 L
1049.658 366.102 L
1050.331 365.253 L
1050.975 364.447 L
1051.62 363.642 L
1052.365 362.719 L
1053.047 361.877 L
1053.698 361.078 L
1054.352 360.28 L
1055.008 359.484 L
1055.666 358.689 L
1056.326 357.896 L
1056.987 357.105 L
1057.618 356.354 L
1058.283 355.566 L
1058.984 354.741 L
1059.654 353.956 L
1060.326 353.173 L
1060.965 352.431 L
1061.675 351.612 L
1062.386 350.795 L
1063.066 350.019 L
1063.747 349.245 L
1064.602 348.279 L
1065.425 347.355 L
1066.078 346.625 L
1066.838 345.781 L
1067.564 344.978 L
1068.328 344.139 L
1069.059 343.34 L
1069.792 342.542 L
1070.492 341.785 L
1071.194 341.029 L
1072.039 340.124 L
1072.887 339.222 L
1073.596 338.473 L
1074.377 337.65 L
1075.161 336.829 L
1075.911 336.048 L
1076.699 335.232 L
1077.49 334.418 L
1078.427 333.459 L
1079.367 332.502 L
1080.419 331.44 L
1081.184 330.672 L
1081.914 329.943 L
1082.902 328.962 L
1083.857 328.021 L
1084.557 327.334 L
1085.332 326.578 L
1086.146 325.788 L
1086.888 325.071 L
1087.707 324.285 L
1088.453 323.573 L
1089.5 322.579 L
1090.325 321.8 L
1091.417 320.777 L
1092.398 319.863 L
1093.496 318.848 L
1094.56 317.871 L
1095.627 316.898 L
1096.545 316.067 L
1097.35 315.342 L
1098.118 314.654 L
1098.888 313.968 L
1099.66 313.283 L
1100.511 312.533 L
1101.286 311.852 L
1102.102 311.14 L
1102.881 310.464 L
1103.662 309.789 L
1104.405 309.15 L
1105.11 308.547 L
1105.896 307.878 L
1106.683 307.211 L
1107.511 306.513 L
1108.262 305.883 L
1109.054 305.222 L
1109.887 304.531 L
1110.643 303.907 L
1111.52 303.186 L
1112.358 302.501 L
1113.159 301.85 L
1113.961 301.202 L
1114.845 300.491 L
1115.651 299.846 L
1116.417 299.236 L
1117.348 298.5 L
1118.32 297.734 L
1119.133 297.099 L
1119.947 296.465 L
1120.763 295.834 L
1121.539 295.236 L
1122.399 294.577 L
1123.26 293.92 L
1124.164 293.235 L
1125.277 292.397 L
1126.103 291.779 L
1126.93 291.163 L
1127.759 290.549 L
1128.589 289.937 L
1129.505 289.266 L
1130.38 288.628 L
1131.215 288.023 L
1132.094 287.39 L
1132.932 286.789 L
1133.772 286.19 L
1134.866 285.414 L
1135.752 284.791 L
1136.639 284.169 L
1137.485 283.58 L
1138.333 282.992 L
1139.268 282.348 L
1140.374 281.591 L
1141.313 280.953 L
1142.338 280.26 L
1143.409 279.541 L
1144.353 278.911 L
1145.255 278.313 L
1146.073 277.773 L
1147.065 277.122 L
1147.929 276.559 L
1148.795 275.998 L
1149.662 275.439 L
1150.53 274.882 L
1151.4 274.327 L
1152.271 273.775 L
1153.274 273.142 L
1154.149 272.594 L
1155.024 272.048 L
1156.076 271.397 L
1156.999 270.829 L
1157.879 270.29 L
1158.76 269.754 L
1159.642 269.22 L
1160.526 268.688 L
1161.411 268.159 L
1162.298 267.632 L
1163.275 267.054 L
1164.164 266.531 L
1165.055 266.011 L
1165.991 265.467 L
1167.108 264.822 L
1168.003 264.309 L
1168.899 263.799 L
1169.797 263.29 L
1170.696 262.784 L
1171.596 262.28 L
1172.587 261.728 L
1173.49 261.229 L
1174.53 260.658 L
1175.48 260.139 L
1176.478 259.597 L
1177.386 259.108 L
1178.568 258.475 L
1179.479 257.991 L
1180.345 257.533 L
1181.35 257.005 L
1182.402 256.457 L
1183.272 256.006 L
1184.235 255.51 L
1185.245 254.993 L
1186.164 254.526 L
1187.085 254.061 L
1188.007 253.598 L
1188.976 253.115 L
1189.947 252.634 L
1190.965 252.133 L
1192.031 251.612 L
1193.052 251.117 L
1194.028 250.647 L
1194.958 250.201 L
1195.89 249.758 L
1196.869 249.296 L
1197.85 248.836 L
1198.785 248.4 L
1199.814 247.923 L
1200.846 247.45 L
1201.878 246.979 L
1202.818 246.553 L
1204.041 246.004 L
1204.983 245.584 L
1205.926 245.166 L
1206.965 244.709 L
1207.91 244.296 L
1208.857 243.886 L
1209.804 243.478 L
1210.752 243.072 L
1211.797 242.629 L
1212.748 242.228 L
1213.699 241.83 L
1214.652 241.434 L
1215.701 241.002 L
1216.655 240.611 L
1217.755 240.165 L
1218.711 239.779 L
1219.717 239.377 L
1220.676 238.996 L
1221.635 238.618 L
1222.692 238.204 L
1223.654 237.831 L
1224.616 237.461 L
1225.58 237.092 L
1226.641 236.69 L
1227.655 236.309 L
1228.621 235.948 L
1229.637 235.572 L
1230.896 235.11 L
1231.865 234.758 L
1232.836 234.408 L
1233.807 234.06 L
1234.876 233.68 L
1236.044 233.27 L
1237.164 232.879 L
1238.334 232.476 L
1239.506 232.075 L
1240.63 231.695 L
1241.608 231.367 L
1242.586 231.042 L
1243.664 230.687 L
1244.645 230.366 L
1245.724 230.017 L
1246.854 229.654 L
1247.886 229.327 L
1248.969 228.986 L
1250.052 228.648 L
1251.037 228.344 L
1252.024 228.042 L
1253.11 227.713 L
1254.197 227.387 L
1255.284 227.064 L
1256.373 226.744 L
1257.562 226.398 L
1258.553 226.113 L
1259.545 225.83 L
1260.687 225.508 L
1261.829 225.189 L
1263.023 224.86 L
1264.018 224.588 L
1265.014 224.319 L
1266.11 224.026 L
1267.107 223.762 L
1268.255 223.462 L
1269.453 223.152 L
1270.502 222.884 L
1271.653 222.593 L
1272.804 222.306 L
1273.905 222.035 L
1274.858 221.803 L
1276.011 221.525 L
1277.014 221.286 L
1278.018 221.049 L
1279.023 220.816 L
1280.028 220.584 L
1281.034 220.355 L
1282.041 220.129 L
1283.048 219.905 L
1284.307 219.629 L
1285.467 219.379 L
1286.476 219.164 L
1287.586 218.93 L
1288.596 218.72 L
1289.606 218.513 L
1290.617 218.308 L
1291.73 218.086 L
1292.844 217.867 L
1293.957 217.65 L
1294.971 217.457 L
1295.984 217.265 L
1296.998 217.077 L
1297.962 216.9 L
1299.231 216.67 L
1300.602 216.427 L
1301.72 216.233 L
1302.991 216.015 L
1304.263 215.802 L
1305.433 215.609 L
1306.452 215.444 L
1307.572 215.265 L
1308.693 215.09 L
1309.815 214.918 L
1311.039 214.733 L
1312.315 214.545 L
1313.54 214.368 L
1314.766 214.195 L
1315.839 214.046 L
1316.861 213.908 L
1317.883 213.771 L
1319.008 213.624 L
1320.031 213.494 L
1321.055 213.365 L
1322.079 213.239 L
1323.154 213.11 L
1324.333 212.972 L
1325.357 212.854 L
1326.588 212.717 L
1327.664 212.599 L
1328.947 212.463 L
1329.922 212.363 L
1331.153 212.239 L
1332.231 212.134 L
1333.464 212.017 L
1334.439 211.927 L
1335.724 211.812 L
1336.957 211.706 L
1338.345 211.59 L
1339.476 211.5 L
1340.813 211.397 L
1341.996 211.31 L
1343.025 211.237 L
1344.157 211.159 L
1345.392 211.078 L
1346.525 211.007 L
1347.812 210.93 L
1348.893 210.869 L
1350.233 210.797 L
1351.469 210.734 L
1352.602 210.68 L
1353.89 210.622 L
1355.076 210.573 L
1356.209 210.528 L
1357.395 210.486 L
1358.478 210.449 L
1359.509 210.418 L
1360.643 210.386 L
1361.674 210.359 L
1362.86 210.332 L
1364.046 210.309 L
1365.284 210.288 L
1366.315 210.273 L
1367.708 210.257 L
1368.791 210.248 L
1369.823 210.242 L
1370.957 210.239 L
1372.144 210.238 L
1373.433 210.242 L
1374.465 210.248 L
1375.496 210.256 L
1376.889 210.272 L
1378.075 210.288 L
1379.106 210.306 L
1380.138 210.326 L
1381.324 210.352 L
1382.458 210.38 L
1383.489 210.409 L
1384.572 210.442 L
1385.809 210.482 L
1386.891 210.521 L
1387.974 210.563 L
1389.056 210.607 L
1390.293 210.662 L
1391.735 210.73 L
1392.972 210.792 L
1394.156 210.856 L
1395.547 210.934 L
1396.731 211.005 L
1397.966 211.082 L
1399.099 211.157 L
1400.128 211.227 L
1401.362 211.315 L
1402.597 211.406 L
1403.728 211.493 L
1404.962 211.592 L
1406.247 211.699 L
1407.481 211.805 L
1408.765 211.92 L
1409.946 212.029 L
1411.127 212.141 L
1412.154 212.241 L
1413.334 212.36 L
1414.668 212.499 L
1415.745 212.614 L
1416.873 212.737 L
1418.206 212.887 L
1419.538 213.041 L
1420.665 213.176 L
1421.842 213.319 L
1422.866 213.446 L
1423.992 213.59 L
1425.066 213.729 L
1426.293 213.892 L
1427.315 214.031 L
1428.439 214.186 L
1429.614 214.352 L
1430.788 214.522 L
1431.911 214.687 L
1433.033 214.855 L
1434.358 215.058 L
1435.632 215.257 L
1436.753 215.435 L
1437.822 215.609 L
1439.145 215.827 L
1440.162 215.998 L
1441.383 216.207 L
1442.501 216.401 L
1443.567 216.59 L
1444.836 216.818 L
1445.953 217.022 L
1446.967 217.21 L
1447.981 217.401 L
1449.197 217.633 L
1450.26 217.839 L
1451.677 218.118 L
1452.84 218.351 L
1453.952 218.577 L
1455.265 218.848 L
1456.275 219.06 L
1457.587 219.339 L
1458.897 219.622 L
1460.006 219.865 L
1461.114 220.111 L
1462.271 220.371 L
1463.629 220.681 L
1464.885 220.972 L
1466.241 221.291 L
1467.244 221.53 L
1468.247 221.771 L
1469.6 222.102 L
1470.751 222.386 L
1471.752 222.637 L
1473.002 222.953 L
1474.151 223.248 L
1475.25 223.533 L
1476.297 223.808 L
1477.494 224.125 L
1478.64 224.433 L
1479.735 224.73 L
1480.829 225.031 L
1481.873 225.32 L
1482.965 225.627 L
1483.958 225.908 L
1485.297 226.291 L
1486.683 226.693 L
1487.723 226.998 L
1488.811 227.321 L
1490.095 227.706 L
1491.132 228.02 L
1492.119 228.321 L
1493.104 228.625 L
1494.483 229.055 L
1495.615 229.412 L
1496.745 229.771 L
1497.972 230.166 L
1499.346 230.613 L
1500.375 230.951 L
1501.452 231.309 L
1502.528 231.669 L
1503.505 231.999 L
1504.579 232.365 L
1505.652 232.734 L
1506.676 233.089 L
1507.747 233.463 L
1508.768 233.824 L
1509.983 234.256 L
1511.148 234.675 L
1512.312 235.097 L
1513.425 235.505 L
1514.49 235.899 L
1515.601 236.313 L
1516.712 236.73 L
1518.11 237.261 L
1519.218 237.686 L
1520.372 238.133 L
1521.526 238.583 L
1522.581 238.998 L
1523.732 239.455 L
1525.073 239.992 L
1526.125 240.417 L
1527.414 240.943 L
1528.511 241.395 L
1529.559 241.829 L
1530.654 242.287 L
1531.937 242.828 L
1533.028 243.293 L
1534.119 243.76 L
1535.066 244.17 L
1536.201 244.664 L
1537.145 245.078 L
1538.183 245.537 L
1539.314 246.04 L
1540.396 246.526 L
1541.665 247.1 L
1542.791 247.614 L
1543.963 248.153 L
1545.132 248.696 L
1546.347 249.264 L
1547.28 249.704 L
1548.492 250.279 L
1549.515 250.769 L
1550.444 251.217 L
1551.558 251.757 L
1552.624 252.278 L
1553.781 252.848 L
1554.705 253.306 L
1555.628 253.767 L
1556.503 254.207 L
1557.47 254.695 L
1558.482 255.21 L
1559.4 255.68 L
1560.408 256.2 L
1561.37 256.699 L
1562.421 257.248 L
1563.608 257.872 L
1564.747 258.477 L
1565.703 258.987 L
1566.838 259.597 L
1567.791 260.113 L
1568.787 260.656 L
1569.872 261.252 L
1570.865 261.8 L
1571.767 262.302 L
1572.667 262.805 L
1573.656 263.362 L
1574.644 263.921 L
1575.719 264.534 L
1576.614 265.047 L
1577.507 265.563 L
1578.444 266.107 L
1579.468 266.705 L
1580.447 267.28 L
1581.467 267.884 L
1582.575 268.544 L
1583.548 269.128 L
1584.564 269.741 L
1586.062 270.653 L
1587.205 271.355 L
1588.17 271.951 L
1589.09 272.523 L
1590.052 273.125 L
1591.099 273.784 L
1591.971 274.336 L
1593.015 275.001 L
1594.057 275.67 L
1595.097 276.341 L
1596.135 277.016 L
1596.998 277.58 L
1597.946 278.204 L
1598.806 278.773 L
1599.837 279.459 L
1600.694 280.032 L
1601.678 280.695 L
1602.745 281.418 L
1603.768 282.116 L
1604.746 282.787 L
1605.637 283.403 L
1609.859 286.366 L
1610.825 287.055 L
1611.788 287.747 L
1612.792 288.472 L
1613.876 289.26 L
1614.751 289.9 L
1615.789 290.664 L
1616.742 291.37 L
1617.817 292.172 L
1618.684 292.822 L
1619.59 293.505 L
1620.494 294.191 L
1621.519 294.973 L
1622.582 295.79 L
1623.521 296.516 L
1624.498 297.276 L
1625.553 298.103 L
1626.445 298.805 L
1627.455 299.606 L
1628.463 300.41 L
1629.388 301.153 L
1630.311 301.898 L
1631.272 302.678 L
1632.151 303.396 L
1633.027 304.117 L
1633.902 304.84 L
1634.933 305.697 L
1635.724 306.359 L
1636.672 307.156 L
1637.459 307.822 L
1638.324 308.557 L
1639.108 309.227 L
1639.89 309.899 L
1640.827 310.709 L
1641.839 311.589 L
1643.041 312.642 L
1643.931 313.427 L
1644.896 314.283 L
1645.781 315.073 L
1646.625 315.831 L
1647.429 316.556 L
1648.384 317.423 L
1649.222 318.188 L
1650.133 319.026 L
1651.005 319.831 L
1652.1 320.849 L
1652.891 321.589 L
1653.792 322.438 L
1654.691 323.289 L
1655.662 324.214 L
1656.518 325.035 L
1657.52 326.002 L
1658.519 326.972 L
1659.441 327.874 L
1660.287 328.705 L
1661.057 329.467 L
1661.971 330.376 L
1662.846 331.252 L
1663.718 332.13 L
1664.588 333.011 L
1665.563 334.006 L
1666.427 334.892 L
1667.36 335.855 L
1668.147 336.673 L
1669.038 337.604 L
1669.785 338.389 L
1670.706 339.363 L
1671.589 340.303 L
1672.434 341.207 L
1673.207 342.039 L
1673.942 342.834 L
1674.744 343.708 L
1675.579 344.622 L
1676.376 345.5 L
1677.24 346.458 L
1678.101 347.418 L
1678.959 348.38 L
1679.916 349.462 L
1680.597 350.236 L
1681.514 351.285 L
1682.258 352.141 L
1683.135 353.156 L
1683.908 354.056 L
1684.678 354.958 L
1685.545 355.981 L
1686.243 356.809 L
1686.906 357.599 L
1687.567 358.391 L
1688.226 359.185 L
1689.047 360.179 L
1689.897 361.216 L
1690.712 362.216 L
1691.394 363.057 L
1692.138 363.981 L
1692.911 364.948 L
1693.65 365.876 L
1694.578 367.049 L
1695.31 367.982 L
1696.04 368.917 L
1696.767 369.855 L
1697.492 370.794 L
1698.276 371.817 L
1699.089 372.884 L
1699.867 373.913 L
1700.517 374.778 L
1701.382 375.935 L
1702.119 376.929 L
1702.854 377.926 L
1703.555 378.882 L
1704.223 379.8 L
1704.98 380.844 L
1705.792 381.975 L
1706.482 382.94 L
1707.228 383.991 L
1707.823 384.834 L
1708.475 385.763 L
1709.242 386.863 L
1709.888 387.796 L
1710.531 388.731 L
1711.201 389.709 L
1711.869 390.69 L
1712.446 391.545 L
1713.08 392.486 L
1713.739 393.473 L
1714.395 394.461 L
1715.134 395.58 L
1715.784 396.572 L
1716.544 397.739 L
1717.188 398.736 L
1717.884 399.821 L
1718.495 400.777 L
1719.102 401.735 L
1719.817 402.87 L
1720.501 403.963 L
1721.235 405.146 L
1721.831 406.112 L
1722.532 407.256 L
1723.255 408.445 L
1723.815 409.373 L
1724.425 410.39 L
1725.112 411.542 L
1725.742 412.607 L
1726.5 413.897 L
1727.149 415.011 L
1727.666 415.904 L
1728.411 417.2 L
1729.228 418.634 L
1729.837 419.712 L
1730.518 420.927 L
1731.146 422.053 L
1731.769 423.182 L
1732.364 424.267 L
1732.907 425.264 L
1733.643 426.625 L
1734.349 427.943 L
1734.882 428.945 L
1735.436 429.994 L
1736.13 431.319 L
1736.701 432.418 L
1737.315 433.609 L
1737.786 434.528 L
1738.347 435.631 L
1738.904 436.736 L
1739.459 437.843 L
1739.918 438.766 L
1740.467 439.876 L
1741.034 441.034 L
1741.598 442.193 L
1742.136 443.308 L
1742.671 444.425 L
1743.313 445.776 L
1743.905 447.036 L
1744.342 447.97 L
1744.906 449.187 L
1745.465 450.406 L
1745.957 451.485 L
1746.467 452.613 L
1747.016 453.837 L
1747.54 455.015 L
1748.143 456.384 L
1748.72 457.707 L
1749.273 458.985 L
1749.781 460.17 L
1750.346 461.499 L
1750.867 462.735 L
1751.344 463.877 L
1751.896 465.212 L
1752.386 466.405 L
1752.949 467.79 L
1753.488 469.13 L
1754.023 470.471 L
1754.554 471.814 L
1755.099 473.207 L
1755.601 474.506 L
1756.119 475.854 L
1756.668 477.3 L
1757.212 478.749 L
1757.698 480.054 L
1758.126 481.215 L
1758.516 482.281 L
1758.902 483.348 L
1759.374 484.658 L
1759.858 486.019 L
1760.355 487.429 L
1760.813 488.744 L
1761.284 490.109 L
1761.718 491.378 L
1762.115 492.551 L
1762.525 493.773 L
1762.899 494.899 L
1763.254 495.976 L
1763.67 497.251 L
1764.051 498.429 L
1764.507 499.853 L
1764.897 501.082 L
1765.236 502.165 L
1765.558 503.199 L
1765.938 504.431 L
1766.36 505.812 L
1766.777 507.195 L
1767.175 508.529 L
1767.511 509.667 L
1767.873 510.904 L
1768.218 512.093 L
1768.559 513.283 L
1768.869 514.375 L
1769.19 515.516 L
1769.564 516.858 L
1769.919 518.151 L
1770.218 519.246 L
1770.553 520.491 L
1770.925 521.886 L
1771.306 523.332 L
1771.592 524.43 L
1771.888 525.579 L
1772.206 526.829 L
1772.534 528.129 L
1772.808 529.23 L
1773.154 530.632 L
1773.459 531.885 L
1773.808 533.339 L
1774.106 534.594 L
1774.412 535.899 L
1774.714 537.206 L
1775.036 538.613 L
1775.331 539.922 L
1775.656 541.381 L
1775.965 542.792 L
1776.205 543.901 L
1776.464 545.112 L
1776.752 546.474 L
1777.025 547.787 L
1777.305 549.151 L
1777.602 550.617 L
1777.864 551.932 L
1778.162 553.45 L
1778.407 554.716 L
1778.648 555.983 L
1778.868 557.149 L
1779.084 558.315 L
1779.325 559.634 L
1779.573 561.004 L
1779.78 562.172 L
1780.028 563.595 L
1780.247 564.866 L
1780.463 566.137 L
1780.7 567.562 L
1780.925 568.936 L
1781.154 570.361 L
1781.372 571.737 L
1781.601 573.215 L
1781.803 574.541 L
1781.978 575.714 L
1782.196 577.194 L
1782.373 578.419 L
1782.568 579.798 L
1782.76 581.177 L
1782.941 582.506 L
1783.098 583.681 L
1783.286 585.113 L
1783.463 586.495 L
1783.618 587.723 L
1783.782 589.054 L
1783.936 590.334 L
1784.081 591.563 L
1784.212 592.69 L
1784.358 593.971 L
1784.489 595.15 L
1784.639 596.535 L
1784.786 597.92 L
1784.944 599.459 L
1785.089 600.896 L
1785.219 602.231 L
1785.35 603.617 L
1785.488 605.106 L
1785.625 606.647 L
1785.745 608.035 L
1785.87 609.525 L
1785.982 610.913 L
1786.075 612.096 L
1786.165 613.279 L
1786.279 614.822 L
1786.381 616.263 L
1786.483 617.755 L
1786.577 619.196 L
1786.667 620.637 L
1786.745 621.925 L
1786.836 623.521 L
1786.909 624.86 L
1786.976 626.148 L
1787.038 627.384 L
1787.099 628.672 L
1787.159 630.012 L
1787.212 631.248 L
1787.268 632.64 L
1787.32 634.031 L
1787.367 635.372 L
1787.41 636.712 L
1787.445 637.846 L
1787.488 639.393 L
1787.522 640.785 L
1787.556 642.281 L
1787.584 643.724 L
1787.608 645.117 L
1787.629 646.613 L
1787.646 648.057 L
1787.658 649.398 L
1787.668 650.842 L
1787.674 652.389 L
1787.675 653.73 L
1787.674 655.02 L
1787.668 656.567 L
1787.659 657.96 L
1787.647 659.249 L
1787.63 660.745 L
1787.609 662.24 L
1787.59 663.375 L
1787.57 664.406 L
1787.546 665.593 L
1787.51 667.139 L
1787.475 668.48 L
1787.435 669.924 L
1787.392 671.316 L
1787.347 672.656 L
1787.293 674.151 L
1787.241 675.491 L
1787.171 677.192 L
1787.109 678.583 L
1787.037 680.129 L
1786.968 681.52 L
1786.896 682.91 L
1786.82 684.301 L
1786.755 685.434 L
1786.673 686.824 L
1786.584 688.266 L
1786.498 689.604 L
1786.412 690.891 L
1786.33 692.074 L
1786.22 693.618 L
1786.113 695.058 L
1786.01 696.395 L
1785.884 697.989 L
1785.77 699.377 L
1785.648 700.816 L
1785.531 702.152 L
1785.402 703.591 L
1785.269 705.029 L
1785.127 706.518 L
1784.971 708.109 L
1784.837 709.444 L
1784.688 710.88 L
1784.53 712.368 L
1784.38 713.752 L
1784.22 715.188 L
1784.063 716.571 L
1783.92 717.801 L
1783.768 719.082 L
1783.594 720.515 L
1783.41 722 L
1783.222 723.484 L
1783.064 724.712 L
1782.875 726.144 L
1782.676 727.626 L
1782.487 729.006 L
1782.273 730.538 L
1782.076 731.917 L
1781.861 733.398 L
1781.619 735.03 L
1781.388 736.56 L
1781.176 737.937 L
1780.961 739.313 L
1780.726 740.79 L
1780.47 742.369 L
1780.226 743.844 L
1780.004 745.167 L
1779.762 746.591 L
1779.498 748.116 L
1779.23 749.64 L
1778.966 751.112 L
1778.708 752.533 L
1778.464 753.852 L
1778.189 755.322 L
1777.939 756.64 L
1777.676 758.008 L
1777.38 759.526 L
1777.099 760.943 L
1776.814 762.359 L
1776.526 763.774 L
1776.276 764.987 L
1775.97 766.451 L
1775.682 767.814 L
1775.379 769.226 L
1775.072 770.637 L
1774.739 772.148 L
1774.447 773.457 L
1774.129 774.866 L
1773.807 776.274 L
1773.493 777.631 L
1773.164 779.037 L
1772.867 780.292 L
1772.506 781.797 L
1772.214 783 L
1771.846 784.503 L
1771.473 786.005 L
1771.096 787.506 L
1770.752 788.856 L
1770.406 790.205 L
1770.055 791.552 L
1769.767 792.65 L
1769.397 794.046 L
1768.983 795.591 L
1768.632 796.885 L
1768.223 798.377 L
1767.823 799.819 L
1767.405 801.309 L
1767.011 802.698 L
1766.628 804.037 L
1766.212 805.474 L
1765.836 806.761 L
1765.441 808.097 L
1765.058 809.383 L
1764.672 810.667 L
1764.222 812.147 L
1763.737 813.725 L
1763.309 815.105 L
1762.861 816.532 L
1762.394 818.007 L
1761.937 819.432 L
1761.493 820.806 L
1761.013 822.277 L
1760.577 823.6 L
1760.12 824.97 L
1759.71 826.193 L
1759.213 827.658 L
1758.746 829.025 L
1758.274 830.39 L
1757.799 831.754 L
1757.337 833.068 L
1756.837 834.477 L
1756.332 835.886 L
1755.859 837.195 L
1755.329 838.649 L
1754.794 840.101 L
1754.255 841.552 L
1753.693 843.049 L
1753.236 844.255 L
1752.74 845.556 L
1752.258 846.808 L
1751.716 848.202 L
1751.171 849.595 L
1750.697 850.794 L
1750.144 852.184 L
1749.567 853.62 L
1749.024 854.958 L
1748.537 856.152 L
1747.987 857.488 L
1747.433 858.821 L
1746.835 860.249 L
1746.233 861.674 L
1745.544 863.287 L
1744.912 864.756 L
1744.171 866.459 L
1743.528 867.923 L
1742.922 869.29 L
1742.079 871.173 L
1741.42 872.63 L
1740.757 874.085 L
1740.131 875.444 L
1739.48 876.848 L
1738.758 878.389 L
1737.942 880.114 L
1737.231 881.604 L
1736.559 882.998 L
1735.793 884.575 L
1735.043 886.103 L
1734.333 887.536 L
1733.642 888.921 L
1732.946 890.303 L
1732.222 891.728 L
1731.494 893.152 L
1730.688 894.71 L
1729.83 896.356 L
1729.036 897.862 L
1728.335 899.183 L
1727.409 900.91 L
1726.648 902.317 L
1725.956 903.584 L
1725.26 904.85 L
1724.31 906.564 L
1723.301 908.364 L
1722.564 909.666 L
1721.618 911.323 L
1720.665 912.977 L
1719.809 914.448 L
1718.948 915.916 L
1718.186 917.203 L
1717.393 918.531 L
1716.569 919.902 L
1715.605 921.489 L
1714.744 922.897 L
1713.849 924.345 L
1713.113 925.527 L
1712.236 926.925 L
1711.353 928.32 L
1710.465 929.711 L
1709.656 930.969 L
1708.786 932.311 L
1707.911 933.649 L
1707.003 935.027 L
1706.118 936.359 L
1705.171 937.773 L
1704.391 938.927 L
1703.55 940.163 L
1702.704 941.397 L
1701.737 942.797 L
1700.793 944.151 L
1699.784 945.586 L
1698.949 946.764 L
1698.2 947.813 L
1697.327 949.028 L
1696.45 950.239 L
1695.446 951.614 L
1694.62 952.736 L
1693.576 954.144 L
1692.649 955.383 L
1691.717 956.618 L
1690.844 957.768 L
1689.841 959.079 L
1688.895 960.304 L
1687.945 961.525 L
1687.054 962.662 L
1686.128 963.836 L
1685.261 964.926 L
1684.358 966.053 L
1683.322 967.338 L
1682.443 968.418 L
1681.561 969.496 L
1680.511 970.769 L
1679.522 971.959 L
1678.528 973.145 L
1677.53 974.327 L
1676.594 975.427 L
1675.688 976.485 L
1674.712 977.617 L
1673.663 978.824 L
1672.677 979.949 L
1671.722 981.032 L
1670.557 982.343 L
1669.559 983.457 L
1668.626 984.491 L
1667.585 985.636 L
1666.54 986.777 L
1665.456 987.952 L
1664.437 989.047 L
1663.379 990.176 L
1662.317 991.301 L
1661.393 992.273 L
1660.18 993.54 L
1659.249 994.505 L
1658.135 995.651 L
1657.016 996.794 L
1655.893 997.931 L
1654.874 998.955 L
1653.779 1000.049 L
1652.717 1001.101 L
1651.54 1002.259 L
1650.395 1003.375 L
1649.209 1004.523 L
1648.131 1005.559 L
1647.011 1006.627 L
1645.849 1007.726 L
1644.722 1008.785 L
1643.703 1009.734 L
1642.53 1010.82 L
1641.314 1011.937 L
1640.208 1012.944 L
1639.099 1013.947 L
1638.063 1014.878 L
1636.792 1016.01 L
1635.749 1016.933 L
1634.47 1018.056 L
1633.303 1019.072 L
1632.172 1020.05 L
1631.037 1021.025 L
1629.938 1021.961 L
1628.598 1023.093 L
1627.492 1024.021 L
1626.104 1025.176 L
1625.03 1026.062 L
1623.993 1026.912 L
1622.873 1027.824 L
1621.83 1028.667 L
1620.744 1029.539 L
1619.615 1030.439 L
1618.28 1031.495 L
1617.104 1032.419 L
1615.883 1033.37 L
1614.618 1034.347 L
1613.595 1035.132 L
1612.323 1036.101 L
1611.171 1036.972 L
1609.974 1037.869 L
1608.774 1038.762 L
1607.53 1039.682 L
1606.324 1040.566 L
1605.031 1041.506 L
1603.818 1042.382 L
1602.349 1043.432 L
1601.087 1044.327 L
1599.822 1045.218 L
1598.595 1046.074 L
1597.281 1046.984 L
1596.048 1047.831 L
1594.727 1048.732 L
1593.488 1049.569 L
1592.245 1050.402 L
1591 1051.231 L
1589.709 1052.083 L
1588.414 1052.931 L
1587.117 1053.774 L
1585.989 1054.5 L
1584.729 1055.306 L
1583.379 1056.162 L
1582.025 1057.013 L
1580.756 1057.804 L
1579.528 1058.564 L
1578.165 1059.4 L
1576.799 1060.231 L
1575.518 1061.003 L
1574.234 1061.771 L
1572.903 1062.56 L
1571.481 1063.396 L
1570.099 1064.201 L
1568.982 1064.846 L
1567.595 1065.641 L
1566.295 1066.38 L
1564.946 1067.139 L
1563.595 1067.893 L
1562.151 1068.692 L
1560.703 1069.485 L
1559.298 1070.248 L
1558.072 1070.908 L
1556.752 1071.612 L
1555.43 1072.311 L
1554.151 1072.981 L
1552.732 1073.719 L
1551.402 1074.403 L
1549.886 1075.176 L
1548.412 1075.92 L
1547.075 1076.589 L
1545.688 1077.276 L
1544.206 1078.002 L
1542.629 1078.768 L
1541.048 1079.527 L
1539.464 1080.279 L
1537.689 1081.112 L
1536.192 1081.806 L
1534.598 1082.538 L
1533.001 1083.262 L
1531.495 1083.938 L
1529.94 1084.628 L
1528.239 1085.374 L
1526.488 1086.133 L
1524.591 1086.944 L
1522.88 1087.665 L
1521.166 1088.379 L
1519.64 1089.007 L
1518.016 1089.668 L
1516.053 1090.455 L
1514.614 1091.025 L
1513.27 1091.552 L
1511.634 1092.185 L
1510.093 1092.775 L
1508.404 1093.412 L
1506.858 1093.989 L
1505.309 1094.559 L
1503.758 1095.123 L
1502.253 1095.664 L
1500.892 1096.147 L
1499.286 1096.71 L
1497.677 1097.267 L
1496.115 1097.8 L
1494.6 1098.311 L
1493.083 1098.816 L
1491.515 1099.331 L
1489.798 1099.887 L
1488.422 1100.326 L
1486.848 1100.822 L
1485.321 1101.297 L
1483.743 1101.78 L
1482.064 1102.287 L
1480.68 1102.699 L
1478.997 1103.193 L
1477.411 1103.651 L
1475.973 1104.06 L
1474.583 1104.451 L
1472.992 1104.891 L
1471.599 1105.271 L
1469.755 1105.766 L
1468.259 1106.16 L
1466.812 1106.536 L
1465.513 1106.869 L
1464.062 1107.235 L
1462.461 1107.633 L
1460.907 1108.013 L
1459.102 1108.445 L
1457.595 1108.8 L
1455.937 1109.183 L
1454.277 1109.56 L
1452.666 1109.918 L
1451.104 1110.259 L
1449.288 1110.648 L
1447.824 1110.954 L
1446.208 1111.287 L
1444.59 1111.613 L
1443.122 1111.903 L
1441.553 1112.206 L
1440.032 1112.495 L
1438.359 1112.805 L
1436.836 1113.081 L
1435.211 1113.369 L
1433.839 1113.607 L
1432.314 1113.866 L
1430.736 1114.128 L
1429.311 1114.359 L
1427.833 1114.593 L
1426.304 1114.83 L
1424.621 1115.083 L
1423.039 1115.315 L
1421.507 1115.533 L
1419.974 1115.746 L
1418.288 1115.973 L
1416.6 1116.193 L
1415.014 1116.393 L
1413.427 1116.588 L
1411.89 1116.77 L
1410.353 1116.946 L
1408.712 1117.128 L
1407.122 1117.297 L
1405.634 1117.451 L
1404.095 1117.603 L
1402.657 1117.741 L
1401.116 1117.882 L
1399.523 1118.022 L
1398.033 1118.148 L
1396.49 1118.272 L
1394.896 1118.394 L
1393.456 1118.499 L
1391.5 1118.633 L
1389.905 1118.736 L
1388.257 1118.835 L
1386.713 1118.923 L
1384.704 1119.027 L
1383.158 1119.101 L
1381.148 1119.189 L
1379.138 1119.266 L
1377.489 1119.322 L
1376.148 1119.363 L
1374.55 1119.406 L
1372.745 1119.447 L
1371.301 1119.474 L
1369.909 1119.495 L
1368.413 1119.513 L
1366.969 1119.525 L
1365.473 1119.532 L
1364.132 1119.533 L
1362.688 1119.53 L
1361.141 1119.521 L
1359.594 1119.506 L
1358.098 1119.486 L
1356.448 1119.458 L
1355.055 1119.429 L
1353.354 1119.387 L
1351.756 1119.341 L
1350.157 1119.289 L
1348.508 1119.229 L
1347.013 1119.169 L
1345.313 1119.094 L
1343.768 1119.019 L
1342.222 1118.939 L
1340.574 1118.847 L
1339.184 1118.764 L
1337.485 1118.656 L
1335.787 1118.541 L
1334.244 1118.431 L
1332.701 1118.314 L
1331.004 1118.18 L
1329.668 1118.069 L
1328.177 1117.94 L
1326.482 1117.786 L
1324.993 1117.646 L
1323.453 1117.495 L
1321.709 1117.317 L
1320.273 1117.164 L
1318.837 1117.006 L
1317.197 1116.82 L
1315.711 1116.646 L
1314.278 1116.472 L
1312.896 1116.3 L
1311.361 1116.103 L
1309.827 1115.901 L
1308.396 1115.706 L
1306.71 1115.471 L
1305.077 1115.236 L
1303.597 1115.017 L
1302.016 1114.777 L
1300.538 1114.548 L
1299.01 1114.304 L
1297.432 1114.047 L
1295.906 1113.792 L
1294.076 1113.478 L
1292.602 1113.219 L
1290.978 1112.927 L
1289.456 1112.648 L
1287.834 1112.343 L
1286.112 1112.012 L
1284.492 1111.694 L
1282.924 1111.38 L
1281.358 1111.06 L
1279.742 1110.723 L
1278.229 1110.401 L
1276.666 1110.062 L
1275.054 1109.706 L
1273.293 1109.31 L
1271.735 1108.952 L
1270.278 1108.611 L
1268.723 1108.242 L
1267.219 1107.878 L
1265.716 1107.509 L
1264.265 1107.147 L
1262.715 1106.754 L
1261.216 1106.368 L
1259.719 1105.976 L
1258.274 1105.592 L
1256.68 1105.162 L
1255.039 1104.712 L
1253.548 1104.297 L
1251.96 1103.848 L
1250.423 1103.407 L
1248.838 1102.946 L
1247.354 1102.508 L
1245.823 1102.049 L
1244.342 1101.599 L
1242.863 1101.144 L
1241.386 1100.683 L
1239.862 1100.201 L
1238.241 1099.681 L
1236.328 1099.058 L
1234.565 1098.475 L
1232.952 1097.933 L
1231.438 1097.419 L
1229.877 1096.881 L
1228.27 1096.32 L
1226.617 1095.735 L
1225.015 1095.161 L
1223.561 1094.633 L
1221.963 1094.046 L
1220.368 1093.452 L
1218.823 1092.87 L
1217.377 1092.319 L
1215.693 1091.669 L
1214.3 1091.124 L
1212.861 1090.556 L
1211.424 1089.983 L
1209.989 1089.403 L
1208.508 1088.799 L
1207.125 1088.229 L
1205.507 1087.554 L
1203.986 1086.913 L
1202.658 1086.346 L
1201.379 1085.796 L
1200.007 1085.2 L
1198.448 1084.515 L
1197.081 1083.908 L
1195.622 1083.254 L
1194.166 1082.595 L
1192.852 1081.994 L
1191.401 1081.323 L
1189.952 1080.647 L
1188.412 1079.921 L
1187.062 1079.278 L
1185.482 1078.518 L
1183.905 1077.751 L
1182.516 1077.068 L
1180.945 1076.289 L
1179.194 1075.409 L
1177.676 1074.639 L
1176.253 1073.91 L
1174.787 1073.151 L
1173.37 1072.41 L
1171.956 1071.664 L
1170.59 1070.937 L
1169 1070.082 L
1167.686 1069.368 L
1166.419 1068.675 L
1164.929 1067.852 L
1162.993 1066.77 L
1161.556 1065.958 L
1160.167 1065.166 L
1158.826 1064.394 L
1157.354 1063.54 L
1155.974 1062.732 L
1154.598 1061.918 L
1153.048 1060.993 L
1151.722 1060.195 L
1150.355 1059.365 L
1148.948 1058.502 L
1147.501 1057.607 L
1146.013 1056.678 L
1144.573 1055.771 L
1143.05 1054.802 L
1141.574 1053.854 L
1140.276 1053.013 L
1139.11 1052.251 L
1137.516 1051.202 L
1136.142 1050.288 L
1134.814 1049.397 L
1133.49 1048.501 L
1132.254 1047.659 L
1130.809 1046.665 L
1129.453 1045.724 L
1128.185 1044.838 L
1126.626 1043.737 L
1125.365 1042.84 L
1124.024 1041.877 L
1122.771 1040.97 L
1121.479 1040.027 L
1120.026 1038.957 L
1118.742 1038.004 L
1117.297 1036.922 L
1116.062 1035.989 L
1114.708 1034.958 L
1113.399 1033.953 L
1112.176 1033.005 L
1110.915 1032.022 L
1109.618 1031.001 L
1108.365 1030.008 L
1107.036 1028.945 L
1105.751 1027.909 L
1104.551 1026.933 L
1103.354 1025.952 L
1102.081 1024.901 L
1100.852 1023.879 L
1099.627 1022.851 L
1098.445 1021.852 L
1097.189 1020.781 L
1096.054 1019.807 L
1094.962 1018.862 L
1093.757 1017.812 L
1092.478 1016.688 L
1091.358 1015.697 L
1090.165 1014.632 L
1088.938 1013.529 L
1087.868 1012.559 L
1086.649 1011.446 L
1085.472 1010.364 L
1084.187 1009.171 L
1083.094 1008.149 L
1081.968 1007.088 L
1080.809 1005.987 L
1079.616 1004.846 L
1078.502 1003.772 L
1077.43 1002.73 L
1076.177 1001.503 L
1075.039 1000.379 L
1073.942 999.288 L
1072.776 998.119 L
1071.616 996.946 L
1070.568 995.879 L
1069.488 994.771 L
1068.305 993.547 L
1067.234 992.431 L
1066.238 991.385 L
1065.139 990.223 L
1064.045 989.057 L
1062.816 987.735 L
1061.697 986.522 L
1060.652 985.381 L
1059.611 984.235 L
1058.541 983.048 L
1057.372 981.74 L
1056.277 980.506 L
1054.983 979.033 L
1053.764 977.633 L
1052.753 976.462 L
1051.679 975.208 L
1050.577 973.911 L
1049.513 972.649 L
1048.323 971.224 L
1047.303 969.993 L
1046.321 968.798 L
1045.31 967.558 L
1044.304 966.315 L
1043.432 965.23 L
1042.404 963.939 L
1041.348 962.604 L
1040.33 961.305 L
1039.317 960.002 L
1038.373 958.776 L
1037.37 957.465 L
1036.466 956.274 L
1035.473 954.955 L
1034.485 953.633 L
1034.349 953.448 L
1034.349 953.448 L
1034.349 953.448 L
1034.349 953.448 L
1034.349 953.448 L
1034.349 953.448 L
1034.349 953.448 L
1034.349 953.448 L
1034.349 953.448 L
1034.349 953.447 L
1034.348 953.447 L
S
GR
GS
[0.75 0 0 0.75 0 0.5] CT
0 0 1 RC
1 LJ
0.667 LW
N
933.237 812.538 M
932.824 812.094 L
932.689 811.679 L
932.826 809.619 L
933.276 808.961 L
933.798 808.042 L
933.012 807.337 L
932.519 806.263 L
933.364 805.113 L
933.115 804.41 L
934.023 803.125 L
933.681 802.533 L
933.69 801.425 L
932.985 800.375 L
933.447 799.473 L
934.404 798.695 L
932.662 797.288 L
934.6 796.395 L
933.204 795.748 L
932.172 793.786 L
933.963 792.778 L
933.223 792.343 L
934.138 790.899 L
933.268 789.732 L
931.298 789.054 L
932.644 787.603 L
934.461 786.874 L
932.268 785.843 L
934.764 784.726 L
931.496 783.12 L
936.714 781.94 L
934.861 781.592 L
933.713 780.265 L
933.548 779.209 L
934.975 778.276 L
933.909 777.738 L
936.353 776.357 L
935.412 775.205 L
934.116 774.351 L
937.633 774.038 L
931.311 772.24 L
933.824 772.29 L
935.548 770.764 L
938.633 770.222 L
936.856 769.118 L
933.568 768.241 L
931.683 766.841 L
929.74 766.368 L
935.211 764.892 L
935.749 764.224 L
934.412 763.013 L
936.169 762.43 L
935.95 761.531 L
936.091 760.631 L
937.181 759.344 L
936.487 758.51 L
937.01 757.148 L
938.724 756.745 L
935.032 754.993 L
934.125 753.651 L
929.949 752.933 L
935.301 752.07 L
938.688 750.855 L
934.001 749.356 L
936.243 748.845 L
936.744 747.428 L
932.799 746.637 L
931.927 746.094 L
938.129 744.769 L
937.242 743.932 L
938.157 743.181 L
938.399 742.023 L
936.08 740.466 L
929.57 739.674 L
932.127 738.878 L
937.701 737.381 L
934.276 736.62 L
940.106 736.357 L
940.244 735.435 L
929.028 733.423 L
938.478 732.745 L
941.157 732.801 L
939.033 731.346 L
936.396 730.005 L
934.714 728.906 L
934.611 728.326 L
935.379 726.865 L
935.687 725.561 L
936.129 725.28 L
936.537 724.125 L
935.576 723.418 L
935.349 721.866 L
938.485 721.138 L
943.825 720.574 L
941.925 719.415 L
934.119 717.456 L
935.529 716.942 L
938.581 716.448 L
934.253 714.904 L
932.779 713.96 L
929.961 713.238 L
933.884 711.865 L
937.487 710.648 L
940.044 710.186 L
943.471 709.508 L
941.394 708.098 L
938.505 707.299 L
930.714 705.885 L
932.603 704.751 L
939.417 703.667 L
940.423 702.76 L
944.699 702.397 L
937.207 701.062 L
941.788 700.43 L
942.312 699.404 L
943.158 698.413 L
944.646 697.96 L
942.895 696.361 L
939.644 694.987 L
936.487 694.007 L
935.159 692.995 L
936.477 691.912 L
929.709 691.009 L
934.744 689.95 L
939.24 689.616 L
941.285 688.357 L
951.171 687.552 L
950.594 687.849 L
946.349 685.75 L
940.757 684.446 L
938.705 683.558 L
935.881 681.747 L
937.28 680.726 L
934.864 679.738 L
926.954 678.958 L
937.388 677.241 L
937.851 676.838 L
935.255 675.886 L
935.111 674.414 L
935.356 674.188 L
940.507 672.988 L
940.693 672.108 L
937.373 670.982 L
938.556 670.221 L
936.039 669.017 L
946.648 668.232 L
942.128 667.308 L
944.203 666.243 L
939.389 664.866 L
940.808 664.573 L
940.16 663.095 L
932.384 661.553 L
935.609 660.927 L
931.98 659.802 L
934.228 658.898 L
935.56 657.741 L
939.079 656.818 L
940.955 655.795 L
936.957 654.913 L
938.353 654.237 L
939.914 652.816 L
939.136 651.421 L
939.734 650.256 L
934.359 649.323 L
932.667 648.268 L
941.778 647.339 L
944.35 646.481 L
942.417 645.629 L
948.416 645.098 L
948.858 643.794 L
945.504 642.412 L
950.695 642.19 L
950.153 640.839 L
950.446 639.765 L
942.265 638.446 L
939.712 637.66 L
940.771 636.365 L
942.426 635.745 L
937.864 633.996 L
944.321 633.431 L
940.115 632.311 L
942.521 631.721 L
941.674 630.421 L
930.862 629.047 L
932.246 627.904 L
943.013 626.993 L
938.152 626.124 L
943.459 625.289 L
950.612 624.347 L
960.433 624.513 L
963.062 624.579 L
954.896 622.021 L
950.3 620.722 L
944.768 619.168 L
945.823 618.26 L
947.237 617.574 L
947.539 616.607 L
956.861 616.416 L
956.546 615.84 L
959.399 614.173 L
962.919 613.489 L
962.423 612.508 L
956.783 610.388 L
958.42 610.105 L
944.538 606.568 L
947.37 607.047 L
944.971 605.683 L
946.317 604.411 L
951.423 603.959 L
948.529 602.692 L
941.033 600.736 L
942.043 599.678 L
943.016 598.88 L
944.896 597.645 L
950.781 597.156 L
946.54 595.976 L
947.075 594.746 L
945.387 594.018 L
944.925 593.267 L
952.601 592.389 L
948.933 590.722 L
944.631 589.508 L
952.304 589.022 L
950.784 588.183 L
947.279 586.493 L
946.654 585.361 L
945.841 584.397 L
948.372 583.218 L
950.493 582.772 L
943.537 580.812 L
947.988 580.386 L
952.309 579.949 L
956.202 578.841 L
949.407 577.124 L
951.08 576.337 L
952.859 575.09 L
957.035 574.597 L
957.455 572.898 L
953.281 572.595 L
956.284 571.851 L
962.537 571.489 L
950.597 568.822 L
951.07 567.925 L
955.842 567.264 L
966.156 567.466 L
958.908 565.528 L
962.616 565.082 L
958.541 563.664 L
952.872 561.309 L
946.598 560.085 L
953.686 560.161 L
948.517 558.513 L
940.414 556.754 L
951.779 556.522 L
951.042 555.54 L
960.514 555.119 L
951.371 552.956 L
956.073 552.567 L
958.518 552.141 L
959.104 550.716 L
973.053 550.606 L
971.684 549.886 L
969.048 548.927 L
973.201 547.916 L
973.104 546.878 L
967.03 544.985 L
963.031 543.388 L
964.657 542.608 L
964.617 541.715 L
967.415 541.243 L
964.535 538.992 L
969.45 539.123 L
968.664 538.438 L
975.977 537.837 L
974.955 536.926 L
968.47 534.662 L
963.257 533.06 L
962.176 531.775 L
956.847 531.06 L
956 529.502 L
961.474 529.088 L
963.752 528.09 L
966.092 527.27 L
967.878 526.669 L
965.693 525.44 L
968.801 524.811 L
979.332 524.63 L
976.146 523.225 L
982.036 523.467 L
972.134 520.814 L
968.745 519.729 L
965.16 518.068 L
971.935 517.616 L
969.012 516.325 L
968.875 514.862 L
968.175 513.325 L
969.492 513.307 L
962.389 511.219 L
971.339 511.303 L
977.323 511.303 L
978.963 510.322 L
976.978 509.15 L
968.142 506.356 L
967.603 505.996 L
975.425 505.447 L
973.37 504.072 L
975.05 503.245 L
971.938 502.272 L
970.44 500.308 L
971.884 500.142 L
970.425 498.518 L
970.158 497.863 L
973.453 497.366 L
976.725 496.532 L
985.578 497.155 L
988.442 496.024 L
978.53 493.227 L
976.969 493.194 L
981.667 492.013 L
981.317 491.176 L
974.54 489.297 L
968.542 487.478 L
975.411 487.491 L
979.1 486.855 L
987.471 487.012 L
987.961 486.348 L
979.759 483.859 L
983.111 483.454 L
986.416 482.642 L
981.679 481.28 L
984.594 480.45 L
983.455 479.465 L
973.728 476.442 L
976.257 476.144 L
970.329 474.433 L
966.173 473.221 L
975.366 472.706 L
986.099 473.326 L
990.449 473.52 L
982.637 471.113 L
977.748 468.898 L
986.962 469.349 L
986.573 468.917 L
989.473 467.665 L
980.443 465.207 L
983.448 465.137 L
990.743 465.512 L
999.607 465.982 L
989.282 462.446 L
986.078 461.062 L
992.782 461.09 L
993.08 460.533 L
998.3 460.364 L
1001.985 459.85 L
997.749 457.838 L
996.32 456.332 L
991.267 455.079 L
995.287 454.44 L
994.707 453.856 L
995.95 452.971 L
994.098 451.409 L
992.623 450.229 L
994.567 449.509 L
994.453 448.43 L
980.151 445.046 L
981.797 444.902 L
984.593 443.947 L
985.027 442.74 L
987.159 442.186 L
993.431 442.004 L
993.899 441.219 L
987.122 438.839 L
998.024 439.251 L
993.469 437.645 L
998.395 437.732 L
1003.631 437.622 L
1005.528 437.197 L
999.353 434.317 L
996.044 433.625 L
1001.042 433.104 L
1001.624 432.742 L
1004.537 431.314 L
1009.423 431.432 L
1010.195 430.727 L
1014.213 429.955 L
1009.383 428.857 L
1011.6 428.396 L
1012.403 427.507 L
1011.954 426.152 L
1006.957 423.535 L
1005.97 423.056 L
1005.209 421.879 L
1007.558 421.793 L
1007.473 419.997 L
1005.953 419.301 L
1010.93 418.724 L
1013.815 418.49 L
1018.667 418.667 L
1004.389 414.32 L
1005.649 413.583 L
1007.427 412.928 L
1009.507 412.279 L
1004.069 410.43 L
1004.365 409.418 L
1012.14 410.309 L
1012.839 409.063 L
1009.281 406.948 L
1011.878 407.079 L
1015.656 406.643 L
1016.763 406.05 L
1017.522 405.029 L
1016.41 404.197 L
1017.255 402.862 L
1025.101 403.453 L
1023.636 402.618 L
1029.581 402.804 L
1030.768 401.968 L
1030.859 401.401 L
1029.168 400.001 L
1037.526 400.962 L
1035.411 399.101 L
1041.985 399.806 L
1047.259 399.962 L
1041.613 397.826 L
1032.754 393.934 L
1027.46 392.181 L
1034.815 392.821 L
1040.773 393.387 L
1042.837 393.141 L
1049.481 393.732 L
1044.061 390.966 L
1043.924 390.457 L
1041.229 388.88 L
1038.62 387.24 L
1043.161 387.662 L
1043.387 386.338 L
1044.074 385.184 L
1040.599 383.648 L
1040.575 382.56 L
1033.885 379.942 L
1042.59 380.885 L
1037.619 378.741 L
1032.861 377.054 L
1032.185 375.982 L
1030.334 373.86 L
1036.83 374.635 L
1039.314 374.361 L
1038.594 372.798 L
1041.127 372.274 L
1039.037 371.536 L
1039.175 370.319 L
1043.243 370.358 L
1047.204 370.45 L
1045.701 368.9 L
1045.439 368.218 L
1045.351 366.942 L
1050.696 367.207 L
1050.134 366.269 L
1053.163 366.233 L
1061.177 367.121 L
1060.089 365.847 L
1057.654 364.327 L
1067.215 365.727 L
1067.87 365.52 L
1058.518 361.345 L
1060.579 361.502 L
1063.948 360.864 L
1052.472 356.744 L
1053.213 356.031 L
1055.466 355.928 L
1054.286 354.392 L
1056.004 353.701 L
1048.838 351.005 L
1047.704 349.409 L
1050.691 349.946 L
1048.301 348.216 L
1039.646 345.3 L
1037.843 343.624 L
1050.901 345.311 L
1051.362 345.262 L
1054.774 344.418 L
1059.37 344.497 L
1060.152 343.877 L
1056.816 341.691 L
1065.768 343.405 L
1072.91 344.462 L
1075.058 343.626 L
1068.804 340.985 L
1063.879 338.411 L
1054.654 335.31 L
1063.22 336.491 L
1062.567 335.013 L
1056.526 333.039 L
1062.841 332.943 L
1059.519 331.249 L
1060.452 330.363 L
1074.366 333.518 L
1071.111 331.415 L
1075.148 331.098 L
1071.183 328.456 L
1075.904 329.047 L
1084.485 331.045 L
1085.308 329.467 L
1087.561 329.151 L
1087.02 327.996 L
1082.14 325.601 L
1083.077 325.064 L
1084.084 323.899 L
1079.237 321.684 L
1080.54 321.247 L
1076.527 318.666 L
1083.021 319.575 L
1094.398 321.35 L
1087.969 318.636 L
1092.533 318.204 L
1086.119 315.474 L
1093.558 316.026 L
1094.118 315.994 L
1093.431 313.995 L
1091.782 312.641 L
1094.396 312.753 L
1096.627 312.702 L
1100.65 312.948 L
1096.51 310.71 L
1096.401 309.347 L
1104.704 310.906 L
1101.2 308.725 L
1106.933 310.356 L
1108.772 309.711 L
1113.002 309.981 L
1112.622 309.341 L
1115.46 309.243 L
1111.892 306.456 L
1110.091 305.505 L
1121.734 308.547 L
1124.126 308.583 L
1119.145 305.868 L
1118.56 304.566 L
1120.978 304.575 L
1118.14 302.635 L
1112.231 299.549 L
1114.786 299.31 L
1111.965 297.425 L
1113.573 296.673 L
1118.036 297.905 L
1120.546 297.712 L
1127.188 298.849 L
1130.655 299.172 L
1127.186 297.496 L
1124.873 295.642 L
1120.991 293.426 L
1128.126 294.487 L
1133.256 295.259 L
1124.757 291.077 L
1126.701 291.074 L
1133.597 293.23 L
1132.109 291.146 L
1136.461 291.917 L
1137.521 291.486 L
1137.3 290.142 L
1132.278 287.819 L
1132.038 286.62 L
1127.883 284.343 L
1131.959 284.227 L
1142.879 287.484 L
1136.53 284.117 L
1136.494 283.338 L
1120.433 276.245 L
1123.105 276.462 L
1131.941 278.307 L
1134.629 278.311 L
1136.657 278.14 L
1130.93 275.348 L
1130.06 273.432 L
1125.346 270.785 L
1132.344 272.226 L
1134.146 271.948 L
1141.906 273.854 L
1142.08 273.515 L
1131.509 268.627 L
1139.88 270.861 L
1144.685 271.601 L
1143.562 270.472 L
1148.318 271.676 L
1144.126 268.5 L
1150.106 269.859 L
1152.639 270.174 L
1153.969 269.89 L
1157.914 270.021 L
1165.141 272.621 L
1161.222 269.743 L
1164.63 270.356 L
1165.582 269.309 L
1164.504 268.587 L
1159.172 265.139 L
1164.569 266.378 L
1158.67 263.764 L
1161.654 264.291 L
1165.955 264.613 L
1163.253 262.198 L
1173.498 265.615 L
1176.518 266.599 L
1184.517 268.806 L
1185.549 268.46 L
1184.185 266.927 L
1185.906 266.626 L
1187.146 266.398 L
1177.695 260.818 L
1182.403 262.36 L
1190.316 265.224 L
1196.69 266.908 L
1195.783 265.532 L
1201.953 267.552 L
1197.988 264.527 L
1197.448 263.349 L
1186.682 256.984 L
1189.881 258.009 L
1196.56 260.025 L
1197.47 259.943 L
1197.293 258.908 L
1204.559 261.48 L
1205.107 260.846 L
1214.676 264.726 L
1211.454 262.054 L
1205.378 257.885 L
1208.58 258.353 L
1212.761 259.593 L
1211.899 258.437 L
1210.142 256.323 L
1211.545 256.744 L
1208.541 254.338 L
1204.549 250.92 L
1212.335 253.832 L
1212.506 253.501 L
1202.297 246.948 L
1198.982 244.935 L
1197.925 242.934 L
1203.754 244.972 L
1206.675 245.418 L
1207.203 245.384 L
1205.596 243.222 L
1200.449 239.796 L
1193.138 235.631 L
1191.64 233.744 L
1200.647 237.057 L
1195.532 234.486 L
1203.486 237.029 L
1207.355 238.155 L
1207.545 236.581 L
1207.967 236.443 L
1211.888 237.357 L
1205.412 233.271 L
1207.119 233.606 L
1209.407 233.653 L
1208.612 232.285 L
1212.469 232.846 L
1219.524 235.776 L
1219.556 234.894 L
1214.011 231.267 L
1221.169 233.432 L
1219.902 232.413 L
1225.548 234.398 L
1223.317 232.375 L
1226.836 232.574 L
1220.96 229.315 L
1214.935 225.62 L
1215.412 224.796 L
1218.523 225.179 L
1210.958 220.766 L
1210.773 219.86 L
1219.265 222.04 L
1220.146 222.466 L
1215.449 219.068 L
1219.853 220.345 L
1225.011 221.845 L
1226.444 221.979 L
1219.291 217.832 L
1226.905 220.163 L
1224.413 218.128 L
1224.514 217.234 L
1227.575 218.446 L
1234.592 220.841 L
1237.18 221.178 L
1240.971 221.87 L
1243.554 222.525 L
1242.868 221.337 L
1251.725 225.417 L
1254.079 225.496 L
1251.538 222.639 L
1247.847 220.169 L
1255.338 223.047 L
1254.052 221.791 L
1256.202 222 L
1249.022 217.457 L
1254.52 219.532 L
1249.885 216.501 L
1246.202 213.149 L
1246.324 212.241 L
1252.184 214.19 L
1258.958 216.807 L
1262.959 218.342 L
1257.871 215.412 L
1259.52 215.444 L
1260.765 214.565 L
1267.516 217.698 L
1273.358 219.956 L
1274.202 220.059 L
1272.353 217.897 L
1278.659 220.486 L
1272.973 216.736 L
1279.849 219.724 L
1292.444 226.28 L
1294.099 226.287 L
1293.866 225.541 L
1293.49 224.21 L
1291.799 222.052 L
1287.116 218.479 L
1281.577 214.319 L
1282.885 214.71 L
1285.297 214.886 L
1283.875 213.231 L
1283.77 212.413 L
1286.705 213.572 L
1282.728 210.235 L
1285.16 210.757 L
1286.994 211.037 L
1288.82 211.216 L
1291.802 211.923 L
1294.548 212.762 L
1301.932 215.68 L
1297.168 212.217 L
1295.638 210.299 L
1290.652 206.854 L
1290.408 205.961 L
1291.672 206.104 L
1294.718 206.312 L
1295.75 206.516 L
1297.281 206.659 L
1295.49 203.9 L
1302.072 207.315 L
1302.864 206.362 L
1303.861 206.706 L
1306.931 207.937 L
1307.706 207.406 L
1307.208 206.309 L
1308.264 206.482 L
1304.563 202.831 L
1302.798 201.088 L
1304.492 201.345 L
1302.792 199.668 L
1309.212 202.67 L
1309.936 202.587 L
1317.88 206.518 L
1318.979 205.439 L
1319.588 205.52 L
1309.587 198.38 L
1313.244 199.485 L
1314.559 199.565 L
1324.513 205.188 L
1329.319 207.888 L
1333.184 208.982 L
1327.444 203.963 L
1325.941 202.749 L
1330.754 204.752 L
1336.249 207.179 L
1334.127 205.612 L
1343.503 210.489 L
1345.604 211.054 L
1348.132 212.023 L
1345.602 208.604 L
1346.468 208.92 L
1346.394 208.128 L
1346.138 207.143 L
1346.909 206.586 L
1353.365 209.925 L
1354.668 210.178 L
1349.378 206.062 L
1348.419 204.3 L
1347.991 203.226 L
1348.908 203.394 L
1342.145 197.457 L
1338.864 194.511 L
1342.45 196.453 L
1343.263 195.971 L
1344.325 195.499 L
1340.904 192.557 L
1348.819 197.146 L
1353.37 199.931 L
1347.776 194.75 L
1339.26 188.319 L
1345.392 191.393 L
1351.901 194.336 L
1355.054 196.417 L
1362.498 200.957 L
1369.735 204.766 L
1366.172 201.599 L
1361.68 197.751 L
1359.853 196.047 L
1360.43 195.311 L
1364.844 197.358 L
1365.714 197.563 L
1370.832 200.249 L
1377.535 203.997 L
1384.535 208.738 L
1389.157 211.17 L
1388.553 210.287 L
1381.912 204.034 L
1378.606 201.102 L
1382.409 202.864 L
1386.622 205.321 L
1389.44 206.621 L
1387.027 203.552 L
1381.166 198.35 L
1381.958 198.173 L
1383.8 199.038 L
1390.077 202.278 L
1385.611 198.855 L
1388.139 199.441 L
1385.76 197.198 L
1389.619 198.753 L
1398.397 205.214 L
1401.198 205.603 L
1403.533 207.14 L
1405.748 207.529 L
1408.366 209.09 L
1410.069 209.87 L
1410.314 208.471 L
1406.992 205.225 L
1401.071 199.946 L
1407.498 204.054 L
1411.278 206.381 L
1416.812 210.467 L
1416.692 208.827 L
1411.002 204.132 L
1405.867 199.077 L
1413.161 203.959 L
1404.797 197.129 L
1404.571 196.025 L
1407.4 197.981 L
1412.78 200.706 L
1415.721 202.596 L
1415.314 200.745 L
1412.649 198.694 L
1418.057 201.378 L
1421.735 203.589 L
1423.589 204.812 L
1427.999 207.742 L
1429.135 207.968 L
1438.71 214.534 L
1443.395 217.506 L
1441.677 215.634 L
1437.361 210.992 L
1436.998 209.823 L
1435.526 208.105 L
1434.633 206.54 L
1436.443 207.409 L
1442.33 211.488 L
1442.852 212.183 L
1446.936 213.911 L
1448.244 213.384 L
1444.065 209.801 L
1450.157 214.278 L
1455.369 218.109 L
1458.666 220.485 L
1458.174 219.151 L
1458.83 218.936 L
1455.136 215.452 L
1458.321 216.98 L
1460.398 218.204 L
1457.801 214.792 L
1453.825 210.268 L
1453.375 209.605 L
1450.617 206.356 L
1451.059 206.567 L
1452.523 206.419 L
1448.82 202.382 L
1447.36 200.554 L
1450.194 202.66 L
1458.962 208.534 L
1462.707 211.5 L
1458.761 207.422 L
1467.818 214.822 L
1471.092 216.534 L
1476.325 220.658 L
1480.322 223.229 L
1476.501 219.834 L
1472.96 215.851 L
1477.738 219.576 L
1479.07 219.678 L
1477.447 217.217 L
1472.89 212.555 L
1475.429 214.318 L
1475.765 213.289 L
1484.511 221.249 L
1483.985 219.763 L
1484.462 219.726 L
1485.865 219.7 L
1488.74 222.029 L
1488.414 220.511 L
1490.547 221.876 L
1490.33 221.207 L
1496.81 226.811 L
1499.935 229.541 L
1498.465 226.812 L
1502.072 230.449 L
1506.166 233.349 L
1512.439 238.87 L
1510.937 236.825 L
1511.711 236.759 L
1512.764 237.066 L
1509.863 233.511 L
1512.991 235.733 L
1511.131 234.253 L
1514.439 236.008 L
1512.685 233.275 L
1510.459 230.418 L
1513.264 232.24 L
1515.93 234.269 L
1515.244 232.973 L
1514.731 231.442 L
1510.193 227.164 L
1511.459 227.554 L
1512.441 227.712 L
1512.565 227.491 L
1509.576 222.461 L
1512.738 224.837 L
1513.829 226.181 L
1518.805 229.8 L
1521.885 232.517 L
1525.194 235.574 L
1521.561 230.9 L
1514.658 223.397 L
1520.518 228.553 L
1518.042 225.691 L
1527.149 233.938 L
1528.415 234.718 L
1530.829 236.333 L
1536.238 241.268 L
1538.238 242.699 L
1537.622 241.246 L
1538.913 242.319 L
1540.563 243.225 L
1544.915 246.993 L
1540.587 241.593 L
1539.753 239.893 L
1535.937 235.546 L
1532.367 231.659 L
1544.03 243.063 L
1545.34 243.101 L
1544.62 242.376 L
1543.671 240.727 L
1554.44 251.026 L
1553.655 250.563 L
1558.622 254.643 L
1557.508 253.875 L
1564.035 260.867 L
1559.548 254.391 L
1557.792 251.854 L
1555.563 249.35 L
1558.009 251.173 L
1562.206 254.87 L
1563.708 255.813 L
1566.234 257.977 L
1559.598 250.532 L
1563.052 253.918 L
1559.364 248.581 L
1560.24 249.403 L
1567.394 256.308 L
1568.288 256.599 L
1566.972 255.121 L
1571.264 259.738 L
1571.025 258.285 L
1574.304 262.21 L
1576.947 265.169 L
1581.209 268.149 L
1580.83 267.556 L
1582.809 269.738 L
1589.528 277.098 L
1590.476 277.087 L
1591.46 277.668 L
1586.535 271.35 L
1586.409 270.373 L
1591.873 276.649 L
1599.729 286.042 L
1601.377 286.737 L
1593.392 276.733 L
1595.847 278.885 L
1600.746 283.686 L
1605.202 289.856 L
1605.7 289.678 L
1602.441 284.602 L
1597.153 278.269 L
1596.098 276.139 L
1598.545 278.875 L
1601.286 281.593 L
1598.369 277.834 L
1596.378 273.575 L
1598.539 276.558 L
1595.911 272.794 L
1599.735 276.81 L
1598.471 273.937 L
1606.053 282.439 L
1608.687 284.753 L
1609.907 285.476 L
1613.339 288.27 L
1609.464 282.602 L
1619.032 295.399 L
1620.386 296.878 L
1622.6 298.857 L
1618.009 292.9 L
1619.355 293.273 L
1621.555 296.184 L
1619.443 293.276 L
1619.249 292.42 L
1623.164 296.582 L
1630.34 305.067 L
1631.77 307.418 L
1632.216 306.59 L
1633.557 308.746 L
1637.508 313.564 L
1634.717 308.698 L
1637.644 312.124 L
1637.575 311.614 L
1631.423 302.925 L
1633.913 305.803 L
1631.363 302.211 L
1634.041 305.241 L
1635.309 306.771 L
1638.237 309.779 L
1641.458 314.42 L
1641.074 313.785 L
1643.101 315.189 L
1643.731 315.693 L
1645.22 317.472 L
1645.978 318.464 L
1642.998 313.404 L
1642.941 312.661 L
1643.597 312.426 L
1641.607 310.286 L
1645.015 313.711 L
1646.883 316.008 L
1649.754 320.952 L
1647.308 315.692 L
1653.139 323.455 L
1655.205 326.43 L
1652.324 322.233 L
1653.681 323.461 L
1650.295 318.275 L
1653.697 322.037 L
1650.662 317.644 L
1650.562 316.736 L
1654.58 322.385 L
1658.971 328.146 L
1657.306 325.256 L
1658.209 325.801 L
1661.389 330.343 L
1662.677 331.72 L
1658.157 324.088 L
1656.036 320.948 L
1654.158 317.484 L
1652.413 314.922 L
1655.659 319.323 L
1658.528 322.218 L
1660.575 325.578 L
1660.051 324.837 L
1654.429 315.419 L
1655.984 318.344 L
1657.276 319.436 L
1658.675 319.64 L
1654.755 314.215 L
1659.769 321.426 L
1660.425 322.282 L
1663.558 326.366 L
1661.805 323.657 L
1667.483 331.349 L
1670.01 334.467 L
1672.438 338.49 L
1672.572 338.539 L
1672.978 337.909 L
1676.502 343.974 L
1681.248 350.261 L
1685.235 356.842 L
1684.103 354.591 L
1686.408 358.219 L
1692.909 368.932 L
1692.623 367.915 L
1692.902 368.367 L
1693.946 369.956 L
1694.204 368.948 L
1691.69 364.772 L
1688.502 359.06 L
1689.976 361.306 L
1689.346 360.069 L
1687.553 357.093 L
1685.742 354.547 L
1686.497 354.498 L
1688.601 358.076 L
1687.432 355.51 L
1690.001 358.509 L
1693.247 363.712 L
1690.76 360.071 L
1694.847 366.762 L
1696.173 367.717 L
1695.707 367.303 L
1698.78 371.733 L
1695.96 366.994 L
1697.583 369.654 L
1700.368 373.824 L
1703.977 379.322 L
1705.823 382.926 L
1702.076 376.266 L
1703.65 377.974 L
1706.07 381.96 L
1702.375 376.262 L
1704.62 379.139 L
1709.882 388.338 L
1709.124 386.906 L
1706.244 382.077 L
1708.957 386.844 L
1708.946 385.951 L
1706.314 381.542 L
1705.596 379.619 L
1707.918 382.582 L
1706.235 380.174 L
1705.972 379.62 L
1709.521 386.348 L
1709.729 386.085 L
1715.226 395.663 L
1718.164 400.828 L
1714.499 393.596 L
1715.028 394.671 L
1717.561 399.976 L
1719.529 402.316 L
1720.695 403.952 L
1718.972 401.513 L
1720.529 403.903 L
1721.022 405 L
1717.459 397.205 L
1716.343 394.932 L
1716.72 395.497 L
1720.089 403.02 L
1721.11 403.672 L
1721.292 404.505 L
1723.157 407.455 L
1720.206 401.738 L
1721.376 404.569 L
1724.767 409.986 L
1726.132 411.258 L
1725.388 410.795 L
1725.708 411.722 L
1722.418 404.918 L
1725.8 411.207 L
1730.895 421.193 L
1735.47 430.969 L
1736.501 432.589 L
1734.006 427.323 L
1737.141 431.459 L
1731.428 421.95 L
1729.275 417.2 L
1731.238 421.935 L
1732.876 423.791 L
1736.619 432.904 L
1739.56 437.741 L
1738.222 435.388 L
1739.855 437.637 L
1736.586 432.596 L
1737.488 433.077 L
1735.869 429.783 L
1736.301 430.822 L
1735.399 428.647 L
1734.845 428.334 L
1733.928 425.976 L
1733.926 425.233 L
1735.053 428.081 L
1737.555 433.026 L
1736.344 431.601 L
1737.822 433.621 L
1736.127 431.658 L
1738.753 434.347 L
1741.995 442.4 L
1740.428 439.925 L
1737.947 434.014 L
1740.133 438.153 L
1743.489 446.21 L
1744.315 447.14 L
1743.969 447.409 L
1742.198 442.509 L
1745.157 450.006 L
1741.474 441.278 L
1741.392 441.771 L
1745.924 451.562 L
1746.911 453.134 L
1746.853 453.658 L
1745.713 451.364 L
1745.477 451.45 L
1746.224 453.006 L
1747.678 456.493 L
1748.718 459.094 L
1752.425 466.712 L
1754.03 470.543 L
1753.647 471.126 L
1752.419 468.14 L
1753.283 469.674 L
1757.015 479.222 L
1759.181 484.378 L
1756.581 478.348 L
1755.124 475.22 L
1755.299 475.64 L
1758.239 482.714 L
1761.359 490.963 L
1761.296 490.585 L
1762.719 494.59 L
1763.791 497.539 L
1765.08 501.656 L
1765.237 502.312 L
1766.548 506.687 L
1765.886 503.47 L
1765.741 503.536 L
1768.267 509.515 L
1766.397 505.93 L
1766.176 505.098 L
1765.559 504.033 L
1768.377 511.515 L
1767.352 510.357 L
1765.122 502.9 L
1767.927 510.313 L
1766.123 507.163 L
1767.486 510.765 L
1767.043 509.345 L
1767.02 509.982 L
1765.76 507.862 L
1763.479 501.62 L
1762.224 497.677 L
1766.542 510.498 L
1767.221 513.013 L
1770.029 520.126 L
1774.021 531.137 L
1773.469 531.784 L
1774.657 535.553 L
1774.57 534.7 L
1775.204 537.592 L
1774.582 535.844 L
1776.015 540.033 L
1775.153 539.147 L
1775.493 538.833 L
1773.798 535.147 L
1772.897 532.812 L
1772.341 532.778 L
1774.314 538.036 L
1775.053 541.37 L
1774.894 540.308 L
1777.478 549.096 L
1779.036 553.925 L
1778.072 552.876 L
1777.948 552.423 L
1777.443 549.571 L
1776.472 547.937 L
1776.13 546.369 L
1774.721 542.975 L
1775.475 544.558 L
1775.764 548.5 L
1775.329 547.248 L
1776.467 549.735 L
1775.676 549.592 L
1776.08 550.186 L
1775.082 548.526 L
1773.19 541.764 L
1774.656 547.514 L
1776.001 553.162 L
1776.098 552.852 L
1773.766 544.545 L
1771.974 541.356 L
1771.862 541.027 L
1773.161 545.42 L
1777.109 558.425 L
1778.361 564.459 L
1778.686 565.927 L
1779.247 569.672 L
1781.828 577.427 L
1783.211 584.116 L
1782.185 580.603 L
1780.269 574.807 L
1779.317 572.404 L
1781.216 578.71 L
1780.244 577.763 L
1780.392 576.384 L
1780.057 577.877 L
1781.575 583.553 L
1782.478 587.538 L
1783.12 591.041 L
1783.076 591.89 L
1782.365 590.859 L
1784.194 595.856 L
1785.286 600.138 L
1783.727 599.545 L
1785.854 606.48 L
1787.274 614.158 L
1786.762 614.316 L
1790.4 626.415 L
1788.143 619.081 L
1788.026 622.838 L
1787.741 620.315 L
1787.407 618.426 L
1787.228 619.655 L
1785.376 614.416 L
1786.178 618.344 L
1784.816 613.591 L
1784.759 612.697 L
1785.721 619.036 L
1786.55 623.535 L
1787.711 629.765 L
1787.6 629.677 L
1786.349 625.553 L
1786.571 627.596 L
1785.167 623.783 L
1784.393 620.943 L
1784.648 623.217 L
1786.451 630.17 L
1787.662 636.86 L
1785.857 628.249 L
1786.513 632.196 L
1786.273 634.781 L
1787.484 638.902 L
1787.613 643.583 L
1788.076 647.106 L
1786.482 640.921 L
1788.477 649.714 L
1787.714 648.838 L
1787.105 647.716 L
1785.573 642.108 L
1786.728 647.309 L
1785.561 643.837 L
1785.571 646.161 L
1786.53 652.06 L
1787.68 657.938 L
1786.032 651.503 L
1785.208 649.725 L
1784.618 648.623 L
1784.129 647.502 L
1785.111 652.639 L
1784.109 648.826 L
1783.523 644.556 L
1781.824 640.047 L
1782.566 645.704 L
1784.355 655.225 L
1783.88 652.103 L
1782.543 649.218 L
1783.649 657.091 L
1784.516 659.897 L
1782.997 658.397 L
1783.796 661.824 L
1783.834 666.489 L
1783.449 665.383 L
1783.428 664.649 L
1784.521 670.43 L
1784.394 675.521 L
1784.025 675.762 L
1784.587 678.118 L
1783.29 673.247 L
1783.247 672.944 L
1783.236 675.591 L
1783.592 678.136 L
1783.431 681.035 L
1784.542 689.382 L
1783.43 683.645 L
1783.703 686.44 L
1784.209 692.626 L
1784.544 699.927 L
1783.825 697.939 L
1784.684 706.056 L
1783.939 699.889 L
1784.084 706.499 L
1783.262 698.64 L
1781.922 695.809 L
1781.037 691.56 L
1782.486 702.427 L
1783.008 708.989 L
1782.761 712.686 L
1781.798 704.998 L
1781.356 705.801 L
1781.488 709.461 L
1782.791 716.937 L
1781.627 714.71 L
1781.502 717.134 L
1781.071 714.672 L
1780.409 712.051 L
1780.557 715.805 L
1779.868 712.642 L
1777.823 701.868 L
1778.732 711.427 L
1778.98 713.923 L
1778.253 709.934 L
1776.635 708.789 L
1777.198 712.659 L
1776.756 712.953 L
1776.692 710.705 L
1777.385 720.375 L
1777.346 722.999 L
1777.66 729.145 L
1778.058 737.509 L
1777.962 737.467 L
1777.166 736.542 L
1777.035 740.509 L
1776.106 734.591 L
1776.077 736.693 L
1775.844 740.213 L
1775.925 737.897 L
1775.37 739.855 L
1774.6 742.883 L
1774.619 745.565 L
1775.283 756.413 L
1775.533 760.991 L
1774.809 753.102 L
1772.581 743.244 L
1773.107 747.78 L
1773.078 751.625 L
1772.553 753.59 L
1772.333 751.655 L
1772.563 756.949 L
1772.111 759.935 L
1772.82 771.357 L
1772.433 771.5 L
1771.621 773.475 L
1771.215 775.359 L
1771.527 783.156 L
1771.111 784.557 L
1771.356 801.879 L
1770.574 804.419 L
1770.52 797.822 L
1769.825 799.496 L
1769.488 800.382 L
1769.18 805.774 L
1768.939 804.128 L
1768.563 809.884 L
1768.392 805.554 L
1767.373 808.426 L
1767.035 811.288 L
1766.625 808.739 L
1766.329 811.607 L
1765.448 799.954 L
1765.283 793.632 L
1765.074 801.807 L
1764.735 804.091 L
1763.943 799.084 L
1763.171 800.142 L
1762.844 798.621 L
1762.749 799.024 L
1762.185 800.203 L
1761.948 810.402 L
1761.471 810.022 L
1760.89 811.41 L
1760.388 814.603 L
1759.749 814.028 L
1759.959 814.677 L
1759.611 819.638 L
1759.159 823.722 L
1759.002 816.704 L
1757.898 814.909 L
1757.42 816.414 L
1757.315 816.53 L
1756.303 824.916 L
1756.417 822.997 L
1755.391 819.812 L
1754.783 813.575 L
1754.542 815.66 L
1754.244 819.737 L
1753.646 823.698 L
1752.75 830.045 L
1753.03 839.226 L
1752.43 840.417 L
1751.46 841.658 L
1750.84 842.121 L
1750.579 844.87 L
1749.971 854.292 L
1749.176 853.786 L
1748.448 858.345 L
1747.738 864.094 L
1747.05 859.55 L
1746.722 864.397 L
1746.288 860.093 L
1745.877 854.365 L
1745.282 855.988 L
1743.976 857.32 L
1743.661 870.867 L
1742.601 870.792 L
1742.491 868.556 L
1742.124 862.984 L
1741.361 867.983 L
1740.391 871.618 L
1740.305 869.379 L
1738.951 876.456 L
1737.958 882.585 L
1736.568 887.586 L
1736.453 882.788 L
1736.702 879.558 L
1735.568 882.077 L
1733.259 896.623 L
1733.805 887.234 L
1733.892 881.818 L
1732.562 885.228 L
1732.304 886.889 L
1731.277 883.997 L
1731.497 880.572 L
1731.312 870.249 L
1730.444 873.383 L
1729.307 881.512 L
1728.228 884.025 L
1727.728 887.83 L
1727.29 882.266 L
1725.806 890.035 L
1725.265 890.542 L
1724.067 895.245 L
1724.284 891.179 L
1722.854 892.704 L
1722.273 890.997 L
1721.712 892.728 L
1720.534 895.261 L
1718.957 900.032 L
1718.219 905.303 L
1716.592 912.04 L
1717.271 903.381 L
1716.678 906.017 L
1714.915 909.165 L
1714.755 910.779 L
1714.155 910.502 L
1712.181 915.631 L
1711.023 919.789 L
1710.852 914.833 L
1709.009 925.783 L
1708.288 924.771 L
1706.475 937.619 L
1705.436 935.597 L
1705.08 932.319 L
1706.577 919.302 L
1703.84 933.228 L
1703.773 927.833 L
1703.557 924.894 L
1700.758 939.18 L
1700.222 938.165 L
1699.511 937.43 L
1698.256 943.64 L
1696.616 948.911 L
1694.929 956.375 L
1693.326 960.669 L
1692.038 962.907 L
1692.631 955.499 L
1690.943 957.716 L
1691.336 955.862 L
1689.859 957.478 L
1689.589 957.293 L
1689.828 954.308 L
1689.158 951.798 L
1688.636 949.822 L
1688.906 945.63 L
1686.289 958.277 L
1683.205 967.278 L
1682.62 967.094 L
1682.969 963.717 L
1681.458 967.58 L
1681.008 964.451 L
1678.725 974.208 L
1677.978 972.218 L
1676.698 974.926 L
1678.609 963.764 L
1677.073 966.326 L
1675.427 968.898 L
1674.546 970.857 L
1674.415 969.885 L
1672.728 971.262 L
1670.289 978.875 L
1668.739 981.654 L
1668.437 980.045 L
1666.811 987.192 L
1664.765 990.651 L
1665.143 985.547 L
1663.331 988.385 L
1661.236 995.255 L
1658.937 1003.128 L
1658.437 999.243 L
1658.839 997.294 L
1659.453 989.814 L
1657.614 992.929 L
1656.749 993.985 L
1656.467 994.08 L
1655.175 994.959 L
1655.295 991.863 L
1652.653 996.631 L
1653.242 992.614 L
1652.384 992.669 L
1650.271 996.87 L
1648.134 1001.44 L
1647.172 1000.886 L
1647.983 996.311 L
1647.075 997.659 L
1643.794 1006.627 L
1643.115 1005.095 L
1642.656 1004.942 L
1642.358 1003.151 L
1644.097 993.809 L
1640.433 1004.668 L
1639.554 1002.667 L
1638.594 1003.844 L
1638.077 1001.005 L
1635.691 1009.126 L
1637.785 998.634 L
1636.642 998.853 L
1634.744 1001.185 L
1635.023 995.317 L
1633.468 999.214 L
1633.027 997.148 L
1630.919 1003.568 L
1629.274 1005.863 L
1627.476 1009.413 L
1626.942 1007.295 L
1625.585 1011.161 L
1623.513 1013.842 L
1620.183 1021.983 L
1618.322 1027.361 L
1618.464 1022.35 L
1615.824 1027.639 L
1616.454 1024.048 L
1615.548 1022.726 L
1613.781 1025.761 L
1612.05 1028.311 L
1611.905 1025.842 L
1611.299 1025.797 L
1610.306 1025.379 L
1608.563 1028.543 L
1609.225 1021.422 L
1608.877 1020.547 L
1610.391 1012.457 L
1610.11 1009.313 L
1608.195 1012.466 L
1606.066 1018.13 L
1604.232 1019.709 L
1601.645 1024.657 L
1601.701 1022.161 L
1601.395 1019.951 L
1600.288 1020.01 L
1600.304 1017.552 L
1598.27 1018.656 L
1595.818 1026.146 L
1595.979 1023.012 L
1591.066 1035.368 L
1589.804 1035.716 L
1587.246 1040.53 L
1582.285 1050.415 L
1580.426 1053.057 L
1581.263 1048.021 L
1577.88 1055.301 L
1577.064 1054.61 L
1575.925 1054.375 L
1575.972 1051.357 L
1575.86 1049.936 L
1571.436 1060.173 L
1570.005 1058.147 L
1565.99 1067.106 L
1564.76 1067.683 L
1565.655 1063.107 L
1564.447 1062.784 L
1565.366 1057.097 L
1562.383 1062.726 L
1560.818 1063.221 L
1560.651 1061.272 L
1558.774 1063.822 L
1557.375 1065.502 L
1554.892 1067.632 L
1554.293 1068.306 L
1551.37 1071.96 L
1550.565 1070.604 L
1548.673 1071.912 L
1548.474 1070.766 L
1546.281 1072.247 L
1550.004 1061.965 L
1551.477 1054.613 L
1547.97 1059.345 L
1546.057 1061.676 L
1545.122 1060.875 L
1542.125 1065.261 L
1540.265 1065.846 L
1537.481 1069.386 L
1533.318 1076.986 L
1528.854 1084.44 L
1529.346 1079.488 L
1526.917 1081.585 L
1525.509 1082.357 L
1525.53 1078.086 L
1528.008 1069.89 L
1527.09 1070.981 L
1524.128 1073.149 L
1525.615 1066.429 L
1522.477 1071.938 L
1520.249 1072.39 L
1518.086 1075.657 L
1513.712 1082.074 L
1511.175 1084.746 L
1511.584 1081.496 L
1509.647 1082.654 L
1508.255 1083.512 L
1505.609 1086.065 L
1506.061 1083.023 L
1500.031 1092.047 L
1496.981 1095.922 L
1497.213 1093.075 L
1495.027 1095.343 L
1492.513 1097.854 L
1491.094 1097.562 L
1493.663 1089.844 L
1487.445 1100.406 L
1484.991 1102.41 L
1481.647 1105.17 L
1483.893 1098.659 L
1478.467 1106.996 L
1479.339 1103.147 L
1480.342 1098.615 L
1477.888 1100.552 L
1477.618 1098.355 L
1476.146 1098.785 L
1473.754 1101.309 L
1470.952 1103.738 L
1470.05 1102.839 L
1467.084 1106.023 L
1466.213 1104.781 L
1465.945 1103.43 L
1464.795 1102.411 L
1464.861 1101.266 L
1468.026 1091.769 L
1466.364 1092.215 L
1459.429 1103.616 L
1457.886 1102.892 L
1454.983 1105.133 L
1456.922 1099.945 L
1454.601 1101.4 L
1452.967 1102.023 L
1451.26 1102.474 L
1450.083 1101.745 L
1449.393 1101.509 L
1447.645 1102.265 L
1448.079 1099.167 L
1446.3 1099.625 L
1444.863 1099.717 L
1441.289 1102.847 L
1434.549 1112.38 L
1432.403 1114.502 L
1431.597 1113.062 L
1431.53 1111.219 L
1428.149 1114.714 L
1423.879 1119.1 L
1422.679 1118.447 L
1419.705 1121.052 L
1418.947 1119.381 L
1417.129 1120.034 L
1417.008 1117.865 L
1419.085 1112.051 L
1417.635 1111.887 L
1414.409 1115.167 L
1412.492 1116.676 L
1410.712 1116.453 L
1408.56 1116.944 L
1405.421 1119.608 L
1404.778 1118.402 L
1406.474 1114.389 L
1403.016 1116.581 L
1404.236 1112.727 L
1402.852 1113.464 L
1395.704 1120.573 L
1391.964 1124.824 L
1392.143 1122.475 L
1394.533 1116.794 L
1394.761 1113.219 L
1399.88 1103.315 L
1399.065 1102.234 L
1393.662 1108.374 L
1394.888 1103.136 L
1391.096 1106.985 L
1388.15 1109.579 L
1387.514 1107.561 L
1381.167 1113.459 L
1378.044 1116.97 L
1377.787 1114.182 L
1376.424 1114.455 L
1371.056 1119.435 L
1374.29 1113.676 L
1372.921 1113.723 L
1367.84 1118.452 L
1364.583 1121.135 L
1358.662 1126.811 L
1352.848 1133.319 L
1353.817 1129.777 L
1354.28 1126.791 L
1354.738 1124.389 L
1357.436 1118.511 L
1351.012 1125.082 L
1353.606 1119.197 L
1347.748 1125.149 L
1349.274 1120.283 L
1348.618 1119.047 L
1350.327 1114.873 L
1347.506 1116.008 L
1344.954 1116.86 L
1343.938 1116.36 L
1344.802 1113.194 L
1343.276 1112.678 L
1344.685 1108.824 L
1338.638 1113.854 L
1338.612 1112.842 L
1338.052 1110.932 L
1335.893 1110.996 L
1336.663 1108.371 L
1334.136 1109.945 L
1331.034 1111.962 L
1333.776 1106.184 L
1330.125 1108.394 L
1328.27 1108.84 L
1327.087 1108.254 L
1322.737 1111.751 L
1318.436 1116.2 L
1321.667 1108.949 L
1317.494 1112.045 L
1312.238 1117.32 L
1308.94 1119.294 L
1309.668 1115.891 L
1308.697 1114.782 L
1312.219 1108.247 L
1312.153 1106.877 L
1308.979 1107.95 L
1303.379 1112.512 L
1303.008 1111.101 L
1300.514 1112.256 L
1303.822 1106.194 L
1299.863 1108.796 L
1297.784 1108.598 L
1300.257 1103.513 L
1292.77 1110.782 L
1287.322 1115.184 L
1286.19 1114.522 L
1285.059 1113.144 L
1290.601 1104.256 L
1290.911 1101.977 L
1288.19 1102.266 L
1284.451 1105.063 L
1279.874 1108.465 L
1276.999 1109.741 L
1275.12 1109.379 L
1272.319 1110.526 L
1266.756 1114.814 L
1272.216 1106.889 L
1264.895 1111.989 L
1262.907 1112.897 L
1253.727 1120.844 L
1256.914 1115.012 L
1259.21 1111.315 L
1257.051 1110.497 L
1259.616 1106.84 L
1253.342 1111.596 L
1251.832 1110.492 L
1248.533 1112.136 L
1246.339 1111.917 L
1246.794 1109.581 L
1247.428 1106.64 L
1245.598 1106.492 L
1248.24 1101.991 L
1240.135 1108.554 L
1241.632 1104.805 L
1240.652 1103.705 L
1233.293 1109.152 L
1237.828 1102.396 L
1240.27 1097.534 L
1239.426 1095.85 L
1237.854 1095.072 L
1241.083 1088.814 L
1231.219 1098.72 L
1238.046 1088.727 L
1232.28 1091.572 L
1229.906 1092.85 L
1219.633 1101.051 L
1220.27 1098.39 L
1223.428 1092.433 L
1221.78 1091.826 L
1215.565 1096.39 L
1216.126 1093.376 L
1209.404 1097.805 L
1207.097 1097.719 L
1204.329 1098.894 L
1206.79 1094.32 L
1207.98 1091.085 L
1206.741 1090.468 L
1205.953 1089.078 L
1208.841 1084.344 L
1202.751 1088.297 L
1207.501 1081.014 L
1208.911 1077.332 L
1207.14 1077.895 L
1203.375 1080.091 L
1205.552 1075.492 L
1197.652 1081.327 L
1195.304 1081.043 L
1188.895 1085.768 L
1192.362 1080.467 L
1184.792 1086.075 L
1182.953 1084.704 L
1188.296 1078.883 L
1189.632 1075.133 L
1190.49 1071.646 L
1185.882 1073.903 L
1181.134 1076.017 L
1181.073 1073.282 L
1181.83 1070.971 L
1180.613 1070.002 L
1178.331 1069.86 L
1171.725 1074.257 L
1163.517 1079.27 L
1163.95 1077.316 L
1165.258 1073.047 L
1164.365 1071.852 L
1167.986 1067.516 L
1165.523 1067.488 L
1158.096 1070.915 L
1153.767 1072.777 L
1156.113 1068.443 L
1155.181 1068.001 L
1155.981 1064.211 L
1150.508 1068.071 L
1151.873 1064.557 L
1144.742 1068.261 L
1144.961 1066.308 L
1146.45 1063.188 L
1146.547 1060.547 L
1151.901 1053.774 L
1151.878 1051.472 L
1152.047 1048.798 L
1154.448 1044.7 L
1150.122 1046.426 L
1149.677 1044.375 L
1150.779 1041.733 L
1144.869 1045.24 L
1144.366 1042.501 L
1141.23 1043.702 L
1133.151 1049.109 L
1129.191 1050.796 L
1127.555 1049.281 L
1124.553 1049.836 L
1119.576 1051.837 L
1124.726 1045.076 L
1129.324 1039.814 L
1126.639 1039.524 L
1120.666 1042.475 L
1116.512 1044.493 L
1119.788 1039.31 L
1113.41 1042.471 L
1114.28 1039.508 L
1111.479 1039.588 L
1114.86 1034.121 L
1115.728 1031.924 L
1115.257 1029.977 L
1113.57 1030.134 L
1113.1 1028.537 L
1106.594 1031.922 L
1103.879 1031.566 L
1102.472 1030.721 L
1102.204 1028.914 L
1100.473 1028.012 L
1092.557 1032.435 L
1090.584 1031.843 L
1099.567 1022.946 L
1099.849 1020.796 L
1100.743 1018.003 L
1097.499 1019.224 L
1096.6 1017.882 L
1094.332 1017.275 L
1092.232 1016.519 L
1095.079 1012.633 L
1091.054 1013.823 L
1085.831 1015.719 L
1077.516 1020.635 L
1079.282 1016.959 L
1079.085 1015.305 L
1082.398 1011.488 L
1086.415 1005.486 L
1081.073 1007.724 L
1083.173 1003.783 L
1082.48 1002.605 L
1078.334 1003.442 L
1073.759 1005.514 L
1078.532 999.603 L
1076.993 999.295 L
1075.001 998.288 L
1071.366 998.846 L
1069.459 998.869 L
1064.867 1000.029 L
1067.882 995.624 L
1070.613 992.259 L
1077.029 984.411 L
1067.631 990.512 L
1060.161 993.89 L
1063.676 989.571 L
1062.068 988.118 L
1060.742 987.422 L
1066.265 980.916 L
1065.63 979.294 L
1063.397 979.017 L
1061.142 979.178 L
1058.487 979.052 L
1055.537 978.537 L
1053.094 977.666 L
1052.376 976.939 L
1046.572 979.143 L
1039.88 981.081 L
1043.432 977.511 L
1051.404 969.625 L
1051.51 966.519 L
1048.845 966.968 L
1049.473 964.497 L
1049.482 962.842 L
1048.064 962.07 L
1044.378 962.332 L
1038.354 964.873 L
1038.913 962.58 L
1035.934 962.906 L
1035.635 960.592 L
1036.518 958.205 L
1040.123 953.584 L
1034.785 956.01 L
1036.87 952.079 L
1037.966 950.896 L
1037.523 951.084 L
1039.519 949.636 L
1035.57 952.752 L
1035.321 953.115 L
1035.695 952.827 L
1032.842 954.333 L
1030.152 956.744 L
1029.511 956.978 L
1035.411 953.206 L
1032.4 954.828 L
S
GR
GS
[0.75 0 0 0.75 699.75 611.75] CT
0 0.447 0.741 RC
10.0 ML
N
0 -10 M
0 10 L
-10 0 M
10 0 L
-7.071 -7.071 M
7.071 7.071 L
-7.071 7.071 M
7.071 -7.071 L
S
GR
GS
[0.75 0 0 0.75 0 0.5] CT
1 GC
N
1815 246 M
1815 112 L
1528 112 L
1528 246 L
cp
f
GR
GS
[0.75 0 0 0.75 1181.25 102.125] CT
/Helvetica 36 F
GS
[1 0 0 1 0 0] CT
0 12.5 moveto 
1 -1 scale
(True position) t 
GR
GR
GS
[0.75 0 0 0.75 0 0.5] CT
1 LJ
0.667 LW
N
1532 135.5 M
1572 135.5 L
S
GR
GS
[0.75 0 0 0.75 1181.25 134.75] CT
/Helvetica 36 F
GS
[1 0 0 1 0 0] CT
0 12.5 moveto 
1 -1 scale
(EKF) t 
GR
GR
GS
[0.75 0 0 0.75 0 0.5] CT
0 0 1 RC
1 LJ
0.667 LW
N
1532 179 M
1572 179 L
S
GR
GS
[0.75 0 0 0.75 1181.25 167.375] CT
/Helvetica 36 F
GS
[1 0 0 1 0 0] CT
0 12.5 moveto 
1 -1 scale
(Base station) t 
GR
GR
GS
[0.75 0 0 0.75 1164 167.375] CT
0 0.447 0.741 RC
10.0 ML
N
0 -10 M
0 10 L
-10 0 M
10 0 L
-7.071 -7.071 M
7.071 7.071 L
-7.071 7.071 M
7.071 -7.071 L
S
GR
GS
[0.75 0 0 0.75 0 0.5] CT
0.149 GC
10.0 ML
0.667 LW
N
1528 246 M
1528 112 L
1815 112 L
1815 246 L
cp
S
GR
%%Trailer
%%Pages: 1
%%EOF
