%!PS-Adobe-3.0 EPSF-3.0
%%Creator: (MATLAB, The Mathworks, Inc. Version 9.3.0.713579 \(R2017b\). Operating System: Linux)
%%Title: /home/micke/ExamensarbeteCybercom/Resultplots/longrangeoffsetrot.eps
%%CreationDate: 2018-04-30T12:49:16
%%Pages: (atend)
%%BoundingBox: 0 0 1871 989
%%LanguageLevel: 3
%%EndComments
%%BeginProlog
%%BeginResource: procset (Apache XML Graphics Std ProcSet) 1.2 0
%%Version: 1.2 0
%%Copyright: (Copyright 2001-2003,2010 The Apache Software Foundation. License terms: http://www.apache.org/licenses/LICENSE-2.0)
/bd{bind def}bind def
/ld{load def}bd
/GR/grestore ld
/GS/gsave ld
/RM/rmoveto ld
/C/curveto ld
/t/show ld
/L/lineto ld
/ML/setmiterlimit ld
/CT/concat ld
/f/fill ld
/N/newpath ld
/S/stroke ld
/CC/setcmykcolor ld
/A/ashow ld
/cp/closepath ld
/RC/setrgbcolor ld
/LJ/setlinejoin ld
/GC/setgray ld
/LW/setlinewidth ld
/M/moveto ld
/re {4 2 roll M
1 index 0 rlineto
0 exch rlineto
neg 0 rlineto
cp } bd
/_ctm matrix def
/_tm matrix def
/BT { _ctm currentmatrix pop matrix _tm copy pop 0 0 moveto } bd
/ET { _ctm setmatrix } bd
/iTm { _ctm setmatrix _tm concat } bd
/Tm { _tm astore pop iTm 0 0 moveto } bd
/ux 0.0 def
/uy 0.0 def
/F {
  /Tp exch def
  /Tf exch def
  Tf findfont Tp scalefont setfont
  /cf Tf def  /cs Tp def
} bd
/ULS {currentpoint /uy exch def /ux exch def} bd
/ULE {
  /Tcx currentpoint pop def
  gsave
  newpath
  cf findfont cs scalefont dup
  /FontMatrix get 0 get /Ts exch def /FontInfo get dup
  /UnderlinePosition get Ts mul /To exch def
  /UnderlineThickness get Ts mul /Tt exch def
  ux uy To add moveto  Tcx uy To add lineto
  Tt setlinewidth stroke
  grestore
} bd
/OLE {
  /Tcx currentpoint pop def
  gsave
  newpath
  cf findfont cs scalefont dup
  /FontMatrix get 0 get /Ts exch def /FontInfo get dup
  /UnderlinePosition get Ts mul /To exch def
  /UnderlineThickness get Ts mul /Tt exch def
  ux uy To add cs add moveto Tcx uy To add cs add lineto
  Tt setlinewidth stroke
  grestore
} bd
/SOE {
  /Tcx currentpoint pop def
  gsave
  newpath
  cf findfont cs scalefont dup
  /FontMatrix get 0 get /Ts exch def /FontInfo get dup
  /UnderlinePosition get Ts mul /To exch def
  /UnderlineThickness get Ts mul /Tt exch def
  ux uy To add cs 10 mul 26 idiv add moveto Tcx uy To add cs 10 mul 26 idiv add lineto
  Tt setlinewidth stroke
  grestore
} bd
/QT {
/Y22 exch store
/X22 exch store
/Y21 exch store
/X21 exch store
currentpoint
/Y21 load 2 mul add 3 div exch
/X21 load 2 mul add 3 div exch
/X21 load 2 mul /X22 load add 3 div
/Y21 load 2 mul /Y22 load add 3 div
/X22 load /Y22 load curveto
} bd
/SSPD {
dup length /d exch dict def
{
/v exch def
/k exch def
currentpagedevice k known {
/cpdv currentpagedevice k get def
v cpdv ne {
/upd false def
/nullv v type /nulltype eq def
/nullcpdv cpdv type /nulltype eq def
nullv nullcpdv or
{
/upd true def
} {
/sametype v type cpdv type eq def
sametype {
v type /arraytype eq {
/vlen v length def
/cpdvlen cpdv length def
vlen cpdvlen eq {
0 1 vlen 1 sub {
/i exch def
/obj v i get def
/cpdobj cpdv i get def
obj cpdobj ne {
/upd true def
exit
} if
} for
} {
/upd true def
} ifelse
} {
v type /dicttype eq {
v {
/dv exch def
/dk exch def
/cpddv cpdv dk get def
dv cpddv ne {
/upd true def
exit
} if
} forall
} {
/upd true def
} ifelse
} ifelse
} if
} ifelse
upd true eq {
d k v put
} if
} if
} if
} forall
d length 0 gt {
d setpagedevice
} if
} bd
/RE { % /NewFontName [NewEncodingArray] /FontName RE -
  findfont dup length dict begin
  {
    1 index /FID ne
    {def} {pop pop} ifelse
  } forall
  /Encoding exch def
  /FontName 1 index def
  currentdict definefont pop
  end
} bind def
%%EndResource
%%BeginResource: procset (Apache XML Graphics EPS ProcSet) 1.0 0
%%Version: 1.0 0
%%Copyright: (Copyright 2002-2003 The Apache Software Foundation. License terms: http://www.apache.org/licenses/LICENSE-2.0)
/BeginEPSF { %def
/b4_Inc_state save def         % Save state for cleanup
/dict_count countdictstack def % Count objects on dict stack
/op_count count 1 sub def      % Count objects on operand stack
userdict begin                 % Push userdict on dict stack
/showpage { } def              % Redefine showpage, { } = null proc
0 setgray 0 setlinecap         % Prepare graphics state
1 setlinewidth 0 setlinejoin
10 setmiterlimit [ ] 0 setdash newpath
/languagelevel where           % If level not equal to 1 then
{pop languagelevel             % set strokeadjust and
1 ne                           % overprint to their defaults.
{false setstrokeadjust false setoverprint
} if
} if
} bd
/EndEPSF { %def
count op_count sub {pop} repeat            % Clean up stacks
countdictstack dict_count sub {end} repeat
b4_Inc_state restore
} bd
%%EndResource
%FOPBeginFontDict
%%IncludeResource: font Courier-Oblique
%%IncludeResource: font Courier-BoldOblique
%%IncludeResource: font Courier-Bold
%%IncludeResource: font ZapfDingbats
%%IncludeResource: font Symbol
%%IncludeResource: font Helvetica
%%IncludeResource: font Helvetica-Oblique
%%IncludeResource: font Helvetica-Bold
%%IncludeResource: font Helvetica-BoldOblique
%%IncludeResource: font Times-Roman
%%IncludeResource: font Times-Italic
%%IncludeResource: font Times-Bold
%%IncludeResource: font Times-BoldItalic
%%IncludeResource: font Courier
%FOPEndFontDict
%%BeginResource: encoding WinAnsiEncoding
/WinAnsiEncoding [
/.notdef /.notdef /.notdef /.notdef /.notdef
/.notdef /.notdef /.notdef /.notdef /.notdef
/.notdef /.notdef /.notdef /.notdef /.notdef
/.notdef /.notdef /.notdef /.notdef /.notdef
/.notdef /.notdef /.notdef /.notdef /.notdef
/.notdef /.notdef /.notdef /.notdef /.notdef
/.notdef /.notdef /space /exclam /quotedbl
/numbersign /dollar /percent /ampersand /quotesingle
/parenleft /parenright /asterisk /plus /comma
/hyphen /period /slash /zero /one
/two /three /four /five /six
/seven /eight /nine /colon /semicolon
/less /equal /greater /question /at
/A /B /C /D /E
/F /G /H /I /J
/K /L /M /N /O
/P /Q /R /S /T
/U /V /W /X /Y
/Z /bracketleft /backslash /bracketright /asciicircum
/underscore /quoteleft /a /b /c
/d /e /f /g /h
/i /j /k /l /m
/n /o /p /q /r
/s /t /u /v /w
/x /y /z /braceleft /bar
/braceright /asciitilde /bullet /Euro /bullet
/quotesinglbase /florin /quotedblbase /ellipsis /dagger
/daggerdbl /circumflex /perthousand /Scaron /guilsinglleft
/OE /bullet /Zcaron /bullet /bullet
/quoteleft /quoteright /quotedblleft /quotedblright /bullet
/endash /emdash /asciitilde /trademark /scaron
/guilsinglright /oe /bullet /zcaron /Ydieresis
/space /exclamdown /cent /sterling /currency
/yen /brokenbar /section /dieresis /copyright
/ordfeminine /guillemotleft /logicalnot /sfthyphen /registered
/macron /degree /plusminus /twosuperior /threesuperior
/acute /mu /paragraph /middot /cedilla
/onesuperior /ordmasculine /guillemotright /onequarter /onehalf
/threequarters /questiondown /Agrave /Aacute /Acircumflex
/Atilde /Adieresis /Aring /AE /Ccedilla
/Egrave /Eacute /Ecircumflex /Edieresis /Igrave
/Iacute /Icircumflex /Idieresis /Eth /Ntilde
/Ograve /Oacute /Ocircumflex /Otilde /Odieresis
/multiply /Oslash /Ugrave /Uacute /Ucircumflex
/Udieresis /Yacute /Thorn /germandbls /agrave
/aacute /acircumflex /atilde /adieresis /aring
/ae /ccedilla /egrave /eacute /ecircumflex
/edieresis /igrave /iacute /icircumflex /idieresis
/eth /ntilde /ograve /oacute /ocircumflex
/otilde /odieresis /divide /oslash /ugrave
/uacute /ucircumflex /udieresis /yacute /thorn
/ydieresis
] def
%%EndResource
%FOPBeginFontReencode
/Courier-Oblique findfont
dup length dict begin
  {1 index /FID ne {def} {pop pop} ifelse} forall
  /Encoding WinAnsiEncoding def
  currentdict
end
/Courier-Oblique exch definefont pop
/Courier-BoldOblique findfont
dup length dict begin
  {1 index /FID ne {def} {pop pop} ifelse} forall
  /Encoding WinAnsiEncoding def
  currentdict
end
/Courier-BoldOblique exch definefont pop
/Courier-Bold findfont
dup length dict begin
  {1 index /FID ne {def} {pop pop} ifelse} forall
  /Encoding WinAnsiEncoding def
  currentdict
end
/Courier-Bold exch definefont pop
/Helvetica findfont
dup length dict begin
  {1 index /FID ne {def} {pop pop} ifelse} forall
  /Encoding WinAnsiEncoding def
  currentdict
end
/Helvetica exch definefont pop
/Helvetica-Oblique findfont
dup length dict begin
  {1 index /FID ne {def} {pop pop} ifelse} forall
  /Encoding WinAnsiEncoding def
  currentdict
end
/Helvetica-Oblique exch definefont pop
/Helvetica-Bold findfont
dup length dict begin
  {1 index /FID ne {def} {pop pop} ifelse} forall
  /Encoding WinAnsiEncoding def
  currentdict
end
/Helvetica-Bold exch definefont pop
/Helvetica-BoldOblique findfont
dup length dict begin
  {1 index /FID ne {def} {pop pop} ifelse} forall
  /Encoding WinAnsiEncoding def
  currentdict
end
/Helvetica-BoldOblique exch definefont pop
/Times-Roman findfont
dup length dict begin
  {1 index /FID ne {def} {pop pop} ifelse} forall
  /Encoding WinAnsiEncoding def
  currentdict
end
/Times-Roman exch definefont pop
/Times-Italic findfont
dup length dict begin
  {1 index /FID ne {def} {pop pop} ifelse} forall
  /Encoding WinAnsiEncoding def
  currentdict
end
/Times-Italic exch definefont pop
/Times-Bold findfont
dup length dict begin
  {1 index /FID ne {def} {pop pop} ifelse} forall
  /Encoding WinAnsiEncoding def
  currentdict
end
/Times-Bold exch definefont pop
/Times-BoldItalic findfont
dup length dict begin
  {1 index /FID ne {def} {pop pop} ifelse} forall
  /Encoding WinAnsiEncoding def
  currentdict
end
/Times-BoldItalic exch definefont pop
/Courier findfont
dup length dict begin
  {1 index /FID ne {def} {pop pop} ifelse} forall
  /Encoding WinAnsiEncoding def
  currentdict
end
/Courier exch definefont pop
%FOPEndFontReencode
%%EndProlog
%%Page: 1 1
%%PageBoundingBox: 0 0 1871 989
%%BeginPageSetup
[1 0 0 -1 0 989] CT
%%EndPageSetup
GS
[0.75 0 0 0.75 0 0.5] CT
N
0 0 M
2495 0 L
2495 1318 L
0 1318 L
0 0 L
cp
clip
1 GC
N
0 0 2495 1318 re
f
GR
GS
[0.75 0 0 0.75 0 0.5] CT
1 GC
N
0 0 2495 1318 re
f
GR
GS
[0.75 0 0 0.75 0 0.5] CT
1 GC
N
821.125 1173 M
1760.875 1173 L
1760.875 99 L
821.125 99 L
cp
f
GR
GS
[0.75 0 0 0.75 0 0.5] CT
0.149 GC
2 setlinecap
1 LJ
0.667 LW
N
821.125 1173 M
1760.875 1173 L
S
GR
GS
[0.75 0 0 0.75 0 0.5] CT
0.149 GC
2 setlinecap
1 LJ
0.667 LW
N
821.125 99 M
1760.875 99 L
S
GR
GS
[0.75 0 0 0.75 0 0.5] CT
0.149 GC
2 setlinecap
1 LJ
0.667 LW
N
877.143 1173 M
877.143 1162.26 L
S
GR
GS
[0.75 0 0 0.75 0 0.5] CT
0.149 GC
2 setlinecap
1 LJ
0.667 LW
N
1126.782 1173 M
1126.782 1162.26 L
S
GR
GS
[0.75 0 0 0.75 0 0.5] CT
0.149 GC
2 setlinecap
1 LJ
0.667 LW
N
1376.421 1173 M
1376.421 1162.26 L
S
GR
GS
[0.75 0 0 0.75 0 0.5] CT
0.149 GC
2 setlinecap
1 LJ
0.667 LW
N
1626.06 1173 M
1626.06 1162.26 L
S
GR
GS
[0.75 0 0 0.75 0 0.5] CT
0.149 GC
2 setlinecap
1 LJ
0.667 LW
N
877.143 99 M
877.143 109.74 L
S
GR
GS
[0.75 0 0 0.75 0 0.5] CT
0.149 GC
2 setlinecap
1 LJ
0.667 LW
N
1126.782 99 M
1126.782 109.74 L
S
GR
GS
[0.75 0 0 0.75 0 0.5] CT
0.149 GC
2 setlinecap
1 LJ
0.667 LW
N
1376.421 99 M
1376.421 109.74 L
S
GR
GS
[0.75 0 0 0.75 0 0.5] CT
0.149 GC
2 setlinecap
1 LJ
0.667 LW
N
1626.06 99 M
1626.06 109.74 L
S
GR
GS
[0.75 0 0 0.75 657.85703 888.25006] CT
0.149 GC
/Helvetica 40 F
GS
[1 0 0 1 0 0] CT
-33 38 moveto 
1 -1 scale
(-28) t 
GR
GR
GS
[0.75 0 0 0.75 845.0864 888.25006] CT
0.149 GC
/Helvetica 40 F
GS
[1 0 0 1 0 0] CT
-33 38 moveto 
1 -1 scale
(-26) t 
GR
GR
GS
[0.75 0 0 0.75 1032.31567 888.25006] CT
0.149 GC
/Helvetica 40 F
GS
[1 0 0 1 0 0] CT
-33 38 moveto 
1 -1 scale
(-24) t 
GR
GR
GS
[0.75 0 0 0.75 1219.54504 888.25006] CT
0.149 GC
/Helvetica 40 F
GS
[1 0 0 1 0 0] CT
-33 38 moveto 
1 -1 scale
(-22) t 
GR
GR
GS
[0.75 0 0 0.75 968.25027 925.25] CT
0.149 GC
/Helvetica 44 F
GS
[1 0 0 1 0 0] CT
-153 41 moveto 
1 -1 scale
(x position [m]) t 
GR
GR
GS
[0.75 0 0 0.75 0 0.5] CT
0.149 GC
2 setlinecap
1 LJ
0.667 LW
N
821.125 1173 M
821.125 99 L
S
GR
GS
[0.75 0 0 0.75 0 0.5] CT
0.149 GC
2 setlinecap
1 LJ
0.667 LW
N
1760.875 1173 M
1760.875 99 L
S
GR
GS
[0.75 0 0 0.75 0 0.5] CT
0.149 GC
2 setlinecap
1 LJ
0.667 LW
N
821.125 1143.315 M
831.865 1143.315 L
S
GR
GS
[0.75 0 0 0.75 0 0.5] CT
0.149 GC
2 setlinecap
1 LJ
0.667 LW
N
821.125 1018.496 M
831.865 1018.496 L
S
GR
GS
[0.75 0 0 0.75 0 0.5] CT
0.149 GC
2 setlinecap
1 LJ
0.667 LW
N
821.125 893.676 M
831.865 893.676 L
S
GR
GS
[0.75 0 0 0.75 0 0.5] CT
0.149 GC
2 setlinecap
1 LJ
0.667 LW
N
821.125 768.857 M
831.865 768.857 L
S
GR
GS
[0.75 0 0 0.75 0 0.5] CT
0.149 GC
2 setlinecap
1 LJ
0.667 LW
N
821.125 644.037 M
831.865 644.037 L
S
GR
GS
[0.75 0 0 0.75 0 0.5] CT
0.149 GC
2 setlinecap
1 LJ
0.667 LW
N
821.125 519.217 M
831.865 519.217 L
S
GR
GS
[0.75 0 0 0.75 0 0.5] CT
0.149 GC
2 setlinecap
1 LJ
0.667 LW
N
821.125 394.398 M
831.865 394.398 L
S
GR
GS
[0.75 0 0 0.75 0 0.5] CT
0.149 GC
2 setlinecap
1 LJ
0.667 LW
N
821.125 269.578 M
831.865 269.578 L
S
GR
GS
[0.75 0 0 0.75 0 0.5] CT
0.149 GC
2 setlinecap
1 LJ
0.667 LW
N
821.125 144.759 M
831.865 144.759 L
S
GR
GS
[0.75 0 0 0.75 0 0.5] CT
0.149 GC
2 setlinecap
1 LJ
0.667 LW
N
1760.875 1143.315 M
1750.135 1143.315 L
S
GR
GS
[0.75 0 0 0.75 0 0.5] CT
0.149 GC
2 setlinecap
1 LJ
0.667 LW
N
1760.875 1018.496 M
1750.135 1018.496 L
S
GR
GS
[0.75 0 0 0.75 0 0.5] CT
0.149 GC
2 setlinecap
1 LJ
0.667 LW
N
1760.875 893.676 M
1750.135 893.676 L
S
GR
GS
[0.75 0 0 0.75 0 0.5] CT
0.149 GC
2 setlinecap
1 LJ
0.667 LW
N
1760.875 768.857 M
1750.135 768.857 L
S
GR
GS
[0.75 0 0 0.75 0 0.5] CT
0.149 GC
2 setlinecap
1 LJ
0.667 LW
N
1760.875 644.037 M
1750.135 644.037 L
S
GR
GS
[0.75 0 0 0.75 0 0.5] CT
0.149 GC
2 setlinecap
1 LJ
0.667 LW
N
1760.875 519.217 M
1750.135 519.217 L
S
GR
GS
[0.75 0 0 0.75 0 0.5] CT
0.149 GC
2 setlinecap
1 LJ
0.667 LW
N
1760.875 394.398 M
1750.135 394.398 L
S
GR
GS
[0.75 0 0 0.75 0 0.5] CT
0.149 GC
2 setlinecap
1 LJ
0.667 LW
N
1760.875 269.578 M
1750.135 269.578 L
S
GR
GS
[0.75 0 0 0.75 0 0.5] CT
0.149 GC
2 setlinecap
1 LJ
0.667 LW
N
1760.875 144.759 M
1750.135 144.759 L
S
GR
GS
[0.75 0 0 0.75 607.84373 857.98648] CT
0.149 GC
/Helvetica 40 F
GS
[1 0 0 1 0 0] CT
-51 14 moveto 
1 -1 scale
(22) t 
GR
GR
GS
[0.75 0 0 0.75 607.84373 764.37175] CT
0.149 GC
/Helvetica 40 F
GS
[1 0 0 1 0 0] CT
-51 14 moveto 
1 -1 scale
(23) t 
GR
GR
GS
[0.75 0 0 0.75 607.84373 670.75711] CT
0.149 GC
/Helvetica 40 F
GS
[1 0 0 1 0 0] CT
-51 14 moveto 
1 -1 scale
(24) t 
GR
GR
GS
[0.75 0 0 0.75 607.84373 577.14243] CT
0.149 GC
/Helvetica 40 F
GS
[1 0 0 1 0 0] CT
-51 14 moveto 
1 -1 scale
(25) t 
GR
GR
GS
[0.75 0 0 0.75 607.84373 483.52774] CT
0.149 GC
/Helvetica 40 F
GS
[1 0 0 1 0 0] CT
-51 14 moveto 
1 -1 scale
(26) t 
GR
GR
GS
[0.75 0 0 0.75 607.84373 389.91306] CT
0.149 GC
/Helvetica 40 F
GS
[1 0 0 1 0 0] CT
-51 14 moveto 
1 -1 scale
(27) t 
GR
GR
GS
[0.75 0 0 0.75 607.84373 296.29839] CT
0.149 GC
/Helvetica 40 F
GS
[1 0 0 1 0 0] CT
-51 14 moveto 
1 -1 scale
(28) t 
GR
GR
GS
[0.75 0 0 0.75 607.84373 202.68373] CT
0.149 GC
/Helvetica 40 F
GS
[1 0 0 1 0 0] CT
-51 14 moveto 
1 -1 scale
(29) t 
GR
GR
GS
[0.75 0 0 0.75 607.84373 109.06905] CT
0.149 GC
/Helvetica 40 F
GS
[1 0 0 1 0 0] CT
-51 14 moveto 
1 -1 scale
(30) t 
GR
GR
GS
[0 -0.75 0.75 0 566.59373 477.49968] CT
0.149 GC
/Helvetica 44 F
GS
[1 0 0 1 0 0] CT
-153 -11 moveto 
1 -1 scale
(y position [m]) t 
GR
GR
GS
[0.75 0 0 0.75 1033.50101 65.56268] CT
/Helvetica-Bold 44 F
GS
[1 0 0 1 0 0] CT
-574.5 -11 moveto 
1 -1 scale
(Position estimate relative to basestation \(0.0\)) t 
GR
GR
GS
[0.75 0 0 0.75 0 0.5] CT
1 0 0 RC
1 LJ
0.667 LW
N
821.095 1053.266 M
822.101 1053.065 L
836.247 1050.209 L
852.542 1046.993 L
868.238 1043.896 L
883.887 1040.914 L
898.806 1038.106 L
912.972 1035.343 L
927.928 1032.359 L
941.352 1029.711 L
956.24 1026.74 L
971.93 1023.61 L
988.263 1020.24 L
1003.844 1016.919 L
1020.283 1013.379 L
1035.967 1009.893 L
1051.719 1006.392 L
1066.711 1002.923 L
1082.164 999.348 L
1097.632 995.84 L
1114.174 992.127 L
1128.92 988.818 L
1143.815 985.543 L
1158.62 982.186 L
1173.611 978.72 L
1188.513 975.17 L
1204.671 971.322 L
1219.313 967.869 L
1233.948 964.384 L
1249.662 960.715 L
1265.182 957.127 L
1281.591 953.447 L
1297.84 949.69 L
1311.761 946.441 L
1326.761 943.008 L
1341.613 939.541 L
1357.133 935.954 L
1371.96 932.391 L
1388.378 928.445 L
1403.206 924.883 L
1418.612 921.11 L
1434.745 917.16 L
1451.052 913.053 L
1467.026 909.031 L
1481.221 905.457 L
1496.086 901.749 L
1511.625 897.945 L
1526.511 894.335 L
1542.001 890.615 L
1557.616 886.83 L
1574.638 882.782 L
1590.739 878.99 L
1605.836 875.678 L
1622.21 872.161 L
1637.134 869.023 L
1652.327 865.829 L
1667.398 862.73 L
1682.605 859.603 L
1698.486 856.374 L
1714.089 853.166 L
1729.611 849.904 L
1744.059 846.802 L
1759.641 843.492 L
1760.905 843.23 L
S
GR
GS
[0.75 0 0 0.75 0 0.5] CT
1 LJ
0.667 LW
N
870.42 1173.03 M
870.4 1158.911 L
870.383 1144.681 L
870.366 1128.954 L
870.35 1112.103 L
870.339 1097.124 L
870.33 1081.397 L
870.324 1065.669 L
870.32 1050.691 L
870.319 1035.338 L
870.32 1020.359 L
870.324 1004.257 L
870.33 990.776 L
870.337 976.921 L
870.348 962.317 L
870.362 945.84 L
870.379 929.364 L
870.399 912.887 L
870.418 899.032 L
870.442 883.305 L
870.465 869.45 L
870.495 853.348 L
870.529 836.497 L
870.562 821.518 L
870.601 805.042 L
870.638 790.438 L
870.677 775.834 L
870.717 761.604 L
870.756 748.498 L
870.802 733.894 L
870.848 719.664 L
870.904 703.563 L
870.956 688.959 L
871.012 673.98 L
871.077 657.504 L
871.138 642.525 L
871.205 626.798 L
871.271 611.82 L
871.34 596.841 L
871.407 582.611 L
871.478 568.008 L
871.56 551.906 L
871.638 536.927 L
871.72 521.575 L
871.803 506.596 L
871.895 490.494 L
871.983 475.516 L
872.073 460.538 L
872.161 446.309 L
872.256 431.33 L
872.353 416.352 L
872.453 401.374 L
872.547 387.519 L
872.621 376.894 L
872.621 376.894 L
872.594 376.996 L
872.441 377.336 L
872.513 377.25 L
872.552 377.213 L
872.589 377.193 L
872.518 377.25 L
872.674 377.16 L
872.914 377.073 L
873.148 377.03 L
873.137 377.034 L
873.359 377.012 L
873.63 377.008 L
873.703 377.006 L
873.704 377.006 L
873.705 377.006 L
873.706 377.006 L
873.707 377.006 L
873.708 377.006 L
873.708 377.006 L
873.709 377.006 L
873.71 377.006 L
873.711 377.006 L
877.002 377.001 L
892.355 376.977 L
907.334 376.953 L
923.062 376.928 L
939.164 376.902 L
953.395 376.88 L
967.999 376.857 L
982.603 376.835 L
997.208 376.813 L
1013.31 376.789 L
1029.038 376.765 L
1043.268 376.744 L
1058.996 376.722 L
1073.6 376.701 L
1088.954 376.679 L
1103.933 376.658 L
1118.912 376.637 L
1133.517 376.617 L
1148.496 376.596 L
1163.474 376.576 L
1179.203 376.555 L
1193.432 376.536 L
1209.535 376.515 L
1224.139 376.496 L
1241.365 376.474 L
1256.719 376.455 L
1270.948 376.438 L
1286.677 376.418 L
1303.153 376.398 L
1317.758 376.381 L
1333.86 376.362 L
1351.086 376.342 L
1365.316 376.326 L
1379.921 376.309 L
1393.776 376.293 L
1412.125 376.273 L
1429.726 376.254 L
1445.828 376.237 L
1461.182 376.221 L
1476.161 376.205 L
1492.637 376.189 L
1509.489 376.171 L
1523.344 376.158 L
1538.698 376.143 L
1556.673 376.125 L
1570.903 376.112 L
1585.882 376.098 L
1601.984 376.083 L
1618.835 376.068 L
1635.312 376.054 L
1651.04 376.04 L
1666.768 376.027 L
1682.122 376.014 L
1697.101 376.001 L
1712.828 375.989 L
1728.556 375.976 L
1743.91 375.964 L
1759.263 375.953 L
1760.905 375.951 L
S
GR
GS
[0.75 0 0 0.75 0 0.5] CT
0 0 1 RC
1 LJ
0.667 LW
N
903.97 1173.03 M
901.239 1161.122 L
906.563 1148.801 L
905.328 1130.257 L
906.271 1112.641 L
906.919 1105.321 L
906.117 1090.775 L
900.708 1071.96 L
899.964 1062.811 L
898.769 1045.441 L
895.047 1033.786 L
895.214 1022.165 L
902.726 1001.444 L
902.399 984.413 L
897.552 966.682 L
903.187 951.602 L
902.717 936.928 L
907.55 922.786 L
907.891 902.102 L
910.974 886.274 L
910.183 866.249 L
907.046 854.407 L
912.6 839.263 L
912.072 825.006 L
910.748 811.961 L
911.885 793.813 L
910.422 776.881 L
915.427 759.47 L
914.944 740.715 L
916.181 724.78 L
912.379 709.249 L
909.891 703.873 L
911.257 685.614 L
912.183 675.329 L
914.624 655.975 L
912.086 645.055 L
913.605 631.367 L
909.603 614.166 L
908.217 602.271 L
909.103 586.351 L
904.617 570.926 L
901.837 564.602 L
905.576 553.955 L
907.919 535.472 L
908.334 517.702 L
904.675 498.262 L
901.513 485.845 L
901.494 471.256 L
900.794 459.096 L
904.369 441.962 L
909.467 428.208 L
904.272 411.953 L
906.139 398.496 L
910.427 376.742 L
915.734 358.618 L
919.162 339.073 L
923.099 330.016 L
924.033 327.994 L
929.897 324.805 L
924.113 326.275 L
925.736 327.403 L
920.654 326.157 L
926.228 326.768 L
925.248 327.024 L
924.354 326.853 L
925.078 327.66 L
918.973 327.243 L
924.536 329.687 L
923.933 329.695 L
920.825 329.375 L
921.274 330.954 L
920.245 330.533 L
918.959 329.157 L
921.106 332.145 L
917.843 331.482 L
915.609 328.361 L
917.596 330.247 L
918.467 330.493 L
917.607 329.392 L
917.857 332.218 L
922.918 335.895 L
937.742 334.116 L
951.753 334.005 L
967.699 332.862 L
984.708 333.008 L
999.716 333.553 L
1018.776 334.957 L
1029.023 329.962 L
1045.219 328.501 L
1062.079 328.654 L
1079.182 329.64 L
1099.109 333.568 L
1109.884 327.64 L
1127.112 327.488 L
1140.756 330.582 L
1154.172 331.352 L
1171.144 331.235 L
1182.682 330.804 L
1200.23 333.737 L
1212.939 330.725 L
1226.588 329.921 L
1241.195 331.83 L
1261.542 332.872 L
1276.822 333.973 L
1289.672 334.422 L
1303.55 335.794 L
1317.617 336.627 L
1328.069 336.941 L
1345.064 341.696 L
1362.529 342.142 L
1376.626 343.101 L
1390.38 343.399 L
1403.576 343.335 L
1412.382 347.903 L
1423.582 348.499 L
1444.037 355.648 L
1460.179 352.149 L
1478.076 351.037 L
1492.643 350.012 L
1508.028 347.677 L
1526.577 351.436 L
1540.577 351.755 L
1555.171 350.328 L
1571.638 347.251 L
1591.176 353.134 L
1600.235 349.788 L
1607.621 360.341 L
1622.638 358.338 L
1639.203 358.399 L
1654.117 360.983 L
1667.406 359.219 L
1689.255 358.959 L
1705.663 362.32 L
1724.99 354.886 L
1739.479 353.266 L
1757.3 354.962 L
1760.905 353.849 L
S
GR
GS
[0.75 0 0 0.75 0 0.5] CT
1 GC
N
1727 312 M
1727 135 L
1440 135 L
1440 312 L
cp
f
GR
GS
[0.75 0 0 0.75 1115.25 119.32536] CT
/Helvetica 36 F
GS
[1 0 0 1 0 0] CT
0 12.5 moveto 
1 -1 scale
(Odometry) t 
GR
GR
GS
[0.75 0 0 0.75 0 0.5] CT
1 0 0 RC
1 LJ
0.667 LW
N
1444 158.434 M
1484 158.434 L
S
GR
GS
[0.75 0 0 0.75 1115.25 151.85845] CT
/Helvetica 36 F
GS
[1 0 0 1 0 0] CT
0 12.5 moveto 
1 -1 scale
(True position) t 
GR
GR
GS
[0.75 0 0 0.75 0 0.5] CT
1 LJ
0.667 LW
N
1444 201.811 M
1484 201.811 L
S
GR
GS
[0.75 0 0 0.75 1115.25 184.39155] CT
/Helvetica 36 F
GS
[1 0 0 1 0 0] CT
0 12.5 moveto 
1 -1 scale
(EKF) t 
GR
GR
GS
[0.75 0 0 0.75 0 0.5] CT
0 0 1 RC
1 LJ
0.667 LW
N
1444 245.189 M
1484 245.189 L
S
GR
GS
[0.75 0 0 0.75 1115.25 216.92464] CT
/Helvetica 36 F
GS
[1 0 0 1 0 0] CT
0 12.5 moveto 
1 -1 scale
(Base station) t 
GR
GR
GS
[0.75 0 0 0.75 1098 216.92464] CT
0 0.447 0.741 RC
10.0 ML
N
0 -4 M
0 4 L
-4 0 M
4 0 L
-2.828 -2.828 M
2.828 2.828 L
-2.828 2.828 M
2.828 -2.828 L
S
GR
GS
[0.75 0 0 0.75 0 0.5] CT
0.149 GC
10.0 ML
0.667 LW
N
1440 312 M
1440 135 L
1727 135 L
1727 312 L
cp
S
GR
%%Trailer
%%Pages: 1
%%EOF
