%!PS-Adobe-3.0 EPSF-3.0
%%Creator: (MATLAB, The Mathworks, Inc. Version 9.3.0.713579 \(R2017b\). Operating System: Linux)
%%Title: /home/micke/ExamensarbeteCybercom/Resultplots/longrange1_1.eps
%%CreationDate: 2018-05-04T11:27:18
%%Pages: (atend)
%%BoundingBox: 0 0 1871 989
%%LanguageLevel: 3
%%EndComments
%%BeginProlog
%%BeginResource: procset (Apache XML Graphics Std ProcSet) 1.2 0
%%Version: 1.2 0
%%Copyright: (Copyright 2001-2003,2010 The Apache Software Foundation. License terms: http://www.apache.org/licenses/LICENSE-2.0)
/bd{bind def}bind def
/ld{load def}bd
/GR/grestore ld
/GS/gsave ld
/RM/rmoveto ld
/C/curveto ld
/t/show ld
/L/lineto ld
/ML/setmiterlimit ld
/CT/concat ld
/f/fill ld
/N/newpath ld
/S/stroke ld
/CC/setcmykcolor ld
/A/ashow ld
/cp/closepath ld
/RC/setrgbcolor ld
/LJ/setlinejoin ld
/GC/setgray ld
/LW/setlinewidth ld
/M/moveto ld
/re {4 2 roll M
1 index 0 rlineto
0 exch rlineto
neg 0 rlineto
cp } bd
/_ctm matrix def
/_tm matrix def
/BT { _ctm currentmatrix pop matrix _tm copy pop 0 0 moveto } bd
/ET { _ctm setmatrix } bd
/iTm { _ctm setmatrix _tm concat } bd
/Tm { _tm astore pop iTm 0 0 moveto } bd
/ux 0.0 def
/uy 0.0 def
/F {
  /Tp exch def
  /Tf exch def
  Tf findfont Tp scalefont setfont
  /cf Tf def  /cs Tp def
} bd
/ULS {currentpoint /uy exch def /ux exch def} bd
/ULE {
  /Tcx currentpoint pop def
  gsave
  newpath
  cf findfont cs scalefont dup
  /FontMatrix get 0 get /Ts exch def /FontInfo get dup
  /UnderlinePosition get Ts mul /To exch def
  /UnderlineThickness get Ts mul /Tt exch def
  ux uy To add moveto  Tcx uy To add lineto
  Tt setlinewidth stroke
  grestore
} bd
/OLE {
  /Tcx currentpoint pop def
  gsave
  newpath
  cf findfont cs scalefont dup
  /FontMatrix get 0 get /Ts exch def /FontInfo get dup
  /UnderlinePosition get Ts mul /To exch def
  /UnderlineThickness get Ts mul /Tt exch def
  ux uy To add cs add moveto Tcx uy To add cs add lineto
  Tt setlinewidth stroke
  grestore
} bd
/SOE {
  /Tcx currentpoint pop def
  gsave
  newpath
  cf findfont cs scalefont dup
  /FontMatrix get 0 get /Ts exch def /FontInfo get dup
  /UnderlinePosition get Ts mul /To exch def
  /UnderlineThickness get Ts mul /Tt exch def
  ux uy To add cs 10 mul 26 idiv add moveto Tcx uy To add cs 10 mul 26 idiv add lineto
  Tt setlinewidth stroke
  grestore
} bd
/QT {
/Y22 exch store
/X22 exch store
/Y21 exch store
/X21 exch store
currentpoint
/Y21 load 2 mul add 3 div exch
/X21 load 2 mul add 3 div exch
/X21 load 2 mul /X22 load add 3 div
/Y21 load 2 mul /Y22 load add 3 div
/X22 load /Y22 load curveto
} bd
/SSPD {
dup length /d exch dict def
{
/v exch def
/k exch def
currentpagedevice k known {
/cpdv currentpagedevice k get def
v cpdv ne {
/upd false def
/nullv v type /nulltype eq def
/nullcpdv cpdv type /nulltype eq def
nullv nullcpdv or
{
/upd true def
} {
/sametype v type cpdv type eq def
sametype {
v type /arraytype eq {
/vlen v length def
/cpdvlen cpdv length def
vlen cpdvlen eq {
0 1 vlen 1 sub {
/i exch def
/obj v i get def
/cpdobj cpdv i get def
obj cpdobj ne {
/upd true def
exit
} if
} for
} {
/upd true def
} ifelse
} {
v type /dicttype eq {
v {
/dv exch def
/dk exch def
/cpddv cpdv dk get def
dv cpddv ne {
/upd true def
exit
} if
} forall
} {
/upd true def
} ifelse
} ifelse
} if
} ifelse
upd true eq {
d k v put
} if
} if
} if
} forall
d length 0 gt {
d setpagedevice
} if
} bd
/RE { % /NewFontName [NewEncodingArray] /FontName RE -
  findfont dup length dict begin
  {
    1 index /FID ne
    {def} {pop pop} ifelse
  } forall
  /Encoding exch def
  /FontName 1 index def
  currentdict definefont pop
  end
} bind def
%%EndResource
%%BeginResource: procset (Apache XML Graphics EPS ProcSet) 1.0 0
%%Version: 1.0 0
%%Copyright: (Copyright 2002-2003 The Apache Software Foundation. License terms: http://www.apache.org/licenses/LICENSE-2.0)
/BeginEPSF { %def
/b4_Inc_state save def         % Save state for cleanup
/dict_count countdictstack def % Count objects on dict stack
/op_count count 1 sub def      % Count objects on operand stack
userdict begin                 % Push userdict on dict stack
/showpage { } def              % Redefine showpage, { } = null proc
0 setgray 0 setlinecap         % Prepare graphics state
1 setlinewidth 0 setlinejoin
10 setmiterlimit [ ] 0 setdash newpath
/languagelevel where           % If level not equal to 1 then
{pop languagelevel             % set strokeadjust and
1 ne                           % overprint to their defaults.
{false setstrokeadjust false setoverprint
} if
} if
} bd
/EndEPSF { %def
count op_count sub {pop} repeat            % Clean up stacks
countdictstack dict_count sub {end} repeat
b4_Inc_state restore
} bd
%%EndResource
%FOPBeginFontDict
%%IncludeResource: font Courier-Oblique
%%IncludeResource: font Courier-BoldOblique
%%IncludeResource: font Courier-Bold
%%IncludeResource: font ZapfDingbats
%%IncludeResource: font Symbol
%%IncludeResource: font Helvetica
%%IncludeResource: font Helvetica-Oblique
%%IncludeResource: font Helvetica-Bold
%%IncludeResource: font Helvetica-BoldOblique
%%IncludeResource: font Times-Roman
%%IncludeResource: font Times-Italic
%%IncludeResource: font Times-Bold
%%IncludeResource: font Times-BoldItalic
%%IncludeResource: font Courier
%FOPEndFontDict
%%BeginResource: encoding WinAnsiEncoding
/WinAnsiEncoding [
/.notdef /.notdef /.notdef /.notdef /.notdef
/.notdef /.notdef /.notdef /.notdef /.notdef
/.notdef /.notdef /.notdef /.notdef /.notdef
/.notdef /.notdef /.notdef /.notdef /.notdef
/.notdef /.notdef /.notdef /.notdef /.notdef
/.notdef /.notdef /.notdef /.notdef /.notdef
/.notdef /.notdef /space /exclam /quotedbl
/numbersign /dollar /percent /ampersand /quotesingle
/parenleft /parenright /asterisk /plus /comma
/hyphen /period /slash /zero /one
/two /three /four /five /six
/seven /eight /nine /colon /semicolon
/less /equal /greater /question /at
/A /B /C /D /E
/F /G /H /I /J
/K /L /M /N /O
/P /Q /R /S /T
/U /V /W /X /Y
/Z /bracketleft /backslash /bracketright /asciicircum
/underscore /quoteleft /a /b /c
/d /e /f /g /h
/i /j /k /l /m
/n /o /p /q /r
/s /t /u /v /w
/x /y /z /braceleft /bar
/braceright /asciitilde /bullet /Euro /bullet
/quotesinglbase /florin /quotedblbase /ellipsis /dagger
/daggerdbl /circumflex /perthousand /Scaron /guilsinglleft
/OE /bullet /Zcaron /bullet /bullet
/quoteleft /quoteright /quotedblleft /quotedblright /bullet
/endash /emdash /asciitilde /trademark /scaron
/guilsinglright /oe /bullet /zcaron /Ydieresis
/space /exclamdown /cent /sterling /currency
/yen /brokenbar /section /dieresis /copyright
/ordfeminine /guillemotleft /logicalnot /sfthyphen /registered
/macron /degree /plusminus /twosuperior /threesuperior
/acute /mu /paragraph /middot /cedilla
/onesuperior /ordmasculine /guillemotright /onequarter /onehalf
/threequarters /questiondown /Agrave /Aacute /Acircumflex
/Atilde /Adieresis /Aring /AE /Ccedilla
/Egrave /Eacute /Ecircumflex /Edieresis /Igrave
/Iacute /Icircumflex /Idieresis /Eth /Ntilde
/Ograve /Oacute /Ocircumflex /Otilde /Odieresis
/multiply /Oslash /Ugrave /Uacute /Ucircumflex
/Udieresis /Yacute /Thorn /germandbls /agrave
/aacute /acircumflex /atilde /adieresis /aring
/ae /ccedilla /egrave /eacute /ecircumflex
/edieresis /igrave /iacute /icircumflex /idieresis
/eth /ntilde /ograve /oacute /ocircumflex
/otilde /odieresis /divide /oslash /ugrave
/uacute /ucircumflex /udieresis /yacute /thorn
/ydieresis
] def
%%EndResource
%FOPBeginFontReencode
/Courier-Oblique findfont
dup length dict begin
  {1 index /FID ne {def} {pop pop} ifelse} forall
  /Encoding WinAnsiEncoding def
  currentdict
end
/Courier-Oblique exch definefont pop
/Courier-BoldOblique findfont
dup length dict begin
  {1 index /FID ne {def} {pop pop} ifelse} forall
  /Encoding WinAnsiEncoding def
  currentdict
end
/Courier-BoldOblique exch definefont pop
/Courier-Bold findfont
dup length dict begin
  {1 index /FID ne {def} {pop pop} ifelse} forall
  /Encoding WinAnsiEncoding def
  currentdict
end
/Courier-Bold exch definefont pop
/Helvetica findfont
dup length dict begin
  {1 index /FID ne {def} {pop pop} ifelse} forall
  /Encoding WinAnsiEncoding def
  currentdict
end
/Helvetica exch definefont pop
/Helvetica-Oblique findfont
dup length dict begin
  {1 index /FID ne {def} {pop pop} ifelse} forall
  /Encoding WinAnsiEncoding def
  currentdict
end
/Helvetica-Oblique exch definefont pop
/Helvetica-Bold findfont
dup length dict begin
  {1 index /FID ne {def} {pop pop} ifelse} forall
  /Encoding WinAnsiEncoding def
  currentdict
end
/Helvetica-Bold exch definefont pop
/Helvetica-BoldOblique findfont
dup length dict begin
  {1 index /FID ne {def} {pop pop} ifelse} forall
  /Encoding WinAnsiEncoding def
  currentdict
end
/Helvetica-BoldOblique exch definefont pop
/Times-Roman findfont
dup length dict begin
  {1 index /FID ne {def} {pop pop} ifelse} forall
  /Encoding WinAnsiEncoding def
  currentdict
end
/Times-Roman exch definefont pop
/Times-Italic findfont
dup length dict begin
  {1 index /FID ne {def} {pop pop} ifelse} forall
  /Encoding WinAnsiEncoding def
  currentdict
end
/Times-Italic exch definefont pop
/Times-Bold findfont
dup length dict begin
  {1 index /FID ne {def} {pop pop} ifelse} forall
  /Encoding WinAnsiEncoding def
  currentdict
end
/Times-Bold exch definefont pop
/Times-BoldItalic findfont
dup length dict begin
  {1 index /FID ne {def} {pop pop} ifelse} forall
  /Encoding WinAnsiEncoding def
  currentdict
end
/Times-BoldItalic exch definefont pop
/Courier findfont
dup length dict begin
  {1 index /FID ne {def} {pop pop} ifelse} forall
  /Encoding WinAnsiEncoding def
  currentdict
end
/Courier exch definefont pop
%FOPEndFontReencode
%%EndProlog
%%Page: 1 1
%%PageBoundingBox: 0 0 1871 989
%%BeginPageSetup
[1 0 0 -1 0 989] CT
%%EndPageSetup
GS
[0.75 0 0 0.75 0 0.5] CT
N
0 0 M
2495 0 L
2495 1318 L
0 1318 L
0 0 L
cp
clip
1 GC
N
0 0 2495 1318 re
f
GR
GS
[0.75 0 0 0.75 0 0.5] CT
1 GC
N
0 0 2495 1318 re
f
GR
GS
[0.75 0 0 0.75 0 0.5] CT
1 GC
N
619.75 1173 M
1962.25 1173 L
1962.25 99 L
619.75 99 L
cp
f
GR
GS
[0.75 0 0 0.75 0 0.5] CT
0.149 GC
2 setlinecap
1 LJ
0.667 LW
N
619.75 1173 M
1962.25 1173 L
S
GR
GS
[0.75 0 0 0.75 0 0.5] CT
0.149 GC
2 setlinecap
1 LJ
0.667 LW
N
619.75 99 M
1962.25 99 L
S
GR
GS
[0.75 0 0 0.75 0 0.5] CT
0.149 GC
2 setlinecap
1 LJ
0.667 LW
N
745.787 1173 M
745.787 1159.575 L
S
GR
GS
[0.75 0 0 0.75 0 0.5] CT
0.149 GC
2 setlinecap
1 LJ
0.667 LW
N
1033.014 1173 M
1033.014 1159.575 L
S
GR
GS
[0.75 0 0 0.75 0 0.5] CT
0.149 GC
2 setlinecap
1 LJ
0.667 LW
N
1320.24 1173 M
1320.24 1159.575 L
S
GR
GS
[0.75 0 0 0.75 0 0.5] CT
0.149 GC
2 setlinecap
1 LJ
0.667 LW
N
1607.467 1173 M
1607.467 1159.575 L
S
GR
GS
[0.75 0 0 0.75 0 0.5] CT
0.149 GC
2 setlinecap
1 LJ
0.667 LW
N
1894.693 1173 M
1894.693 1159.575 L
S
GR
GS
[0.75 0 0 0.75 0 0.5] CT
0.149 GC
2 setlinecap
1 LJ
0.667 LW
N
745.787 99 M
745.787 112.425 L
S
GR
GS
[0.75 0 0 0.75 0 0.5] CT
0.149 GC
2 setlinecap
1 LJ
0.667 LW
N
1033.014 99 M
1033.014 112.425 L
S
GR
GS
[0.75 0 0 0.75 0 0.5] CT
0.149 GC
2 setlinecap
1 LJ
0.667 LW
N
1320.24 99 M
1320.24 112.425 L
S
GR
GS
[0.75 0 0 0.75 0 0.5] CT
0.149 GC
2 setlinecap
1 LJ
0.667 LW
N
1607.467 99 M
1607.467 112.425 L
S
GR
GS
[0.75 0 0 0.75 0 0.5] CT
0.149 GC
2 setlinecap
1 LJ
0.667 LW
N
1894.693 99 M
1894.693 112.425 L
S
GR
GS
[0.75 0 0 0.75 559.34052 888.24997] CT
0.149 GC
/Helvetica 40 F
GS
[1 0 0 1 0 0] CT
-25.5 38 moveto 
1 -1 scale
(27) t 
GR
GR
GS
[0.75 0 0 0.75 774.76044 888.24997] CT
0.149 GC
/Helvetica 40 F
GS
[1 0 0 1 0 0] CT
-45 38 moveto 
1 -1 scale
(27.5) t 
GR
GR
GS
[0.75 0 0 0.75 990.18027 888.24997] CT
0.149 GC
/Helvetica 40 F
GS
[1 0 0 1 0 0] CT
-25.5 38 moveto 
1 -1 scale
(28) t 
GR
GR
GS
[0.75 0 0 0.75 1205.60019 888.24997] CT
0.149 GC
/Helvetica 40 F
GS
[1 0 0 1 0 0] CT
-45 38 moveto 
1 -1 scale
(28.5) t 
GR
GR
GS
[0.75 0 0 0.75 1421.02002 888.24997] CT
0.149 GC
/Helvetica 40 F
GS
[1 0 0 1 0 0] CT
-25.5 38 moveto 
1 -1 scale
(29) t 
GR
GR
GS
[0.75 0 0 0.75 968.25073 925.25] CT
0.149 GC
/Helvetica 44 F
GS
[1 0 0 1 0 0] CT
-153 41 moveto 
1 -1 scale
(x position [m]) t 
GR
GR
GS
[0.75 0 0 0.75 0 0.5] CT
0.149 GC
2 setlinecap
1 LJ
0.667 LW
N
619.75 1173 M
619.75 99 L
S
GR
GS
[0.75 0 0 0.75 0 0.5] CT
0.149 GC
2 setlinecap
1 LJ
0.667 LW
N
1962.25 1173 M
1962.25 99 L
S
GR
GS
[0.75 0 0 0.75 0 0.5] CT
0.149 GC
2 setlinecap
1 LJ
0.667 LW
N
619.75 1101.219 M
633.175 1101.219 L
S
GR
GS
[0.75 0 0 0.75 0 0.5] CT
0.149 GC
2 setlinecap
1 LJ
0.667 LW
N
619.75 986.328 M
633.175 986.328 L
S
GR
GS
[0.75 0 0 0.75 0 0.5] CT
0.149 GC
2 setlinecap
1 LJ
0.667 LW
N
619.75 871.438 M
633.175 871.438 L
S
GR
GS
[0.75 0 0 0.75 0 0.5] CT
0.149 GC
2 setlinecap
1 LJ
0.667 LW
N
619.75 756.547 M
633.175 756.547 L
S
GR
GS
[0.75 0 0 0.75 0 0.5] CT
0.149 GC
2 setlinecap
1 LJ
0.667 LW
N
619.75 641.657 M
633.175 641.657 L
S
GR
GS
[0.75 0 0 0.75 0 0.5] CT
0.149 GC
2 setlinecap
1 LJ
0.667 LW
N
619.75 526.766 M
633.175 526.766 L
S
GR
GS
[0.75 0 0 0.75 0 0.5] CT
0.149 GC
2 setlinecap
1 LJ
0.667 LW
N
619.75 411.875 M
633.175 411.875 L
S
GR
GS
[0.75 0 0 0.75 0 0.5] CT
0.149 GC
2 setlinecap
1 LJ
0.667 LW
N
619.75 296.985 M
633.175 296.985 L
S
GR
GS
[0.75 0 0 0.75 0 0.5] CT
0.149 GC
2 setlinecap
1 LJ
0.667 LW
N
619.75 182.094 M
633.175 182.094 L
S
GR
GS
[0.75 0 0 0.75 0 0.5] CT
0.149 GC
2 setlinecap
1 LJ
0.667 LW
N
1962.25 1101.219 M
1948.824 1101.219 L
S
GR
GS
[0.75 0 0 0.75 0 0.5] CT
0.149 GC
2 setlinecap
1 LJ
0.667 LW
N
1962.25 986.328 M
1948.824 986.328 L
S
GR
GS
[0.75 0 0 0.75 0 0.5] CT
0.149 GC
2 setlinecap
1 LJ
0.667 LW
N
1962.25 871.438 M
1948.824 871.438 L
S
GR
GS
[0.75 0 0 0.75 0 0.5] CT
0.149 GC
2 setlinecap
1 LJ
0.667 LW
N
1962.25 756.547 M
1948.824 756.547 L
S
GR
GS
[0.75 0 0 0.75 0 0.5] CT
0.149 GC
2 setlinecap
1 LJ
0.667 LW
N
1962.25 641.657 M
1948.824 641.657 L
S
GR
GS
[0.75 0 0 0.75 0 0.5] CT
0.149 GC
2 setlinecap
1 LJ
0.667 LW
N
1962.25 526.766 M
1948.824 526.766 L
S
GR
GS
[0.75 0 0 0.75 0 0.5] CT
0.149 GC
2 setlinecap
1 LJ
0.667 LW
N
1962.25 411.875 M
1948.824 411.875 L
S
GR
GS
[0.75 0 0 0.75 0 0.5] CT
0.149 GC
2 setlinecap
1 LJ
0.667 LW
N
1962.25 296.985 M
1948.824 296.985 L
S
GR
GS
[0.75 0 0 0.75 0 0.5] CT
0.149 GC
2 setlinecap
1 LJ
0.667 LW
N
1962.25 182.094 M
1948.824 182.094 L
S
GR
GS
[0.75 0 0 0.75 456.81258 826.41425] CT
0.149 GC
/Helvetica 40 F
GS
[1 0 0 1 0 0] CT
-79 14 moveto 
1 -1 scale
(-1.4) t 
GR
GR
GS
[0.75 0 0 0.75 456.81258 740.24637] CT
0.149 GC
/Helvetica 40 F
GS
[1 0 0 1 0 0] CT
-79 14 moveto 
1 -1 scale
(-1.2) t 
GR
GR
GS
[0.75 0 0 0.75 456.81258 654.0784] CT
0.149 GC
/Helvetica 40 F
GS
[1 0 0 1 0 0] CT
-40 14 moveto 
1 -1 scale
(-1) t 
GR
GR
GS
[0.75 0 0 0.75 456.81258 567.91043] CT
0.149 GC
/Helvetica 40 F
GS
[1 0 0 1 0 0] CT
-79 14 moveto 
1 -1 scale
(-0.8) t 
GR
GR
GS
[0.75 0 0 0.75 456.81258 481.74251] CT
0.149 GC
/Helvetica 40 F
GS
[1 0 0 1 0 0] CT
-79 14 moveto 
1 -1 scale
(-0.6) t 
GR
GR
GS
[0.75 0 0 0.75 456.81258 395.57454] CT
0.149 GC
/Helvetica 40 F
GS
[1 0 0 1 0 0] CT
-79 14 moveto 
1 -1 scale
(-0.4) t 
GR
GR
GS
[0.75 0 0 0.75 456.81258 309.40657] CT
0.149 GC
/Helvetica 40 F
GS
[1 0 0 1 0 0] CT
-79 14 moveto 
1 -1 scale
(-0.2) t 
GR
GR
GS
[0.75 0 0 0.75 456.81258 223.23862] CT
0.149 GC
/Helvetica 40 F
GS
[1 0 0 1 0 0] CT
-26 14 moveto 
1 -1 scale
(0) t 
GR
GR
GS
[0.75 0 0 0.75 456.81258 137.07067] CT
0.149 GC
/Helvetica 40 F
GS
[1 0 0 1 0 0] CT
-64 14 moveto 
1 -1 scale
(0.2) t 
GR
GR
GS
[0 -0.75 0.75 0 394.56248 477.49959] CT
0.149 GC
/Helvetica 44 F
GS
[1 0 0 1 0 0] CT
-153 -11 moveto 
1 -1 scale
(y position [m]) t 
GR
GR
GS
[0.75 0 0 0.75 1001.25101 65.56251] CT
/Helvetica-Bold 44 F
GS
[1 0 0 1 0 0] CT
-574.5 -11 moveto 
1 -1 scale
(Position estimate relative to basestation \(0.0\)) t 
GR
GR
GS
[0.75 0 0 0.75 0 0.5] CT
1 LJ
0.667 LW
N
619.622 294.918 M
654.691 295.087 L
708.117 295.346 L
761.542 295.605 L
820.138 295.89 L
866.671 296.117 L
916.65 296.361 L
966.629 296.606 L
1013.161 296.834 L
1068.31 297.105 L
1123.46 297.376 L
1175.162 297.631 L
1226.864 297.887 L
1282.013 298.161 L
1333.716 298.417 L
1334.405 298.418 L
1334.408 298.418 L
1334.41 298.418 L
1334.412 298.418 L
1334.414 298.418 L
1333.91 298.343 L
1333.864 298.318 L
1332.653 297.476 L
1333.049 297.824 L
1333.051 297.827 L
1333.054 297.83 L
1333.057 297.832 L
1333.059 297.835 L
1333.062 297.837 L
1333.065 297.84 L
1333.068 297.843 L
1333.07 297.845 L
1333.073 297.848 L
1333.075 297.85 L
1333.077 297.853 L
1333.081 297.855 L
1332.603 297.336 L
1332.879 297.867 L
1332.989 298.447 L
1333.049 299.87 L
1333.05 299.87 L
1333.05 299.87 L
1333.05 299.87 L
1333.05 299.871 L
1333.05 299.871 L
1333.05 299.871 L
1333.05 299.871 L
1333.05 299.871 L
1333.05 299.871 L
1333.05 299.871 L
1333.05 299.872 L
1333.05 299.872 L
1333.05 299.872 L
1333.05 299.872 L
1333.05 299.872 L
1333.038 300.105 L
1333.135 300.824 L
1333.135 300.824 L
1338.054 331.058 L
1346.732 385.423 L
1355.601 443.335 L
1362.911 492.767 L
1370.314 543.926 L
1377.623 595.105 L
1384.638 644.588 L
1391.864 695.783 L
1399.744 752.015 L
1402.259 805.37 L
1403.54 862.172 L
1404.424 913.847 L
1405.078 963.812 L
1405.646 1017.229 L
1406.148 1072.372 L
1406.564 1122.347 L
1406.964 1173.128 L
S
GR
GS
[0.75 0 0 0.75 0 0.5] CT
0 0 1 RC
1 LJ
0.667 LW
N
619.622 238.803 M
675.557 233.548 L
693.99 234.509 L
759.207 207.133 L
841.975 197.633 L
884.345 215.841 L
903.731 261.774 L
958.553 310.233 L
1028.345 343.281 L
1081.327 367.275 L
1134.987 379.722 L
1161.167 367.586 L
1227.306 385.77 L
1304.902 365.443 L
1350.989 370.049 L
1321.5 347.643 L
1328.63 336.522 L
1318.326 330.223 L
1320.458 322.158 L
1332.622 323.546 L
1332.846 316.993 L
1365.109 251.179 L
1342.687 279.429 L
1336.126 283.851 L
1326.214 283.49 L
1340.132 281.291 L
1323.639 276.746 L
1339.158 273.664 L
1349.104 281.476 L
1325.476 285.363 L
1332.589 291.816 L
1326.985 279.195 L
1332.784 272.29 L
1341.808 272.462 L
1332.962 281.613 L
1342.594 268.973 L
1338.814 274.481 L
1320.524 312.179 L
1306.508 327.893 L
1345.325 309.285 L
1326.788 315.809 L
1327.961 315.426 L
1332.384 309.307 L
1324.413 315.584 L
1320.937 315.096 L
1346.219 307.023 L
1347.053 304.778 L
1304.196 305.973 L
1320.155 297.271 L
1315.399 302.163 L
1330.692 303.154 L
1325.545 310.059 L
1348.556 313.201 L
1330.242 303.865 L
1324.339 303.134 L
1343.013 299.738 L
1336.702 280.025 L
1331.834 287.088 L
1334.527 318.301 L
1345.249 373.512 L
1364.208 427.979 L
1354.771 477.153 L
1361.318 532.835 L
1383.432 584.287 L
1396.352 640.87 L
1403.315 680.712 L
1402.525 760.777 L
1391.788 821.62 L
1391.071 887.889 L
1407.965 927.709 L
1417.891 961.261 L
1421.527 1027.33 L
1404.347 1078.799 L
1424.519 1116.145 L
1410.648 1160.155 L
1409.643 1173.128 L
S
GR
GS
[0.75 0 0 0.75 0 0.5] CT
1 GC
N
1949 290 M
1949 112 L
1662 112 L
1662 290 L
cp
f
GR
GS
[0.75 0 0 0.75 1281.75 102.17464] CT
/Helvetica 36 F
GS
[1 0 0 1 0 0] CT
0 12.5 moveto 
1 -1 scale
(Odometry) t 
GR
GR
GS
[0.75 0 0 0.75 0 0.5] CT
1 0 0 RC
1 LJ
0.667 LW
N
1666 135.566 M
1706 135.566 L
S
GR
GS
[0.75 0 0 0.75 1281.75 134.89155] CT
/Helvetica 36 F
GS
[1 0 0 1 0 0] CT
0 12.5 moveto 
1 -1 scale
(True position) t 
GR
GR
GS
[0.75 0 0 0.75 0 0.5] CT
1 LJ
0.667 LW
N
1666 179.189 M
1706 179.189 L
S
GR
GS
[0.75 0 0 0.75 1281.75 167.60845] CT
/Helvetica 36 F
GS
[1 0 0 1 0 0] CT
0 12.5 moveto 
1 -1 scale
(EKF) t 
GR
GR
GS
[0.75 0 0 0.75 0 0.5] CT
0 0 1 RC
1 LJ
0.667 LW
N
1666 222.811 M
1706 222.811 L
S
GR
GS
[0.75 0 0 0.75 1281.75 200.32536] CT
/Helvetica 36 F
GS
[1 0 0 1 0 0] CT
0 12.5 moveto 
1 -1 scale
(Base station) t 
GR
GR
GS
[0.75 0 0 0.75 1264.5 200.32536] CT
0 0.447 0.741 RC
10.0 ML
N
0 -10 M
0 10 L
-10 0 M
10 0 L
-7.071 -7.071 M
7.071 7.071 L
-7.071 7.071 M
7.071 -7.071 L
S
GR
GS
[0.75 0 0 0.75 0 0.5] CT
0.149 GC
10.0 ML
0.667 LW
N
1662 290 M
1662 112 L
1949 112 L
1949 290 L
cp
S
GR
%%Trailer
%%Pages: 1
%%EOF
