%!PS-Adobe-3.0 EPSF-3.0
%%Creator: (MATLAB, The Mathworks, Inc. Version 9.3.0.713579 \(R2017b\). Operating System: Linux)
%%Title: /home/micke/ExamensarbeteCybercom/Resultplots/longrangetruerot.eps
%%CreationDate: 2018-04-30T12:52:11
%%Pages: (atend)
%%BoundingBox: 0 0 1856 902
%%LanguageLevel: 3
%%EndComments
%%BeginProlog
%%BeginResource: procset (Apache XML Graphics Std ProcSet) 1.2 0
%%Version: 1.2 0
%%Copyright: (Copyright 2001-2003,2010 The Apache Software Foundation. License terms: http://www.apache.org/licenses/LICENSE-2.0)
/bd{bind def}bind def
/ld{load def}bd
/GR/grestore ld
/GS/gsave ld
/RM/rmoveto ld
/C/curveto ld
/t/show ld
/L/lineto ld
/ML/setmiterlimit ld
/CT/concat ld
/f/fill ld
/N/newpath ld
/S/stroke ld
/CC/setcmykcolor ld
/A/ashow ld
/cp/closepath ld
/RC/setrgbcolor ld
/LJ/setlinejoin ld
/GC/setgray ld
/LW/setlinewidth ld
/M/moveto ld
/re {4 2 roll M
1 index 0 rlineto
0 exch rlineto
neg 0 rlineto
cp } bd
/_ctm matrix def
/_tm matrix def
/BT { _ctm currentmatrix pop matrix _tm copy pop 0 0 moveto } bd
/ET { _ctm setmatrix } bd
/iTm { _ctm setmatrix _tm concat } bd
/Tm { _tm astore pop iTm 0 0 moveto } bd
/ux 0.0 def
/uy 0.0 def
/F {
  /Tp exch def
  /Tf exch def
  Tf findfont Tp scalefont setfont
  /cf Tf def  /cs Tp def
} bd
/ULS {currentpoint /uy exch def /ux exch def} bd
/ULE {
  /Tcx currentpoint pop def
  gsave
  newpath
  cf findfont cs scalefont dup
  /FontMatrix get 0 get /Ts exch def /FontInfo get dup
  /UnderlinePosition get Ts mul /To exch def
  /UnderlineThickness get Ts mul /Tt exch def
  ux uy To add moveto  Tcx uy To add lineto
  Tt setlinewidth stroke
  grestore
} bd
/OLE {
  /Tcx currentpoint pop def
  gsave
  newpath
  cf findfont cs scalefont dup
  /FontMatrix get 0 get /Ts exch def /FontInfo get dup
  /UnderlinePosition get Ts mul /To exch def
  /UnderlineThickness get Ts mul /Tt exch def
  ux uy To add cs add moveto Tcx uy To add cs add lineto
  Tt setlinewidth stroke
  grestore
} bd
/SOE {
  /Tcx currentpoint pop def
  gsave
  newpath
  cf findfont cs scalefont dup
  /FontMatrix get 0 get /Ts exch def /FontInfo get dup
  /UnderlinePosition get Ts mul /To exch def
  /UnderlineThickness get Ts mul /Tt exch def
  ux uy To add cs 10 mul 26 idiv add moveto Tcx uy To add cs 10 mul 26 idiv add lineto
  Tt setlinewidth stroke
  grestore
} bd
/QT {
/Y22 exch store
/X22 exch store
/Y21 exch store
/X21 exch store
currentpoint
/Y21 load 2 mul add 3 div exch
/X21 load 2 mul add 3 div exch
/X21 load 2 mul /X22 load add 3 div
/Y21 load 2 mul /Y22 load add 3 div
/X22 load /Y22 load curveto
} bd
/SSPD {
dup length /d exch dict def
{
/v exch def
/k exch def
currentpagedevice k known {
/cpdv currentpagedevice k get def
v cpdv ne {
/upd false def
/nullv v type /nulltype eq def
/nullcpdv cpdv type /nulltype eq def
nullv nullcpdv or
{
/upd true def
} {
/sametype v type cpdv type eq def
sametype {
v type /arraytype eq {
/vlen v length def
/cpdvlen cpdv length def
vlen cpdvlen eq {
0 1 vlen 1 sub {
/i exch def
/obj v i get def
/cpdobj cpdv i get def
obj cpdobj ne {
/upd true def
exit
} if
} for
} {
/upd true def
} ifelse
} {
v type /dicttype eq {
v {
/dv exch def
/dk exch def
/cpddv cpdv dk get def
dv cpddv ne {
/upd true def
exit
} if
} forall
} {
/upd true def
} ifelse
} ifelse
} if
} ifelse
upd true eq {
d k v put
} if
} if
} if
} forall
d length 0 gt {
d setpagedevice
} if
} bd
/RE { % /NewFontName [NewEncodingArray] /FontName RE -
  findfont dup length dict begin
  {
    1 index /FID ne
    {def} {pop pop} ifelse
  } forall
  /Encoding exch def
  /FontName 1 index def
  currentdict definefont pop
  end
} bind def
%%EndResource
%%BeginResource: procset (Apache XML Graphics EPS ProcSet) 1.0 0
%%Version: 1.0 0
%%Copyright: (Copyright 2002-2003 The Apache Software Foundation. License terms: http://www.apache.org/licenses/LICENSE-2.0)
/BeginEPSF { %def
/b4_Inc_state save def         % Save state for cleanup
/dict_count countdictstack def % Count objects on dict stack
/op_count count 1 sub def      % Count objects on operand stack
userdict begin                 % Push userdict on dict stack
/showpage { } def              % Redefine showpage, { } = null proc
0 setgray 0 setlinecap         % Prepare graphics state
1 setlinewidth 0 setlinejoin
10 setmiterlimit [ ] 0 setdash newpath
/languagelevel where           % If level not equal to 1 then
{pop languagelevel             % set strokeadjust and
1 ne                           % overprint to their defaults.
{false setstrokeadjust false setoverprint
} if
} if
} bd
/EndEPSF { %def
count op_count sub {pop} repeat            % Clean up stacks
countdictstack dict_count sub {end} repeat
b4_Inc_state restore
} bd
%%EndResource
%FOPBeginFontDict
%%IncludeResource: font Courier-Oblique
%%IncludeResource: font Courier-BoldOblique
%%IncludeResource: font Courier-Bold
%%IncludeResource: font ZapfDingbats
%%IncludeResource: font Symbol
%%IncludeResource: font Helvetica
%%IncludeResource: font Helvetica-Oblique
%%IncludeResource: font Helvetica-Bold
%%IncludeResource: font Helvetica-BoldOblique
%%IncludeResource: font Times-Roman
%%IncludeResource: font Times-Italic
%%IncludeResource: font Times-Bold
%%IncludeResource: font Times-BoldItalic
%%IncludeResource: font Courier
%FOPEndFontDict
%%BeginResource: encoding WinAnsiEncoding
/WinAnsiEncoding [
/.notdef /.notdef /.notdef /.notdef /.notdef
/.notdef /.notdef /.notdef /.notdef /.notdef
/.notdef /.notdef /.notdef /.notdef /.notdef
/.notdef /.notdef /.notdef /.notdef /.notdef
/.notdef /.notdef /.notdef /.notdef /.notdef
/.notdef /.notdef /.notdef /.notdef /.notdef
/.notdef /.notdef /space /exclam /quotedbl
/numbersign /dollar /percent /ampersand /quotesingle
/parenleft /parenright /asterisk /plus /comma
/hyphen /period /slash /zero /one
/two /three /four /five /six
/seven /eight /nine /colon /semicolon
/less /equal /greater /question /at
/A /B /C /D /E
/F /G /H /I /J
/K /L /M /N /O
/P /Q /R /S /T
/U /V /W /X /Y
/Z /bracketleft /backslash /bracketright /asciicircum
/underscore /quoteleft /a /b /c
/d /e /f /g /h
/i /j /k /l /m
/n /o /p /q /r
/s /t /u /v /w
/x /y /z /braceleft /bar
/braceright /asciitilde /bullet /Euro /bullet
/quotesinglbase /florin /quotedblbase /ellipsis /dagger
/daggerdbl /circumflex /perthousand /Scaron /guilsinglleft
/OE /bullet /Zcaron /bullet /bullet
/quoteleft /quoteright /quotedblleft /quotedblright /bullet
/endash /emdash /asciitilde /trademark /scaron
/guilsinglright /oe /bullet /zcaron /Ydieresis
/space /exclamdown /cent /sterling /currency
/yen /brokenbar /section /dieresis /copyright
/ordfeminine /guillemotleft /logicalnot /sfthyphen /registered
/macron /degree /plusminus /twosuperior /threesuperior
/acute /mu /paragraph /middot /cedilla
/onesuperior /ordmasculine /guillemotright /onequarter /onehalf
/threequarters /questiondown /Agrave /Aacute /Acircumflex
/Atilde /Adieresis /Aring /AE /Ccedilla
/Egrave /Eacute /Ecircumflex /Edieresis /Igrave
/Iacute /Icircumflex /Idieresis /Eth /Ntilde
/Ograve /Oacute /Ocircumflex /Otilde /Odieresis
/multiply /Oslash /Ugrave /Uacute /Ucircumflex
/Udieresis /Yacute /Thorn /germandbls /agrave
/aacute /acircumflex /atilde /adieresis /aring
/ae /ccedilla /egrave /eacute /ecircumflex
/edieresis /igrave /iacute /icircumflex /idieresis
/eth /ntilde /ograve /oacute /ocircumflex
/otilde /odieresis /divide /oslash /ugrave
/uacute /ucircumflex /udieresis /yacute /thorn
/ydieresis
] def
%%EndResource
%FOPBeginFontReencode
/Courier-Oblique findfont
dup length dict begin
  {1 index /FID ne {def} {pop pop} ifelse} forall
  /Encoding WinAnsiEncoding def
  currentdict
end
/Courier-Oblique exch definefont pop
/Courier-BoldOblique findfont
dup length dict begin
  {1 index /FID ne {def} {pop pop} ifelse} forall
  /Encoding WinAnsiEncoding def
  currentdict
end
/Courier-BoldOblique exch definefont pop
/Courier-Bold findfont
dup length dict begin
  {1 index /FID ne {def} {pop pop} ifelse} forall
  /Encoding WinAnsiEncoding def
  currentdict
end
/Courier-Bold exch definefont pop
/Helvetica findfont
dup length dict begin
  {1 index /FID ne {def} {pop pop} ifelse} forall
  /Encoding WinAnsiEncoding def
  currentdict
end
/Helvetica exch definefont pop
/Helvetica-Oblique findfont
dup length dict begin
  {1 index /FID ne {def} {pop pop} ifelse} forall
  /Encoding WinAnsiEncoding def
  currentdict
end
/Helvetica-Oblique exch definefont pop
/Helvetica-Bold findfont
dup length dict begin
  {1 index /FID ne {def} {pop pop} ifelse} forall
  /Encoding WinAnsiEncoding def
  currentdict
end
/Helvetica-Bold exch definefont pop
/Helvetica-BoldOblique findfont
dup length dict begin
  {1 index /FID ne {def} {pop pop} ifelse} forall
  /Encoding WinAnsiEncoding def
  currentdict
end
/Helvetica-BoldOblique exch definefont pop
/Times-Roman findfont
dup length dict begin
  {1 index /FID ne {def} {pop pop} ifelse} forall
  /Encoding WinAnsiEncoding def
  currentdict
end
/Times-Roman exch definefont pop
/Times-Italic findfont
dup length dict begin
  {1 index /FID ne {def} {pop pop} ifelse} forall
  /Encoding WinAnsiEncoding def
  currentdict
end
/Times-Italic exch definefont pop
/Times-Bold findfont
dup length dict begin
  {1 index /FID ne {def} {pop pop} ifelse} forall
  /Encoding WinAnsiEncoding def
  currentdict
end
/Times-Bold exch definefont pop
/Times-BoldItalic findfont
dup length dict begin
  {1 index /FID ne {def} {pop pop} ifelse} forall
  /Encoding WinAnsiEncoding def
  currentdict
end
/Times-BoldItalic exch definefont pop
/Courier findfont
dup length dict begin
  {1 index /FID ne {def} {pop pop} ifelse} forall
  /Encoding WinAnsiEncoding def
  currentdict
end
/Courier exch definefont pop
%FOPEndFontReencode
%%EndProlog
%%Page: 1 1
%%PageBoundingBox: 0 0 1856 902
%%BeginPageSetup
[1 0 0 -1 0 902] CT
%%EndPageSetup
GS
[0.75 0 0 0.75 0 0.5] CT
N
0 0 M
2475 0 L
2475 1202 L
0 1202 L
0 0 L
cp
clip
1 GC
N
0 0 2475 1202 re
f
GR
GS
[0.75 0 0 0.75 0 0.5] CT
1 GC
N
0 0 2475 1202 re
f
GR
GS
[0.75 0 0 0.75 0 0.5] CT
1 GC
N
791 1070 M
1771 1070 L
1771 90 L
791 90 L
cp
f
GR
GS
[0.75 0 0 0.75 0 0.5] CT
0.149 GC
2 setlinecap
1 LJ
0.667 LW
N
791 1070 M
1771 1070 L
S
GR
GS
[0.75 0 0 0.75 0 0.5] CT
0.149 GC
2 setlinecap
1 LJ
0.667 LW
N
791 90 M
1771 90 L
S
GR
GS
[0.75 0 0 0.75 0 0.5] CT
0.149 GC
2 setlinecap
1 LJ
0.667 LW
N
900.187 1070 M
900.187 1060.2 L
S
GR
GS
[0.75 0 0 0.75 0 0.5] CT
0.149 GC
2 setlinecap
1 LJ
0.667 LW
N
1131.539 1070 M
1131.539 1060.2 L
S
GR
GS
[0.75 0 0 0.75 0 0.5] CT
0.149 GC
2 setlinecap
1 LJ
0.667 LW
N
1362.891 1070 M
1362.891 1060.2 L
S
GR
GS
[0.75 0 0 0.75 0 0.5] CT
0.149 GC
2 setlinecap
1 LJ
0.667 LW
N
1594.243 1070 M
1594.243 1060.2 L
S
GR
GS
[0.75 0 0 0.75 0 0.5] CT
0.149 GC
2 setlinecap
1 LJ
0.667 LW
N
900.187 90 M
900.187 99.8 L
S
GR
GS
[0.75 0 0 0.75 0 0.5] CT
0.149 GC
2 setlinecap
1 LJ
0.667 LW
N
1131.539 90 M
1131.539 99.8 L
S
GR
GS
[0.75 0 0 0.75 0 0.5] CT
0.149 GC
2 setlinecap
1 LJ
0.667 LW
N
1362.891 90 M
1362.891 99.8 L
S
GR
GS
[0.75 0 0 0.75 0 0.5] CT
0.149 GC
2 setlinecap
1 LJ
0.667 LW
N
1594.243 90 M
1594.243 99.8 L
S
GR
GS
[0.75 0 0 0.75 675.14058 810.99997] CT
0.149 GC
/Helvetica 40 F
GS
[1 0 0 1 0 0] CT
-33 38 moveto 
1 -1 scale
(-28) t 
GR
GR
GS
[0.75 0 0 0.75 848.65439 810.99997] CT
0.149 GC
/Helvetica 40 F
GS
[1 0 0 1 0 0] CT
-33 38 moveto 
1 -1 scale
(-26) t 
GR
GR
GS
[0.75 0 0 0.75 1022.16824 810.99997] CT
0.149 GC
/Helvetica 40 F
GS
[1 0 0 1 0 0] CT
-33 38 moveto 
1 -1 scale
(-24) t 
GR
GR
GS
[0.75 0 0 0.75 1195.6821 810.99997] CT
0.149 GC
/Helvetica 40 F
GS
[1 0 0 1 0 0] CT
-33 38 moveto 
1 -1 scale
(-22) t 
GR
GR
GS
[0.75 0 0 0.75 960.75027 848] CT
0.149 GC
/Helvetica 44 F
GS
[1 0 0 1 0 0] CT
-153 41 moveto 
1 -1 scale
(x position [m]) t 
GR
GR
GS
[0.75 0 0 0.75 0 0.5] CT
0.149 GC
2 setlinecap
1 LJ
0.667 LW
N
791 1070 M
791 90 L
S
GR
GS
[0.75 0 0 0.75 0 0.5] CT
0.149 GC
2 setlinecap
1 LJ
0.667 LW
N
1771 1070 M
1771 90 L
S
GR
GS
[0.75 0 0 0.75 0 0.5] CT
0.149 GC
2 setlinecap
1 LJ
0.667 LW
N
791 1008.555 M
800.8 1008.555 L
S
GR
GS
[0.75 0 0 0.75 0 0.5] CT
0.149 GC
2 setlinecap
1 LJ
0.667 LW
N
791 892.879 M
800.8 892.879 L
S
GR
GS
[0.75 0 0 0.75 0 0.5] CT
0.149 GC
2 setlinecap
1 LJ
0.667 LW
N
791 777.203 M
800.8 777.203 L
S
GR
GS
[0.75 0 0 0.75 0 0.5] CT
0.149 GC
2 setlinecap
1 LJ
0.667 LW
N
791 661.527 M
800.8 661.527 L
S
GR
GS
[0.75 0 0 0.75 0 0.5] CT
0.149 GC
2 setlinecap
1 LJ
0.667 LW
N
791 545.851 M
800.8 545.851 L
S
GR
GS
[0.75 0 0 0.75 0 0.5] CT
0.149 GC
2 setlinecap
1 LJ
0.667 LW
N
791 430.176 M
800.8 430.176 L
S
GR
GS
[0.75 0 0 0.75 0 0.5] CT
0.149 GC
2 setlinecap
1 LJ
0.667 LW
N
791 314.5 M
800.8 314.5 L
S
GR
GS
[0.75 0 0 0.75 0 0.5] CT
0.149 GC
2 setlinecap
1 LJ
0.667 LW
N
791 198.824 M
800.8 198.824 L
S
GR
GS
[0.75 0 0 0.75 0 0.5] CT
0.149 GC
2 setlinecap
1 LJ
0.667 LW
N
1771 1008.555 M
1761.2 1008.555 L
S
GR
GS
[0.75 0 0 0.75 0 0.5] CT
0.149 GC
2 setlinecap
1 LJ
0.667 LW
N
1771 892.879 M
1761.2 892.879 L
S
GR
GS
[0.75 0 0 0.75 0 0.5] CT
0.149 GC
2 setlinecap
1 LJ
0.667 LW
N
1771 777.203 M
1761.2 777.203 L
S
GR
GS
[0.75 0 0 0.75 0 0.5] CT
0.149 GC
2 setlinecap
1 LJ
0.667 LW
N
1771 661.527 M
1761.2 661.527 L
S
GR
GS
[0.75 0 0 0.75 0 0.5] CT
0.149 GC
2 setlinecap
1 LJ
0.667 LW
N
1771 545.851 M
1761.2 545.851 L
S
GR
GS
[0.75 0 0 0.75 0 0.5] CT
0.149 GC
2 setlinecap
1 LJ
0.667 LW
N
1771 430.176 M
1761.2 430.176 L
S
GR
GS
[0.75 0 0 0.75 0 0.5] CT
0.149 GC
2 setlinecap
1 LJ
0.667 LW
N
1771 314.5 M
1761.2 314.5 L
S
GR
GS
[0.75 0 0 0.75 0 0.5] CT
0.149 GC
2 setlinecap
1 LJ
0.667 LW
N
1771 198.824 M
1761.2 198.824 L
S
GR
GS
[0.75 0 0 0.75 585.25003 756.91624] CT
0.149 GC
/Helvetica 40 F
GS
[1 0 0 1 0 0] CT
-51 14 moveto 
1 -1 scale
(23) t 
GR
GR
GS
[0.75 0 0 0.75 585.25003 670.15932] CT
0.149 GC
/Helvetica 40 F
GS
[1 0 0 1 0 0] CT
-51 14 moveto 
1 -1 scale
(24) t 
GR
GR
GS
[0.75 0 0 0.75 585.25003 583.40239] CT
0.149 GC
/Helvetica 40 F
GS
[1 0 0 1 0 0] CT
-51 14 moveto 
1 -1 scale
(25) t 
GR
GR
GS
[0.75 0 0 0.75 585.25003 496.64546] CT
0.149 GC
/Helvetica 40 F
GS
[1 0 0 1 0 0] CT
-51 14 moveto 
1 -1 scale
(26) t 
GR
GR
GS
[0.75 0 0 0.75 585.25003 409.88853] CT
0.149 GC
/Helvetica 40 F
GS
[1 0 0 1 0 0] CT
-51 14 moveto 
1 -1 scale
(27) t 
GR
GR
GS
[0.75 0 0 0.75 585.25003 323.13163] CT
0.149 GC
/Helvetica 40 F
GS
[1 0 0 1 0 0] CT
-51 14 moveto 
1 -1 scale
(28) t 
GR
GR
GS
[0.75 0 0 0.75 585.25003 236.37473] CT
0.149 GC
/Helvetica 40 F
GS
[1 0 0 1 0 0] CT
-51 14 moveto 
1 -1 scale
(29) t 
GR
GR
GS
[0.75 0 0 0.75 585.25003 149.6178] CT
0.149 GC
/Helvetica 40 F
GS
[1 0 0 1 0 0] CT
-51 14 moveto 
1 -1 scale
(30) t 
GR
GR
GS
[0 -0.75 0.75 0 543.99994 435.49973] CT
0.149 GC
/Helvetica 44 F
GS
[1 0 0 1 0 0] CT
-153 -11 moveto 
1 -1 scale
(y position [m]) t 
GR
GR
GS
[0.75 0 0 0.75 1017.75092 58.81252] CT
/Helvetica-Bold 44 F
GS
[1 0 0 1 0 0] CT
-574.5 -11 moveto 
1 -1 scale
(Position estimate relative to basestation \(0.0\)) t 
GR
GR
GS
[0.75 0 0 0.75 0 0.5] CT
1 0 0 RC
1 LJ
0.667 LW
N
790.972 484.444 M
799.247 483.404 L
814.034 481.645 L
828.638 479.972 L
842.611 478.341 L
855.967 476.841 L
869.826 475.315 L
882.68 473.872 L
896.798 472.38 L
911.41 470.772 L
926.716 469.156 L
941.595 467.65 L
957.164 466.076 L
972.048 464.636 L
986.999 463.222 L
1000.883 461.941 L
1015.973 460.648 L
1030.684 459.419 L
1046.078 458.033 L
1060.143 456.643 L
1074.208 455.252 L
1088.218 453.96 L
1102.097 452.65 L
1116.234 451.347 L
1131.761 450.018 L
1145.782 448.85 L
1159.982 447.541 L
1174.686 446.219 L
1189.713 444.934 L
1205.237 443.573 L
1220.565 442.161 L
1233.953 440.987 L
1248.02 439.63 L
1262.216 438.261 L
1277.021 436.669 L
1291.018 435.258 L
1306.401 433.741 L
1320.597 432.404 L
1335.432 431.105 L
1350.96 429.779 L
1366.364 428.499 L
1381.637 427.196 L
1394.966 426.087 L
1409.193 425.092 L
1423.912 423.966 L
1437.946 422.985 L
1452.996 421.999 L
1467.922 421.087 L
1484.304 420.194 L
1499.859 419.244 L
1513.839 418.391 L
1529.338 417.58 L
1543.325 416.849 L
1557.431 415.988 L
1571.602 415.155 L
1585.9 414.283 L
1600.642 413.481 L
1615.438 412.547 L
1630.416 411.437 L
1644.007 410.4 L
1658.861 409.365 L
1672.771 408.426 L
1687.372 407.409 L
1704.172 406.202 L
1718.899 405.177 L
1733.822 404.204 L
1747.794 403.231 L
1761.765 402.259 L
1771.028 401.513 L
S
GR
GS
[0.75 0 0 0.75 0 0.5] CT
1 LJ
0.667 LW
N
893.876 1070.028 M
893.874 1066.848 L
893.868 1052.273 L
893.865 1038.391 L
893.864 1024.163 L
893.865 1010.281 L
893.869 995.359 L
893.874 982.866 L
893.881 970.026 L
893.89 956.491 L
893.903 941.222 L
893.919 925.953 L
893.938 910.683 L
893.955 897.843 L
893.978 883.268 L
893.999 870.427 L
894.027 855.505 L
894.058 839.888 L
894.089 826.007 L
894.125 810.738 L
894.159 797.203 L
894.195 783.669 L
894.232 770.482 L
894.268 758.336 L
894.311 744.802 L
894.354 731.615 L
894.405 716.692 L
894.454 703.158 L
894.506 689.277 L
894.566 674.008 L
894.623 660.126 L
894.685 645.551 L
894.746 631.67 L
894.81 617.789 L
894.872 604.601 L
894.938 591.068 L
895.013 576.145 L
895.086 562.264 L
895.162 548.036 L
895.239 534.155 L
895.324 519.233 L
895.405 505.352 L
895.489 491.471 L
895.571 478.283 L
895.659 464.402 L
895.749 450.522 L
895.841 436.641 L
895.929 423.801 L
895.997 413.954 L
895.997 413.954 L
895.972 414.049 L
895.83 414.364 L
895.897 414.284 L
895.933 414.25 L
895.967 414.231 L
895.901 414.283 L
896.046 414.201 L
896.269 414.12 L
896.486 414.08 L
896.475 414.084 L
896.681 414.063 L
896.932 414.06 L
897 414.058 L
897.001 414.058 L
897.001 414.058 L
897.002 414.058 L
897.003 414.058 L
897.004 414.058 L
897.005 414.058 L
897.005 414.058 L
897.006 414.058 L
897.007 414.058 L
900.057 414.053 L
914.286 414.031 L
928.167 414.009 L
942.743 413.985 L
957.666 413.962 L
970.854 413.941 L
984.388 413.92 L
997.923 413.899 L
1011.457 413.879 L
1026.38 413.856 L
1040.956 413.835 L
1054.144 413.815 L
1068.719 413.794 L
1082.254 413.775 L
1096.483 413.754 L
1110.364 413.735 L
1124.246 413.716 L
1137.781 413.697 L
1151.662 413.678 L
1165.544 413.659 L
1180.12 413.64 L
1193.307 413.622 L
1208.23 413.603 L
1221.765 413.585 L
1237.729 413.565 L
1251.957 413.547 L
1265.145 413.531 L
1279.721 413.513 L
1294.991 413.494 L
1308.525 413.478 L
1323.448 413.461 L
1339.412 413.442 L
1352.6 413.427 L
1366.135 413.412 L
1378.975 413.397 L
1395.98 413.379 L
1412.291 413.361 L
1427.214 413.345 L
1441.443 413.33 L
1455.324 413.316 L
1470.594 413.3 L
1486.211 413.284 L
1499.052 413.272 L
1513.28 413.258 L
1529.938 413.242 L
1543.126 413.229 L
1557.008 413.216 L
1571.93 413.203 L
1587.547 413.188 L
1602.817 413.175 L
1617.393 413.162 L
1631.969 413.15 L
1646.198 413.138 L
1660.079 413.127 L
1674.655 413.115 L
1689.231 413.103 L
1703.459 413.092 L
1717.688 413.081 L
1731.223 413.071 L
1744.757 413.061 L
1758.639 413.051 L
1771.028 413.043 L
S
GR
GS
[0.75 0 0 0.75 0 0.5] CT
0 0 1 RC
1 LJ
0.667 LW
N
878.28 1070.028 M
877.092 1059.74 L
880.295 1043.691 L
879.598 1027.354 L
879.7 1010.948 L
877.003 1001.433 L
876.336 992.316 L
880.926 976.118 L
881.326 956.484 L
882.034 940.976 L
882.327 925.266 L
877.579 914.729 L
881.168 896.346 L
877.131 890.191 L
881.146 875.065 L
881.933 852.188 L
883.94 833.739 L
885.694 822.768 L
884.401 812.69 L
883.654 796.417 L
884.484 782.5 L
885.066 771.276 L
886.14 755.272 L
891.048 736.022 L
893.583 722.853 L
895.077 708.745 L
897.518 692.028 L
897.492 675.031 L
890.382 663.245 L
890.923 648.275 L
889.702 638.941 L
890.738 623.679 L
893.715 606.958 L
894.944 589.556 L
898.347 576.607 L
899.571 558.274 L
901.005 546.637 L
900.531 532.234 L
899.265 516.627 L
899.21 499.879 L
904.181 481.943 L
903.986 468.94 L
905.118 453.169 L
908.097 444.385 L
903.848 428.122 L
901.952 419.249 L
899.85 410.861 L
898.319 408.916 L
915.211 400.602 L
901.311 403.869 L
905.09 404.883 L
903.281 405.075 L
906.119 405.481 L
911.706 406.831 L
905.624 404.459 L
902.892 403.671 L
908.897 403.64 L
909.656 403.944 L
912.778 404.589 L
912.079 404.321 L
912.101 404.314 L
910.117 402.756 L
906.628 399.576 L
910.005 404.264 L
908.989 403.182 L
906.501 400.351 L
911.12 403.409 L
909.376 401.426 L
907.596 398.501 L
910.146 402.474 L
912.995 401.123 L
927.609 401.404 L
939.852 399.779 L
953.861 402.09 L
971.138 402.317 L
981.011 400.507 L
993.161 398.846 L
1008.872 404.819 L
1022.153 402.169 L
1036.551 403.945 L
1050.842 404.144 L
1064.408 403.351 L
1079.087 406.544 L
1091.883 403.485 L
1105.658 405.22 L
1117.373 404.83 L
1129.504 402.237 L
1143.89 405.702 L
1162.556 407.253 L
1176.441 402.901 L
1191.717 406.022 L
1203.721 401.988 L
1219.005 404.243 L
1234.021 406.227 L
1245.647 404.109 L
1257.002 402.608 L
1271.666 404.439 L
1287.042 402.494 L
1303.875 403.181 L
1319.199 403.792 L
1334.052 409.026 L
1349.297 404.328 L
1365.206 402.374 L
1379.771 407.572 L
1395.734 402.151 L
1412.178 401.35 L
1428.743 402.354 L
1444.456 396.816 L
1462.244 396.931 L
1477.269 395.048 L
1490.952 396 L
1503.601 400.022 L
1517.068 400.133 L
1535.587 401.317 L
1548.712 393.603 L
1562.997 396.482 L
1575.075 400.553 L
1589.905 400.228 L
1600.621 403.197 L
1619.961 401.509 L
1631.799 403.886 L
1650.716 401.736 L
1663.112 398.149 L
1673.453 398.366 L
1691.441 399.037 L
1703.604 400.541 L
1715.238 405.7 L
1727.506 407.77 L
1737.998 407.291 L
1750.063 405.728 L
1767.239 405.908 L
1771.028 404.21 L
S
GR
GS
[0.75 0 0 0.75 0 0.5] CT
1 GC
N
1758 281 M
1758 103 L
1471 103 L
1471 281 L
cp
f
GR
GS
[0.75 0 0 0.75 1138.5 95.42465] CT
/Helvetica 36 F
GS
[1 0 0 1 0 0] CT
0 12.5 moveto 
1 -1 scale
(Odometry) t 
GR
GR
GS
[0.75 0 0 0.75 0 0.5] CT
1 0 0 RC
1 LJ
0.667 LW
N
1475 126.566 M
1515 126.566 L
S
GR
GS
[0.75 0 0 0.75 1138.5 128.14155] CT
/Helvetica 36 F
GS
[1 0 0 1 0 0] CT
0 12.5 moveto 
1 -1 scale
(True position) t 
GR
GR
GS
[0.75 0 0 0.75 0 0.5] CT
1 LJ
0.667 LW
N
1475 170.189 M
1515 170.189 L
S
GR
GS
[0.75 0 0 0.75 1138.5 160.85845] CT
/Helvetica 36 F
GS
[1 0 0 1 0 0] CT
0 12.5 moveto 
1 -1 scale
(EKF) t 
GR
GR
GS
[0.75 0 0 0.75 0 0.5] CT
0 0 1 RC
1 LJ
0.667 LW
N
1475 213.811 M
1515 213.811 L
S
GR
GS
[0.75 0 0 0.75 1138.5 193.57536] CT
/Helvetica 36 F
GS
[1 0 0 1 0 0] CT
0 12.5 moveto 
1 -1 scale
(Base station) t 
GR
GR
GS
[0.75 0 0 0.75 1121.25 193.57536] CT
0 0.447 0.741 RC
10.0 ML
N
0 -4 M
0 4 L
-4 0 M
4 0 L
-2.828 -2.828 M
2.828 2.828 L
-2.828 2.828 M
2.828 -2.828 L
S
GR
GS
[0.75 0 0 0.75 0 0.5] CT
0.149 GC
10.0 ML
0.667 LW
N
1471 281 M
1471 103 L
1758 103 L
1758 281 L
cp
S
GR
%%Trailer
%%Pages: 1
%%EOF
