%!PS-Adobe-3.0 EPSF-3.0
%%Creator: (MATLAB, The Mathworks, Inc. Version 9.3.0.713579 \(R2017b\). Operating System: Linux)
%%Title: /home/micke/ExamensarbeteCybercom/Pics/Filtercomp.eps
%%CreationDate: 2018-04-16T12:38:05
%%Pages: (atend)
%%BoundingBox: 0 0 1200 423
%%LanguageLevel: 3
%%EndComments
%%BeginProlog
%%BeginResource: procset (Apache XML Graphics Std ProcSet) 1.2 0
%%Version: 1.2 0
%%Copyright: (Copyright 2001-2003,2010 The Apache Software Foundation. License terms: http://www.apache.org/licenses/LICENSE-2.0)
/bd{bind def}bind def
/ld{load def}bd
/GR/grestore ld
/GS/gsave ld
/RM/rmoveto ld
/C/curveto ld
/t/show ld
/L/lineto ld
/ML/setmiterlimit ld
/CT/concat ld
/f/fill ld
/N/newpath ld
/S/stroke ld
/CC/setcmykcolor ld
/A/ashow ld
/cp/closepath ld
/RC/setrgbcolor ld
/LJ/setlinejoin ld
/GC/setgray ld
/LW/setlinewidth ld
/M/moveto ld
/re {4 2 roll M
1 index 0 rlineto
0 exch rlineto
neg 0 rlineto
cp } bd
/_ctm matrix def
/_tm matrix def
/BT { _ctm currentmatrix pop matrix _tm copy pop 0 0 moveto } bd
/ET { _ctm setmatrix } bd
/iTm { _ctm setmatrix _tm concat } bd
/Tm { _tm astore pop iTm 0 0 moveto } bd
/ux 0.0 def
/uy 0.0 def
/F {
  /Tp exch def
  /Tf exch def
  Tf findfont Tp scalefont setfont
  /cf Tf def  /cs Tp def
} bd
/ULS {currentpoint /uy exch def /ux exch def} bd
/ULE {
  /Tcx currentpoint pop def
  gsave
  newpath
  cf findfont cs scalefont dup
  /FontMatrix get 0 get /Ts exch def /FontInfo get dup
  /UnderlinePosition get Ts mul /To exch def
  /UnderlineThickness get Ts mul /Tt exch def
  ux uy To add moveto  Tcx uy To add lineto
  Tt setlinewidth stroke
  grestore
} bd
/OLE {
  /Tcx currentpoint pop def
  gsave
  newpath
  cf findfont cs scalefont dup
  /FontMatrix get 0 get /Ts exch def /FontInfo get dup
  /UnderlinePosition get Ts mul /To exch def
  /UnderlineThickness get Ts mul /Tt exch def
  ux uy To add cs add moveto Tcx uy To add cs add lineto
  Tt setlinewidth stroke
  grestore
} bd
/SOE {
  /Tcx currentpoint pop def
  gsave
  newpath
  cf findfont cs scalefont dup
  /FontMatrix get 0 get /Ts exch def /FontInfo get dup
  /UnderlinePosition get Ts mul /To exch def
  /UnderlineThickness get Ts mul /Tt exch def
  ux uy To add cs 10 mul 26 idiv add moveto Tcx uy To add cs 10 mul 26 idiv add lineto
  Tt setlinewidth stroke
  grestore
} bd
/QT {
/Y22 exch store
/X22 exch store
/Y21 exch store
/X21 exch store
currentpoint
/Y21 load 2 mul add 3 div exch
/X21 load 2 mul add 3 div exch
/X21 load 2 mul /X22 load add 3 div
/Y21 load 2 mul /Y22 load add 3 div
/X22 load /Y22 load curveto
} bd
/SSPD {
dup length /d exch dict def
{
/v exch def
/k exch def
currentpagedevice k known {
/cpdv currentpagedevice k get def
v cpdv ne {
/upd false def
/nullv v type /nulltype eq def
/nullcpdv cpdv type /nulltype eq def
nullv nullcpdv or
{
/upd true def
} {
/sametype v type cpdv type eq def
sametype {
v type /arraytype eq {
/vlen v length def
/cpdvlen cpdv length def
vlen cpdvlen eq {
0 1 vlen 1 sub {
/i exch def
/obj v i get def
/cpdobj cpdv i get def
obj cpdobj ne {
/upd true def
exit
} if
} for
} {
/upd true def
} ifelse
} {
v type /dicttype eq {
v {
/dv exch def
/dk exch def
/cpddv cpdv dk get def
dv cpddv ne {
/upd true def
exit
} if
} forall
} {
/upd true def
} ifelse
} ifelse
} if
} ifelse
upd true eq {
d k v put
} if
} if
} if
} forall
d length 0 gt {
d setpagedevice
} if
} bd
/RE { % /NewFontName [NewEncodingArray] /FontName RE -
  findfont dup length dict begin
  {
    1 index /FID ne
    {def} {pop pop} ifelse
  } forall
  /Encoding exch def
  /FontName 1 index def
  currentdict definefont pop
  end
} bind def
%%EndResource
%%BeginResource: procset (Apache XML Graphics EPS ProcSet) 1.0 0
%%Version: 1.0 0
%%Copyright: (Copyright 2002-2003 The Apache Software Foundation. License terms: http://www.apache.org/licenses/LICENSE-2.0)
/BeginEPSF { %def
/b4_Inc_state save def         % Save state for cleanup
/dict_count countdictstack def % Count objects on dict stack
/op_count count 1 sub def      % Count objects on operand stack
userdict begin                 % Push userdict on dict stack
/showpage { } def              % Redefine showpage, { } = null proc
0 setgray 0 setlinecap         % Prepare graphics state
1 setlinewidth 0 setlinejoin
10 setmiterlimit [ ] 0 setdash newpath
/languagelevel where           % If level not equal to 1 then
{pop languagelevel             % set strokeadjust and
1 ne                           % overprint to their defaults.
{false setstrokeadjust false setoverprint
} if
} if
} bd
/EndEPSF { %def
count op_count sub {pop} repeat            % Clean up stacks
countdictstack dict_count sub {end} repeat
b4_Inc_state restore
} bd
%%EndResource
%FOPBeginFontDict
%%IncludeResource: font Courier-Oblique
%%IncludeResource: font Courier-BoldOblique
%%IncludeResource: font Courier-Bold
%%IncludeResource: font ZapfDingbats
%%IncludeResource: font Symbol
%%IncludeResource: font Helvetica
%%IncludeResource: font Helvetica-Oblique
%%IncludeResource: font Helvetica-Bold
%%IncludeResource: font Helvetica-BoldOblique
%%IncludeResource: font Times-Roman
%%IncludeResource: font Times-Italic
%%IncludeResource: font Times-Bold
%%IncludeResource: font Times-BoldItalic
%%IncludeResource: font Courier
%FOPEndFontDict
%%BeginResource: encoding WinAnsiEncoding
/WinAnsiEncoding [
/.notdef /.notdef /.notdef /.notdef /.notdef
/.notdef /.notdef /.notdef /.notdef /.notdef
/.notdef /.notdef /.notdef /.notdef /.notdef
/.notdef /.notdef /.notdef /.notdef /.notdef
/.notdef /.notdef /.notdef /.notdef /.notdef
/.notdef /.notdef /.notdef /.notdef /.notdef
/.notdef /.notdef /space /exclam /quotedbl
/numbersign /dollar /percent /ampersand /quotesingle
/parenleft /parenright /asterisk /plus /comma
/hyphen /period /slash /zero /one
/two /three /four /five /six
/seven /eight /nine /colon /semicolon
/less /equal /greater /question /at
/A /B /C /D /E
/F /G /H /I /J
/K /L /M /N /O
/P /Q /R /S /T
/U /V /W /X /Y
/Z /bracketleft /backslash /bracketright /asciicircum
/underscore /quoteleft /a /b /c
/d /e /f /g /h
/i /j /k /l /m
/n /o /p /q /r
/s /t /u /v /w
/x /y /z /braceleft /bar
/braceright /asciitilde /bullet /Euro /bullet
/quotesinglbase /florin /quotedblbase /ellipsis /dagger
/daggerdbl /circumflex /perthousand /Scaron /guilsinglleft
/OE /bullet /Zcaron /bullet /bullet
/quoteleft /quoteright /quotedblleft /quotedblright /bullet
/endash /emdash /asciitilde /trademark /scaron
/guilsinglright /oe /bullet /zcaron /Ydieresis
/space /exclamdown /cent /sterling /currency
/yen /brokenbar /section /dieresis /copyright
/ordfeminine /guillemotleft /logicalnot /sfthyphen /registered
/macron /degree /plusminus /twosuperior /threesuperior
/acute /mu /paragraph /middot /cedilla
/onesuperior /ordmasculine /guillemotright /onequarter /onehalf
/threequarters /questiondown /Agrave /Aacute /Acircumflex
/Atilde /Adieresis /Aring /AE /Ccedilla
/Egrave /Eacute /Ecircumflex /Edieresis /Igrave
/Iacute /Icircumflex /Idieresis /Eth /Ntilde
/Ograve /Oacute /Ocircumflex /Otilde /Odieresis
/multiply /Oslash /Ugrave /Uacute /Ucircumflex
/Udieresis /Yacute /Thorn /germandbls /agrave
/aacute /acircumflex /atilde /adieresis /aring
/ae /ccedilla /egrave /eacute /ecircumflex
/edieresis /igrave /iacute /icircumflex /idieresis
/eth /ntilde /ograve /oacute /ocircumflex
/otilde /odieresis /divide /oslash /ugrave
/uacute /ucircumflex /udieresis /yacute /thorn
/ydieresis
] def
%%EndResource
%FOPBeginFontReencode
/Courier-Oblique findfont
dup length dict begin
  {1 index /FID ne {def} {pop pop} ifelse} forall
  /Encoding WinAnsiEncoding def
  currentdict
end
/Courier-Oblique exch definefont pop
/Courier-BoldOblique findfont
dup length dict begin
  {1 index /FID ne {def} {pop pop} ifelse} forall
  /Encoding WinAnsiEncoding def
  currentdict
end
/Courier-BoldOblique exch definefont pop
/Courier-Bold findfont
dup length dict begin
  {1 index /FID ne {def} {pop pop} ifelse} forall
  /Encoding WinAnsiEncoding def
  currentdict
end
/Courier-Bold exch definefont pop
/Helvetica findfont
dup length dict begin
  {1 index /FID ne {def} {pop pop} ifelse} forall
  /Encoding WinAnsiEncoding def
  currentdict
end
/Helvetica exch definefont pop
/Helvetica-Oblique findfont
dup length dict begin
  {1 index /FID ne {def} {pop pop} ifelse} forall
  /Encoding WinAnsiEncoding def
  currentdict
end
/Helvetica-Oblique exch definefont pop
/Helvetica-Bold findfont
dup length dict begin
  {1 index /FID ne {def} {pop pop} ifelse} forall
  /Encoding WinAnsiEncoding def
  currentdict
end
/Helvetica-Bold exch definefont pop
/Helvetica-BoldOblique findfont
dup length dict begin
  {1 index /FID ne {def} {pop pop} ifelse} forall
  /Encoding WinAnsiEncoding def
  currentdict
end
/Helvetica-BoldOblique exch definefont pop
/Times-Roman findfont
dup length dict begin
  {1 index /FID ne {def} {pop pop} ifelse} forall
  /Encoding WinAnsiEncoding def
  currentdict
end
/Times-Roman exch definefont pop
/Times-Italic findfont
dup length dict begin
  {1 index /FID ne {def} {pop pop} ifelse} forall
  /Encoding WinAnsiEncoding def
  currentdict
end
/Times-Italic exch definefont pop
/Times-Bold findfont
dup length dict begin
  {1 index /FID ne {def} {pop pop} ifelse} forall
  /Encoding WinAnsiEncoding def
  currentdict
end
/Times-Bold exch definefont pop
/Times-BoldItalic findfont
dup length dict begin
  {1 index /FID ne {def} {pop pop} ifelse} forall
  /Encoding WinAnsiEncoding def
  currentdict
end
/Times-BoldItalic exch definefont pop
/Courier findfont
dup length dict begin
  {1 index /FID ne {def} {pop pop} ifelse} forall
  /Encoding WinAnsiEncoding def
  currentdict
end
/Courier exch definefont pop
%FOPEndFontReencode
%%EndProlog
%%Page: 1 1
%%PageBoundingBox: 0 0 1200 423
%%BeginPageSetup
[1 0 0 -1 0 423] CT
%%EndPageSetup
GS
[0.75 0 0 0.75 0 0] CT
1 GC
N
0 0 1600 564 re
f
GR
GS
[0.75 0 0 0.75 0 0] CT
1 GC
N
0 0 1600 564 re
f
GR
GS
[0.75 0 0 0.75 0 0] CT
1 GC
N
208 502 M
1448 502 L
1448 42 L
208 42 L
cp
f
GR
GS
[0.75 0 0 0.75 0 0] CT
0.149 GC
2 setlinecap
1 LJ
0.667 LW
N
208 502 M
1448 502 L
S
GR
GS
[0.75 0 0 0.75 0 0] CT
0.149 GC
2 setlinecap
1 LJ
0.667 LW
N
208 502 M
208 489.6 L
S
GR
GS
[0.75 0 0 0.75 0 0] CT
0.149 GC
2 setlinecap
1 LJ
0.667 LW
N
385.143 502 M
385.143 489.6 L
S
GR
GS
[0.75 0 0 0.75 0 0] CT
0.149 GC
2 setlinecap
1 LJ
0.667 LW
N
562.286 502 M
562.286 489.6 L
S
GR
GS
[0.75 0 0 0.75 0 0] CT
0.149 GC
2 setlinecap
1 LJ
0.667 LW
N
739.429 502 M
739.429 489.6 L
S
GR
GS
[0.75 0 0 0.75 0 0] CT
0.149 GC
2 setlinecap
1 LJ
0.667 LW
N
916.571 502 M
916.571 489.6 L
S
GR
GS
[0.75 0 0 0.75 0 0] CT
0.149 GC
2 setlinecap
1 LJ
0.667 LW
N
1093.714 502 M
1093.714 489.6 L
S
GR
GS
[0.75 0 0 0.75 0 0] CT
0.149 GC
2 setlinecap
1 LJ
0.667 LW
N
1270.857 502 M
1270.857 489.6 L
S
GR
GS
[0.75 0 0 0.75 0 0] CT
0.149 GC
2 setlinecap
1 LJ
0.667 LW
N
1448 502 M
1448 489.6 L
S
GR
GS
[0.75 0 0 0.75 156 380.50001] CT
0.149 GC
/Helvetica 13.333 F
GS
[1 0 0 1 0 0] CT
-7 13 moveto 
1 -1 scale
(-2) t 
GR
GR
GS
[0.75 0 0 0.75 288.85714 380.50001] CT
0.149 GC
/Helvetica 13.333 F
GS
[1 0 0 1 0 0] CT
-4.5 13 moveto 
1 -1 scale
(0) t 
GR
GR
GS
[0.75 0 0 0.75 421.71428 380.50001] CT
0.149 GC
/Helvetica 13.333 F
GS
[1 0 0 1 0 0] CT
-4.5 13 moveto 
1 -1 scale
(2) t 
GR
GR
GS
[0.75 0 0 0.75 554.57144 380.50001] CT
0.149 GC
/Helvetica 13.333 F
GS
[1 0 0 1 0 0] CT
-4.5 13 moveto 
1 -1 scale
(4) t 
GR
GR
GS
[0.75 0 0 0.75 687.42856 380.50001] CT
0.149 GC
/Helvetica 13.333 F
GS
[1 0 0 1 0 0] CT
-4.5 13 moveto 
1 -1 scale
(6) t 
GR
GR
GS
[0.75 0 0 0.75 820.28568 380.50001] CT
0.149 GC
/Helvetica 13.333 F
GS
[1 0 0 1 0 0] CT
-4.5 13 moveto 
1 -1 scale
(8) t 
GR
GR
GS
[0.75 0 0 0.75 953.14288 380.50001] CT
0.149 GC
/Helvetica 13.333 F
GS
[1 0 0 1 0 0] CT
-8.5 13 moveto 
1 -1 scale
(10) t 
GR
GR
GS
[0.75 0 0 0.75 1086 380.50001] CT
0.149 GC
/Helvetica 13.333 F
GS
[1 0 0 1 0 0] CT
-8.5 13 moveto 
1 -1 scale
(12) t 
GR
GR
GS
[0.75 0 0 0.75 621.00046 394.25002] CT
0.149 GC
/Helvetica 26.667 F
GS
[1 0 0 1 0 0] CT
-93 25 moveto 
1 -1 scale
(x position [m]) t 
GR
GR
GS
[0.75 0 0 0.75 0 0] CT
0.149 GC
2 setlinecap
1 LJ
0.667 LW
N
208 502 M
208 42 L
S
GR
GS
[0.75 0 0 0.75 0 0] CT
0.149 GC
2 setlinecap
1 LJ
0.667 LW
N
208 502 M
220.4 502 L
S
GR
GS
[0.75 0 0 0.75 0 0] CT
0.149 GC
2 setlinecap
1 LJ
0.667 LW
N
208 456 M
220.4 456 L
S
GR
GS
[0.75 0 0 0.75 0 0] CT
0.149 GC
2 setlinecap
1 LJ
0.667 LW
N
208 410 M
220.4 410 L
S
GR
GS
[0.75 0 0 0.75 0 0] CT
0.149 GC
2 setlinecap
1 LJ
0.667 LW
N
208 364 M
220.4 364 L
S
GR
GS
[0.75 0 0 0.75 0 0] CT
0.149 GC
2 setlinecap
1 LJ
0.667 LW
N
208 318 M
220.4 318 L
S
GR
GS
[0.75 0 0 0.75 0 0] CT
0.149 GC
2 setlinecap
1 LJ
0.667 LW
N
208 272 M
220.4 272 L
S
GR
GS
[0.75 0 0 0.75 0 0] CT
0.149 GC
2 setlinecap
1 LJ
0.667 LW
N
208 226 M
220.4 226 L
S
GR
GS
[0.75 0 0 0.75 0 0] CT
0.149 GC
2 setlinecap
1 LJ
0.667 LW
N
208 180 M
220.4 180 L
S
GR
GS
[0.75 0 0 0.75 0 0] CT
0.149 GC
2 setlinecap
1 LJ
0.667 LW
N
208 134 M
220.4 134 L
S
GR
GS
[0.75 0 0 0.75 0 0] CT
0.149 GC
2 setlinecap
1 LJ
0.667 LW
N
208 88 M
220.4 88 L
S
GR
GS
[0.75 0 0 0.75 0 0] CT
0.149 GC
2 setlinecap
1 LJ
0.667 LW
N
208 42 M
220.4 42 L
S
GR
GS
[0.75 0 0 0.75 152 376.5] CT
0.149 GC
/Helvetica 13.333 F
GS
[1 0 0 1 0 0] CT
-14 4.5 moveto 
1 -1 scale
(-1) t 
GR
GR
GS
[0.75 0 0 0.75 152 342] CT
0.149 GC
/Helvetica 13.333 F
GS
[1 0 0 1 0 0] CT
-9 4.5 moveto 
1 -1 scale
(0) t 
GR
GR
GS
[0.75 0 0 0.75 152 307.5] CT
0.149 GC
/Helvetica 13.333 F
GS
[1 0 0 1 0 0] CT
-9 4.5 moveto 
1 -1 scale
(1) t 
GR
GR
GS
[0.75 0 0 0.75 152 273] CT
0.149 GC
/Helvetica 13.333 F
GS
[1 0 0 1 0 0] CT
-9 4.5 moveto 
1 -1 scale
(2) t 
GR
GR
GS
[0.75 0 0 0.75 152 238.5] CT
0.149 GC
/Helvetica 13.333 F
GS
[1 0 0 1 0 0] CT
-9 4.5 moveto 
1 -1 scale
(3) t 
GR
GR
GS
[0.75 0 0 0.75 152 204] CT
0.149 GC
/Helvetica 13.333 F
GS
[1 0 0 1 0 0] CT
-9 4.5 moveto 
1 -1 scale
(4) t 
GR
GR
GS
[0.75 0 0 0.75 152 169.5] CT
0.149 GC
/Helvetica 13.333 F
GS
[1 0 0 1 0 0] CT
-9 4.5 moveto 
1 -1 scale
(5) t 
GR
GR
GS
[0.75 0 0 0.75 152 135] CT
0.149 GC
/Helvetica 13.333 F
GS
[1 0 0 1 0 0] CT
-9 4.5 moveto 
1 -1 scale
(6) t 
GR
GR
GS
[0.75 0 0 0.75 152 100.5] CT
0.149 GC
/Helvetica 13.333 F
GS
[1 0 0 1 0 0] CT
-9 4.5 moveto 
1 -1 scale
(7) t 
GR
GR
GS
[0.75 0 0 0.75 152 66] CT
0.149 GC
/Helvetica 13.333 F
GS
[1 0 0 1 0 0] CT
-9 4.5 moveto 
1 -1 scale
(8) t 
GR
GR
GS
[0.75 0 0 0.75 152 31.5] CT
0.149 GC
/Helvetica 13.333 F
GS
[1 0 0 1 0 0] CT
-9 4.5 moveto 
1 -1 scale
(9) t 
GR
GR
GS
[0 -0.75 0.75 0 138.5 203.99984] CT
0.149 GC
/Helvetica 26.667 F
GS
[1 0 0 1 0 0] CT
-93 -7 moveto 
1 -1 scale
(y position [m]) t 
GR
GR
GS
[0.75 0 0 0.75 621.0006 27.74999] CT
/Helvetica-Bold 26.667 F
GS
[1 0 0 1 0 0] CT
-277.5 -7 moveto 
1 -1 scale
(Position relative to basestation \(0.0\)) t 
GR
GR
GS
[0.75 0 0 0.75 0 0] CT
1 LJ
0.667 LW
N
385.143 456 M
385.143 456 L
385.143 456 L
385.144 456 L
385.144 456 L
385.144 456 L
385.144 456 L
385.145 456 L
385.145 456 L
387.84 455.987 L
392.862 455.962 L
398.638 455.932 L
403.41 455.908 L
408.667 455.882 L
414.183 455.853 L
419.708 455.824 L
424.982 455.796 L
430.507 455.767 L
435.78 455.739 L
441.556 455.708 L
446.83 455.68 L
452.606 455.65 L
457.628 455.624 L
462.902 455.596 L
468.176 455.568 L
473.449 455.54 L
479.225 455.51 L
484.499 455.482 L
489.773 455.455 L
495.298 455.426 L
501.073 455.396 L
506.096 455.369 L
511.37 455.342 L
516.643 455.314 L
522.168 455.285 L
527.693 455.257 L
532.464 455.232 L
537.487 455.206 L
543.012 455.177 L
547.783 455.152 L
553.308 455.123 L
558.833 455.095 L
564.107 455.067 L
569.883 455.037 L
575.156 455.01 L
579.928 454.985 L
585.201 454.958 L
590.224 454.932 L
596 454.902 L
601.274 454.875 L
606.798 454.846 L
612.072 454.819 L
617.597 454.791 L
622.368 454.766 L
625.731 454.749 L
625.731 454.749 L
625.731 454.749 L
625.731 454.749 L
625.732 454.749 L
625.732 454.749 L
625.732 454.749 L
625.732 454.749 L
625.732 454.749 L
629.703 454.727 L
634.976 454.697 L
640.501 454.666 L
645.775 454.636 L
651.3 454.605 L
656.071 454.578 L
661.094 454.55 L
666.367 454.521 L
671.892 454.49 L
677.417 454.459 L
682.941 454.428 L
688.466 454.397 L
693.74 454.367 L
699.014 454.338 L
704.036 454.31 L
708.807 454.283 L
714.081 454.254 L
719.104 454.226 L
724.126 454.198 L
729.4 454.168 L
734.925 454.138 L
740.198 454.108 L
745.472 454.079 L
750.997 454.048 L
751.103 454.048 L
751.103 454.048 L
751.103 454.048 L
751.104 454.048 L
751.104 454.048 L
751.104 454.048 L
751.104 454.048 L
752.815 454.038 L
758.339 454.006 L
763.613 453.976 L
769.138 453.945 L
774.411 453.914 L
779.434 453.886 L
784.456 453.857 L
789.981 453.826 L
795.255 453.796 L
800.026 453.768 L
805.3 453.738 L
810.322 453.71 L
815.596 453.68 L
820.618 453.651 L
825.641 453.623 L
830.664 453.594 L
835.686 453.566 L
840.96 453.536 L
846.484 453.505 L
852.009 453.473 L
857.283 453.444 L
860.15 453.428 L
860.15 453.428 L
860.15 453.428 L
860.15 453.428 L
860.147 453.427 L
860.213 453.423 L
860.241 453.419 L
860.308 453.404 L
860.378 453.383 L
860.435 453.362 L
860.49 453.336 L
860.538 453.307 L
860.58 453.277 L
860.612 453.247 L
860.638 453.215 L
860.664 453.161 L
860.676 453.099 L
860.671 453.034 L
860.639 452.937 L
860.63 452.909 L
860.63 452.909 L
860.63 452.909 L
860.63 452.909 L
860.63 452.909 L
860.63 452.909 L
860.618 452.879 L
860.621 452.881 L
860.621 452.881 L
860.621 452.881 L
860.621 452.882 L
860.616 452.869 L
860.624 452.908 L
860.624 452.908 L
860.624 452.908 L
860.621 452.911 L
860.626 452.955 L
860.626 452.956 L
860.626 452.956 L
860.571 451.287 L
860.478 448.552 L
860.376 445.814 L
860.266 443.076 L
860.153 440.469 L
860.039 437.992 L
859.902 435.124 L
859.761 432.255 L
859.651 430.039 L
859.513 427.301 L
859.362 424.302 L
859.23 421.694 L
859.086 418.825 L
858.968 416.552 L
858.971 416.557 L
858.971 416.557 L
858.971 416.557 L
858.971 416.557 L
858.971 416.557 L
858.971 416.557 L
858.971 416.557 L
858.971 416.557 L
858.969 415.539 L
858.97 412.932 L
858.982 410.193 L
859.005 407.324 L
859.037 404.455 L
859.069 401.977 L
859.107 399.238 L
859.151 396.369 L
859.192 393.761 L
859.234 391.152 L
859.282 388.283 L
859.328 385.544 L
859.375 382.805 L
859.425 379.936 L
859.468 377.458 L
859.517 374.719 L
859.573 371.589 L
859.62 368.98 L
859.668 366.372 L
859.723 363.372 L
859.774 360.633 L
859.83 357.634 L
859.882 354.895 L
859.93 352.417 L
859.987 349.417 L
860.041 346.678 L
860.097 343.809 L
860.151 341.07 L
860.195 338.853 L
860.253 335.984 L
860.311 333.115 L
860.367 330.376 L
860.42 327.767 L
860.477 325.029 L
860.531 322.42 L
860.592 319.551 L
860.65 316.812 L
860.714 313.813 L
860.776 310.943 L
860.806 309.579 L
860.8 309.538 L
860.8 309.538 L
860.632 308.132 L
860.287 305.268 L
859.949 302.535 L
859.602 299.802 L
859.265 297.2 L
858.888 294.337 L
858.81 293.76 L
858.81 293.759 L
858.81 293.759 L
858.81 293.759 L
858.81 293.759 L
858.785 293.133 L
858.68 290.396 L
858.581 287.528 L
858.501 284.92 L
858.419 281.921 L
858.345 278.921 L
858.281 276.183 L
858.224 273.574 L
858.165 270.836 L
858.103 267.836 L
858.044 264.967 L
857.986 262.098 L
857.932 259.359 L
857.881 256.75 L
857.833 254.272 L
857.78 251.533 L
857.728 248.795 L
857.676 246.056 L
857.625 243.317 L
857.571 240.448 L
857.521 237.709 L
857.471 234.97 L
857.419 232.101 L
857.413 231.792 L
857.413 231.792 L
857.413 231.792 L
857.413 231.791 L
857.413 231.791 L
857.383 230.121 L
857.333 227.382 L
857.283 224.643 L
857.234 221.904 L
857.18 218.905 L
857.129 216.035 L
857.09 213.818 L
857.04 210.949 L
856.99 208.08 L
856.939 205.08 L
856.89 202.211 L
856.843 199.472 L
856.793 196.472 L
856.746 193.603 L
856.705 191.125 L
856.661 188.386 L
856.617 185.647 L
856.579 183.299 L
856.534 180.43 L
856.502 178.297 L
856.501 178.297 L
856.501 178.297 L
856.501 178.297 L
856.501 178.299 L
856.509 178.278 L
856.523 178.251 L
856.547 178.219 L
856.581 178.188 L
856.549 178.211 L
856.521 178.227 L
856.49 178.241 L
856.461 178.252 L
856.428 178.262 L
856.407 178.267 L
856.406 178.267 L
856.406 178.267 L
856.336 178.28 L
856.36 178.276 L
856.315 178.283 L
856.361 178.278 L
856.348 178.28 L
856.406 178.275 L
856.405 178.275 L
856.502 178.271 L
856.502 178.271 L
856.503 178.27 L
856.594 178.273 L
856.642 178.273 L
856.683 178.272 L
856.8 178.276 L
856.8 178.276 L
856.801 178.276 L
856.884 178.278 L
856.8 178.281 L
856.775 178.282 L
856.775 178.282 L
860.478 178.141 L
865.738 177.941 L
868.139 177.85 L
868.054 177.85 L
870.265 177.831 L
876.041 177.782 L
881.565 177.734 L
887.089 177.687 L
892.363 177.641 L
897.385 177.598 L
903.16 177.549 L
908.685 177.502 L
913.958 177.456 L
919.231 177.411 L
924.755 177.364 L
930.28 177.316 L
935.804 177.269 L
941.328 177.222 L
946.602 177.177 L
952.126 177.129 L
957.148 177.086 L
962.421 177.041 L
968.197 176.991 L
972.717 176.953 L
978.743 176.901 L
984.016 176.856 L
989.29 176.811 L
994.814 176.763 L
999.585 176.723 L
1003.2 176.692 L
1003.2 176.692 L
1003.201 176.692 L
1003.201 176.692 L
1003.201 176.692 L
1003.18 176.693 L
1003.342 176.684 L
1003.343 176.684 L
1003.343 176.684 L
1003.343 176.684 L
1003.396 176.68 L
1005.525 176.647 L
1010.537 176.588 L
1015.558 176.53 L
1021.333 176.463 L
1026.857 176.399 L
1031.627 176.343 L
1036.9 176.282 L
1041.671 176.227 L
1046.692 176.169 L
1052.215 176.105 L
1057.237 176.047 L
1062.761 175.982 L
1067.28 175.93 L
1072.302 175.872 L
1076.821 175.819 L
1081.592 175.764 L
1083.949 175.737 L
1083.949 175.737 L
1083.949 175.737 L
1083.949 175.737 L
1085.193 175.741 L
1090.213 175.774 L
1095.989 175.813 L
1101.514 175.85 L
1107.039 175.887 L
1112.061 175.921 L
1117.837 175.96 L
1123.361 175.998 L
1128.635 176.034 L
1134.411 176.073 L
1139.684 176.108 L
1144.707 176.142 L
1150.482 176.182 L
1155.756 176.217 L
1161.28 176.255 L
1166.303 176.289 L
1171.828 176.326 L
1177.603 176.366 L
1182.877 176.402 L
1188.15 176.437 L
1193.926 176.477 L
1199.451 176.514 L
1204.473 176.549 L
1209.244 176.581 L
1214.518 176.617 L
1219.791 176.653 L
1225.065 176.689 L
1230.338 176.725 L
1235.361 176.759 L
1240.885 176.797 L
1246.41 176.835 L
1249.265 176.854 L
1249.265 176.854 L
1249.265 176.854 L
1249.265 176.854 L
1249.266 176.854 L
1249.266 176.854 L
1249.266 176.854 L
1249.266 176.854 L
1249.266 176.854 L
1249.267 176.854 L
1249.267 176.854 L
1249.267 176.854 L
1249.267 176.854 L
1249.267 176.854 L
1249.268 176.854 L
1249.268 176.854 L
1249.271 176.852 L
1249.234 176.847 L
1249.202 176.838 L
1249.167 176.826 L
1249.133 176.813 L
1249.105 176.8 L
1249.084 176.789 L
1249.12 176.815 L
1249.148 176.842 L
1249.165 176.864 L
1249.207 176.94 L
1249.213 176.949 L
1249.213 176.949 L
1249.213 176.949 L
1249.213 176.949 L
1249.223 176.963 L
1249.252 177.035 L
1249.253 177.034 L
1249.26 177.066 L
1249.268 177.088 L
1249.269 177.089 L
1249.271 177.114 L
1249.271 177.114 L
1249.274 177.112 L
1249.27 177.117 L
1249.27 177.117 L
1249.27 177.117 L
1249.272 177.102 L
1249.27 177.097 L
1249.27 177.097 L
1249.27 177.097 L
1249.271 177.104 L
1249.284 177.165 L
1249.308 177.278 L
1249.862 179.869 L
1250.487 182.847 L
1251.062 185.708 L
1251.298 186.927 L
1251.298 186.926 L
1251.298 186.926 L
1251.298 186.926 L
1251.688 188.985 L
1251.794 189.557 L
1251.803 189.597 L
1251.802 189.599 L
1251.802 189.599 L
1251.802 189.599 L
1251.802 189.6 L
1251.802 189.6 L
1251.801 189.605 L
1251.803 189.608 L
1251.803 189.608 L
1251.803 189.608 L
1251.803 189.608 L
1251.807 191.146 L
1251.805 193.745 L
1251.781 196.474 L
1251.736 199.212 L
1251.673 201.95 L
1251.592 204.818 L
1251.508 207.426 L
1251.418 210.034 L
1251.318 212.772 L
1251.312 212.949 L
1251.312 212.949 L
1251.31 212.925 L
1251.543 214.764 L
1251.796 216.635 L
1251.796 216.635 L
1251.811 216.738 L
1252.168 219.342 L
1252.546 222.074 L
1252.948 224.935 L
1253.371 227.927 L
1253.78 230.789 L
1254.144 233.336 L
1254.144 233.37 L
1254.145 233.369 L
1254.146 233.47 L
1254.141 236.214 L
1254.116 238.347 L
1254.259 239.625 L
1254.357 240.459 L
1254.357 240.459 L
1254.508 241.736 L
1254.835 244.469 L
S
GR
GS
[0.75 0 0 0.75 0 0] CT
0.502 0.502 1 RC
[1 3] 0 setdash
2 LJ
0.667 LW
N
385.675 455.453 M
386.959 455.98 L
383.622 456.613 L
383.827 456.701 L
385.363 455.698 L
384.677 457.218 L
385.514 457.224 L
384.037 457.831 L
388.197 455.171 L
385.673 457.471 L
391.456 458.472 L
394.91 458.01 L
399.743 455.086 L
406.798 455.113 L
413.185 457.269 L
421.69 456.353 L
428.691 452.9 L
432.215 454.655 L
437.65 455.303 L
439.436 452.888 L
453.041 451.684 L
458.429 456.757 L
464.637 454.766 L
464.715 451.235 L
474.786 451.553 L
481.496 456.041 L
472.355 457.723 L
483.469 458.026 L
486.513 459.602 L
510.13 454.229 L
511.439 451.855 L
505.22 454.983 L
507.886 462.717 L
516.51 458.104 L
510.571 460.574 L
516.378 454.379 L
534.186 453.433 L
538.17 455.14 L
543.177 451.829 L
539.941 468.981 L
564.326 467.643 L
547.419 450.841 L
569.932 456.882 L
587.786 462.636 L
572.012 454.085 L
592.616 453.204 L
579.474 474.345 L
589.145 469.621 L
608.746 461.448 L
585.481 462.473 L
629.012 458.667 L
614.38 446.9 L
613.308 446.422 L
618.917 451.187 L
617.613 446.107 L
651.415 462.674 L
632.001 453.501 L
630.895 474.672 L
622.385 445.226 L
618.486 467.076 L
609.353 464.697 L
652.242 447.056 L
626.582 445.155 L
653.191 444.272 L
613.631 440.544 L
646.468 436.084 L
643.643 451.234 L
623.678 474.32 L
647.977 457.504 L
639.232 455.318 L
656.013 444.177 L
701.952 459.126 L
705.349 438.979 L
671.3 462.871 L
701.813 458.748 L
669.663 469.568 L
688.893 442.152 L
710.432 449.654 L
672.163 463.241 L
696.492 445.157 L
761.98 439.494 L
749.756 437.379 L
733.084 472.298 L
758.21 440.771 L
704.502 455.216 L
765.338 434.233 L
749.143 447.763 L
729.985 450.39 L
763.256 449.643 L
740.879 473.274 L
771.386 457.558 L
765.974 454.034 L
752.492 461.531 L
737.237 466.168 L
760.146 459.051 L
743.926 442.914 L
736.518 438.157 L
807.421 466.13 L
805.403 443.734 L
779.463 432.554 L
759.188 452.546 L
793.116 439.207 L
774.113 453.36 L
779.89 469.893 L
805.137 473.478 L
807.275 460.204 L
850.901 444.012 L
798.795 469.462 L
794.196 426.706 L
829.358 452.856 L
881.093 444.399 L
852.283 462.104 L
829.915 417.467 L
811.814 449.719 L
860.377 452.713 L
796.705 491.998 L
848.021 446.361 L
857.408 436.988 L
857.501 452.11 L
844.09 433.11 L
884.128 473.639 L
837.696 478.735 L
877.842 467.175 L
864.761 443.375 L
835.944 429.813 L
884.032 451.247 L
836.435 469.478 L
877.825 460.698 L
844.335 470.59 L
822.031 430.167 L
823.451 440.491 L
859.027 474.892 L
867.406 442.583 L
882.472 475.447 L
883.032 476.459 L
826.938 411.949 L
869.274 443.796 L
861.11 460.531 L
798.703 465.135 L
847.161 442.444 L
825.532 444.351 L
794.953 452.934 L
863.822 435.266 L
938.193 458.559 L
823.166 445.333 L
886.54 471.378 L
871.287 450.788 L
930.545 470.751 L
896.766 460.846 L
818.673 436.673 L
795.762 453.076 L
857.89 432.719 L
865.313 462.568 L
893.585 455.673 L
799.267 468.474 L
910.435 461.625 L
872.886 405.569 L
844.616 439.862 L
833.291 436.614 L
877.919 426.498 L
817.161 434.467 L
889.524 415.28 L
826.335 409.372 L
916.908 397.235 L
862.542 405.732 L
866.758 460.083 L
849.261 406.135 L
849.607 418.4 L
872.721 427.882 L
901.541 435.647 L
865.928 428.801 L
864.111 424.228 L
829.553 413.472 L
778.235 424.826 L
831.309 422.392 L
903.627 432.65 L
869.459 414.852 L
878.03 445.418 L
901.665 384.932 L
851.977 378.914 L
808.669 387.505 L
945.67 405.754 L
857.568 375.604 L
902.191 399.884 L
903.431 402.633 L
853.381 406.307 L
891.577 394.317 L
838.693 420.569 L
805.006 348.411 L
861.618 385.492 L
899.252 359.714 L
844.298 363.492 L
813.092 345.661 L
839.988 363.3 L
861.63 336.362 L
831.769 346.597 L
796.869 358.467 L
944.076 363.744 L
928.266 344.917 L
855.194 363.084 L
861.692 358.966 L
805.201 340.915 L
841.177 375.907 L
832.16 335.499 L
924.225 335.502 L
821.083 332.317 L
880.952 358.09 L
839.199 298.742 L
870.243 331.715 L
872.232 352.793 L
854.415 311.783 L
858.643 323.067 L
872.228 302.653 L
851.899 305.914 L
907.153 326.974 L
882.553 302.298 L
875.01 302.529 L
820.243 285.974 L
919.791 314.109 L
841.284 284.462 L
854.66 267.854 L
836.956 308.51 L
910.195 301.949 L
875.589 299.371 L
821.61 302.53 L
866.859 301.913 L
898.665 276.696 L
841.555 287.961 L
858.973 258.918 L
914.021 286.51 L
904.436 289.176 L
882.257 295.52 L
832.807 252.016 L
827.298 256.38 L
807.52 299.278 L
799.363 300.77 L
855.366 241.869 L
866.402 224.942 L
858.568 240.919 L
838.916 236.742 L
864.707 241.425 L
896.011 206.813 L
863.531 279.377 L
915.589 259.749 L
804.56 247.17 L
877.773 230.901 L
898.041 291.433 L
814.381 222.237 L
877.346 241.201 L
933.972 246.946 L
765.29 197.5 L
879.645 241.986 L
805.7 235.13 L
804.929 224.474 L
881.065 234.646 L
858.306 276.525 L
889.7 219.72 L
893.809 223.666 L
843.399 209.165 L
817.094 261.59 L
910.871 222.969 L
906.071 247.963 L
885.033 258.704 L
883.278 206.14 L
825.181 202.218 L
928.315 182.567 L
807.968 202.267 L
850.392 241.171 L
881.907 215.039 L
862.042 206.61 L
811.992 182.103 L
866.798 147.979 L
818.074 186.844 L
896.742 176.115 L
809.893 152.606 L
853.916 147.726 L
850.747 148.585 L
864.462 182.358 L
817.755 198.369 L
870.033 157.542 L
916.604 166.775 L
837.513 126.609 L
873.851 142.181 L
822.026 176.565 L
888.613 211.022 L
923.942 174.425 L
759.572 173.967 L
817.662 185.914 L
909.917 182.31 L
798.264 154.145 L
893.222 199.821 L
908.64 181.183 L
836.605 218.031 L
794.854 193.322 L
849.769 199.311 L
849.496 164.937 L
837.954 150.682 L
902.247 188.485 L
897.992 176.052 L
858.496 216.288 L
808.618 168.286 L
827.357 197.915 L
868.968 178.885 L
894.75 239.963 L
842.955 156.472 L
888.669 186.627 L
942.63 194.066 L
840.774 184.01 L
891.142 197.658 L
869.971 145.803 L
886.619 190.051 L
899.374 147.258 L
787.766 259.031 L
870.156 176.389 L
848.375 192.591 L
851.732 151.009 L
871.144 197.955 L
906.13 129.555 L
947.633 157.626 L
822.588 175.744 L
882.608 205.731 L
963.374 87.441 L
930.05 167.927 L
882.722 225.334 L
861.469 196.429 L
996.506 215.343 L
923.602 151.692 L
948.586 207.741 L
965.704 203.235 L
1010.128 176.58 L
954.146 184.302 L
1002.261 205.399 L
962.736 203.854 L
885.248 173.027 L
931.655 199.261 L
1003.65 191.974 L
994.165 186 L
1063.142 144.59 L
973.215 223.655 L
918.326 168.779 L
1158.217 144.577 L
986.174 130.122 L
873.959 198.933 L
971.31 227.456 L
1060.306 197.76 L
1019.883 166.906 L
1034.303 170.33 L
933.422 204.821 L
931.146 233.917 L
1014.4 177.428 L
996.128 173.683 L
991.755 183.646 L
1001.7 209.551 L
1050.883 243.45 L
967.551 221.309 L
1083.192 215.342 L
1021.421 181.767 L
968.676 171.578 L
961.166 126.649 L
1028.807 147.839 L
1071.699 190.577 L
1128.451 178.743 L
1003.232 172.609 L
924.839 164.797 L
1053.632 168.516 L
1046.539 85.649 L
923.283 170.156 L
1137.854 212.797 L
1123.972 176.834 L
1073.192 212.276 L
1048.015 153.162 L
1201.895 175.265 L
1061.62 179.262 L
1120.567 211.613 L
1078.132 137.218 L
1056.114 195.865 L
1105.489 171.575 L
1047.994 189.103 L
1124.875 167.622 L
1126.684 173.861 L
1238.246 118.004 L
1129.016 137.295 L
1080.303 192.313 L
1115.965 143.131 L
1247.803 154.129 L
1240.067 137.556 L
1204.039 204.5 L
1153.596 181.656 L
1217.295 174.852 L
1209.945 169.225 L
1083.204 170.227 L
1166.203 158.971 L
1090.439 175.065 L
1172.922 181.53 L
1201.666 182.425 L
1225.137 172.8 L
1189.107 211.702 L
1168.702 196.673 L
1179.673 251.014 L
1285.302 164.19 L
1239.5 181.07 L
1302.266 161.592 L
1286.035 185.341 L
1211.398 146.943 L
1289.517 155.017 L
1339.268 199.834 L
1223.414 202.39 L
1133.425 200.936 L
1279.203 202.795 L
1296.795 142.321 L
1241.665 158.958 L
1128.115 180.494 L
1324.319 187.097 L
1270.173 228.246 L
1239.933 106.756 L
1252.673 162.845 L
1318.405 161.139 L
1277.121 165.312 L
1104.234 231.508 L
1201.988 161.531 L
1249.276 185.318 L
1199.852 149.542 L
1285.411 160.797 L
1336.386 179.515 L
1352.122 182.122 L
1176.064 195.32 L
1105.009 166.41 L
1168.874 154.982 L
1064.401 140.216 L
1367.861 177.75 L
1300.542 155.376 L
1128.02 156.093 L
1132.846 146.396 L
1245.888 206.184 L
1337.408 170.496 L
1194.63 233.463 L
1317.433 196.038 L
1244.349 212.642 L
1324.973 127.589 L
1209.915 195.908 L
1301.057 206.642 L
1210.179 176.977 L
1292.299 183.114 L
1242.974 154.017 L
1139.498 148.435 L
1245.745 139.369 L
1198.014 164.25 L
1204.746 133.675 L
1165.995 92.232 L
1178.884 113.968 L
1240.941 138.742 L
1293.016 218.825 L
1261.476 194.23 L
1097.452 159.721 L
1274.723 115.652 L
1133.144 160.525 L
1173.207 219.802 L
1203.56 119.417 L
1222.112 213.969 L
1314.473 176.808 L
1219.006 215.16 L
1238.839 227.645 L
1236.848 182.257 L
1224.046 165.199 L
1273.874 199.022 L
1363.915 160.986 L
1199.684 152.436 L
1318.674 262.718 L
1235.144 225.766 L
1323.944 195.759 L
1268.427 201.294 L
1126.618 174.973 L
1181.458 191.392 L
1145.636 177.962 L
1164.774 151.696 L
1181.91 209.963 L
1190.379 220.386 L
1297.798 158.376 L
1251.521 228.474 L
1274.306 257.746 L
1279.646 157.159 L
1123.598 145.518 L
1186.485 198.283 L
1294.176 140.297 L
1314.08 244.422 L
1210.295 207.746 L
1232.373 248.897 L
1190.947 174.124 L
1256.136 219.11 L
1218.496 230.555 L
1192.103 226.407 L
1242.596 288.246 L
1278.355 208.947 L
1254.04 271.582 L
1219.859 180.311 L
1239.182 187.823 L
1405.254 267.651 L
1289.232 249.682 L
1198.354 204.601 L
1215.814 234.091 L
1219.5 237.106 L
1247.509 291.93 L
1130.446 272.149 L
1197.587 229.781 L
1309.719 225.058 L
S
GR
GS
[0.75 0 0 0.75 0 0] CT
0 0 1 RC
1 LJ
0.667 LW
N
385.721 455.459 M
386.785 455.852 L
383.756 456.73 L
383.77 456.729 L
384.673 456.101 L
384.83 456.97 L
385.63 456.99 L
384.555 457.483 L
387.043 455.951 L
386.478 456.758 L
390.971 457.452 L
393.979 457.973 L
398.354 455.65 L
404.108 456.931 L
411.292 456.186 L
418.985 455.479 L
425.552 456.003 L
430.227 456.511 L
435.242 455.421 L
441.51 453.969 L
447.279 453.762 L
451.68 454.243 L
457.953 454.842 L
461.734 453.525 L
468.336 453.173 L
474.825 454.184 L
477.68 454.021 L
482.579 455.319 L
488.741 456.379 L
495.084 454.75 L
500.972 454.421 L
504.89 454.799 L
509.501 456.329 L
516.029 456.272 L
522.223 456.685 L
526.186 457.121 L
529.946 456.409 L
535.356 456.604 L
540.382 456.84 L
548.582 458.241 L
553.667 460.256 L
560.136 458.39 L
564.144 458.002 L
569.508 458.54 L
575.862 457.566 L
580.204 455.445 L
584.423 457.887 L
589.936 460.786 L
592.612 459.93 L
599.627 460.862 L
604.516 460.91 L
609.456 457.488 L
615.04 455.869 L
622.116 454.611 L
626.856 452.546 L
625.449 454.164 L
624.774 453.943 L
624.295 457.719 L
625.404 455.971 L
627.075 456.713 L
626.454 457.695 L
624.591 456.429 L
625.347 455.251 L
629.569 453.724 L
633.493 451.59 L
639.16 448.984 L
643.309 449.975 L
651.547 452.768 L
656.817 452.43 L
658.2 452.836 L
666.284 451.856 L
671.297 452.9 L
677.79 452.081 L
681.409 454.86 L
687.934 456.065 L
692.683 457.423 L
698.34 455.839 L
703.392 455.547 L
707.108 457.442 L
712.828 456.689 L
718.241 455.344 L
723.403 453.281 L
728.284 455.418 L
733.266 454.093 L
740.079 454.209 L
746.724 451.232 L
752.194 450.31 L
751.07 450.248 L
750.696 451.163 L
749.054 454.44 L
750.618 454.855 L
752.531 455.343 L
751.019 455.113 L
751.566 455.746 L
753.652 455.331 L
758.721 453.817 L
762.892 450.673 L
769.418 452.694 L
774.699 451.586 L
778.609 449.431 L
783.939 448.903 L
788.3 448.209 L
792.498 448.511 L
799.461 451.096 L
804.943 453.712 L
809.118 455.423 L
814.423 454.827 L
819.943 456.436 L
826.07 453.575 L
829.189 453.455 L
833.777 452.479 L
839.752 453.867 L
845.232 451.331 L
850.722 452.688 L
855.253 451.414 L
860.518 454.269 L
860.231 453.671 L
858.768 451.905 L
861.436 451.7 L
859.664 448.743 L
859.268 450.794 L
862.146 454.382 L
860.536 454.228 L
862.036 453.859 L
862.494 453.404 L
860.402 452.245 L
861.742 453.572 L
861.659 453.365 L
859.222 453.477 L
860.083 452.289 L
859.256 451.615 L
859.628 453.139 L
859.992 452.256 L
863.767 454.506 L
858.897 455.867 L
861.449 452.719 L
860.332 452.212 L
862.397 452.544 L
862.546 453.828 L
862.424 452.754 L
863.999 451.835 L
860.737 452.782 L
861.106 451.078 L
861.452 451.305 L
857.628 451.006 L
859.117 453.331 L
859.454 452.646 L
860.548 454.155 L
861.489 454.949 L
861.036 453.408 L
861.781 453.426 L
859.499 451.522 L
860.89 452.375 L
862.14 452.466 L
862.221 453.83 L
861.113 454.024 L
860.088 449.713 L
861.008 448.782 L
861.577 447.319 L
859.427 445.381 L
860.811 444.162 L
861.104 440.291 L
862.655 437.526 L
862.567 433.398 L
861.61 430.49 L
862.017 432.442 L
862.449 429.595 L
862.539 428.211 L
862.132 427.525 L
862.961 427.999 L
863.101 428.105 L
861.05 427.195 L
860.537 425.645 L
859.317 425.047 L
860.883 423.656 L
862.883 423.948 L
861.823 422.664 L
865.165 424.442 L
864.975 421.024 L
863.967 416.441 L
864.052 412.972 L
863.147 413.43 L
863.815 408.95 L
865.699 407.602 L
866.551 407.558 L
867.195 406.672 L
867.167 405.274 L
872.105 405.351 L
869.28 399.74 L
870.17 397.968 L
870.09 393.852 L
870.036 390.824 L
868.515 386.18 L
868.976 383.033 L
868.057 379.143 L
869.77 375.177 L
869.295 372.152 L
874.242 371.952 L
873.243 369.466 L
872.685 369.087 L
878.633 367.559 L
876.473 364.051 L
877.911 363.393 L
878.571 360.496 L
880.069 358.129 L
878.88 354.316 L
878.798 354.58 L
878.305 349.244 L
879.041 346.771 L
882.855 345.648 L
881.816 342.529 L
881.872 339.429 L
883.666 336.159 L
881.721 333.164 L
881.53 332.007 L
882.673 329.564 L
880.175 328.706 L
878.455 324.48 L
879.751 323.781 L
878.364 320.862 L
877.687 315.555 L
876.843 313.665 L
878.573 312.975 L
878.591 311.651 L
877.699 309.912 L
877.722 308.249 L
876.132 306.124 L
872.477 303.994 L
869.674 301.167 L
870.154 300.924 L
874.214 299.528 L
876.427 298.76 L
873.802 294.75 L
875.287 290.596 L
875.273 290.023 L
876.318 288.389 L
876.418 284.346 L
874.47 279.686 L
872.571 276.464 L
872.863 272.079 L
873.485 269.216 L
871.716 265.899 L
872.73 265.059 L
876.581 264.54 L
875.188 261.038 L
875.952 258.927 L
882.136 258.201 L
878.442 254.05 L
879.788 251.537 L
882.17 250.392 L
880.985 245.439 L
880.302 244.535 L
876.565 242.336 L
870.601 241.747 L
873.275 240.445 L
876.401 242.115 L
874.522 241.207 L
877.37 239.332 L
875.819 235.152 L
876.329 234.265 L
880.852 231.362 L
884.614 230.663 L
888.125 230.831 L
889.456 228.943 L
888.09 225.433 L
889.861 223.583 L
889.064 219.689 L
892.01 218.972 L
895.972 218.153 L
896.597 216.325 L
894.833 212.573 L
895.964 207.22 L
892.853 205.022 L
894.066 203.323 L
890.549 198.811 L
888.375 193.432 L
885.149 191.608 L
883.817 191.971 L
881.966 191.436 L
881.942 189.408 L
882.019 190.898 L
877.429 187.114 L
875.595 189.128 L
874.136 186.242 L
874.473 186.642 L
875.632 187.465 L
873.191 185.518 L
872.149 185.417 L
873.007 185.826 L
870.458 184.42 L
870.758 185.36 L
872.192 185.227 L
872.96 184.999 L
869.531 185.355 L
870.14 184.976 L
869.483 183.149 L
866.864 182.149 L
867.427 183.929 L
868.675 183.752 L
869.841 185.227 L
867.351 183.722 L
866.378 183.884 L
866.2 183.12 L
870.182 185.013 L
867.777 183.794 L
868.514 184.423 L
872.141 185.323 L
872.671 183.943 L
873.19 185.001 L
870.303 183.937 L
870.389 184.736 L
869.488 183.985 L
873.091 183.597 L
872.061 183.58 L
873.392 181.202 L
871.137 179.766 L
874.481 178.787 L
874.958 176.65 L
877.51 176.561 L
877.968 174.419 L
883.484 173.325 L
882.351 171.422 L
887.422 169.768 L
893.115 169.83 L
896.219 168.826 L
906.528 169.429 L
905.883 169.269 L
912.717 169.311 L
919.67 169.592 L
925.916 169.856 L
930.788 169.303 L
937.473 170.362 L
944.895 169.682 L
944.612 168.301 L
948.95 167.403 L
956.71 166.617 L
961.835 166.421 L
963.758 167.195 L
971.699 166.947 L
973.211 165.005 L
979.932 165.675 L
979.419 164.054 L
978.523 163.51 L
983.418 164.482 L
988.818 165.983 L
987.907 167.214 L
990.292 167.831 L
989.73 168.053 L
991.54 169.141 L
991.313 170.047 L
990.94 170.474 L
993.32 170.319 L
995.484 171.41 L
1002.548 173.221 L
1007.819 172.713 L
1015.275 173.709 L
1020.181 172.293 L
1020.472 170.687 L
1021.289 166.433 L
1022.593 164.738 L
1027.437 165.111 L
1034.926 165.083 L
1037.334 163.757 L
1037.404 160.934 L
1040.488 160.321 L
1040.34 156.561 L
1041.759 153.369 L
1049.827 154.8 L
1054.854 155.823 L
1056.234 158.58 L
1056.76 157.94 L
1060.787 160.824 L
1063.122 160.193 L
1068.105 161.902 L
1071.776 159.587 L
1076.929 158.987 L
1080.363 158.783 L
1083.06 158.486 L
1088.22 157.863 L
1094.197 157.094 L
1098.823 156.612 L
1100.332 155.764 L
1107.644 154.092 L
1111.616 152.232 L
1117.889 152.564 L
1122.15 152.927 L
1130.85 154.011 L
1136.12 154.026 L
1139.596 155.382 L
1149.001 154.195 L
1150.918 153.18 L
1152.463 153.179 L
1158.031 150.968 L
1162.639 150.93 L
1169.031 150.797 L
1173.165 151.213 L
1180.661 151.746 L
1185.58 152.031 L
1193.426 153.6 L
1199.25 153.934 L
1204.956 154.112 L
1210.947 154.092 L
1218.254 154.68 L
1221.468 153.39 L
1220.294 154.998 L
1225.363 157.595 L
1228.799 158.554 L
1225.459 159.698 L
1229.3 161.202 L
1228.956 161.602 L
1230.407 161.217 L
1230.019 160.498 L
1232.82 162.231 L
1233.996 165.425 L
1231.317 163.839 L
1231.908 163.955 L
1233.955 164.661 L
1235.393 164.827 L
1234.907 165.898 L
1234.316 164.094 L
1235.08 164.366 L
1234.336 164.442 L
1234.688 164.8 L
1235.547 166.214 L
1236.678 166.992 L
1236.67 167.611 L
1235.519 166.346 L
1236.193 165.308 L
1234.054 165.391 L
1234.561 166.017 L
1234.136 165.96 L
1235.103 164.822 L
1232.518 164.574 L
1235.617 164.942 L
1236.358 166.003 L
1236.295 166.715 L
1238.061 168.054 L
1239.279 168.775 L
1237.898 168.391 L
1238.913 169.25 L
1240.257 169.43 L
1239.253 169.076 L
1239.718 169.069 L
1239.467 168.757 L
1237.219 168.143 L
1238.166 166.983 L
1236.263 166.97 L
1234.999 166.092 L
1232.374 163.138 L
1230.746 161.928 L
1231.25 162.009 L
1234.651 164.386 L
1236.34 165.728 L
1232.31 164.901 L
1230.118 164.967 L
1227.23 165.366 L
1226.064 167.026 L
1225.454 165.095 L
1226.147 165.955 L
1226.61 166.516 L
1226.816 169.072 L
1229.168 170.257 L
1229.074 170.296 L
1229.128 170.74 L
1232.904 172.118 L
1234.344 173.102 L
1231.011 172.736 L
1236.647 176.836 L
1238.84 178.685 L
1240.747 179.735 L
1240.092 180.437 L
1238.845 178.802 L
1239.356 178.899 L
1236.503 178.75 L
1234.095 178.893 L
1233.806 181.722 L
1232.651 183.333 L
1231.315 184.29 L
1231.435 186.806 L
1232.065 188.843 L
1227.443 189.172 L
1223.55 187.56 L
1221.302 186.877 L
1220.659 185.771 L
1223.651 188.345 L
1222.071 188.858 L
1223.766 190.4 L
1226.394 189.754 L
1226.756 192.087 L
1224.013 194.553 L
1224.918 195.854 L
1227.149 199.023 L
1224.059 200.699 L
1224.327 203.998 L
1221.736 201.916 L
1221.633 201.937 L
1225.638 205.357 L
1226.493 208.721 L
1226.048 208.621 L
1225.139 209.653 L
1224.084 210.407 L
1228.226 212.297 L
1227.345 213.904 L
1225.591 214.33 L
1225.481 215.469 L
S
GR
GS
[0.75 0 0 0.75 0 0] CT
1 0 0 RC
1 LJ
0.667 LW
N
385.458 455.704 M
386.237 455.822 L
384.653 456.368 L
384.225 456.545 L
384.558 456.251 L
384.712 456.704 L
385.27 456.85 L
384.796 457.225 L
386.18 456.425 L
386.22 456.705 L
389.1 457.161 L
391.81 457.623 L
395.393 456.38 L
399.982 456.761 L
406.367 456.372 L
413.955 455.871 L
420.699 456.044 L
426.028 456.358 L
431.138 455.684 L
436.869 454.56 L
442.559 454.209 L
447.48 454.418 L
453.192 454.9 L
457.706 453.645 L
463.472 453.366 L
469.661 454.441 L
473.858 454.125 L
478.602 455.622 L
484.074 456.718 L
490.04 454.396 L
495.878 454.269 L
500.659 454.924 L
505.417 457.065 L
511.147 456.497 L
517.07 457.019 L
521.863 457.558 L
526.183 456.118 L
531.109 456.631 L
536.056 457.015 L
542.787 459.363 L
548.326 462.408 L
555.148 457.399 L
559.911 457.165 L
565.032 458.683 L
570.939 456.367 L
575.843 452.387 L
580.827 459.524 L
585.373 464.95 L
589.613 460.431 L
594.924 462.294 L
600.062 461.362 L
605.711 452.447 L
610.576 451.164 L
616.641 450.52 L
621.651 447.092 L
624.169 454.329 L
624.418 453.67 L
624.622 463.836 L
625.772 456.104 L
626.524 458.088 L
626.378 460.071 L
625.584 455.503 L
625.487 452.89 L
627.64 450.331 L
630.407 446.401 L
634.394 442.487 L
639.868 448.921 L
646.92 457.558 L
652.313 453.816 L
655.377 454.456 L
661.302 450.865 L
666.833 455 L
672.709 451.266 L
677.771 460.88 L
683.155 461.185 L
688.007 463.105 L
694.098 454.683 L
699.049 454.569 L
703.418 461.733 L
708.726 456.588 L
713.842 451.912 L
718.653 446.497 L
724.771 458.409 L
729.501 451.414 L
735.267 453.52 L
741.135 442.356 L
746.856 444.066 L
748.925 446.566 L
750.141 452.03 L
749.932 464.623 L
750.535 460.625 L
751.646 459.568 L
751.32 456.506 L
751.466 458.304 L
752.745 455.304 L
756.009 449.505 L
758.997 439.435 L
766.513 454.971 L
770.913 448.791 L
774.466 441.439 L
779.501 443.927 L
783.962 443.813 L
788.713 447.66 L
795.316 459.8 L
800.182 466.703 L
804.55 467.71 L
810.533 457.927 L
815.458 464.204 L
822.243 446.563 L
826.015 450.054 L
829.998 447.419 L
835.799 457.253 L
841.034 442.823 L
847.114 454.279 L
851.394 446.772 L
857.376 463.763 L
859.142 456.149 L
858.905 445.78 L
860.363 448.224 L
857.782 430.565 L
863.842 437.408 L
868.042 440.748 L
865.751 436.664 L
862.185 424.869 L
861.148 419.551 L
861.427 418.711 L
865.451 423.707 L
864.397 421.19 L
865.478 427.399 L
858.527 414.242 L
858.238 411.661 L
866.661 424.922 L
860.924 416.207 L
869.158 430.489 L
867.377 453.944 L
864.259 434.547 L
862.376 440.701 L
862.997 448.409 L
863.207 457.504 L
862.914 449.806 L
863.505 448.264 L
862.059 458.866 L
861.909 446.822 L
861.84 450.459 L
859.432 449.154 L
859.826 463.198 L
860.45 460.738 L
860.402 464.028 L
860.963 462.664 L
861.521 451.612 L
861.747 459.017 L
860.798 446.252 L
861.313 453.439 L
861.812 453.296 L
862.159 459.642 L
861.605 457.433 L
861.011 433.893 L
860.776 437.099 L
860.378 435.192 L
858.528 431.44 L
858.972 432.051 L
856.97 419.065 L
857.113 416.299 L
855.062 407.666 L
854.274 405.803 L
862.729 427.072 L
860.077 416.313 L
860.43 418.45 L
860.467 419.716 L
862.624 426.434 L
862.994 427.79 L
860.904 422.905 L
858.877 417.131 L
857.987 417.267 L
857.833 414.536 L
861.407 421.554 L
860.034 416.308 L
865.805 429.897 L
862.493 409.865 L
855.896 392.423 L
852.89 386.718 L
861.4 403.714 L
854.776 386.681 L
859.206 393.307 L
863.761 401.262 L
863.983 400.155 L
863.026 396.625 L
869.278 403.667 L
858.453 374.863 L
861.113 379.476 L
855.668 369.125 L
854.9 366.748 L
847.221 354.699 L
849.114 355.379 L
846.701 350.783 L
846.942 347.606 L
846.698 344.985 L
867.422 363.831 L
862.344 355.229 L
866.122 359.859 L
871.61 361.858 L
861.346 345.254 L
868.51 351.983 L
864.053 343.92 L
865.986 343.207 L
857.051 330.625 L
869.898 343.229 L
854.032 322.643 L
858.491 325.519 L
870.901 334.443 L
863.115 323.931 L
859.915 318.624 L
861.327 316.557 L
856.275 310.102 L
858.011 309.829 L
855.485 305.613 L
862.077 311.243 L
848.842 298.306 L
865.435 310.369 L
856.787 301.866 L
841.937 287.185 L
848.469 290.873 L
864.89 301.712 L
873.637 308.064 L
866.798 300.988 L
864.544 297.924 L
858.183 291.887 L
848.424 284.565 L
841.099 279.196 L
857.999 290.732 L
867.236 295.531 L
872.19 297.245 L
849.916 276.74 L
846.166 271.387 L
857.01 277.409 L
859.264 277.183 L
847.545 265.854 L
833.6 254.146 L
832.697 251.888 L
830.7 247.679 L
839.7 249.994 L
835.272 245.051 L
851.942 252.87 L
871.471 262.634 L
850.313 246.078 L
854.606 246.858 L
880.155 259.008 L
846.989 234.522 L
854.114 236.977 L
869.179 243.689 L
842.27 224.124 L
854.459 229.805 L
840.541 221.796 L
833.018 219.444 L
855.203 229.905 L
884.315 246.085 L
869.329 237.136 L
870.607 236.357 L
844.314 218.345 L
855.384 223.109 L
864.383 224.633 L
881.393 231.185 L
895.478 237.27 L
884.19 227.646 L
860.708 211.393 L
872.224 215.339 L
853.08 202.187 L
877.85 212.409 L
893.946 218.821 L
885.173 211.594 L
860.156 195.441 L
850.57 187.041 L
844.964 182.785 L
865.445 190.102 L
834.797 173.051 L
819.654 164.028 L
829.319 166.912 L
854.528 177.419 L
856.626 178.813 L
886.092 192.106 L
907.905 203.248 L
889.388 184.842 L
890.689 187.613 L
905.634 195.852 L
925.643 209.142 L
944.22 221.438 L
926.168 203.2 L
921.007 202.243 L
937.382 214.905 L
891.628 186.803 L
892.175 191.633 L
888.252 191.383 L
888.588 192.084 L
869.009 182.858 L
875.571 186.782 L
879.397 187.399 L
861.279 177.868 L
885.992 191.553 L
882.387 190.039 L
909.361 205.008 L
868.856 182.351 L
864.395 181.617 L
887.872 192.979 L
914.244 207.258 L
874.916 184.906 L
886.156 191.851 L
900.826 199.54 L
879.621 187.325 L
882.19 188.894 L
832.243 166.464 L
858.42 177.909 L
854.875 176.698 L
875.722 185.222 L
869.555 182.306 L
881.731 186.45 L
861.804 175.388 L
876.503 180.715 L
861.977 171.907 L
881.058 179.205 L
865.844 170.044 L
891.115 178.851 L
867.699 165.617 L
888.732 172.363 L
914.653 182.303 L
910.352 177.73 L
953.166 196.046 L
925.616 179.095 L
946.397 188.213 L
959.578 193.215 L
964.85 193.584 L
961.396 188.487 L
982.346 197.962 L
982.781 194.36 L
954.707 174.693 L
962.777 176.781 L
982.646 184.094 L
988.467 184.309 L
987.665 182.239 L
1006.963 190.242 L
982.049 171.491 L
1011.058 185.395 L
978.892 163.821 L
970.849 159.358 L
1004.162 176.159 L
1026.655 188.835 L
1014.523 182.017 L
1006.594 177.17 L
983.707 164.228 L
1003.358 175.36 L
1003.725 176.507 L
999.346 174.661 L
1006.324 178.285 L
1039.778 199.507 L
1063.154 214.146 L
1051.051 202.323 L
1066.384 210.178 L
1047.433 192.004 L
1022.621 172.952 L
991.405 150.824 L
1000.415 153.742 L
1037.086 171.735 L
1061.564 183.915 L
1046.952 171.469 L
1019.977 151.985 L
1038.118 160.303 L
1007.026 139.029 L
1003.604 134.559 L
1076.467 169.562 L
1090.826 178.652 L
1103.188 188.453 L
1077.763 170.117 L
1106.804 189.892 L
1104.658 187.367 L
1117.801 196.356 L
1088.492 171.015 L
1097.48 174.439 L
1098.601 172.784 L
1098.2 170.282 L
1106.061 172.33 L
1113.639 173.462 L
1116.685 171.799 L
1106.44 161.947 L
1119.653 165.938 L
1113.468 157.17 L
1141.346 171.511 L
1148.161 173.45 L
1177.752 190.91 L
1173.532 183.901 L
1178.822 185.947 L
1182.342 183.046 L
1166.594 166.881 L
1165.086 163.81 L
1162.051 157.227 L
1178.489 165.185 L
1193.567 172.097 L
1199.382 173.326 L
1219.203 184.429 L
1221.15 182.321 L
1245.748 198.464 L
1240.817 189.961 L
1241.874 186.718 L
1242.734 182.905 L
1257.837 190.78 L
1238.345 169.07 L
1239.381 170.016 L
1271.123 194.781 L
1268.89 192.155 L
1250.548 177.753 L
1264.348 189.523 L
1249.038 176.684 L
1240.894 169.532 L
1228.595 159.362 L
1255.243 179.581 L
1276.073 199.078 L
1235.329 162.588 L
1236.595 165.576 L
1247.614 174.82 L
1246.747 173.975 L
1249.579 177.151 L
1265.725 187.226 L
1295.053 213.923 L
1296.408 207.17 L
1305.385 216.332 L
1320.243 234.461 L
1327.313 242.426 L
1323.258 236.391 L
1313.2 214.259 L
1313.093 217.739 L
1295.836 193.697 L
1293.354 203.436 L
1261.517 180.093 L
1236.423 161.776 L
1215.629 148.578 L
1248.984 173.36 L
1261.568 185.321 L
1272.766 196.119 L
1279.234 202.983 L
1295.673 218.665 L
1259.776 181.73 L
1278.072 200.696 L
1276.353 199.409 L
1251.906 177.49 L
1247.758 174.785 L
1254.701 180.084 L
1230.961 161.212 L
1225.852 157.201 L
1224.044 156.728 L
1224.107 156.762 L
1186.991 128.66 L
1189.647 131.361 L
1200.22 137.051 L
1238.62 156.199 L
1259.312 177.546 L
1224.461 152.982 L
1220.019 153.525 L
1216.337 154.044 L
1233.663 169.856 L
1208.001 150.11 L
1228.164 165.822 L
1234.481 171.74 L
1256.061 191.126 L
1261.338 196.671 L
1254.491 190.045 L
1249.477 186.43 L
1264.964 199.473 L
1260.786 195.652 L
1234.514 173.291 L
1289.96 219.113 L
1295.224 228.202 L
1285.053 218.422 L
1267.97 202.945 L
1238.693 176.189 L
1241.413 179.484 L
1229.53 171.368 L
1225.891 170.451 L
1253.284 194.98 L
1254.607 199.56 L
1247.038 195.385 L
1260.141 209.849 L
1264.637 216.584 L
1238.384 194.363 L
1208.16 170.877 L
1201.74 168.577 L
1201.475 169.35 L
1236.978 194.466 L
1226.038 188.146 L
1242.815 204.414 L
1235.652 197.571 L
1251.608 213.026 L
1252.458 217.647 L
1251.806 218.952 L
1270.026 238.582 L
1254.733 226.135 L
1265.378 240.852 L
1226.182 199.763 L
1238.719 213.856 L
1270.193 246.123 L
1275.506 256.259 L
1253.287 231.496 L
1245.723 226.72 L
1232.06 215.034 L
1254.704 236.783 L
1254.195 238.782 L
1240.755 226.696 L
1241.177 229.068 L
S
GR
GS
[0.75 0 0 0.75 0 0] CT
1 GC
N
1435 121 M
1435 55 L
1305 55 L
1305 121 L
cp
f
GR
GS
[0.75 0 0 0.75 1014 48.42939] CT
/Helvetica 12 F
GS
[1 0 0 1 0 0] CT
0 4.5 moveto 
1 -1 scale
(True position) t 
GR
GR
GS
[0.75 0 0 0.75 0 0] CT
1 LJ
0.667 LW
N
1309 64.573 M
1349 64.573 L
S
GR
GS
[0.75 0 0 0.75 1014 60.14313] CT
/Helvetica 12 F
GS
[1 0 0 1 0 0] CT
0 4.5 moveto 
1 -1 scale
(LLS) t 
GR
GR
GS
[0.75 0 0 0.75 0 0] CT
0.502 0.502 1 RC
[1 3] 0 setdash
2 LJ
0.667 LW
N
1309 80.191 M
1349 80.191 L
S
GR
GS
[0.75 0 0 0.75 1014 71.85687] CT
/Helvetica 12 F
GS
[1 0 0 1 0 0] CT
0 4.5 moveto 
1 -1 scale
(EKF) t 
GR
GR
GS
[0.75 0 0 0.75 0 0] CT
0 0 1 RC
1 LJ
0.667 LW
N
1309 95.809 M
1349 95.809 L
S
GR
GS
[0.75 0 0 0.75 1014 83.57061] CT
/Helvetica 12 F
GS
[1 0 0 1 0 0] CT
0 4.5 moveto 
1 -1 scale
(NLLS) t 
GR
GR
GS
[0.75 0 0 0.75 0 0] CT
1 0 0 RC
1 LJ
0.667 LW
N
1309 111.427 M
1349 111.427 L
S
GR
GS
[0.75 0 0 0.75 0 0] CT
0.149 GC
10.0 ML
0.667 LW
N
1305 121 M
1305 55 L
1435 55 L
1435 121 L
cp
S
GR
%%Trailer
%%Pages: 1
%%EOF
