%!PS-Adobe-3.0 EPSF-3.0
%%Creator: (MATLAB, The Mathworks, Inc. Version 9.3.0.713579 \(R2017b\). Operating System: Linux)
%%Title: /home/micke/ExamensarbeteCybercom/Measurements/Take2/174/Histo17.eps
%%CreationDate: 2018-04-26T09:40:27
%%Pages: (atend)
%%BoundingBox: 0 0 1864 608
%%LanguageLevel: 3
%%EndComments
%%BeginProlog
%%BeginResource: procset (Apache XML Graphics Std ProcSet) 1.2 0
%%Version: 1.2 0
%%Copyright: (Copyright 2001-2003,2010 The Apache Software Foundation. License terms: http://www.apache.org/licenses/LICENSE-2.0)
/bd{bind def}bind def
/ld{load def}bd
/GR/grestore ld
/GS/gsave ld
/RM/rmoveto ld
/C/curveto ld
/t/show ld
/L/lineto ld
/ML/setmiterlimit ld
/CT/concat ld
/f/fill ld
/N/newpath ld
/S/stroke ld
/CC/setcmykcolor ld
/A/ashow ld
/cp/closepath ld
/RC/setrgbcolor ld
/LJ/setlinejoin ld
/GC/setgray ld
/LW/setlinewidth ld
/M/moveto ld
/re {4 2 roll M
1 index 0 rlineto
0 exch rlineto
neg 0 rlineto
cp } bd
/_ctm matrix def
/_tm matrix def
/BT { _ctm currentmatrix pop matrix _tm copy pop 0 0 moveto } bd
/ET { _ctm setmatrix } bd
/iTm { _ctm setmatrix _tm concat } bd
/Tm { _tm astore pop iTm 0 0 moveto } bd
/ux 0.0 def
/uy 0.0 def
/F {
  /Tp exch def
  /Tf exch def
  Tf findfont Tp scalefont setfont
  /cf Tf def  /cs Tp def
} bd
/ULS {currentpoint /uy exch def /ux exch def} bd
/ULE {
  /Tcx currentpoint pop def
  gsave
  newpath
  cf findfont cs scalefont dup
  /FontMatrix get 0 get /Ts exch def /FontInfo get dup
  /UnderlinePosition get Ts mul /To exch def
  /UnderlineThickness get Ts mul /Tt exch def
  ux uy To add moveto  Tcx uy To add lineto
  Tt setlinewidth stroke
  grestore
} bd
/OLE {
  /Tcx currentpoint pop def
  gsave
  newpath
  cf findfont cs scalefont dup
  /FontMatrix get 0 get /Ts exch def /FontInfo get dup
  /UnderlinePosition get Ts mul /To exch def
  /UnderlineThickness get Ts mul /Tt exch def
  ux uy To add cs add moveto Tcx uy To add cs add lineto
  Tt setlinewidth stroke
  grestore
} bd
/SOE {
  /Tcx currentpoint pop def
  gsave
  newpath
  cf findfont cs scalefont dup
  /FontMatrix get 0 get /Ts exch def /FontInfo get dup
  /UnderlinePosition get Ts mul /To exch def
  /UnderlineThickness get Ts mul /Tt exch def
  ux uy To add cs 10 mul 26 idiv add moveto Tcx uy To add cs 10 mul 26 idiv add lineto
  Tt setlinewidth stroke
  grestore
} bd
/QT {
/Y22 exch store
/X22 exch store
/Y21 exch store
/X21 exch store
currentpoint
/Y21 load 2 mul add 3 div exch
/X21 load 2 mul add 3 div exch
/X21 load 2 mul /X22 load add 3 div
/Y21 load 2 mul /Y22 load add 3 div
/X22 load /Y22 load curveto
} bd
/SSPD {
dup length /d exch dict def
{
/v exch def
/k exch def
currentpagedevice k known {
/cpdv currentpagedevice k get def
v cpdv ne {
/upd false def
/nullv v type /nulltype eq def
/nullcpdv cpdv type /nulltype eq def
nullv nullcpdv or
{
/upd true def
} {
/sametype v type cpdv type eq def
sametype {
v type /arraytype eq {
/vlen v length def
/cpdvlen cpdv length def
vlen cpdvlen eq {
0 1 vlen 1 sub {
/i exch def
/obj v i get def
/cpdobj cpdv i get def
obj cpdobj ne {
/upd true def
exit
} if
} for
} {
/upd true def
} ifelse
} {
v type /dicttype eq {
v {
/dv exch def
/dk exch def
/cpddv cpdv dk get def
dv cpddv ne {
/upd true def
exit
} if
} forall
} {
/upd true def
} ifelse
} ifelse
} if
} ifelse
upd true eq {
d k v put
} if
} if
} if
} forall
d length 0 gt {
d setpagedevice
} if
} bd
/RE { % /NewFontName [NewEncodingArray] /FontName RE -
  findfont dup length dict begin
  {
    1 index /FID ne
    {def} {pop pop} ifelse
  } forall
  /Encoding exch def
  /FontName 1 index def
  currentdict definefont pop
  end
} bind def
%%EndResource
%%BeginResource: procset (Apache XML Graphics EPS ProcSet) 1.0 0
%%Version: 1.0 0
%%Copyright: (Copyright 2002-2003 The Apache Software Foundation. License terms: http://www.apache.org/licenses/LICENSE-2.0)
/BeginEPSF { %def
/b4_Inc_state save def         % Save state for cleanup
/dict_count countdictstack def % Count objects on dict stack
/op_count count 1 sub def      % Count objects on operand stack
userdict begin                 % Push userdict on dict stack
/showpage { } def              % Redefine showpage, { } = null proc
0 setgray 0 setlinecap         % Prepare graphics state
1 setlinewidth 0 setlinejoin
10 setmiterlimit [ ] 0 setdash newpath
/languagelevel where           % If level not equal to 1 then
{pop languagelevel             % set strokeadjust and
1 ne                           % overprint to their defaults.
{false setstrokeadjust false setoverprint
} if
} if
} bd
/EndEPSF { %def
count op_count sub {pop} repeat            % Clean up stacks
countdictstack dict_count sub {end} repeat
b4_Inc_state restore
} bd
%%EndResource
%FOPBeginFontDict
%%IncludeResource: font Courier-Oblique
%%IncludeResource: font Courier-BoldOblique
%%IncludeResource: font Courier-Bold
%%IncludeResource: font ZapfDingbats
%%IncludeResource: font Symbol
%%IncludeResource: font Helvetica
%%IncludeResource: font Helvetica-Oblique
%%IncludeResource: font Helvetica-Bold
%%IncludeResource: font Helvetica-BoldOblique
%%IncludeResource: font Times-Roman
%%IncludeResource: font Times-Italic
%%IncludeResource: font Times-Bold
%%IncludeResource: font Times-BoldItalic
%%IncludeResource: font Courier
%FOPEndFontDict
%%BeginResource: encoding WinAnsiEncoding
/WinAnsiEncoding [
/.notdef /.notdef /.notdef /.notdef /.notdef
/.notdef /.notdef /.notdef /.notdef /.notdef
/.notdef /.notdef /.notdef /.notdef /.notdef
/.notdef /.notdef /.notdef /.notdef /.notdef
/.notdef /.notdef /.notdef /.notdef /.notdef
/.notdef /.notdef /.notdef /.notdef /.notdef
/.notdef /.notdef /space /exclam /quotedbl
/numbersign /dollar /percent /ampersand /quotesingle
/parenleft /parenright /asterisk /plus /comma
/hyphen /period /slash /zero /one
/two /three /four /five /six
/seven /eight /nine /colon /semicolon
/less /equal /greater /question /at
/A /B /C /D /E
/F /G /H /I /J
/K /L /M /N /O
/P /Q /R /S /T
/U /V /W /X /Y
/Z /bracketleft /backslash /bracketright /asciicircum
/underscore /quoteleft /a /b /c
/d /e /f /g /h
/i /j /k /l /m
/n /o /p /q /r
/s /t /u /v /w
/x /y /z /braceleft /bar
/braceright /asciitilde /bullet /Euro /bullet
/quotesinglbase /florin /quotedblbase /ellipsis /dagger
/daggerdbl /circumflex /perthousand /Scaron /guilsinglleft
/OE /bullet /Zcaron /bullet /bullet
/quoteleft /quoteright /quotedblleft /quotedblright /bullet
/endash /emdash /asciitilde /trademark /scaron
/guilsinglright /oe /bullet /zcaron /Ydieresis
/space /exclamdown /cent /sterling /currency
/yen /brokenbar /section /dieresis /copyright
/ordfeminine /guillemotleft /logicalnot /sfthyphen /registered
/macron /degree /plusminus /twosuperior /threesuperior
/acute /mu /paragraph /middot /cedilla
/onesuperior /ordmasculine /guillemotright /onequarter /onehalf
/threequarters /questiondown /Agrave /Aacute /Acircumflex
/Atilde /Adieresis /Aring /AE /Ccedilla
/Egrave /Eacute /Ecircumflex /Edieresis /Igrave
/Iacute /Icircumflex /Idieresis /Eth /Ntilde
/Ograve /Oacute /Ocircumflex /Otilde /Odieresis
/multiply /Oslash /Ugrave /Uacute /Ucircumflex
/Udieresis /Yacute /Thorn /germandbls /agrave
/aacute /acircumflex /atilde /adieresis /aring
/ae /ccedilla /egrave /eacute /ecircumflex
/edieresis /igrave /iacute /icircumflex /idieresis
/eth /ntilde /ograve /oacute /ocircumflex
/otilde /odieresis /divide /oslash /ugrave
/uacute /ucircumflex /udieresis /yacute /thorn
/ydieresis
] def
%%EndResource
%FOPBeginFontReencode
/Courier-Oblique findfont
dup length dict begin
  {1 index /FID ne {def} {pop pop} ifelse} forall
  /Encoding WinAnsiEncoding def
  currentdict
end
/Courier-Oblique exch definefont pop
/Courier-BoldOblique findfont
dup length dict begin
  {1 index /FID ne {def} {pop pop} ifelse} forall
  /Encoding WinAnsiEncoding def
  currentdict
end
/Courier-BoldOblique exch definefont pop
/Courier-Bold findfont
dup length dict begin
  {1 index /FID ne {def} {pop pop} ifelse} forall
  /Encoding WinAnsiEncoding def
  currentdict
end
/Courier-Bold exch definefont pop
/Helvetica findfont
dup length dict begin
  {1 index /FID ne {def} {pop pop} ifelse} forall
  /Encoding WinAnsiEncoding def
  currentdict
end
/Helvetica exch definefont pop
/Helvetica-Oblique findfont
dup length dict begin
  {1 index /FID ne {def} {pop pop} ifelse} forall
  /Encoding WinAnsiEncoding def
  currentdict
end
/Helvetica-Oblique exch definefont pop
/Helvetica-Bold findfont
dup length dict begin
  {1 index /FID ne {def} {pop pop} ifelse} forall
  /Encoding WinAnsiEncoding def
  currentdict
end
/Helvetica-Bold exch definefont pop
/Helvetica-BoldOblique findfont
dup length dict begin
  {1 index /FID ne {def} {pop pop} ifelse} forall
  /Encoding WinAnsiEncoding def
  currentdict
end
/Helvetica-BoldOblique exch definefont pop
/Times-Roman findfont
dup length dict begin
  {1 index /FID ne {def} {pop pop} ifelse} forall
  /Encoding WinAnsiEncoding def
  currentdict
end
/Times-Roman exch definefont pop
/Times-Italic findfont
dup length dict begin
  {1 index /FID ne {def} {pop pop} ifelse} forall
  /Encoding WinAnsiEncoding def
  currentdict
end
/Times-Italic exch definefont pop
/Times-Bold findfont
dup length dict begin
  {1 index /FID ne {def} {pop pop} ifelse} forall
  /Encoding WinAnsiEncoding def
  currentdict
end
/Times-Bold exch definefont pop
/Times-BoldItalic findfont
dup length dict begin
  {1 index /FID ne {def} {pop pop} ifelse} forall
  /Encoding WinAnsiEncoding def
  currentdict
end
/Times-BoldItalic exch definefont pop
/Courier findfont
dup length dict begin
  {1 index /FID ne {def} {pop pop} ifelse} forall
  /Encoding WinAnsiEncoding def
  currentdict
end
/Courier exch definefont pop
%FOPEndFontReencode
%%EndProlog
%%Page: 1 1
%%PageBoundingBox: 0 0 1864 608
%%BeginPageSetup
[1 0 0 -1 0 608] CT
%%EndPageSetup
GS
[0.75 0 0 0.75 0 -0.25] CT
1 GC
N
0 0 2485 811 re
f
GR
GS
[0.75 0 0 0.75 0 -0.25] CT
1 GC
N
0 0 2485 811 re
f
GR
GS
[0.75 0 0 0.75 0 -0.25] CT
1 GC
N
323 699 M
2249 699 L
2249 63 L
323 63 L
cp
f
GR
GS
[0.75 0 0 0.75 0 -0.25] CT
0.149 GC
2 setlinecap
1 LJ
0.667 LW
N
323.003 699 M
2249.001 699 L
S
GR
GS
[0.75 0 0 0.75 0 -0.25] CT
0.149 GC
2 setlinecap
1 LJ
0.667 LW
N
323.003 63 M
2249.001 63 L
S
GR
GS
[0.75 0 0 0.75 0 -0.25] CT
0.149 GC
2 setlinecap
1 LJ
0.667 LW
N
323.003 699 M
323.003 679.74 L
S
GR
GS
[0.75 0 0 0.75 0 -0.25] CT
0.149 GC
2 setlinecap
1 LJ
0.667 LW
N
563.758 699 M
563.758 679.74 L
S
GR
GS
[0.75 0 0 0.75 0 -0.25] CT
0.149 GC
2 setlinecap
1 LJ
0.667 LW
N
804.491 699 M
804.491 679.74 L
S
GR
GS
[0.75 0 0 0.75 0 -0.25] CT
0.149 GC
2 setlinecap
1 LJ
0.667 LW
N
1045.246 699 M
1045.246 679.74 L
S
GR
GS
[0.75 0 0 0.75 0 -0.25] CT
0.149 GC
2 setlinecap
1 LJ
0.667 LW
N
1286.002 699 M
1286.002 679.74 L
S
GR
GS
[0.75 0 0 0.75 0 -0.25] CT
0.149 GC
2 setlinecap
1 LJ
0.667 LW
N
1526.757 699 M
1526.757 679.74 L
S
GR
GS
[0.75 0 0 0.75 0 -0.25] CT
0.149 GC
2 setlinecap
1 LJ
0.667 LW
N
1767.49 699 M
1767.49 679.74 L
S
GR
GS
[0.75 0 0 0.75 0 -0.25] CT
0.149 GC
2 setlinecap
1 LJ
0.667 LW
N
2008.245 699 M
2008.245 679.74 L
S
GR
GS
[0.75 0 0 0.75 0 -0.25] CT
0.149 GC
2 setlinecap
1 LJ
0.667 LW
N
2249.001 699 M
2249.001 679.74 L
S
GR
GS
[0.75 0 0 0.75 0 -0.25] CT
0.149 GC
2 setlinecap
1 LJ
0.667 LW
N
323.003 63 M
323.003 82.26 L
S
GR
GS
[0.75 0 0 0.75 0 -0.25] CT
0.149 GC
2 setlinecap
1 LJ
0.667 LW
N
563.758 63 M
563.758 82.26 L
S
GR
GS
[0.75 0 0 0.75 0 -0.25] CT
0.149 GC
2 setlinecap
1 LJ
0.667 LW
N
804.491 63 M
804.491 82.26 L
S
GR
GS
[0.75 0 0 0.75 0 -0.25] CT
0.149 GC
2 setlinecap
1 LJ
0.667 LW
N
1045.246 63 M
1045.246 82.26 L
S
GR
GS
[0.75 0 0 0.75 0 -0.25] CT
0.149 GC
2 setlinecap
1 LJ
0.667 LW
N
1286.002 63 M
1286.002 82.26 L
S
GR
GS
[0.75 0 0 0.75 0 -0.25] CT
0.149 GC
2 setlinecap
1 LJ
0.667 LW
N
1526.757 63 M
1526.757 82.26 L
S
GR
GS
[0.75 0 0 0.75 0 -0.25] CT
0.149 GC
2 setlinecap
1 LJ
0.667 LW
N
1767.49 63 M
1767.49 82.26 L
S
GR
GS
[0.75 0 0 0.75 0 -0.25] CT
0.149 GC
2 setlinecap
1 LJ
0.667 LW
N
2008.245 63 M
2008.245 82.26 L
S
GR
GS
[0.75 0 0 0.75 0 -0.25] CT
0.149 GC
2 setlinecap
1 LJ
0.667 LW
N
2249.001 63 M
2249.001 82.26 L
S
GR
GS
[0.75 0 0 0.75 242.25206 532.00002] CT
0.149 GC
/Helvetica 40 F
GS
[1 0 0 1 0 0] CT
-57.5 38 moveto 
1 -1 scale
(17.26) t 
GR
GR
GS
[0.75 0 0 0.75 422.81868 532.00002] CT
0.149 GC
/Helvetica 40 F
GS
[1 0 0 1 0 0] CT
-57.5 38 moveto 
1 -1 scale
(17.28) t 
GR
GR
GS
[0.75 0 0 0.75 603.36813 532.00002] CT
0.149 GC
/Helvetica 40 F
GS
[1 0 0 1 0 0] CT
-45 38 moveto 
1 -1 scale
(17.3) t 
GR
GR
GS
[0.75 0 0 0.75 783.93475 532.00002] CT
0.149 GC
/Helvetica 40 F
GS
[1 0 0 1 0 0] CT
-57.5 38 moveto 
1 -1 scale
(17.32) t 
GR
GR
GS
[0.75 0 0 0.75 964.50137 532.00002] CT
0.149 GC
/Helvetica 40 F
GS
[1 0 0 1 0 0] CT
-57.5 38 moveto 
1 -1 scale
(17.34) t 
GR
GR
GS
[0.75 0 0 0.75 1145.06799 532.00002] CT
0.149 GC
/Helvetica 40 F
GS
[1 0 0 1 0 0] CT
-57.5 38 moveto 
1 -1 scale
(17.36) t 
GR
GR
GS
[0.75 0 0 0.75 1325.6174 532.00002] CT
0.149 GC
/Helvetica 40 F
GS
[1 0 0 1 0 0] CT
-57.5 38 moveto 
1 -1 scale
(17.38) t 
GR
GR
GS
[0.75 0 0 0.75 1506.18402 532.00002] CT
0.149 GC
/Helvetica 40 F
GS
[1 0 0 1 0 0] CT
-45 38 moveto 
1 -1 scale
(17.4) t 
GR
GR
GS
[0.75 0 0 0.75 1686.75073 532.00002] CT
0.149 GC
/Helvetica 40 F
GS
[1 0 0 1 0 0] CT
-57.5 38 moveto 
1 -1 scale
(17.42) t 
GR
GR
GS
[0.75 0 0 0.75 964.50137 569] CT
0.149 GC
/Helvetica 44 F
GS
[1 0 0 1 0 0] CT
-116 41 moveto 
1 -1 scale
(Range [m]) t 
GR
GR
GS
[0.75 0 0 0.75 0 -0.25] CT
0.149 GC
2 setlinecap
1 LJ
0.667 LW
N
323.003 699 M
323.003 63 L
S
GR
GS
[0.75 0 0 0.75 0 -0.25] CT
0.149 GC
2 setlinecap
1 LJ
0.667 LW
N
2249.001 699 M
2249.001 63 L
S
GR
GS
[0.75 0 0 0.75 0 -0.25] CT
0.149 GC
2 setlinecap
1 LJ
0.667 LW
N
323.003 699 M
342.266 699 L
S
GR
GS
[0.75 0 0 0.75 0 -0.25] CT
0.149 GC
2 setlinecap
1 LJ
0.667 LW
N
323.003 540 M
342.266 540 L
S
GR
GS
[0.75 0 0 0.75 0 -0.25] CT
0.149 GC
2 setlinecap
1 LJ
0.667 LW
N
323.003 381 M
342.266 381 L
S
GR
GS
[0.75 0 0 0.75 0 -0.25] CT
0.149 GC
2 setlinecap
1 LJ
0.667 LW
N
323.003 222 M
342.266 222 L
S
GR
GS
[0.75 0 0 0.75 0 -0.25] CT
0.149 GC
2 setlinecap
1 LJ
0.667 LW
N
323.003 63 M
342.266 63 L
S
GR
GS
[0.75 0 0 0.75 0 -0.25] CT
0.149 GC
2 setlinecap
1 LJ
0.667 LW
N
2249.001 699 M
2229.738 699 L
S
GR
GS
[0.75 0 0 0.75 0 -0.25] CT
0.149 GC
2 setlinecap
1 LJ
0.667 LW
N
2249.001 540 M
2229.738 540 L
S
GR
GS
[0.75 0 0 0.75 0 -0.25] CT
0.149 GC
2 setlinecap
1 LJ
0.667 LW
N
2249.001 381 M
2229.738 381 L
S
GR
GS
[0.75 0 0 0.75 0 -0.25] CT
0.149 GC
2 setlinecap
1 LJ
0.667 LW
N
2249.001 222 M
2229.738 222 L
S
GR
GS
[0.75 0 0 0.75 0 -0.25] CT
0.149 GC
2 setlinecap
1 LJ
0.667 LW
N
2249.001 63 M
2229.738 63 L
S
GR
GS
[0.75 0 0 0.75 234.24486 524] CT
0.149 GC
/Helvetica 40 F
GS
[1 0 0 1 0 0] CT
-26 14 moveto 
1 -1 scale
(0) t 
GR
GR
GS
[0.75 0 0 0.75 234.24486 404.75] CT
0.149 GC
/Helvetica 40 F
GS
[1 0 0 1 0 0] CT
-51 14 moveto 
1 -1 scale
(20) t 
GR
GR
GS
[0.75 0 0 0.75 234.24486 285.5] CT
0.149 GC
/Helvetica 40 F
GS
[1 0 0 1 0 0] CT
-51 14 moveto 
1 -1 scale
(40) t 
GR
GR
GS
[0.75 0 0 0.75 234.24486 166.25] CT
0.149 GC
/Helvetica 40 F
GS
[1 0 0 1 0 0] CT
-51 14 moveto 
1 -1 scale
(60) t 
GR
GR
GS
[0.75 0 0 0.75 234.24486 47] CT
0.149 GC
/Helvetica 40 F
GS
[1 0 0 1 0 0] CT
-51 14 moveto 
1 -1 scale
(80) t 
GR
GR
GS
[0 -0.75 0.75 0 193.00349 285.49977] CT
0.149 GC
/Helvetica 44 F
GS
[1 0 0 1 0 0] CT
-94 -11 moveto 
1 -1 scale
(Samples) t 
GR
GR
GS
[0.75 0 0 0.75 964.50137 40.81251] CT
/Helvetica-Bold 44 F
GS
[1 0 0 1 0 0] CT
-433.5 -11 moveto 
1 -1 scale
(Histogram of range measurements) t 
GR
GR
GS
[0.75 0 0 0.75 0 -0.25] CT
0.239 0.149 0.659 RC
N
551.75 635.4 M
376.66 635.4 L
376.66 699 L
551.75 699 L
cp
726.841 611.55 M
551.75 611.55 L
551.75 699 L
726.841 699 L
cp
901.909 468.45 M
726.818 468.45 L
726.818 699 L
901.909 699 L
cp
1076.977 444.6 M
901.886 444.6 L
901.886 699 L
1076.977 699 L
cp
1252.067 126.6 M
1076.977 126.6 L
1076.977 699 L
1252.067 699 L
cp
1427.158 245.85 M
1252.067 245.85 L
1252.067 699 L
1427.158 699 L
cp
1602.226 365.1 M
1427.135 365.1 L
1427.135 699 L
1602.226 699 L
cp
1777.294 516.15 M
1602.203 516.15 L
1602.203 699 L
1777.294 699 L
cp
1952.384 579.75 M
1777.294 579.75 L
1777.294 699 L
1952.384 699 L
cp
2127.475 611.55 M
1952.384 611.55 L
1952.384 699 L
2127.475 699 L
cp
f
GR
GS
[0.75 0 0 0.75 0 -0.25] CT
0.149 GC
2 setlinecap
10.0 ML
0.667 LW
N
376.66 699 M
376.66 635.4 L
551.75 635.4 L
551.75 699 L
376.66 699 L
S
GR
GS
[0.75 0 0 0.75 0 -0.25] CT
0.149 GC
2 setlinecap
10.0 ML
0.667 LW
N
551.75 699 M
551.75 611.55 L
726.841 611.55 L
726.841 699 L
551.75 699 L
S
GR
GS
[0.75 0 0 0.75 0 -0.25] CT
0.149 GC
2 setlinecap
10.0 ML
0.667 LW
N
726.818 699 M
726.818 468.45 L
901.909 468.45 L
901.909 699 L
726.818 699 L
S
GR
GS
[0.75 0 0 0.75 0 -0.25] CT
0.149 GC
2 setlinecap
10.0 ML
0.667 LW
N
901.886 699 M
901.886 444.6 L
1076.977 444.6 L
1076.977 699 L
901.886 699 L
S
GR
GS
[0.75 0 0 0.75 0 -0.25] CT
0.149 GC
2 setlinecap
10.0 ML
0.667 LW
N
1076.977 699 M
1076.977 126.6 L
1252.067 126.6 L
1252.067 699 L
1076.977 699 L
S
GR
GS
[0.75 0 0 0.75 0 -0.25] CT
0.149 GC
2 setlinecap
10.0 ML
0.667 LW
N
1252.067 699 M
1252.067 245.85 L
1427.158 245.85 L
1427.158 699 L
1252.067 699 L
S
GR
GS
[0.75 0 0 0.75 0 -0.25] CT
0.149 GC
2 setlinecap
10.0 ML
0.667 LW
N
1427.135 699 M
1427.135 365.1 L
1602.226 365.1 L
1602.226 699 L
1427.135 699 L
S
GR
GS
[0.75 0 0 0.75 0 -0.25] CT
0.149 GC
2 setlinecap
10.0 ML
0.667 LW
N
1602.203 699 M
1602.203 516.15 L
1777.294 516.15 L
1777.294 699 L
1602.203 699 L
S
GR
GS
[0.75 0 0 0.75 0 -0.25] CT
0.149 GC
2 setlinecap
10.0 ML
0.667 LW
N
1777.294 699 M
1777.294 579.75 L
1952.384 579.75 L
1952.384 699 L
1777.294 699 L
S
GR
GS
[0.75 0 0 0.75 0 -0.25] CT
0.149 GC
2 setlinecap
10.0 ML
0.667 LW
N
1952.384 699 M
1952.384 611.55 L
2127.475 611.55 L
2127.475 699 L
1952.384 699 L
S
GR
%%Trailer
%%Pages: 1
%%EOF
