%!PS-Adobe-3.0 EPSF-3.0
%%Creator: (MATLAB, The Mathworks, Inc. Version 9.3.0.713579 \(R2017b\). Operating System: Linux)
%%Title: /home/micke/ExamensarbeteCybercom/Measurements/Take2/174/Range17.eps
%%CreationDate: 2018-04-26T09:40:51
%%Pages: (atend)
%%BoundingBox: 0 0 1864 611
%%LanguageLevel: 3
%%EndComments
%%BeginProlog
%%BeginResource: procset (Apache XML Graphics Std ProcSet) 1.2 0
%%Version: 1.2 0
%%Copyright: (Copyright 2001-2003,2010 The Apache Software Foundation. License terms: http://www.apache.org/licenses/LICENSE-2.0)
/bd{bind def}bind def
/ld{load def}bd
/GR/grestore ld
/GS/gsave ld
/RM/rmoveto ld
/C/curveto ld
/t/show ld
/L/lineto ld
/ML/setmiterlimit ld
/CT/concat ld
/f/fill ld
/N/newpath ld
/S/stroke ld
/CC/setcmykcolor ld
/A/ashow ld
/cp/closepath ld
/RC/setrgbcolor ld
/LJ/setlinejoin ld
/GC/setgray ld
/LW/setlinewidth ld
/M/moveto ld
/re {4 2 roll M
1 index 0 rlineto
0 exch rlineto
neg 0 rlineto
cp } bd
/_ctm matrix def
/_tm matrix def
/BT { _ctm currentmatrix pop matrix _tm copy pop 0 0 moveto } bd
/ET { _ctm setmatrix } bd
/iTm { _ctm setmatrix _tm concat } bd
/Tm { _tm astore pop iTm 0 0 moveto } bd
/ux 0.0 def
/uy 0.0 def
/F {
  /Tp exch def
  /Tf exch def
  Tf findfont Tp scalefont setfont
  /cf Tf def  /cs Tp def
} bd
/ULS {currentpoint /uy exch def /ux exch def} bd
/ULE {
  /Tcx currentpoint pop def
  gsave
  newpath
  cf findfont cs scalefont dup
  /FontMatrix get 0 get /Ts exch def /FontInfo get dup
  /UnderlinePosition get Ts mul /To exch def
  /UnderlineThickness get Ts mul /Tt exch def
  ux uy To add moveto  Tcx uy To add lineto
  Tt setlinewidth stroke
  grestore
} bd
/OLE {
  /Tcx currentpoint pop def
  gsave
  newpath
  cf findfont cs scalefont dup
  /FontMatrix get 0 get /Ts exch def /FontInfo get dup
  /UnderlinePosition get Ts mul /To exch def
  /UnderlineThickness get Ts mul /Tt exch def
  ux uy To add cs add moveto Tcx uy To add cs add lineto
  Tt setlinewidth stroke
  grestore
} bd
/SOE {
  /Tcx currentpoint pop def
  gsave
  newpath
  cf findfont cs scalefont dup
  /FontMatrix get 0 get /Ts exch def /FontInfo get dup
  /UnderlinePosition get Ts mul /To exch def
  /UnderlineThickness get Ts mul /Tt exch def
  ux uy To add cs 10 mul 26 idiv add moveto Tcx uy To add cs 10 mul 26 idiv add lineto
  Tt setlinewidth stroke
  grestore
} bd
/QT {
/Y22 exch store
/X22 exch store
/Y21 exch store
/X21 exch store
currentpoint
/Y21 load 2 mul add 3 div exch
/X21 load 2 mul add 3 div exch
/X21 load 2 mul /X22 load add 3 div
/Y21 load 2 mul /Y22 load add 3 div
/X22 load /Y22 load curveto
} bd
/SSPD {
dup length /d exch dict def
{
/v exch def
/k exch def
currentpagedevice k known {
/cpdv currentpagedevice k get def
v cpdv ne {
/upd false def
/nullv v type /nulltype eq def
/nullcpdv cpdv type /nulltype eq def
nullv nullcpdv or
{
/upd true def
} {
/sametype v type cpdv type eq def
sametype {
v type /arraytype eq {
/vlen v length def
/cpdvlen cpdv length def
vlen cpdvlen eq {
0 1 vlen 1 sub {
/i exch def
/obj v i get def
/cpdobj cpdv i get def
obj cpdobj ne {
/upd true def
exit
} if
} for
} {
/upd true def
} ifelse
} {
v type /dicttype eq {
v {
/dv exch def
/dk exch def
/cpddv cpdv dk get def
dv cpddv ne {
/upd true def
exit
} if
} forall
} {
/upd true def
} ifelse
} ifelse
} if
} ifelse
upd true eq {
d k v put
} if
} if
} if
} forall
d length 0 gt {
d setpagedevice
} if
} bd
/RE { % /NewFontName [NewEncodingArray] /FontName RE -
  findfont dup length dict begin
  {
    1 index /FID ne
    {def} {pop pop} ifelse
  } forall
  /Encoding exch def
  /FontName 1 index def
  currentdict definefont pop
  end
} bind def
%%EndResource
%%BeginResource: procset (Apache XML Graphics EPS ProcSet) 1.0 0
%%Version: 1.0 0
%%Copyright: (Copyright 2002-2003 The Apache Software Foundation. License terms: http://www.apache.org/licenses/LICENSE-2.0)
/BeginEPSF { %def
/b4_Inc_state save def         % Save state for cleanup
/dict_count countdictstack def % Count objects on dict stack
/op_count count 1 sub def      % Count objects on operand stack
userdict begin                 % Push userdict on dict stack
/showpage { } def              % Redefine showpage, { } = null proc
0 setgray 0 setlinecap         % Prepare graphics state
1 setlinewidth 0 setlinejoin
10 setmiterlimit [ ] 0 setdash newpath
/languagelevel where           % If level not equal to 1 then
{pop languagelevel             % set strokeadjust and
1 ne                           % overprint to their defaults.
{false setstrokeadjust false setoverprint
} if
} if
} bd
/EndEPSF { %def
count op_count sub {pop} repeat            % Clean up stacks
countdictstack dict_count sub {end} repeat
b4_Inc_state restore
} bd
%%EndResource
%FOPBeginFontDict
%%IncludeResource: font Courier-Oblique
%%IncludeResource: font Courier-BoldOblique
%%IncludeResource: font Courier-Bold
%%IncludeResource: font ZapfDingbats
%%IncludeResource: font Symbol
%%IncludeResource: font Helvetica
%%IncludeResource: font Helvetica-Oblique
%%IncludeResource: font Helvetica-Bold
%%IncludeResource: font Helvetica-BoldOblique
%%IncludeResource: font Times-Roman
%%IncludeResource: font Times-Italic
%%IncludeResource: font Times-Bold
%%IncludeResource: font Times-BoldItalic
%%IncludeResource: font Courier
%FOPEndFontDict
%%BeginResource: encoding WinAnsiEncoding
/WinAnsiEncoding [
/.notdef /.notdef /.notdef /.notdef /.notdef
/.notdef /.notdef /.notdef /.notdef /.notdef
/.notdef /.notdef /.notdef /.notdef /.notdef
/.notdef /.notdef /.notdef /.notdef /.notdef
/.notdef /.notdef /.notdef /.notdef /.notdef
/.notdef /.notdef /.notdef /.notdef /.notdef
/.notdef /.notdef /space /exclam /quotedbl
/numbersign /dollar /percent /ampersand /quotesingle
/parenleft /parenright /asterisk /plus /comma
/hyphen /period /slash /zero /one
/two /three /four /five /six
/seven /eight /nine /colon /semicolon
/less /equal /greater /question /at
/A /B /C /D /E
/F /G /H /I /J
/K /L /M /N /O
/P /Q /R /S /T
/U /V /W /X /Y
/Z /bracketleft /backslash /bracketright /asciicircum
/underscore /quoteleft /a /b /c
/d /e /f /g /h
/i /j /k /l /m
/n /o /p /q /r
/s /t /u /v /w
/x /y /z /braceleft /bar
/braceright /asciitilde /bullet /Euro /bullet
/quotesinglbase /florin /quotedblbase /ellipsis /dagger
/daggerdbl /circumflex /perthousand /Scaron /guilsinglleft
/OE /bullet /Zcaron /bullet /bullet
/quoteleft /quoteright /quotedblleft /quotedblright /bullet
/endash /emdash /asciitilde /trademark /scaron
/guilsinglright /oe /bullet /zcaron /Ydieresis
/space /exclamdown /cent /sterling /currency
/yen /brokenbar /section /dieresis /copyright
/ordfeminine /guillemotleft /logicalnot /sfthyphen /registered
/macron /degree /plusminus /twosuperior /threesuperior
/acute /mu /paragraph /middot /cedilla
/onesuperior /ordmasculine /guillemotright /onequarter /onehalf
/threequarters /questiondown /Agrave /Aacute /Acircumflex
/Atilde /Adieresis /Aring /AE /Ccedilla
/Egrave /Eacute /Ecircumflex /Edieresis /Igrave
/Iacute /Icircumflex /Idieresis /Eth /Ntilde
/Ograve /Oacute /Ocircumflex /Otilde /Odieresis
/multiply /Oslash /Ugrave /Uacute /Ucircumflex
/Udieresis /Yacute /Thorn /germandbls /agrave
/aacute /acircumflex /atilde /adieresis /aring
/ae /ccedilla /egrave /eacute /ecircumflex
/edieresis /igrave /iacute /icircumflex /idieresis
/eth /ntilde /ograve /oacute /ocircumflex
/otilde /odieresis /divide /oslash /ugrave
/uacute /ucircumflex /udieresis /yacute /thorn
/ydieresis
] def
%%EndResource
%FOPBeginFontReencode
/Courier-Oblique findfont
dup length dict begin
  {1 index /FID ne {def} {pop pop} ifelse} forall
  /Encoding WinAnsiEncoding def
  currentdict
end
/Courier-Oblique exch definefont pop
/Courier-BoldOblique findfont
dup length dict begin
  {1 index /FID ne {def} {pop pop} ifelse} forall
  /Encoding WinAnsiEncoding def
  currentdict
end
/Courier-BoldOblique exch definefont pop
/Courier-Bold findfont
dup length dict begin
  {1 index /FID ne {def} {pop pop} ifelse} forall
  /Encoding WinAnsiEncoding def
  currentdict
end
/Courier-Bold exch definefont pop
/Helvetica findfont
dup length dict begin
  {1 index /FID ne {def} {pop pop} ifelse} forall
  /Encoding WinAnsiEncoding def
  currentdict
end
/Helvetica exch definefont pop
/Helvetica-Oblique findfont
dup length dict begin
  {1 index /FID ne {def} {pop pop} ifelse} forall
  /Encoding WinAnsiEncoding def
  currentdict
end
/Helvetica-Oblique exch definefont pop
/Helvetica-Bold findfont
dup length dict begin
  {1 index /FID ne {def} {pop pop} ifelse} forall
  /Encoding WinAnsiEncoding def
  currentdict
end
/Helvetica-Bold exch definefont pop
/Helvetica-BoldOblique findfont
dup length dict begin
  {1 index /FID ne {def} {pop pop} ifelse} forall
  /Encoding WinAnsiEncoding def
  currentdict
end
/Helvetica-BoldOblique exch definefont pop
/Times-Roman findfont
dup length dict begin
  {1 index /FID ne {def} {pop pop} ifelse} forall
  /Encoding WinAnsiEncoding def
  currentdict
end
/Times-Roman exch definefont pop
/Times-Italic findfont
dup length dict begin
  {1 index /FID ne {def} {pop pop} ifelse} forall
  /Encoding WinAnsiEncoding def
  currentdict
end
/Times-Italic exch definefont pop
/Times-Bold findfont
dup length dict begin
  {1 index /FID ne {def} {pop pop} ifelse} forall
  /Encoding WinAnsiEncoding def
  currentdict
end
/Times-Bold exch definefont pop
/Times-BoldItalic findfont
dup length dict begin
  {1 index /FID ne {def} {pop pop} ifelse} forall
  /Encoding WinAnsiEncoding def
  currentdict
end
/Times-BoldItalic exch definefont pop
/Courier findfont
dup length dict begin
  {1 index /FID ne {def} {pop pop} ifelse} forall
  /Encoding WinAnsiEncoding def
  currentdict
end
/Courier exch definefont pop
%FOPEndFontReencode
%%EndProlog
%%Page: 1 1
%%PageBoundingBox: 0 0 1864 611
%%BeginPageSetup
[1 0 0 -1 0 611] CT
%%EndPageSetup
GS
[0.75 0 0 0.75 0 0.5] CT
1 GC
N
0 0 2485 814 re
f
GR
GS
[0.75 0 0 0.75 0 0.5] CT
1 GC
N
0 0 2485 814 re
f
GR
GS
[0.75 0 0 0.75 0 0.5] CT
1 GC
N
323 702 M
2249 702 L
2249 63 L
323 63 L
cp
f
GR
GS
[0.75 0 0 0.75 0 0.5] CT
0.149 GC
2 setlinecap
1 LJ
0.667 LW
N
323 702 M
2249 702 L
S
GR
GS
[0.75 0 0 0.75 0 0.5] CT
0.149 GC
2 setlinecap
1 LJ
0.667 LW
N
323 62.998 M
2249 62.998 L
S
GR
GS
[0.75 0 0 0.75 0 0.5] CT
0.149 GC
2 setlinecap
1 LJ
0.667 LW
N
323 702 M
323 682.743 L
S
GR
GS
[0.75 0 0 0.75 0 0.5] CT
0.149 GC
2 setlinecap
1 LJ
0.667 LW
N
644 702 M
644 682.743 L
S
GR
GS
[0.75 0 0 0.75 0 0.5] CT
0.149 GC
2 setlinecap
1 LJ
0.667 LW
N
965 702 M
965 682.743 L
S
GR
GS
[0.75 0 0 0.75 0 0.5] CT
0.149 GC
2 setlinecap
1 LJ
0.667 LW
N
1286 702 M
1286 682.743 L
S
GR
GS
[0.75 0 0 0.75 0 0.5] CT
0.149 GC
2 setlinecap
1 LJ
0.667 LW
N
1607 702 M
1607 682.743 L
S
GR
GS
[0.75 0 0 0.75 0 0.5] CT
0.149 GC
2 setlinecap
1 LJ
0.667 LW
N
1928 702 M
1928 682.743 L
S
GR
GS
[0.75 0 0 0.75 0 0.5] CT
0.149 GC
2 setlinecap
1 LJ
0.667 LW
N
2249 702 M
2249 682.743 L
S
GR
GS
[0.75 0 0 0.75 0 0.5] CT
0.149 GC
2 setlinecap
1 LJ
0.667 LW
N
323 62.998 M
323 82.255 L
S
GR
GS
[0.75 0 0 0.75 0 0.5] CT
0.149 GC
2 setlinecap
1 LJ
0.667 LW
N
644 62.998 M
644 82.255 L
S
GR
GS
[0.75 0 0 0.75 0 0.5] CT
0.149 GC
2 setlinecap
1 LJ
0.667 LW
N
965 62.998 M
965 82.255 L
S
GR
GS
[0.75 0 0 0.75 0 0.5] CT
0.149 GC
2 setlinecap
1 LJ
0.667 LW
N
1286 62.998 M
1286 82.255 L
S
GR
GS
[0.75 0 0 0.75 0 0.5] CT
0.149 GC
2 setlinecap
1 LJ
0.667 LW
N
1607 62.998 M
1607 82.255 L
S
GR
GS
[0.75 0 0 0.75 0 0.5] CT
0.149 GC
2 setlinecap
1 LJ
0.667 LW
N
1928 62.998 M
1928 82.255 L
S
GR
GS
[0.75 0 0 0.75 0 0.5] CT
0.149 GC
2 setlinecap
1 LJ
0.667 LW
N
2249 62.998 M
2249 82.255 L
S
GR
GS
[0.75 0 0 0.75 242.25 534.99837] CT
0.149 GC
/Helvetica 40 F
GS
[1 0 0 1 0 0] CT
-13 38 moveto 
1 -1 scale
(0) t 
GR
GR
GS
[0.75 0 0 0.75 483 534.99837] CT
0.149 GC
/Helvetica 40 F
GS
[1 0 0 1 0 0] CT
-25.5 38 moveto 
1 -1 scale
(20) t 
GR
GR
GS
[0.75 0 0 0.75 723.75 534.99837] CT
0.149 GC
/Helvetica 40 F
GS
[1 0 0 1 0 0] CT
-25.5 38 moveto 
1 -1 scale
(40) t 
GR
GR
GS
[0.75 0 0 0.75 964.5 534.99837] CT
0.149 GC
/Helvetica 40 F
GS
[1 0 0 1 0 0] CT
-25.5 38 moveto 
1 -1 scale
(60) t 
GR
GR
GS
[0.75 0 0 0.75 1205.25 534.99837] CT
0.149 GC
/Helvetica 40 F
GS
[1 0 0 1 0 0] CT
-25.5 38 moveto 
1 -1 scale
(80) t 
GR
GR
GS
[0.75 0 0 0.75 1446 534.99837] CT
0.149 GC
/Helvetica 40 F
GS
[1 0 0 1 0 0] CT
-38.5 38 moveto 
1 -1 scale
(100) t 
GR
GR
GS
[0.75 0 0 0.75 1686.75 534.99837] CT
0.149 GC
/Helvetica 40 F
GS
[1 0 0 1 0 0] CT
-38.5 38 moveto 
1 -1 scale
(120) t 
GR
GR
GS
[0.75 0 0 0.75 964.50073 572.00101] CT
0.149 GC
/Helvetica 44 F
GS
[1 0 0 1 0 0] CT
-90.5 41 moveto 
1 -1 scale
(Time [s]) t 
GR
GR
GS
[0.75 0 0 0.75 0 0.5] CT
0.149 GC
2 setlinecap
1 LJ
0.667 LW
N
323 702 M
323 62.998 L
S
GR
GS
[0.75 0 0 0.75 0 0.5] CT
0.149 GC
2 setlinecap
1 LJ
0.667 LW
N
2249 702 M
2249 62.998 L
S
GR
GS
[0.75 0 0 0.75 0 0.5] CT
0.149 GC
2 setlinecap
1 LJ
0.667 LW
N
323 702 M
342.26 702 L
S
GR
GS
[0.75 0 0 0.75 0 0.5] CT
0.149 GC
2 setlinecap
1 LJ
0.667 LW
N
323 542.252 M
342.26 542.252 L
S
GR
GS
[0.75 0 0 0.75 0 0.5] CT
0.149 GC
2 setlinecap
1 LJ
0.667 LW
N
323 382.499 M
342.26 382.499 L
S
GR
GS
[0.75 0 0 0.75 0 0.5] CT
0.149 GC
2 setlinecap
1 LJ
0.667 LW
N
323 222.751 M
342.26 222.751 L
S
GR
GS
[0.75 0 0 0.75 0 0.5] CT
0.149 GC
2 setlinecap
1 LJ
0.667 LW
N
323 62.998 M
342.26 62.998 L
S
GR
GS
[0.75 0 0 0.75 0 0.5] CT
0.149 GC
2 setlinecap
1 LJ
0.667 LW
N
2249 702 M
2229.74 702 L
S
GR
GS
[0.75 0 0 0.75 0 0.5] CT
0.149 GC
2 setlinecap
1 LJ
0.667 LW
N
2249 542.252 M
2229.74 542.252 L
S
GR
GS
[0.75 0 0 0.75 0 0.5] CT
0.149 GC
2 setlinecap
1 LJ
0.667 LW
N
2249 382.499 M
2229.74 382.499 L
S
GR
GS
[0.75 0 0 0.75 0 0.5] CT
0.149 GC
2 setlinecap
1 LJ
0.667 LW
N
2249 222.751 M
2229.74 222.751 L
S
GR
GS
[0.75 0 0 0.75 0 0.5] CT
0.149 GC
2 setlinecap
1 LJ
0.667 LW
N
2249 62.998 M
2229.74 62.998 L
S
GR
GS
[0.75 0 0 0.75 234.25001 527] CT
0.149 GC
/Helvetica 40 F
GS
[1 0 0 1 0 0] CT
-115 14 moveto 
1 -1 scale
(17.25) t 
GR
GR
GS
[0.75 0 0 0.75 234.25001 407.18933] CT
0.149 GC
/Helvetica 40 F
GS
[1 0 0 1 0 0] CT
-90 14 moveto 
1 -1 scale
(17.3) t 
GR
GR
GS
[0.75 0 0 0.75 234.25001 287.37408] CT
0.149 GC
/Helvetica 40 F
GS
[1 0 0 1 0 0] CT
-115 14 moveto 
1 -1 scale
(17.35) t 
GR
GR
GS
[0.75 0 0 0.75 234.25001 167.56342] CT
0.149 GC
/Helvetica 40 F
GS
[1 0 0 1 0 0] CT
-90 14 moveto 
1 -1 scale
(17.4) t 
GR
GR
GS
[0.75 0 0 0.75 234.25001 47.74817] CT
0.149 GC
/Helvetica 40 F
GS
[1 0 0 1 0 0] CT
-115 14 moveto 
1 -1 scale
(17.45) t 
GR
GR
GS
[0 -0.75 0.75 0 145.00001 287.37408] CT
0.149 GC
/Helvetica 44 F
GS
[1 0 0 1 0 0] CT
-116 -11 moveto 
1 -1 scale
(Range [m]) t 
GR
GR
GS
[0.75 0 0 0.75 964.50092 41.55974] CT
/Helvetica-Bold 44 F
GS
[1 0 0 1 0 0] CT
-473.5 -11 moveto 
1 -1 scale
(Unfiltered readings from UWB module) t 
GR
GR
GS
[0.75 0 0 0.75 0 0.5] CT
0 0 1 RC
1 LJ
0.667 LW
N
323 296.044 M
329.42 400.976 L
335.84 475.926 L
342.26 356.002 L
348.68 445.943 L
355.1 445.943 L
361.52 370.993 L
367.94 460.934 L
374.36 445.943 L
380.78 505.902 L
387.2 445.943 L
393.62 490.917 L
400.04 520.893 L
406.46 610.834 L
412.88 505.902 L
419.3 445.943 L
425.72 625.825 L
432.14 490.917 L
438.56 191.111 L
444.98 490.917 L
451.4 595.843 L
457.82 281.052 L
464.24 640.816 L
470.66 415.961 L
477.08 370.993 L
483.5 415.961 L
489.92 385.985 L
496.34 311.035 L
502.76 236.079 L
509.18 415.961 L
515.6 296.044 L
522.02 445.943 L
528.44 550.875 L
534.86 460.934 L
541.28 370.993 L
547.7 550.875 L
554.12 490.917 L
560.54 341.011 L
566.96 475.926 L
573.38 460.934 L
579.8 505.902 L
586.22 370.993 L
592.64 400.976 L
599.06 430.952 L
605.48 430.952 L
611.9 326.02 L
618.32 341.011 L
624.74 415.961 L
631.16 370.993 L
637.58 430.952 L
644 400.976 L
650.42 565.867 L
656.84 460.934 L
663.26 415.961 L
669.68 356.002 L
676.1 400.976 L
682.52 370.993 L
688.94 326.02 L
695.36 475.926 L
701.78 460.934 L
708.2 460.934 L
714.62 385.985 L
721.04 370.993 L
727.46 251.07 L
733.88 580.858 L
740.3 400.976 L
746.72 595.843 L
753.14 415.961 L
759.56 385.985 L
765.98 595.843 L
772.4 370.993 L
778.82 490.917 L
785.24 550.875 L
791.66 445.943 L
798.08 370.993 L
804.5 281.052 L
810.92 341.011 L
817.34 251.07 L
823.76 400.976 L
830.18 490.917 L
836.6 341.011 L
843.02 535.884 L
849.44 430.952 L
855.86 400.976 L
862.28 400.976 L
868.7 460.934 L
875.12 415.961 L
881.54 475.926 L
887.96 415.961 L
894.38 221.094 L
900.8 385.985 L
907.22 460.934 L
913.64 296.044 L
920.06 595.843 L
926.48 520.893 L
932.9 520.893 L
939.32 236.079 L
945.74 430.952 L
952.16 370.993 L
958.58 445.943 L
965 535.884 L
971.42 565.867 L
977.84 460.934 L
984.26 445.943 L
990.68 520.893 L
997.1 206.102 L
1003.52 445.943 L
1009.94 385.985 L
1016.36 460.934 L
1022.78 415.961 L
1029.2 356.002 L
1035.62 370.993 L
1042.04 550.875 L
1048.46 655.808 L
1054.88 191.111 L
1061.3 385.985 L
1067.72 281.052 L
1074.14 281.052 L
1080.56 400.976 L
1086.98 400.976 L
1093.4 311.035 L
1099.82 460.934 L
1106.24 311.035 L
1112.66 415.961 L
1119.08 415.961 L
1125.5 415.961 L
1131.92 415.961 L
1138.34 370.993 L
1144.76 535.884 L
1151.18 520.893 L
1157.6 475.926 L
1164.02 415.961 L
1170.44 460.934 L
1176.86 415.961 L
1183.28 490.917 L
1189.7 385.985 L
1196.12 296.044 L
1202.54 415.961 L
1208.96 251.07 L
1215.38 490.917 L
1221.8 400.976 L
1228.22 400.976 L
1234.64 475.926 L
1241.06 490.917 L
1247.48 430.952 L
1253.9 430.952 L
1260.32 341.011 L
1266.74 281.052 L
1273.16 400.976 L
1279.58 236.079 L
1286 311.035 L
1292.42 251.07 L
1298.84 385.985 L
1305.26 415.961 L
1311.68 430.952 L
1318.1 475.926 L
1324.52 221.094 L
1330.94 460.934 L
1337.36 430.952 L
1343.78 565.867 L
1350.2 460.934 L
1356.62 490.917 L
1363.04 326.02 L
1369.46 445.943 L
1375.88 445.943 L
1382.3 385.985 L
1388.72 475.926 L
1395.14 445.943 L
1401.56 415.961 L
1407.98 535.884 L
1414.4 430.952 L
1420.82 236.079 L
1427.24 460.934 L
1433.66 311.035 L
1440.08 430.952 L
1446.5 370.993 L
1452.92 370.993 L
1459.34 281.052 L
1465.76 370.993 L
1472.18 341.011 L
1478.6 400.976 L
1485.02 236.079 L
1491.44 370.993 L
1497.86 356.002 L
1504.28 445.943 L
1510.7 430.952 L
1517.12 460.934 L
1523.54 640.816 L
1529.96 445.943 L
1536.38 415.961 L
1542.8 535.884 L
1549.22 281.052 L
1555.64 520.893 L
1562.06 266.061 L
1568.48 505.902 L
1574.9 296.044 L
1581.32 430.952 L
1587.74 370.993 L
1594.16 520.893 L
1600.58 520.893 L
1607 370.993 L
1613.42 580.858 L
1619.84 356.002 L
1626.26 460.934 L
1632.68 460.934 L
1639.1 385.985 L
1645.52 326.02 L
1651.94 520.893 L
1658.36 610.834 L
1664.78 400.976 L
1671.2 400.976 L
1677.62 370.993 L
1684.04 430.952 L
1690.46 475.926 L
1696.88 385.985 L
1703.3 430.952 L
1709.72 445.943 L
1716.14 550.875 L
1722.56 370.993 L
1728.98 430.952 L
1735.4 356.002 L
1741.82 520.893 L
1748.24 415.961 L
1754.66 415.961 L
1761.08 460.934 L
1767.5 370.993 L
1773.92 445.943 L
1780.34 430.952 L
1786.76 430.952 L
1793.18 430.952 L
1799.6 370.993 L
1806.02 400.976 L
1812.44 400.976 L
1818.86 370.993 L
1825.28 490.917 L
1831.7 445.943 L
1838.12 430.952 L
1844.54 550.875 L
1850.96 370.993 L
1857.38 326.02 L
1863.8 460.934 L
1870.22 430.952 L
1876.64 610.834 L
1883.06 535.884 L
1889.48 535.884 L
1895.9 490.917 L
1902.32 400.976 L
1908.74 385.985 L
1915.16 520.893 L
1921.58 356.002 L
1928 535.884 L
1934.42 356.002 L
1940.84 400.976 L
1947.26 281.052 L
1953.68 475.926 L
1960.1 191.111 L
1966.52 445.943 L
1972.94 475.926 L
1979.36 490.917 L
1985.78 460.934 L
1992.2 475.926 L
1998.62 565.867 L
2005.04 415.961 L
2011.46 356.002 L
2017.88 311.035 L
2024.3 520.893 L
2030.72 520.893 L
2037.14 326.02 L
2043.56 520.893 L
2049.98 475.926 L
2056.4 475.926 L
2062.82 520.893 L
2069.24 460.934 L
2075.66 445.943 L
2082.08 625.825 L
2088.5 445.943 L
2094.92 251.07 L
2101.34 445.943 L
2107.76 400.976 L
2114.18 580.858 L
2120.6 400.976 L
2127.02 385.985 L
2133.44 430.952 L
2139.86 490.917 L
2146.28 311.035 L
2152.7 460.934 L
2159.12 356.002 L
2165.54 326.02 L
2171.96 326.02 L
2178.38 445.943 L
2184.8 296.044 L
2191.22 430.952 L
2197.64 356.002 L
2204.06 445.943 L
2210.48 296.044 L
2216.9 281.052 L
2223.32 311.035 L
2229.74 356.002 L
2236.16 430.952 L
2242.58 460.934 L
S
GR
%%Trailer
%%Pages: 1
%%EOF
