%!PS-Adobe-3.0 EPSF-3.0
%%Creator: (MATLAB, The Mathworks, Inc. Version 9.3.0.713579 \(R2017b\). Operating System: Linux)
%%Title: /home/micke/ExamensarbeteCybercom/CalibrationMat/simulatedsignal.eps
%%CreationDate: 2018-04-26T10:58:08
%%Pages: (atend)
%%BoundingBox: 0 0 1864 615
%%LanguageLevel: 3
%%EndComments
%%BeginProlog
%%BeginResource: procset (Apache XML Graphics Std ProcSet) 1.2 0
%%Version: 1.2 0
%%Copyright: (Copyright 2001-2003,2010 The Apache Software Foundation. License terms: http://www.apache.org/licenses/LICENSE-2.0)
/bd{bind def}bind def
/ld{load def}bd
/GR/grestore ld
/GS/gsave ld
/RM/rmoveto ld
/C/curveto ld
/t/show ld
/L/lineto ld
/ML/setmiterlimit ld
/CT/concat ld
/f/fill ld
/N/newpath ld
/S/stroke ld
/CC/setcmykcolor ld
/A/ashow ld
/cp/closepath ld
/RC/setrgbcolor ld
/LJ/setlinejoin ld
/GC/setgray ld
/LW/setlinewidth ld
/M/moveto ld
/re {4 2 roll M
1 index 0 rlineto
0 exch rlineto
neg 0 rlineto
cp } bd
/_ctm matrix def
/_tm matrix def
/BT { _ctm currentmatrix pop matrix _tm copy pop 0 0 moveto } bd
/ET { _ctm setmatrix } bd
/iTm { _ctm setmatrix _tm concat } bd
/Tm { _tm astore pop iTm 0 0 moveto } bd
/ux 0.0 def
/uy 0.0 def
/F {
  /Tp exch def
  /Tf exch def
  Tf findfont Tp scalefont setfont
  /cf Tf def  /cs Tp def
} bd
/ULS {currentpoint /uy exch def /ux exch def} bd
/ULE {
  /Tcx currentpoint pop def
  gsave
  newpath
  cf findfont cs scalefont dup
  /FontMatrix get 0 get /Ts exch def /FontInfo get dup
  /UnderlinePosition get Ts mul /To exch def
  /UnderlineThickness get Ts mul /Tt exch def
  ux uy To add moveto  Tcx uy To add lineto
  Tt setlinewidth stroke
  grestore
} bd
/OLE {
  /Tcx currentpoint pop def
  gsave
  newpath
  cf findfont cs scalefont dup
  /FontMatrix get 0 get /Ts exch def /FontInfo get dup
  /UnderlinePosition get Ts mul /To exch def
  /UnderlineThickness get Ts mul /Tt exch def
  ux uy To add cs add moveto Tcx uy To add cs add lineto
  Tt setlinewidth stroke
  grestore
} bd
/SOE {
  /Tcx currentpoint pop def
  gsave
  newpath
  cf findfont cs scalefont dup
  /FontMatrix get 0 get /Ts exch def /FontInfo get dup
  /UnderlinePosition get Ts mul /To exch def
  /UnderlineThickness get Ts mul /Tt exch def
  ux uy To add cs 10 mul 26 idiv add moveto Tcx uy To add cs 10 mul 26 idiv add lineto
  Tt setlinewidth stroke
  grestore
} bd
/QT {
/Y22 exch store
/X22 exch store
/Y21 exch store
/X21 exch store
currentpoint
/Y21 load 2 mul add 3 div exch
/X21 load 2 mul add 3 div exch
/X21 load 2 mul /X22 load add 3 div
/Y21 load 2 mul /Y22 load add 3 div
/X22 load /Y22 load curveto
} bd
/SSPD {
dup length /d exch dict def
{
/v exch def
/k exch def
currentpagedevice k known {
/cpdv currentpagedevice k get def
v cpdv ne {
/upd false def
/nullv v type /nulltype eq def
/nullcpdv cpdv type /nulltype eq def
nullv nullcpdv or
{
/upd true def
} {
/sametype v type cpdv type eq def
sametype {
v type /arraytype eq {
/vlen v length def
/cpdvlen cpdv length def
vlen cpdvlen eq {
0 1 vlen 1 sub {
/i exch def
/obj v i get def
/cpdobj cpdv i get def
obj cpdobj ne {
/upd true def
exit
} if
} for
} {
/upd true def
} ifelse
} {
v type /dicttype eq {
v {
/dv exch def
/dk exch def
/cpddv cpdv dk get def
dv cpddv ne {
/upd true def
exit
} if
} forall
} {
/upd true def
} ifelse
} ifelse
} if
} ifelse
upd true eq {
d k v put
} if
} if
} if
} forall
d length 0 gt {
d setpagedevice
} if
} bd
/RE { % /NewFontName [NewEncodingArray] /FontName RE -
  findfont dup length dict begin
  {
    1 index /FID ne
    {def} {pop pop} ifelse
  } forall
  /Encoding exch def
  /FontName 1 index def
  currentdict definefont pop
  end
} bind def
%%EndResource
%%BeginResource: procset (Apache XML Graphics EPS ProcSet) 1.0 0
%%Version: 1.0 0
%%Copyright: (Copyright 2002-2003 The Apache Software Foundation. License terms: http://www.apache.org/licenses/LICENSE-2.0)
/BeginEPSF { %def
/b4_Inc_state save def         % Save state for cleanup
/dict_count countdictstack def % Count objects on dict stack
/op_count count 1 sub def      % Count objects on operand stack
userdict begin                 % Push userdict on dict stack
/showpage { } def              % Redefine showpage, { } = null proc
0 setgray 0 setlinecap         % Prepare graphics state
1 setlinewidth 0 setlinejoin
10 setmiterlimit [ ] 0 setdash newpath
/languagelevel where           % If level not equal to 1 then
{pop languagelevel             % set strokeadjust and
1 ne                           % overprint to their defaults.
{false setstrokeadjust false setoverprint
} if
} if
} bd
/EndEPSF { %def
count op_count sub {pop} repeat            % Clean up stacks
countdictstack dict_count sub {end} repeat
b4_Inc_state restore
} bd
%%EndResource
%FOPBeginFontDict
%%IncludeResource: font Courier-Oblique
%%IncludeResource: font Courier-BoldOblique
%%IncludeResource: font Courier-Bold
%%IncludeResource: font ZapfDingbats
%%IncludeResource: font Symbol
%%IncludeResource: font Helvetica
%%IncludeResource: font Helvetica-Oblique
%%IncludeResource: font Helvetica-Bold
%%IncludeResource: font Helvetica-BoldOblique
%%IncludeResource: font Times-Roman
%%IncludeResource: font Times-Italic
%%IncludeResource: font Times-Bold
%%IncludeResource: font Times-BoldItalic
%%IncludeResource: font Courier
%FOPEndFontDict
%%BeginResource: encoding WinAnsiEncoding
/WinAnsiEncoding [
/.notdef /.notdef /.notdef /.notdef /.notdef
/.notdef /.notdef /.notdef /.notdef /.notdef
/.notdef /.notdef /.notdef /.notdef /.notdef
/.notdef /.notdef /.notdef /.notdef /.notdef
/.notdef /.notdef /.notdef /.notdef /.notdef
/.notdef /.notdef /.notdef /.notdef /.notdef
/.notdef /.notdef /space /exclam /quotedbl
/numbersign /dollar /percent /ampersand /quotesingle
/parenleft /parenright /asterisk /plus /comma
/hyphen /period /slash /zero /one
/two /three /four /five /six
/seven /eight /nine /colon /semicolon
/less /equal /greater /question /at
/A /B /C /D /E
/F /G /H /I /J
/K /L /M /N /O
/P /Q /R /S /T
/U /V /W /X /Y
/Z /bracketleft /backslash /bracketright /asciicircum
/underscore /quoteleft /a /b /c
/d /e /f /g /h
/i /j /k /l /m
/n /o /p /q /r
/s /t /u /v /w
/x /y /z /braceleft /bar
/braceright /asciitilde /bullet /Euro /bullet
/quotesinglbase /florin /quotedblbase /ellipsis /dagger
/daggerdbl /circumflex /perthousand /Scaron /guilsinglleft
/OE /bullet /Zcaron /bullet /bullet
/quoteleft /quoteright /quotedblleft /quotedblright /bullet
/endash /emdash /asciitilde /trademark /scaron
/guilsinglright /oe /bullet /zcaron /Ydieresis
/space /exclamdown /cent /sterling /currency
/yen /brokenbar /section /dieresis /copyright
/ordfeminine /guillemotleft /logicalnot /sfthyphen /registered
/macron /degree /plusminus /twosuperior /threesuperior
/acute /mu /paragraph /middot /cedilla
/onesuperior /ordmasculine /guillemotright /onequarter /onehalf
/threequarters /questiondown /Agrave /Aacute /Acircumflex
/Atilde /Adieresis /Aring /AE /Ccedilla
/Egrave /Eacute /Ecircumflex /Edieresis /Igrave
/Iacute /Icircumflex /Idieresis /Eth /Ntilde
/Ograve /Oacute /Ocircumflex /Otilde /Odieresis
/multiply /Oslash /Ugrave /Uacute /Ucircumflex
/Udieresis /Yacute /Thorn /germandbls /agrave
/aacute /acircumflex /atilde /adieresis /aring
/ae /ccedilla /egrave /eacute /ecircumflex
/edieresis /igrave /iacute /icircumflex /idieresis
/eth /ntilde /ograve /oacute /ocircumflex
/otilde /odieresis /divide /oslash /ugrave
/uacute /ucircumflex /udieresis /yacute /thorn
/ydieresis
] def
%%EndResource
%FOPBeginFontReencode
/Courier-Oblique findfont
dup length dict begin
  {1 index /FID ne {def} {pop pop} ifelse} forall
  /Encoding WinAnsiEncoding def
  currentdict
end
/Courier-Oblique exch definefont pop
/Courier-BoldOblique findfont
dup length dict begin
  {1 index /FID ne {def} {pop pop} ifelse} forall
  /Encoding WinAnsiEncoding def
  currentdict
end
/Courier-BoldOblique exch definefont pop
/Courier-Bold findfont
dup length dict begin
  {1 index /FID ne {def} {pop pop} ifelse} forall
  /Encoding WinAnsiEncoding def
  currentdict
end
/Courier-Bold exch definefont pop
/Helvetica findfont
dup length dict begin
  {1 index /FID ne {def} {pop pop} ifelse} forall
  /Encoding WinAnsiEncoding def
  currentdict
end
/Helvetica exch definefont pop
/Helvetica-Oblique findfont
dup length dict begin
  {1 index /FID ne {def} {pop pop} ifelse} forall
  /Encoding WinAnsiEncoding def
  currentdict
end
/Helvetica-Oblique exch definefont pop
/Helvetica-Bold findfont
dup length dict begin
  {1 index /FID ne {def} {pop pop} ifelse} forall
  /Encoding WinAnsiEncoding def
  currentdict
end
/Helvetica-Bold exch definefont pop
/Helvetica-BoldOblique findfont
dup length dict begin
  {1 index /FID ne {def} {pop pop} ifelse} forall
  /Encoding WinAnsiEncoding def
  currentdict
end
/Helvetica-BoldOblique exch definefont pop
/Times-Roman findfont
dup length dict begin
  {1 index /FID ne {def} {pop pop} ifelse} forall
  /Encoding WinAnsiEncoding def
  currentdict
end
/Times-Roman exch definefont pop
/Times-Italic findfont
dup length dict begin
  {1 index /FID ne {def} {pop pop} ifelse} forall
  /Encoding WinAnsiEncoding def
  currentdict
end
/Times-Italic exch definefont pop
/Times-Bold findfont
dup length dict begin
  {1 index /FID ne {def} {pop pop} ifelse} forall
  /Encoding WinAnsiEncoding def
  currentdict
end
/Times-Bold exch definefont pop
/Times-BoldItalic findfont
dup length dict begin
  {1 index /FID ne {def} {pop pop} ifelse} forall
  /Encoding WinAnsiEncoding def
  currentdict
end
/Times-BoldItalic exch definefont pop
/Courier findfont
dup length dict begin
  {1 index /FID ne {def} {pop pop} ifelse} forall
  /Encoding WinAnsiEncoding def
  currentdict
end
/Courier exch definefont pop
%FOPEndFontReencode
%%EndProlog
%%Page: 1 1
%%PageBoundingBox: 0 0 1864 615
%%BeginPageSetup
[1 0 0 -1 0 615] CT
%%EndPageSetup
GS
[0.75 0 0 0.75 0 0] CT
1 GC
N
0 0 2485 820 re
f
GR
GS
[0.75 0 0 0.75 0 0] CT
1 GC
N
0 0 2485 820 re
f
GR
GS
[0.75 0 0 0.75 0 0] CT
1 GC
N
323 708 M
2249 708 L
2249 63 L
323 63 L
cp
f
GR
GS
[0.75 0 0 0.75 0 0] CT
0.149 GC
2 setlinecap
1 LJ
0.667 LW
N
323 708 M
2249 708 L
S
GR
GS
[0.75 0 0 0.75 0 0] CT
0.149 GC
2 setlinecap
1 LJ
0.667 LW
N
323 63.002 M
2249 63.002 L
S
GR
GS
[0.75 0 0 0.75 0 0] CT
0.149 GC
2 setlinecap
1 LJ
0.667 LW
N
323 708 M
323 688.743 L
S
GR
GS
[0.75 0 0 0.75 0 0] CT
0.149 GC
2 setlinecap
1 LJ
0.667 LW
N
644 708 M
644 688.743 L
S
GR
GS
[0.75 0 0 0.75 0 0] CT
0.149 GC
2 setlinecap
1 LJ
0.667 LW
N
965 708 M
965 688.743 L
S
GR
GS
[0.75 0 0 0.75 0 0] CT
0.149 GC
2 setlinecap
1 LJ
0.667 LW
N
1286 708 M
1286 688.743 L
S
GR
GS
[0.75 0 0 0.75 0 0] CT
0.149 GC
2 setlinecap
1 LJ
0.667 LW
N
1607 708 M
1607 688.743 L
S
GR
GS
[0.75 0 0 0.75 0 0] CT
0.149 GC
2 setlinecap
1 LJ
0.667 LW
N
1928 708 M
1928 688.743 L
S
GR
GS
[0.75 0 0 0.75 0 0] CT
0.149 GC
2 setlinecap
1 LJ
0.667 LW
N
2249 708 M
2249 688.743 L
S
GR
GS
[0.75 0 0 0.75 0 0] CT
0.149 GC
2 setlinecap
1 LJ
0.667 LW
N
323 63.002 M
323 82.259 L
S
GR
GS
[0.75 0 0 0.75 0 0] CT
0.149 GC
2 setlinecap
1 LJ
0.667 LW
N
644 63.002 M
644 82.259 L
S
GR
GS
[0.75 0 0 0.75 0 0] CT
0.149 GC
2 setlinecap
1 LJ
0.667 LW
N
965 63.002 M
965 82.259 L
S
GR
GS
[0.75 0 0 0.75 0 0] CT
0.149 GC
2 setlinecap
1 LJ
0.667 LW
N
1286 63.002 M
1286 82.259 L
S
GR
GS
[0.75 0 0 0.75 0 0] CT
0.149 GC
2 setlinecap
1 LJ
0.667 LW
N
1607 63.002 M
1607 82.259 L
S
GR
GS
[0.75 0 0 0.75 0 0] CT
0.149 GC
2 setlinecap
1 LJ
0.667 LW
N
1928 63.002 M
1928 82.259 L
S
GR
GS
[0.75 0 0 0.75 0 0] CT
0.149 GC
2 setlinecap
1 LJ
0.667 LW
N
2249 63.002 M
2249 82.259 L
S
GR
GS
[0.75 0 0 0.75 242.25 539.00272] CT
0.149 GC
/Helvetica 40 F
GS
[1 0 0 1 0 0] CT
-13 38 moveto 
1 -1 scale
(0) t 
GR
GR
GS
[0.75 0 0 0.75 483 539.00272] CT
0.149 GC
/Helvetica 40 F
GS
[1 0 0 1 0 0] CT
-25.5 38 moveto 
1 -1 scale
(50) t 
GR
GR
GS
[0.75 0 0 0.75 723.75 539.00272] CT
0.149 GC
/Helvetica 40 F
GS
[1 0 0 1 0 0] CT
-38.5 38 moveto 
1 -1 scale
(100) t 
GR
GR
GS
[0.75 0 0 0.75 964.5 539.00272] CT
0.149 GC
/Helvetica 40 F
GS
[1 0 0 1 0 0] CT
-38.5 38 moveto 
1 -1 scale
(150) t 
GR
GR
GS
[0.75 0 0 0.75 1205.25 539.00272] CT
0.149 GC
/Helvetica 40 F
GS
[1 0 0 1 0 0] CT
-38.5 38 moveto 
1 -1 scale
(200) t 
GR
GR
GS
[0.75 0 0 0.75 1446 539.00272] CT
0.149 GC
/Helvetica 40 F
GS
[1 0 0 1 0 0] CT
-38.5 38 moveto 
1 -1 scale
(250) t 
GR
GR
GS
[0.75 0 0 0.75 1686.75 539.00272] CT
0.149 GC
/Helvetica 40 F
GS
[1 0 0 1 0 0] CT
-38.5 38 moveto 
1 -1 scale
(300) t 
GR
GR
GS
[0.75 0 0 0.75 964.50064 576.00215] CT
0.149 GC
/Helvetica 44 F
GS
[1 0 0 1 0 0] CT
-163 41 moveto 
1 -1 scale
(Measurements) t 
GR
GR
GS
[0.75 0 0 0.75 0 0] CT
0.149 GC
2 setlinecap
1 LJ
0.667 LW
N
323 708 M
323 63.002 L
S
GR
GS
[0.75 0 0 0.75 0 0] CT
0.149 GC
2 setlinecap
1 LJ
0.667 LW
N
2249 708 M
2249 63.002 L
S
GR
GS
[0.75 0 0 0.75 0 0] CT
0.149 GC
2 setlinecap
1 LJ
0.667 LW
N
323 708 M
342.26 708 L
S
GR
GS
[0.75 0 0 0.75 0 0] CT
0.149 GC
2 setlinecap
1 LJ
0.667 LW
N
323 600.502 M
342.26 600.502 L
S
GR
GS
[0.75 0 0 0.75 0 0] CT
0.149 GC
2 setlinecap
1 LJ
0.667 LW
N
323 493.003 M
342.26 493.003 L
S
GR
GS
[0.75 0 0 0.75 0 0] CT
0.149 GC
2 setlinecap
1 LJ
0.667 LW
N
323 385.497 M
342.26 385.497 L
S
GR
GS
[0.75 0 0 0.75 0 0] CT
0.149 GC
2 setlinecap
1 LJ
0.667 LW
N
323 277.998 M
342.26 277.998 L
S
GR
GS
[0.75 0 0 0.75 0 0] CT
0.149 GC
2 setlinecap
1 LJ
0.667 LW
N
323 170.5 M
342.26 170.5 L
S
GR
GS
[0.75 0 0 0.75 0 0] CT
0.149 GC
2 setlinecap
1 LJ
0.667 LW
N
323 63.002 M
342.26 63.002 L
S
GR
GS
[0.75 0 0 0.75 0 0] CT
0.149 GC
2 setlinecap
1 LJ
0.667 LW
N
2249 708 M
2229.74 708 L
S
GR
GS
[0.75 0 0 0.75 0 0] CT
0.149 GC
2 setlinecap
1 LJ
0.667 LW
N
2249 600.502 M
2229.74 600.502 L
S
GR
GS
[0.75 0 0 0.75 0 0] CT
0.149 GC
2 setlinecap
1 LJ
0.667 LW
N
2249 493.003 M
2229.74 493.003 L
S
GR
GS
[0.75 0 0 0.75 0 0] CT
0.149 GC
2 setlinecap
1 LJ
0.667 LW
N
2249 385.497 M
2229.74 385.497 L
S
GR
GS
[0.75 0 0 0.75 0 0] CT
0.149 GC
2 setlinecap
1 LJ
0.667 LW
N
2249 277.998 M
2229.74 277.998 L
S
GR
GS
[0.75 0 0 0.75 0 0] CT
0.149 GC
2 setlinecap
1 LJ
0.667 LW
N
2249 170.5 M
2229.74 170.5 L
S
GR
GS
[0.75 0 0 0.75 0 0] CT
0.149 GC
2 setlinecap
1 LJ
0.667 LW
N
2249 63.002 M
2229.74 63.002 L
S
GR
GS
[0.75 0 0 0.75 234.25001 531] CT
0.149 GC
/Helvetica 40 F
GS
[1 0 0 1 0 0] CT
-115 14 moveto 
1 -1 scale
(43.25) t 
GR
GR
GS
[0.75 0 0 0.75 234.25001 450.37624] CT
0.149 GC
/Helvetica 40 F
GS
[1 0 0 1 0 0] CT
-90 14 moveto 
1 -1 scale
(43.3) t 
GR
GR
GS
[0.75 0 0 0.75 234.25001 369.75245] CT
0.149 GC
/Helvetica 40 F
GS
[1 0 0 1 0 0] CT
-115 14 moveto 
1 -1 scale
(43.35) t 
GR
GR
GS
[0.75 0 0 0.75 234.25001 289.12253] CT
0.149 GC
/Helvetica 40 F
GS
[1 0 0 1 0 0] CT
-90 14 moveto 
1 -1 scale
(43.4) t 
GR
GR
GS
[0.75 0 0 0.75 234.25001 208.49876] CT
0.149 GC
/Helvetica 40 F
GS
[1 0 0 1 0 0] CT
-115 14 moveto 
1 -1 scale
(43.45) t 
GR
GR
GS
[0.75 0 0 0.75 234.25001 127.875] CT
0.149 GC
/Helvetica 40 F
GS
[1 0 0 1 0 0] CT
-90 14 moveto 
1 -1 scale
(43.5) t 
GR
GR
GS
[0.75 0 0 0.75 234.25001 47.25123] CT
0.149 GC
/Helvetica 40 F
GS
[1 0 0 1 0 0] CT
-115 14 moveto 
1 -1 scale
(43.55) t 
GR
GR
GS
[0 -0.75 0.75 0 145 289.12253] CT
0.149 GC
/Helvetica 44 F
GS
[1 0 0 1 0 0] CT
-116 -11 moveto 
1 -1 scale
(Range [m]) t 
GR
GR
GS
[0.75 0 0 0.75 964.50092 41.06312] CT
/Helvetica-Bold 44 F
GS
[1 0 0 1 0 0] CT
-459 -11 moveto 
1 -1 scale
(Simulated and measured UWB signal) t 
GR
GR
GS
[0.75 0 0 0.75 0 0] CT
0 0 1 RC
1 LJ
1.333 LW
N
329.42 436.863 M
335.84 511.613 L
342.26 391.041 L
348.68 406.173 L
355.1 366.559 L
361.52 287.66 L
367.94 328.684 L
374.36 256.748 L
380.78 457.408 L
387.2 470.744 L
393.62 394.863 L
400.04 249.121 L
406.46 256.961 L
412.88 397.906 L
419.3 444.351 L
425.72 535.43 L
432.14 319.261 L
438.56 383.249 L
444.98 501.631 L
451.4 418.492 L
457.82 565.883 L
464.24 343.103 L
470.66 402.654 L
477.08 224.663 L
483.5 519.535 L
489.92 289.809 L
496.34 371.341 L
502.76 377.353 L
509.18 314.84 L
515.6 267.828 L
522.02 491.109 L
528.44 255.46 L
534.86 504.805 L
541.28 491.404 L
547.7 451.815 L
554.12 312.888 L
560.54 490.994 L
566.96 352.502 L
573.38 344.891 L
579.8 370.307 L
586.22 330.817 L
592.64 501.139 L
599.06 286.151 L
605.48 374.31 L
611.9 313.519 L
618.32 482.472 L
624.74 380.371 L
631.16 298.97 L
637.58 285.511 L
644 393.813 L
650.42 568.253 L
656.84 493.643 L
663.26 363.943 L
669.68 307.188 L
676.1 339.838 L
682.52 445.901 L
688.94 164.209 L
695.36 378.37 L
701.78 300.159 L
708.2 426.488 L
714.62 495.431 L
721.04 317.932 L
727.46 283.19 L
733.88 205.832 L
740.3 437.659 L
746.72 546.018 L
753.14 226.033 L
759.56 359.457 L
765.98 496.637 L
772.4 440.636 L
778.82 465.249 L
785.24 271.027 L
791.66 327.118 L
798.08 361.564 L
804.5 361.786 L
810.92 466.496 L
817.34 287.578 L
823.76 351.345 L
830.18 411.25 L
836.6 403.712 L
843.02 395.527 L
849.44 472.959 L
855.86 312.404 L
862.28 248.235 L
868.7 141.581 L
875.12 335.811 L
881.54 466.594 L
887.96 365.682 L
894.38 484.793 L
900.8 445.959 L
907.22 450.47 L
913.64 467.652 L
920.06 348.212 L
926.48 495.472 L
932.9 319.712 L
939.32 307.081 L
945.74 283.206 L
952.16 387.514 L
958.58 324.469 L
965 207.719 L
971.42 380.272 L
977.84 403.04 L
984.26 210.737 L
990.68 632.865 L
997.1 430.515 L
1003.52 145.871 L
1009.94 431.983 L
1016.36 440.751 L
1022.78 506.429 L
1029.2 307.319 L
1035.62 593.538 L
1042.04 464.322 L
1048.46 329.595 L
1054.88 385.644 L
1061.3 323.985 L
1067.72 373.03 L
1074.14 318.367 L
1080.56 512.433 L
1086.98 364 L
1093.4 539.957 L
1099.82 308.27 L
1106.24 416.121 L
1112.66 320.885 L
1119.08 438.495 L
1125.5 353.1 L
1131.92 281.574 L
1138.34 580.695 L
1144.76 569.623 L
1151.18 566.17 L
1157.6 301.832 L
1164.02 345.547 L
1170.44 454.759 L
1176.86 237.696 L
1183.28 371.915 L
1189.7 541.959 L
1196.12 485.983 L
1202.54 522.078 L
1208.96 291.351 L
1215.38 444.77 L
1221.8 501.049 L
1228.22 442.399 L
1234.64 467.972 L
1241.06 301.398 L
1247.48 338.436 L
1253.9 355.692 L
1260.32 344.505 L
1266.74 381.265 L
1273.16 479.052 L
1279.58 332.096 L
1286 466.463 L
1292.42 491.191 L
1298.84 491.404 L
1305.26 299.765 L
1311.68 288.767 L
1318.1 558.92 L
1324.52 400.104 L
1330.94 360.662 L
1337.36 445.68 L
1343.78 310.468 L
1350.2 360.416 L
1356.62 400.571 L
1363.04 440.456 L
1369.46 318.744 L
1375.88 301.758 L
1382.3 339.223 L
1388.72 409.142 L
1395.14 294.689 L
1401.56 474.919 L
1407.98 371.259 L
1414.4 247.816 L
1420.82 404.205 L
1427.24 468.702 L
1433.66 193.883 L
1440.08 409.847 L
1446.5 341.954 L
1452.92 464.732 L
1459.34 357.144 L
1465.76 339.453 L
1472.18 385.054 L
1478.6 353.346 L
1485.02 266.729 L
1491.44 523.94 L
1497.86 365.231 L
1504.28 581.827 L
1510.7 382.7 L
1517.12 195.154 L
1523.54 292.704 L
1529.96 386.186 L
1536.38 418.853 L
1542.8 333.417 L
1549.22 281.295 L
1555.64 384.045 L
1562.06 226.287 L
1568.48 465.938 L
1574.9 582.475 L
1581.32 459.27 L
1587.74 405.148 L
1594.16 422.256 L
1600.58 469.046 L
1607 253.648 L
1613.42 544.862 L
1619.84 433.993 L
1626.26 481.07 L
1632.68 432.246 L
1639.1 451.183 L
1645.52 338.329 L
1651.94 488.148 L
1658.36 466.414 L
1664.78 375.532 L
1671.2 278.622 L
1677.62 568.351 L
1684.04 208.047 L
1690.46 472.106 L
1696.88 321.631 L
1703.3 282.017 L
1709.72 255.042 L
1716.14 436.511 L
1722.56 383.102 L
1728.98 401.506 L
1735.4 445.221 L
1741.82 358.71 L
1748.24 350.14 L
1754.66 420.239 L
1761.08 372.448 L
1767.5 121.889 L
1773.92 386.243 L
1780.34 315.463 L
1786.76 431.106 L
1793.18 437.544 L
1799.6 419.591 L
1806.02 329.832 L
1812.44 464.527 L
1818.86 568.196 L
1825.28 380.256 L
1831.7 428.531 L
1838.12 357.89 L
1844.54 377.156 L
1850.96 313.61 L
1857.38 296.69 L
1863.8 516.206 L
1870.22 535.824 L
1876.64 335.959 L
1883.06 355.29 L
1889.48 478.101 L
1895.9 263.498 L
1902.32 382.249 L
1908.74 373.317 L
1915.16 358.489 L
1921.58 311.141 L
1928 235.186 L
1934.42 411.332 L
1940.84 556.139 L
1947.26 285.577 L
1953.68 476.969 L
1960.1 262.875 L
1966.52 443.621 L
1972.94 238.442 L
1979.36 464.97 L
1985.78 495.201 L
1992.2 291.146 L
1998.62 519.896 L
2005.04 318.399 L
2011.46 342.332 L
2017.88 399.628 L
2024.3 419.172 L
2030.72 182.606 L
2037.14 422.429 L
2043.56 404.254 L
2049.98 478.06 L
2056.4 465.708 L
2062.82 443.047 L
2069.24 216.946 L
2075.66 423.995 L
2082.08 453.537 L
2088.5 429.695 L
2094.92 315.061 L
2101.34 515.23 L
2107.76 323.665 L
2114.18 516.763 L
2120.6 398.398 L
2127.02 565.628 L
2133.44 332.662 L
2139.86 317.186 L
2146.28 453.291 L
2152.7 354.191 L
2159.12 369.446 L
2165.54 271.216 L
2171.96 372.842 L
2178.38 283.01 L
2184.8 397.012 L
2191.22 449.42 L
2197.64 389.245 L
2204.06 405.156 L
2210.48 298.568 L
2216.9 391.033 L
2223.32 468.448 L
2229.74 400.768 L
2236.16 268.304 L
2242.58 426.406 L
2249 450.437 L
S
GR
GS
[0.75 0 0 0.75 0 0] CT
1 0 0 RC
1 LJ
1.333 LW
N
329.42 260.882 M
335.84 291.146 L
342.26 230.618 L
348.68 361.753 L
355.1 301.233 L
361.52 482.8 L
367.94 371.841 L
374.36 281.058 L
380.78 482.8 L
387.2 301.233 L
393.62 402.105 L
400.04 422.281 L
406.46 462.625 L
412.88 402.105 L
419.3 361.753 L
425.72 422.281 L
432.14 432.369 L
438.56 412.193 L
444.98 240.706 L
451.4 321.409 L
457.82 381.929 L
464.24 462.625 L
470.66 361.753 L
477.08 361.753 L
483.5 220.53 L
489.92 331.497 L
496.34 321.409 L
502.76 442.457 L
509.18 442.457 L
515.6 422.281 L
522.02 260.882 L
528.44 250.794 L
534.86 351.665 L
541.28 321.409 L
547.7 523.152 L
554.12 432.369 L
560.54 513.064 L
566.96 513.064 L
573.38 422.281 L
579.8 220.53 L
586.22 492.888 L
592.64 281.058 L
599.06 402.105 L
605.48 533.24 L
611.9 533.24 L
618.32 281.058 L
624.74 331.497 L
631.16 432.369 L
637.58 371.841 L
644 200.362 L
650.42 452.545 L
656.84 513.064 L
663.26 462.625 L
669.68 351.665 L
676.1 230.618 L
682.52 371.841 L
688.94 502.976 L
695.36 361.753 L
701.78 301.233 L
708.2 543.328 L
714.62 361.753 L
721.04 220.53 L
727.46 291.146 L
733.88 371.841 L
740.3 492.888 L
746.72 230.618 L
753.14 371.841 L
759.56 392.017 L
765.98 331.497 L
772.4 331.497 L
778.82 220.53 L
785.24 432.369 L
791.66 432.369 L
798.08 462.625 L
804.5 392.017 L
810.92 291.146 L
817.34 422.281 L
823.76 472.713 L
830.18 392.017 L
836.6 321.409 L
843.02 341.577 L
849.44 402.105 L
855.86 412.193 L
862.28 321.409 L
868.7 472.713 L
875.12 593.76 L
881.54 301.233 L
887.96 321.409 L
894.38 351.665 L
900.8 351.665 L
907.22 331.497 L
913.64 331.497 L
920.06 361.753 L
926.48 301.233 L
932.9 381.929 L
939.32 381.929 L
945.74 230.618 L
952.16 442.457 L
958.58 533.24 L
965 412.193 L
971.42 422.281 L
977.84 311.321 L
984.26 341.577 L
990.68 462.625 L
997.1 331.497 L
1003.52 170.098 L
1009.94 331.497 L
1016.36 331.497 L
1022.78 281.058 L
1029.2 402.105 L
1035.62 462.625 L
1042.04 351.665 L
1048.46 422.281 L
1054.88 291.146 L
1061.3 260.882 L
1067.72 553.416 L
1074.14 361.753 L
1080.56 321.409 L
1086.98 301.233 L
1093.4 321.409 L
1099.82 402.105 L
1106.24 402.105 L
1112.66 442.457 L
1119.08 291.146 L
1125.5 260.882 L
1131.92 331.497 L
1138.34 482.8 L
1144.76 381.929 L
1151.18 482.8 L
1157.6 442.457 L
1164.02 422.281 L
1170.44 402.105 L
1176.86 270.97 L
1183.28 472.713 L
1189.7 523.152 L
1196.12 311.321 L
1202.54 270.97 L
1208.96 291.146 L
1215.38 523.152 L
1221.8 351.665 L
1228.22 291.146 L
1234.64 392.017 L
1241.06 442.457 L
1247.48 331.497 L
1253.9 301.233 L
1260.32 543.328 L
1266.74 331.497 L
1273.16 351.665 L
1279.58 472.713 L
1286 432.369 L
1292.42 472.713 L
1298.84 301.233 L
1305.26 442.457 L
1311.68 371.841 L
1318.1 210.45 L
1324.52 220.53 L
1330.94 210.45 L
1337.36 422.281 L
1343.78 291.146 L
1350.2 432.369 L
1356.62 291.146 L
1363.04 321.409 L
1369.46 210.45 L
1375.88 432.369 L
1382.3 260.882 L
1388.72 432.369 L
1395.14 351.665 L
1401.56 351.665 L
1407.98 513.064 L
1414.4 371.841 L
1420.82 321.409 L
1427.24 371.841 L
1433.66 260.882 L
1440.08 402.105 L
1446.5 170.098 L
1452.92 170.098 L
1459.34 291.146 L
1465.76 260.882 L
1472.18 462.625 L
1478.6 301.233 L
1485.02 281.058 L
1491.44 381.929 L
1497.86 230.618 L
1504.28 422.281 L
1510.7 361.753 L
1517.12 402.105 L
1523.54 432.369 L
1529.96 371.841 L
1536.38 281.058 L
1542.8 361.753 L
1549.22 482.8 L
1555.64 371.841 L
1562.06 381.929 L
1568.48 452.545 L
1574.9 422.281 L
1581.32 311.321 L
1587.74 311.321 L
1594.16 190.274 L
1600.58 281.058 L
1607 402.105 L
1613.42 250.794 L
1619.84 270.97 L
1626.26 270.97 L
1632.68 270.97 L
1639.1 311.321 L
1645.52 230.618 L
1651.94 311.321 L
1658.36 603.848 L
1664.78 321.409 L
1671.2 281.058 L
1677.62 341.577 L
1684.04 422.281 L
1690.46 442.457 L
1696.88 432.369 L
1703.3 412.193 L
1709.72 371.841 L
1716.14 331.497 L
1722.56 250.794 L
1728.98 381.929 L
1735.4 432.369 L
1741.82 452.545 L
1748.24 432.369 L
1754.66 603.848 L
1761.08 523.152 L
1767.5 351.665 L
1773.92 331.497 L
1780.34 260.882 L
1786.76 331.497 L
1793.18 311.321 L
1799.6 392.017 L
1806.02 472.713 L
1812.44 452.545 L
1818.86 624.024 L
1825.28 482.8 L
1831.7 513.064 L
1838.12 301.233 L
1844.54 301.233 L
1850.96 472.713 L
1857.38 412.193 L
1863.8 291.146 L
1870.22 422.281 L
1876.64 513.064 L
1883.06 220.53 L
1889.48 99.482 L
1895.9 200.362 L
1902.32 492.888 L
1908.74 281.058 L
1915.16 482.8 L
1921.58 392.017 L
1928 381.929 L
1934.42 462.625 L
1940.84 190.274 L
1947.26 230.618 L
1953.68 200.362 L
1960.1 422.281 L
1966.52 200.362 L
1972.94 311.321 L
1979.36 543.328 L
1985.78 442.457 L
1992.2 492.888 L
1998.62 523.152 L
2005.04 160.01 L
2011.46 452.545 L
2017.88 402.105 L
2024.3 603.848 L
2030.72 472.713 L
2037.14 341.577 L
2043.56 331.497 L
2049.98 291.146 L
2056.4 361.753 L
2062.82 664.376 L
2069.24 402.105 L
2075.66 523.152 L
2082.08 392.017 L
2088.5 351.665 L
2094.92 311.321 L
2101.34 412.193 L
2107.76 462.625 L
2114.18 402.105 L
2120.6 230.618 L
2127.02 482.8 L
2133.44 412.193 L
2139.86 654.288 L
2146.28 462.625 L
2152.7 331.497 L
2159.12 381.929 L
2165.54 452.545 L
2171.96 200.362 L
2178.38 482.8 L
2184.8 311.321 L
2191.22 331.497 L
2197.64 361.753 L
2204.06 392.017 L
2210.48 260.882 L
2216.9 412.193 L
2223.32 624.024 L
2229.74 402.105 L
2236.16 220.53 L
2242.58 402.105 L
2249 260.882 L
S
GR
GS
[0.75 0 0 0.75 0 0] CT
1 GC
N
2236 167 M
2236 76 L
1787 76 L
1787 167 L
cp
f
GR
GS
[0.75 0 0 0.75 1375.5 74.72238] CT
/Helvetica 36 F
GS
[1 0 0 1 0 0] CT
0 12.5 moveto 
1 -1 scale
(Simulated UWB signal) t 
GR
GR
GS
[0.75 0 0 0.75 0 0] CT
0 0 1 RC
1 LJ
1.333 LW
N
1791 99.63 M
1831 99.63 L
S
GR
GS
[0.75 0 0 0.75 1375.5 107.52762] CT
/Helvetica 36 F
GS
[1 0 0 1 0 0] CT
0 12.5 moveto 
1 -1 scale
(Unfiltered UWB signal) t 
GR
GR
GS
[0.75 0 0 0.75 0 0] CT
1 0 0 RC
1 LJ
1.333 LW
N
1791 143.37 M
1831 143.37 L
S
GR
GS
[0.75 0 0 0.75 0 0] CT
0.149 GC
10.0 ML
0.667 LW
N
1787 167 M
1787 76 L
2236 76 L
2236 167 L
cp
S
GR
%%Trailer
%%Pages: 1
%%EOF
